(-3.0000000000000373, 7.55499999999947), (0.0, -3.5527136788004694e-14),8.881784197001252e-15
(-2.0000000000000373, 7.55499999999947), (0.0, -3.5527136788004694e-14),8.881784197001252e-15
(-1.0000000000000366, 7.55499999999947), (0.0, -3.5527136788004694e-14),8.881784197001252e-15
(-3.621025701505687e-14, 7.55499999999947), (0.0, -3.5527136788004694e-14),8.881784197001252e-15
(0.999999999999964, 7.55499999999947), (0.0, -3.5527136788004694e-14),8.881784197001252e-15
(1.9999999999999645, 7.55499999999947), (0.0, -3.5527136788004694e-14),8.881784197001252e-15
(2.9999999999999645, 7.55499999999947), (0.0, -3.5527136788004694e-14),8.881784197001252e-15
(-3.0000000000000373, 8.554999999999461), (0.0, 3.5527136788004694e-14),8.881784197001252e-15
(-2.0000000000000373, 8.554999999999461), (0.0, 3.5527136788004694e-14),8.881784197001252e-15
(-1.0000000000000366, 8.554999999999461), (0.0, 3.5527136788004694e-14),8.881784197001252e-15
(-3.621025701505687e-14, 8.554999999999461), (0.0, 3.5527136788004694e-14),8.881784197001252e-15
(0.999999999999964, 8.554999999999461), (0.0, 3.5527136788004694e-14),8.881784197001252e-15
(1.9999999999999645, 8.554999999999461), (0.0, 3.5527136788004694e-14),8.881784197001252e-15
(2.9999999999999645, 8.554999999999461), (0.0, 3.5527136788004694e-14),8.881784197001252e-15
(-3.0, 9.554999999999461), (0, 0),0
(-2.0, 9.554999999999461), (0, 0),0
(-1.0, 9.554999999999461), (0, 0),0
(0.0, 9.554999999999461), (0, 0),0
(1.0, 9.554999999999461), (0, 0),0
(2.0, 9.554999999999461), (0, 0),0
(3.0, 9.554999999999461), (0, 0),0
(-3.0, 10.554999999999461), (0, 0),0
(-2.0, 10.554999999999461), (0, 0),0
(-1.0, 10.554999999999461), (0, 0),0
(0.0, 10.554999999999461), (0, 0),0
(1.0, 10.554999999999461), (0, 0),0
(2.0, 10.554999999999461), (0, 0),0
(3.0, 10.554999999999461), (0, 0),0
(-3.0, 11.554999999999461), (0, 0),0
(-2.0, 11.554999999999461), (0, 0),0
(-1.0, 11.554999999999461), (0, 0),0
(0.0, 11.554999999999461), (0, 0),0
(1.0, 11.554999999999461), (0, 0),0
(2.0, 11.554999999999461), (0, 0),0
(3.0, 11.554999999999461), (0, 0),0
(-3.0, 12.554999999999461), (0, 0),0
(-2.0, 12.554999999999461), (0, 0),0
(-1.0, 12.554999999999461), (0, 0),0
(0.0, 12.554999999999461), (0, 0),0
(1.0, 12.554999999999461), (0, 0),0
(2.0, 12.554999999999461), (0, 0),0
(3.0, 12.554999999999461), (0, 0),0
(-3.0, 13.554999999999817), (0, 0),0
(-2.0, 13.554999999999817), (0, 0),0
(-1.0, 13.554999999999817), (0, 0),0
(0.0, 13.554999999999817), (0, 0),0
(1.0, 13.554999999999817), (0, 0),0
(2.0, 13.554999999999817), (0, 0),0
(3.0, 13.554999999999817), (0, 0),0
(-3.0, 14.555000000000172), (0, 0),0
(-2.0, 14.555000000000172), (0, 0),0
(-1.0, 14.555000000000172), (0, 0),0
(0.0, 14.555000000000172), (0, 0),0
(1.0, 14.555000000000172), (0, 0),0
(2.0, 14.555000000000172), (0, 0),0
(3.0, 14.555000000000172), (0, 0),0
(-3.0, 15.555000000000527), (0, 0),0
(-2.0, 15.555000000000527), (0, 0),0
(-1.0, 15.555000000000527), (0, 0),0
(0.0, 15.555000000000527), (0, 0),0
(1.0, 15.555000000000527), (0, 0),0
(2.0, 15.555000000000527), (0, 0),0
(3.0, 15.555000000000527), (0, 0),0
