(-1.2076253850086647, 3.8454971904057564), (0, 0),0
(-1.997384685007448, 5.592513119613909), (-0.0013537618248930215, -0.0002828258824488187),0.001357449723260462
(-1.0001014695072692, 5.644600846621857), (-9.052786869118623e-05, 0.00013790976155086824),0.0028042870740697667
(-0.0018623151363039697, 5.669641000723645), (-9.615152057707889e-05, 0.00027653162409263944),0.0029900113247535165
(0.9963668153252858, 5.648318793147416), (0.0003693113981034007, 0.00010476310780818036),0.0027171720576787406
(1.9939236531801494, 5.597982550210174), (0.001171129816057886, -0.00023637861100286934),0.0011739980837345287
(1.2052397400879222, 3.8475409224434904), (0, 0),0
(-3.0000000000001714, 7.01999999999923), (-2.1851447074622027e-27, -3.5527136788004694e-14),8.881784197001252e-15
(-2.000000000000171, 7.01999999999923), (-2.1871168597252552e-27, -3.5527136788004694e-14),8.881784197001252e-15
(-1.00000000000017, 7.01999999999923), (-2.182186479067624e-27, -3.5527136788004694e-14),8.881784197001252e-15
(-1.6948142889106067e-13, 7.01999999999923), (-2.1786908391813636e-27, -3.5527136788004694e-14),8.881784197001252e-15
(0.9999999999998308, 7.01999999999923), (-2.179228250673045e-27, -3.5527136788004694e-14),8.881784197001252e-15
(1.9999999999998315, 7.01999999999923), (-2.18317255519915e-27, -3.5527136788004694e-14),8.881784197001252e-15
(2.999999999999832, 7.01999999999923), (-2.1772560984099926e-27, -3.5527136788004694e-14),8.881784197001252e-15
(-2.9999999999999254, 8.019999999999222), (2.1851447074622027e-27, 3.5527136788004694e-14),8.881784197001252e-15
(-1.9999999999999247, 8.019999999999222), (2.1871168597252552e-27, 3.5527136788004694e-14),8.881784197001252e-15
(-0.9999999999999244, 8.019999999999222), (2.182186479067624e-27, 3.5527136788004694e-14),8.881784197001252e-15
(7.581735239625691e-14, 8.019999999999222), (2.1786908391813636e-27, 3.5527136788004694e-14),8.881784197001252e-15
(1.0000000000000762, 8.019999999999222), (2.179228250673045e-27, 3.5527136788004694e-14),8.881784197001252e-15
(2.0000000000000773, 8.019999999999222), (2.18317255519915e-27, 3.5527136788004694e-14),8.881784197001252e-15
(3.0000000000000773, 8.019999999999222), (2.1772560984099926e-27, 3.5527136788004694e-14),8.881784197001252e-15
(-3.0, 9.019999999999222), (0, 0),0
(-2.0, 9.019999999999222), (0, 0),0
(-1.0, 9.019999999999222), (0, 0),0
(0.0, 9.019999999999222), (0, 0),0
(1.0, 9.019999999999222), (0, 0),0
(2.0, 9.019999999999222), (0, 0),0
(3.0, 9.019999999999222), (0, 0),0
(-3.0, 10.019999999999222), (0, 0),0
(-2.0, 10.019999999999222), (0, 0),0
(-1.0, 10.019999999999222), (0, 0),0
(0.0, 10.019999999999222), (0, 0),0
(1.0, 10.019999999999222), (0, 0),0
(2.0, 10.019999999999222), (0, 0),0
(3.0, 10.019999999999222), (0, 0),0
(-3.0, 11.019999999999222), (0, 0),0
(-2.0, 11.019999999999222), (0, 0),0
(-1.0, 11.019999999999222), (0, 0),0
(0.0, 11.019999999999222), (0, 0),0
(1.0, 11.019999999999222), (0, 0),0
(2.0, 11.019999999999222), (0, 0),0
(3.0, 11.019999999999222), (0, 0),0
(-3.0, 12.019999999999577), (0, 0),0
(-2.0, 12.019999999999577), (0, 0),0
(-1.0, 12.019999999999577), (0, 0),0
(0.0, 12.019999999999577), (0, 0),0
(1.0, 12.019999999999577), (0, 0),0
(2.0, 12.019999999999577), (0, 0),0
(3.0, 12.019999999999577), (0, 0),0
(-3.0, 13.019999999999932), (0, 0),0
(-2.0, 13.019999999999932), (0, 0),0
(-1.0, 13.019999999999932), (0, 0),0
(0.0, 13.019999999999932), (0, 0),0
(1.0, 13.019999999999932), (0, 0),0
(2.0, 13.019999999999932), (0, 0),0
(3.0, 13.019999999999932), (0, 0),0
(-3.0, 14.020000000000287), (0, 0),0
(-2.0, 14.020000000000287), (0, 0),0
(-1.0, 14.020000000000287), (0, 0),0
(0.0, 14.020000000000287), (0, 0),0
(1.0, 14.020000000000287), (0, 0),0
(2.0, 14.020000000000287), (0, 0),0
(3.0, 14.020000000000287), (0, 0),0
