(-3.0, 10.889999999999983), (0, 0),0
(-2.0, 10.889999999999983), (0, 0),0
(-1.0, 10.889999999999983), (0, 0),0
(0.0, 10.889999999999983), (0, 0),0
(1.0, 10.889999999999983), (0, 0),0
(2.0, 10.889999999999983), (0, 0),0
(3.0, 10.889999999999983), (0, 0),0
(-3.0, 11.889999999999983), (0, 0),0
(-2.0, 11.889999999999983), (0, 0),0
(-1.0, 11.889999999999983), (0, 0),0
(0.0, 11.889999999999983), (0, 0),0
(1.0, 11.889999999999983), (0, 0),0
(2.0, 11.889999999999983), (0, 0),0
(3.0, 11.889999999999983), (0, 0),0
(-3.0, 12.889999999999983), (0, 0),0
(-2.0, 12.889999999999983), (0, 0),0
(-1.0, 12.889999999999983), (0, 0),0
(0.0, 12.889999999999983), (0, 0),0
(1.0, 12.889999999999983), (0, 0),0
(2.0, 12.889999999999983), (0, 0),0
(3.0, 12.889999999999983), (0, 0),0
(-3.0, 13.889999999999983), (0, 0),0
(-2.0, 13.889999999999983), (0, 0),0
(-1.0, 13.889999999999983), (0, 0),0
(0.0, 13.889999999999983), (0, 0),0
(1.0, 13.889999999999983), (0, 0),0
(2.0, 13.889999999999983), (0, 0),0
(3.0, 13.889999999999983), (0, 0),0
(-3.0, 14.889999999999983), (0, 0),0
(-2.0, 14.889999999999983), (0, 0),0
(-1.0, 14.889999999999983), (0, 0),0
(0.0, 14.889999999999983), (0, 0),0
(1.0, 14.889999999999983), (0, 0),0
(2.0, 14.889999999999983), (0, 0),0
(3.0, 14.889999999999983), (0, 0),0
(-3.0, 15.889999999999983), (0, 0),0
(-2.0, 15.889999999999983), (0, 0),0
(-1.0, 15.889999999999983), (0, 0),0
(0.0, 15.889999999999983), (0, 0),0
(1.0, 15.889999999999983), (0, 0),0
(2.0, 15.889999999999983), (0, 0),0
(3.0, 15.889999999999983), (0, 0),0
(-3.0, 16.890000000000022), (0, 0),0
(-2.0, 16.890000000000022), (0, 0),0
(-1.0, 16.890000000000022), (0, 0),0
(0.0, 16.890000000000022), (0, 0),0
(1.0, 16.890000000000022), (0, 0),0
(2.0, 16.890000000000022), (0, 0),0
(3.0, 16.890000000000022), (0, 0),0
(-3.0, 17.890000000000022), (0, 0),0
(-2.0, 17.890000000000022), (0, 0),0
(-1.0, 17.890000000000022), (0, 0),0
(0.0, 17.890000000000022), (0, 0),0
(1.0, 17.890000000000022), (0, 0),0
(2.0, 17.890000000000022), (0, 0),0
(3.0, 17.890000000000022), (0, 0),0
(-3.0, 18.890000000000022), (0, 0),0
(-2.0, 18.890000000000022), (0, 0),0
(-1.0, 18.890000000000022), (0, 0),0
(0.0, 18.890000000000022), (0, 0),0
(1.0, 18.890000000000022), (0, 0),0
(2.0, 18.890000000000022), (0, 0),0
(3.0, 18.890000000000022), (0, 0),0
