(-3.000000000000014, 7.814999999999511), (0.0, -3.5527136788004694e-14),8.881784197001252e-15
(-2.000000000000014, 7.814999999999511), (0.0, -3.5527136788004694e-14),8.881784197001252e-15
(-1.0000000000000135, 7.814999999999511), (0.0, -3.5527136788004694e-14),8.881784197001252e-15
(-1.3117618102853611e-14, 7.814999999999511), (0.0, -3.5527136788004694e-14),8.881784197001252e-15
(0.9999999999999871, 7.814999999999511), (0.0, -3.5527136788004694e-14),8.881784197001252e-15
(1.9999999999999876, 7.814999999999511), (0.0, -3.5527136788004694e-14),8.881784197001252e-15
(2.9999999999999876, 7.814999999999511), (0.0, -3.5527136788004694e-14),8.881784197001252e-15
(-3.000000000000014, 8.814999999999502), (0.0, 3.5527136788004694e-14),8.881784197001252e-15
(-2.000000000000014, 8.814999999999502), (0.0, 3.5527136788004694e-14),8.881784197001252e-15
(-1.0000000000000135, 8.814999999999502), (0.0, 3.5527136788004694e-14),8.881784197001252e-15
(-1.3117618102853611e-14, 8.814999999999502), (0.0, 3.5527136788004694e-14),8.881784197001252e-15
(0.9999999999999871, 8.814999999999502), (0.0, 3.5527136788004694e-14),8.881784197001252e-15
(1.9999999999999876, 8.814999999999502), (0.0, 3.5527136788004694e-14),8.881784197001252e-15
(2.9999999999999876, 8.814999999999502), (0.0, 3.5527136788004694e-14),8.881784197001252e-15
(-3.0, 9.814999999999502), (0, 0),0
(-2.0, 9.814999999999502), (0, 0),0
(-1.0, 9.814999999999502), (0, 0),0
(0.0, 9.814999999999502), (0, 0),0
(1.0, 9.814999999999502), (0, 0),0
(2.0, 9.814999999999502), (0, 0),0
(3.0, 9.814999999999502), (0, 0),0
(-3.0, 10.814999999999502), (0, 0),0
(-2.0, 10.814999999999502), (0, 0),0
(-1.0, 10.814999999999502), (0, 0),0
(0.0, 10.814999999999502), (0, 0),0
(1.0, 10.814999999999502), (0, 0),0
(2.0, 10.814999999999502), (0, 0),0
(3.0, 10.814999999999502), (0, 0),0
(-3.0, 11.814999999999502), (0, 0),0
(-2.0, 11.814999999999502), (0, 0),0
(-1.0, 11.814999999999502), (0, 0),0
(0.0, 11.814999999999502), (0, 0),0
(1.0, 11.814999999999502), (0, 0),0
(2.0, 11.814999999999502), (0, 0),0
(3.0, 11.814999999999502), (0, 0),0
(-3.0, 12.814999999999502), (0, 0),0
(-2.0, 12.814999999999502), (0, 0),0
(-1.0, 12.814999999999502), (0, 0),0
(0.0, 12.814999999999502), (0, 0),0
(1.0, 12.814999999999502), (0, 0),0
(2.0, 12.814999999999502), (0, 0),0
(3.0, 12.814999999999502), (0, 0),0
(-3.0, 13.814999999999857), (0, 0),0
(-2.0, 13.814999999999857), (0, 0),0
(-1.0, 13.814999999999857), (0, 0),0
(0.0, 13.814999999999857), (0, 0),0
(1.0, 13.814999999999857), (0, 0),0
(2.0, 13.814999999999857), (0, 0),0
(3.0, 13.814999999999857), (0, 0),0
(-3.0, 14.815000000000213), (0, 0),0
(-2.0, 14.815000000000213), (0, 0),0
(-1.0, 14.815000000000213), (0, 0),0
(0.0, 14.815000000000213), (0, 0),0
(1.0, 14.815000000000213), (0, 0),0
(2.0, 14.815000000000213), (0, 0),0
(3.0, 14.815000000000213), (0, 0),0
(-3.0, 15.815000000000568), (0, 0),0
(-2.0, 15.815000000000568), (0, 0),0
(-1.0, 15.815000000000568), (0, 0),0
(0.0, 15.815000000000568), (0, 0),0
(1.0, 15.815000000000568), (0, 0),0
(2.0, 15.815000000000568), (0, 0),0
(3.0, 15.815000000000568), (0, 0),0
