(-1.234109735680482, -2.949155361644638), (-0.0002527359601349011, -0.011885302670461732),0.0038526775946167158
(0.5696735607822538, -2.2198929273736976), (7.5901744412949e-05, 0.0002515947352968186),0.0024006014930292308
(-1.001485640483027, 4.32549172816372), (-5.825877391370836e-06, -9.455144767587637e-08),5.825959286998028e-06
(-0.0014996975031944867, 4.329549062030045), (-6.996496886834665e-07, 1.286598926512741e-07),1.235153452150417e-05
(0.9984929231547385, 4.328242340256498), (6.525527080054303e-06, -3.4108444975397726e-08),6.525575234506142e-06
(-1.6624151329776287, -2.048094847528796), (-0.0009957761707503991, 0.008379577694073916),0.002324920902314842
(-0.41689051669335075, -2.375483357121173), (2.2961602763227297e-05, 0.002732601617444215),0.002769997876734598
(-0.02549673762297955, -0.4923336939480243), (0, 0),0
(-1.997923274621324, 5.534713789753857), (-0.0005516624852504077, 6.398620559993688e-05),0.0005521992864886416
(-0.9988953896735677, 5.5057449884689005), (2.159098945951057e-05, -0.00011309478588741089),0.0010826943655676269
(0.0003061424333398074, 5.528887795171619), (-6.747771106981385e-05, 0.00011171137285196504),0.001128606946081523
(0.9993654151666391, 5.502720954143106), (5.806204854104087e-05, -0.00013095547771318602),0.0011381612433792876
(1.9983243658076864, 5.534362822525253), (0.0005394871583196702, 6.8352685148695e-05),0.00054004937637675
(1.562152995011196, -2.107335414012704), (0.001149648783709124, 0.0005215286236467835),0.0011583603085965066
(-2.6344856927071794, 6.3520184175899095), (-0.11419894919843336, -0.2553364973634583),0.1547882945482123
(-1.8967105945852505, 6.764414745924556), (0.04405708976772063, 0.23184100013441303),0.230980999920265
(-0.9761256240397551, 6.841507090638908), (0.04594081619385733, 0.02188446230741725),0.10101315446689896
(-0.001081089415258002, 6.857733981976287), (0.0020207726153716223, 0.0030881052149127385),0.04751901842299244
(0.9760849293249755, 6.8414656626834365), (-0.047932164893345265, 0.021995637304232374),0.09885612260860055
(1.896708459031033, 6.764412545210382), (-0.04408628626442575, 0.2318611459066029),0.23094509320692858
(2.63448568472698, 6.352018476499479), (0.11419872177925479, -0.25533385350411997),0.1547875399264742
(-3.000000000000089, 7.86499999999905), (-7.928052097471169e-28, -3.5527136788004694e-14),8.881784197001252e-15
(-2.000000000000089, 7.86499999999905), (-7.908330574840643e-28, -3.5527136788004694e-14),8.881784197001252e-15
(-1.0000000000000875, 7.864999999999049), (-7.037625350702952e-28, -3.1974423109204256e-14),7.993605777301127e-15
(-8.717471189356733e-14, 7.864999999999048), (-6.258049338336394e-28, -2.8421709430403805e-14),7.105427357601002e-15
(0.9999999999999131, 7.864999999999049), (-7.037625350702952e-28, -3.1974423109204256e-14),7.993605777301127e-15
(1.9999999999999134, 7.86499999999905), (-7.888609052210118e-28, -3.5527136788004694e-14),8.881784197001252e-15
(2.9999999999999143, 7.86499999999905), (-7.809722961688017e-28, -3.5527136788004694e-14),8.881784197001252e-15
(-2.9999999999999996, 8.864999999999041), (-2.2204460492423845e-16, 3.5527136788004694e-14),9.103828801926284e-15
(-1.9999999999999998, 8.864999999999041), (2.220446049258221e-16, 3.5527136788004694e-14),9.103828801926284e-15
(-0.9999999999999994, 8.864999999999041), (7.037625350702952e-28, 3.1974423109204256e-14),7.993605777301127e-15
(8.99502694551304e-16, 8.864999999999041), (6.258049338336394e-28, 2.8421709430403805e-14),7.105427357601002e-15
(1.000000000000001, 8.864999999999041), (7.037625350702952e-28, 3.1974423109204256e-14),7.993605777301127e-15
(2.000000000000002, 8.864999999999041), (7.888609052210118e-28, 3.5527136788004694e-14),8.881784197001252e-15
(3.000000000000002, 8.864999999999041), (7.809722961688017e-28, 3.5527136788004694e-14),8.881784197001252e-15
(-3.0, 9.864999999999041), (0, 0),0
(-2.0, 9.864999999999041), (0, 0),0
(-1.0, 9.864999999999041), (0, 0),0
(0.0, 9.864999999999041), (0, 0),0
(1.0, 9.864999999999041), (0, 0),0
(2.0, 9.864999999999041), (0, 0),0
(3.0, 9.864999999999041), (0, 0),0
(-3.0, 10.864999999999396), (0, 0),0
(-2.0, 10.864999999999396), (0, 0),0
(-1.0, 10.864999999999396), (0, 0),0
(0.0, 10.864999999999396), (0, 0),0
(1.0, 10.864999999999396), (0, 0),0
(2.0, 10.864999999999396), (0, 0),0
(3.0, 10.864999999999396), (0, 0),0
(-3.0, 11.864999999999752), (0, 0),0
(-2.0, 11.864999999999752), (0, 0),0
(-1.0, 11.864999999999752), (0, 0),0
(0.0, 11.864999999999752), (0, 0),0
(1.0, 11.864999999999752), (0, 0),0
(2.0, 11.864999999999752), (0, 0),0
(3.0, 11.864999999999752), (0, 0),0
(-3.0, 12.865000000000107), (0, 0),0
(-2.0, 12.865000000000107), (0, 0),0
(-1.0, 12.865000000000107), (0, 0),0
(0.0, 12.865000000000107), (0, 0),0
(1.0, 12.865000000000107), (0, 0),0
(2.0, 12.865000000000107), (0, 0),0
(3.0, 12.865000000000107), (0, 0),0
