(-0.9456649896404264, -2.1584311915470242), (-0.055600862507021134, -0.6167889166208024),0.2488842116561022
(0.531482392194495, -1.4537248543110508), (-0.008450476397291087, 0.06144357395406354),0.20868525287714856
(-1.0005221455552398, 4.811436684467278), (-0.0010139239976415452, -2.0378771751601465e-05),0.0010149669552056428
(-0.0015497234076501376, 4.816456249795755), (7.767773413867168e-05, 2.8815590648861012e-05),0.0019520938012721478
(0.9975106145099674, 4.814205535569428), (0.0009362462635028736, -8.43681889725955e-06),0.000937126846066505
(-1.5496528297663792, -1.4586933666363577), (-0.04568795166653261, 0.21172338778937275),0.07564382696347838
(-0.36099292051943005, -1.5738886070478506), (0.0125129223908262, 0.3572540357527948),0.27271192246857556
(-0.02549673762297955, -0.007333693948023946), (0, 0),0
(-1.9859540750734332, 6.031427940599747), (-0.006143876274859076, 0.00040479791954214445),0.006182938404384664
(-0.9922718041159685, 6.015060402502688), (-0.001314237823684377, -0.0011261791370368087),0.013699734886357895
(-7.863826007637191e-05, 6.039052711567616), (0.0004509283321939058, 0.0014765740322482583),0.014576362705618018
(0.9925015776291379, 6.012309113206565), (0.0009541055108614298, -0.0012153797306582608),0.013150843344360563
(1.9862308293984006, 6.031196240929733), (0.006053080255488117, 0.0004601869159046668),0.006091277120715777
(1.4217219384816002, -1.484929911438714), (0.09722636818001863, -0.013632080875428717),0.10921371510119682
(-2.9999999999998685, 7.349999999999126), (1.5934990285464438e-27, -3.5527136788004694e-14),8.881784197001252e-15
(-1.9999999999998677, 7.349999999999126), (1.601387637598654e-27, -3.5527136788004694e-14),8.881784197001252e-15
(-0.9999999999998673, 7.349999999999126), (1.5944851046779701e-27, -3.5527136788004694e-14),8.881784197001252e-15
(1.3278267374516877e-13, 7.349999999999126), (1.592416316954029e-27, -3.5527136788004694e-14),8.881784197001252e-15
(1.0000000000001332, 7.349999999999126), (1.5944851046779701e-27, -3.5527136788004694e-14),8.881784197001252e-15
(2.0000000000001346, 7.349999999999126), (1.6033597898617065e-27, -3.5527136788004694e-14),8.881784197001252e-15
(3.0000000000001346, 7.349999999999126), (1.5974433330725489e-27, -3.5527136788004694e-14),8.881784197001252e-15
(-3.000000000000048, 8.349999999999117), (-1.5934990285464438e-27, 3.5527136788004694e-14),8.881784197001252e-15
(-2.000000000000048, 8.349999999999117), (-1.601387637598654e-27, 3.5527136788004694e-14),8.881784197001252e-15
(-1.0000000000000469, 8.349999999999117), (-1.5944851046779701e-27, 3.5527136788004694e-14),8.881784197001252e-15
(-4.6507464546152775e-14, 8.349999999999117), (-1.592416316954029e-27, 3.5527136788004694e-14),8.881784197001252e-15
(0.9999999999999537, 8.349999999999117), (-1.5944851046779701e-27, 3.5527136788004694e-14),8.881784197001252e-15
(1.999999999999954, 8.349999999999117), (-1.6033597898617065e-27, 3.5527136788004694e-14),8.881784197001252e-15
(2.9999999999999547, 8.349999999999117), (-1.5974433330725489e-27, 3.5527136788004694e-14),8.881784197001252e-15
(-3.0, 9.349999999999117), (0, 0),0
(-2.0, 9.349999999999117), (0, 0),0
(-1.0, 9.349999999999117), (0, 0),0
(0.0, 9.349999999999117), (0, 0),0
(1.0, 9.349999999999117), (0, 0),0
(2.0, 9.349999999999117), (0, 0),0
(3.0, 9.349999999999117), (0, 0),0
(-3.0, 10.349999999999117), (0, 0),0
(-2.0, 10.349999999999117), (0, 0),0
(-1.0, 10.349999999999117), (0, 0),0
(0.0, 10.349999999999117), (0, 0),0
(1.0, 10.349999999999117), (0, 0),0
(2.0, 10.349999999999117), (0, 0),0
(3.0, 10.349999999999117), (0, 0),0
(-3.0, 11.349999999999472), (0, 0),0
(-2.0, 11.349999999999472), (0, 0),0
(-1.0, 11.349999999999472), (0, 0),0
(0.0, 11.349999999999472), (0, 0),0
(1.0, 11.349999999999472), (0, 0),0
(2.0, 11.349999999999472), (0, 0),0
(3.0, 11.349999999999472), (0, 0),0
(-3.0, 12.349999999999827), (0, 0),0
(-2.0, 12.349999999999827), (0, 0),0
(-1.0, 12.349999999999827), (0, 0),0
(0.0, 12.349999999999827), (0, 0),0
(1.0, 12.349999999999827), (0, 0),0
(2.0, 12.349999999999827), (0, 0),0
(3.0, 12.349999999999827), (0, 0),0
(-3.0, 13.350000000000183), (0, 0),0
(-2.0, 13.350000000000183), (0, 0),0
(-1.0, 13.350000000000183), (0, 0),0
(0.0, 13.350000000000183), (0, 0),0
(1.0, 13.350000000000183), (0, 0),0
(2.0, 13.350000000000183), (0, 0),0
(3.0, 13.350000000000183), (0, 0),0
