(-3.0, 10.309999999999892), (0, 0),0
(-2.0, 10.309999999999892), (0, 0),0
(-1.0, 10.309999999999892), (0, 0),0
(0.0, 10.309999999999892), (0, 0),0
(1.0, 10.309999999999892), (0, 0),0
(2.0, 10.309999999999892), (0, 0),0
(3.0, 10.309999999999892), (0, 0),0
(-3.0, 11.309999999999892), (0, 0),0
(-2.0, 11.309999999999892), (0, 0),0
(-1.0, 11.309999999999892), (0, 0),0
(0.0, 11.309999999999892), (0, 0),0
(1.0, 11.309999999999892), (0, 0),0
(2.0, 11.309999999999892), (0, 0),0
(3.0, 11.309999999999892), (0, 0),0
(-3.0, 12.309999999999892), (0, 0),0
(-2.0, 12.309999999999892), (0, 0),0
(-1.0, 12.309999999999892), (0, 0),0
(0.0, 12.309999999999892), (0, 0),0
(1.0, 12.309999999999892), (0, 0),0
(2.0, 12.309999999999892), (0, 0),0
(3.0, 12.309999999999892), (0, 0),0
(-3.0, 13.309999999999892), (0, 0),0
(-2.0, 13.309999999999892), (0, 0),0
(-1.0, 13.309999999999892), (0, 0),0
(0.0, 13.309999999999892), (0, 0),0
(1.0, 13.309999999999892), (0, 0),0
(2.0, 13.309999999999892), (0, 0),0
(3.0, 13.309999999999892), (0, 0),0
(-3.0, 14.309999999999892), (0, 0),0
(-2.0, 14.309999999999892), (0, 0),0
(-1.0, 14.309999999999892), (0, 0),0
(0.0, 14.309999999999892), (0, 0),0
(1.0, 14.309999999999892), (0, 0),0
(2.0, 14.309999999999892), (0, 0),0
(3.0, 14.309999999999892), (0, 0),0
(-3.0, 15.309999999999892), (0, 0),0
(-2.0, 15.309999999999892), (0, 0),0
(-1.0, 15.309999999999892), (0, 0),0
(0.0, 15.309999999999892), (0, 0),0
(1.0, 15.309999999999892), (0, 0),0
(2.0, 15.309999999999892), (0, 0),0
(3.0, 15.309999999999892), (0, 0),0
(-3.0, 16.310000000000137), (0, 0),0
(-2.0, 16.310000000000137), (0, 0),0
(-1.0, 16.310000000000137), (0, 0),0
(0.0, 16.310000000000137), (0, 0),0
(1.0, 16.310000000000137), (0, 0),0
(2.0, 16.310000000000137), (0, 0),0
(3.0, 16.310000000000137), (0, 0),0
(-3.0, 17.310000000000137), (0, 0),0
(-2.0, 17.310000000000137), (0, 0),0
(-1.0, 17.310000000000137), (0, 0),0
(0.0, 17.310000000000137), (0, 0),0
(1.0, 17.310000000000137), (0, 0),0
(2.0, 17.310000000000137), (0, 0),0
(3.0, 17.310000000000137), (0, 0),0
(-3.0, 18.310000000000137), (0, 0),0
(-2.0, 18.310000000000137), (0, 0),0
(-1.0, 18.310000000000137), (0, 0),0
(0.0, 18.310000000000137), (0, 0),0
(1.0, 18.310000000000137), (0, 0),0
(2.0, 18.310000000000137), (0, 0),0
(3.0, 18.310000000000137), (0, 0),0
