(-3.0, 10.919999999999987), (0, 0),0
(-2.0, 10.919999999999987), (0, 0),0
(-1.0, 10.919999999999987), (0, 0),0
(0.0, 10.919999999999987), (0, 0),0
(1.0, 10.919999999999987), (0, 0),0
(2.0, 10.919999999999987), (0, 0),0
(3.0, 10.919999999999987), (0, 0),0
(-3.0, 11.919999999999987), (0, 0),0
(-2.0, 11.919999999999987), (0, 0),0
(-1.0, 11.919999999999987), (0, 0),0
(0.0, 11.919999999999987), (0, 0),0
(1.0, 11.919999999999987), (0, 0),0
(2.0, 11.919999999999987), (0, 0),0
(3.0, 11.919999999999987), (0, 0),0
(-3.0, 12.919999999999987), (0, 0),0
(-2.0, 12.919999999999987), (0, 0),0
(-1.0, 12.919999999999987), (0, 0),0
(0.0, 12.919999999999987), (0, 0),0
(1.0, 12.919999999999987), (0, 0),0
(2.0, 12.919999999999987), (0, 0),0
(3.0, 12.919999999999987), (0, 0),0
(-3.0, 13.919999999999987), (0, 0),0
(-2.0, 13.919999999999987), (0, 0),0
(-1.0, 13.919999999999987), (0, 0),0
(0.0, 13.919999999999987), (0, 0),0
(1.0, 13.919999999999987), (0, 0),0
(2.0, 13.919999999999987), (0, 0),0
(3.0, 13.919999999999987), (0, 0),0
(-3.0, 14.919999999999987), (0, 0),0
(-2.0, 14.919999999999987), (0, 0),0
(-1.0, 14.919999999999987), (0, 0),0
(0.0, 14.919999999999987), (0, 0),0
(1.0, 14.919999999999987), (0, 0),0
(2.0, 14.919999999999987), (0, 0),0
(3.0, 14.919999999999987), (0, 0),0
(-3.0, 15.919999999999987), (0, 0),0
(-2.0, 15.919999999999987), (0, 0),0
(-1.0, 15.919999999999987), (0, 0),0
(0.0, 15.919999999999987), (0, 0),0
(1.0, 15.919999999999987), (0, 0),0
(2.0, 15.919999999999987), (0, 0),0
(3.0, 15.919999999999987), (0, 0),0
(-3.0, 16.920000000000016), (0, 0),0
(-2.0, 16.920000000000016), (0, 0),0
(-1.0, 16.920000000000016), (0, 0),0
(0.0, 16.920000000000016), (0, 0),0
(1.0, 16.920000000000016), (0, 0),0
(2.0, 16.920000000000016), (0, 0),0
(3.0, 16.920000000000016), (0, 0),0
(-3.0, 17.920000000000016), (0, 0),0
(-2.0, 17.920000000000016), (0, 0),0
(-1.0, 17.920000000000016), (0, 0),0
(0.0, 17.920000000000016), (0, 0),0
(1.0, 17.920000000000016), (0, 0),0
(2.0, 17.920000000000016), (0, 0),0
(3.0, 17.920000000000016), (0, 0),0
(-3.0, 18.920000000000016), (0, 0),0
(-2.0, 18.920000000000016), (0, 0),0
(-1.0, 18.920000000000016), (0, 0),0
(0.0, 18.920000000000016), (0, 0),0
(1.0, 18.920000000000016), (0, 0),0
(2.0, 18.920000000000016), (0, 0),0
(3.0, 18.920000000000016), (0, 0),0
