(-3.0, 9.699999999999797), (0, 0),0
(-2.0, 9.699999999999797), (0, 0),0
(-1.0, 9.699999999999797), (0, 0),0
(0.0, 9.699999999999797), (0, 0),0
(1.0, 9.699999999999797), (0, 0),0
(2.0, 9.699999999999797), (0, 0),0
(3.0, 9.699999999999797), (0, 0),0
(-3.0, 10.699999999999797), (0, 0),0
(-2.0, 10.699999999999797), (0, 0),0
(-1.0, 10.699999999999797), (0, 0),0
(0.0, 10.699999999999797), (0, 0),0
(1.0, 10.699999999999797), (0, 0),0
(2.0, 10.699999999999797), (0, 0),0
(3.0, 10.699999999999797), (0, 0),0
(-3.0, 11.699999999999797), (0, 0),0
(-2.0, 11.699999999999797), (0, 0),0
(-1.0, 11.699999999999797), (0, 0),0
(0.0, 11.699999999999797), (0, 0),0
(1.0, 11.699999999999797), (0, 0),0
(2.0, 11.699999999999797), (0, 0),0
(3.0, 11.699999999999797), (0, 0),0
(-3.0, 12.699999999999797), (0, 0),0
(-2.0, 12.699999999999797), (0, 0),0
(-1.0, 12.699999999999797), (0, 0),0
(0.0, 12.699999999999797), (0, 0),0
(1.0, 12.699999999999797), (0, 0),0
(2.0, 12.699999999999797), (0, 0),0
(3.0, 12.699999999999797), (0, 0),0
(-3.0, 13.699999999999797), (0, 0),0
(-2.0, 13.699999999999797), (0, 0),0
(-1.0, 13.699999999999797), (0, 0),0
(0.0, 13.699999999999797), (0, 0),0
(1.0, 13.699999999999797), (0, 0),0
(2.0, 13.699999999999797), (0, 0),0
(3.0, 13.699999999999797), (0, 0),0
(-3.0, 14.699999999999797), (0, 0),0
(-2.0, 14.699999999999797), (0, 0),0
(-1.0, 14.699999999999797), (0, 0),0
(0.0, 14.699999999999797), (0, 0),0
(1.0, 14.699999999999797), (0, 0),0
(2.0, 14.699999999999797), (0, 0),0
(3.0, 14.699999999999797), (0, 0),0
(-3.0, 15.700000000000152), (0, 0),0
(-2.0, 15.700000000000152), (0, 0),0
(-1.0, 15.700000000000152), (0, 0),0
(0.0, 15.700000000000152), (0, 0),0
(1.0, 15.700000000000152), (0, 0),0
(2.0, 15.700000000000152), (0, 0),0
(3.0, 15.700000000000152), (0, 0),0
(-3.0, 16.70000000000026), (0, 0),0
(-2.0, 16.70000000000026), (0, 0),0
(-1.0, 16.70000000000026), (0, 0),0
(0.0, 16.70000000000026), (0, 0),0
(1.0, 16.70000000000026), (0, 0),0
(2.0, 16.70000000000026), (0, 0),0
(3.0, 16.70000000000026), (0, 0),0
(-3.0, 17.70000000000026), (0, 0),0
(-2.0, 17.70000000000026), (0, 0),0
(-1.0, 17.70000000000026), (0, 0),0
(0.0, 17.70000000000026), (0, 0),0
(1.0, 17.70000000000026), (0, 0),0
(2.0, 17.70000000000026), (0, 0),0
(3.0, 17.70000000000026), (0, 0),0
