(-3.0, 10.329999999999895), (0, 0),0
(-2.0, 10.329999999999895), (0, 0),0
(-1.0, 10.329999999999895), (0, 0),0
(0.0, 10.329999999999895), (0, 0),0
(1.0, 10.329999999999895), (0, 0),0
(2.0, 10.329999999999895), (0, 0),0
(3.0, 10.329999999999895), (0, 0),0
(-3.0, 11.329999999999895), (0, 0),0
(-2.0, 11.329999999999895), (0, 0),0
(-1.0, 11.329999999999895), (0, 0),0
(0.0, 11.329999999999895), (0, 0),0
(1.0, 11.329999999999895), (0, 0),0
(2.0, 11.329999999999895), (0, 0),0
(3.0, 11.329999999999895), (0, 0),0
(-3.0, 12.329999999999895), (0, 0),0
(-2.0, 12.329999999999895), (0, 0),0
(-1.0, 12.329999999999895), (0, 0),0
(0.0, 12.329999999999895), (0, 0),0
(1.0, 12.329999999999895), (0, 0),0
(2.0, 12.329999999999895), (0, 0),0
(3.0, 12.329999999999895), (0, 0),0
(-3.0, 13.329999999999895), (0, 0),0
(-2.0, 13.329999999999895), (0, 0),0
(-1.0, 13.329999999999895), (0, 0),0
(0.0, 13.329999999999895), (0, 0),0
(1.0, 13.329999999999895), (0, 0),0
(2.0, 13.329999999999895), (0, 0),0
(3.0, 13.329999999999895), (0, 0),0
(-3.0, 14.329999999999895), (0, 0),0
(-2.0, 14.329999999999895), (0, 0),0
(-1.0, 14.329999999999895), (0, 0),0
(0.0, 14.329999999999895), (0, 0),0
(1.0, 14.329999999999895), (0, 0),0
(2.0, 14.329999999999895), (0, 0),0
(3.0, 14.329999999999895), (0, 0),0
(-3.0, 15.329999999999895), (0, 0),0
(-2.0, 15.329999999999895), (0, 0),0
(-1.0, 15.329999999999895), (0, 0),0
(0.0, 15.329999999999895), (0, 0),0
(1.0, 15.329999999999895), (0, 0),0
(2.0, 15.329999999999895), (0, 0),0
(3.0, 15.329999999999895), (0, 0),0
(-3.0, 16.330000000000133), (0, 0),0
(-2.0, 16.330000000000133), (0, 0),0
(-1.0, 16.330000000000133), (0, 0),0
(0.0, 16.330000000000133), (0, 0),0
(1.0, 16.330000000000133), (0, 0),0
(2.0, 16.330000000000133), (0, 0),0
(3.0, 16.330000000000133), (0, 0),0
(-3.0, 17.330000000000133), (0, 0),0
(-2.0, 17.330000000000133), (0, 0),0
(-1.0, 17.330000000000133), (0, 0),0
(0.0, 17.330000000000133), (0, 0),0
(1.0, 17.330000000000133), (0, 0),0
(2.0, 17.330000000000133), (0, 0),0
(3.0, 17.330000000000133), (0, 0),0
(-3.0, 18.330000000000133), (0, 0),0
(-2.0, 18.330000000000133), (0, 0),0
(-1.0, 18.330000000000133), (0, 0),0
(0.0, 18.330000000000133), (0, 0),0
(1.0, 18.330000000000133), (0, 0),0
(2.0, 18.330000000000133), (0, 0),0
(3.0, 18.330000000000133), (0, 0),0
