(-3.0, 9.359999999999744), (0, 0),0
(-2.0, 9.359999999999744), (0, 0),0
(-1.0, 9.359999999999744), (0, 0),0
(0.0, 9.359999999999744), (0, 0),0
(1.0, 9.359999999999744), (0, 0),0
(2.0, 9.359999999999744), (0, 0),0
(3.0, 9.359999999999744), (0, 0),0
(-3.0, 10.359999999999744), (0, 0),0
(-2.0, 10.359999999999744), (0, 0),0
(-1.0, 10.359999999999744), (0, 0),0
(0.0, 10.359999999999744), (0, 0),0
(1.0, 10.359999999999744), (0, 0),0
(2.0, 10.359999999999744), (0, 0),0
(3.0, 10.359999999999744), (0, 0),0
(-3.0, 11.359999999999744), (0, 0),0
(-2.0, 11.359999999999744), (0, 0),0
(-1.0, 11.359999999999744), (0, 0),0
(0.0, 11.359999999999744), (0, 0),0
(1.0, 11.359999999999744), (0, 0),0
(2.0, 11.359999999999744), (0, 0),0
(3.0, 11.359999999999744), (0, 0),0
(-3.0, 12.359999999999744), (0, 0),0
(-2.0, 12.359999999999744), (0, 0),0
(-1.0, 12.359999999999744), (0, 0),0
(0.0, 12.359999999999744), (0, 0),0
(1.0, 12.359999999999744), (0, 0),0
(2.0, 12.359999999999744), (0, 0),0
(3.0, 12.359999999999744), (0, 0),0
(-3.0, 13.359999999999744), (0, 0),0
(-2.0, 13.359999999999744), (0, 0),0
(-1.0, 13.359999999999744), (0, 0),0
(0.0, 13.359999999999744), (0, 0),0
(1.0, 13.359999999999744), (0, 0),0
(2.0, 13.359999999999744), (0, 0),0
(3.0, 13.359999999999744), (0, 0),0
(-3.0, 14.359999999999744), (0, 0),0
(-2.0, 14.359999999999744), (0, 0),0
(-1.0, 14.359999999999744), (0, 0),0
(0.0, 14.359999999999744), (0, 0),0
(1.0, 14.359999999999744), (0, 0),0
(2.0, 14.359999999999744), (0, 0),0
(3.0, 14.359999999999744), (0, 0),0
(-3.0, 15.360000000000099), (0, 0),0
(-2.0, 15.360000000000099), (0, 0),0
(-1.0, 15.360000000000099), (0, 0),0
(0.0, 15.360000000000099), (0, 0),0
(1.0, 15.360000000000099), (0, 0),0
(2.0, 15.360000000000099), (0, 0),0
(3.0, 15.360000000000099), (0, 0),0
(-3.0, 16.360000000000326), (0, 0),0
(-2.0, 16.360000000000326), (0, 0),0
(-1.0, 16.360000000000326), (0, 0),0
(0.0, 16.360000000000326), (0, 0),0
(1.0, 16.360000000000326), (0, 0),0
(2.0, 16.360000000000326), (0, 0),0
(3.0, 16.360000000000326), (0, 0),0
(-3.0, 17.360000000000326), (0, 0),0
(-2.0, 17.360000000000326), (0, 0),0
(-1.0, 17.360000000000326), (0, 0),0
(0.0, 17.360000000000326), (0, 0),0
(1.0, 17.360000000000326), (0, 0),0
(2.0, 17.360000000000326), (0, 0),0
(3.0, 17.360000000000326), (0, 0),0
