(-3.0, 9.33999999999974), (0, 0),0
(-2.0, 9.33999999999974), (0, 0),0
(-1.0, 9.33999999999974), (0, 0),0
(0.0, 9.33999999999974), (0, 0),0
(1.0, 9.33999999999974), (0, 0),0
(2.0, 9.33999999999974), (0, 0),0
(3.0, 9.33999999999974), (0, 0),0
(-3.0, 10.33999999999974), (0, 0),0
(-2.0, 10.33999999999974), (0, 0),0
(-1.0, 10.33999999999974), (0, 0),0
(0.0, 10.33999999999974), (0, 0),0
(1.0, 10.33999999999974), (0, 0),0
(2.0, 10.33999999999974), (0, 0),0
(3.0, 10.33999999999974), (0, 0),0
(-3.0, 11.33999999999974), (0, 0),0
(-2.0, 11.33999999999974), (0, 0),0
(-1.0, 11.33999999999974), (0, 0),0
(0.0, 11.33999999999974), (0, 0),0
(1.0, 11.33999999999974), (0, 0),0
(2.0, 11.33999999999974), (0, 0),0
(3.0, 11.33999999999974), (0, 0),0
(-3.0, 12.33999999999974), (0, 0),0
(-2.0, 12.33999999999974), (0, 0),0
(-1.0, 12.33999999999974), (0, 0),0
(0.0, 12.33999999999974), (0, 0),0
(1.0, 12.33999999999974), (0, 0),0
(2.0, 12.33999999999974), (0, 0),0
(3.0, 12.33999999999974), (0, 0),0
(-3.0, 13.33999999999974), (0, 0),0
(-2.0, 13.33999999999974), (0, 0),0
(-1.0, 13.33999999999974), (0, 0),0
(0.0, 13.33999999999974), (0, 0),0
(1.0, 13.33999999999974), (0, 0),0
(2.0, 13.33999999999974), (0, 0),0
(3.0, 13.33999999999974), (0, 0),0
(-3.0, 14.33999999999974), (0, 0),0
(-2.0, 14.33999999999974), (0, 0),0
(-1.0, 14.33999999999974), (0, 0),0
(0.0, 14.33999999999974), (0, 0),0
(1.0, 14.33999999999974), (0, 0),0
(2.0, 14.33999999999974), (0, 0),0
(3.0, 14.33999999999974), (0, 0),0
(-3.0, 15.340000000000096), (0, 0),0
(-2.0, 15.340000000000096), (0, 0),0
(-1.0, 15.340000000000096), (0, 0),0
(0.0, 15.340000000000096), (0, 0),0
(1.0, 15.340000000000096), (0, 0),0
(2.0, 15.340000000000096), (0, 0),0
(3.0, 15.340000000000096), (0, 0),0
(-3.0, 16.34000000000033), (0, 0),0
(-2.0, 16.34000000000033), (0, 0),0
(-1.0, 16.34000000000033), (0, 0),0
(0.0, 16.34000000000033), (0, 0),0
(1.0, 16.34000000000033), (0, 0),0
(2.0, 16.34000000000033), (0, 0),0
(3.0, 16.34000000000033), (0, 0),0
(-3.0, 17.34000000000033), (0, 0),0
(-2.0, 17.34000000000033), (0, 0),0
(-1.0, 17.34000000000033), (0, 0),0
(0.0, 17.34000000000033), (0, 0),0
(1.0, 17.34000000000033), (0, 0),0
(2.0, 17.34000000000033), (0, 0),0
(3.0, 17.34000000000033), (0, 0),0
