(-1.8683944378469934, 5.12352105271569), (0, 0),0
(-1.9414962740743265, 6.282680123754229), (-0.024186899378434133, -0.01086374731568868),0.02496200932982029
(-0.9725478589505564, 6.391482936582187), (-0.001691671003392719, 0.008039632084051914),0.05155753075039382
(0.0004945556947880819, 6.41802984260987), (-0.0022481905222494943, 0.005713383650954428),0.05557114222988069
(0.971198896740066, 6.393101399848174), (0.002720810090773674, 0.008246809994972465),0.0552225564379466
(1.939157639534439, 6.287031127761449), (0.025405950813302672, -0.011136078414290127),0.026246935628639445
(1.8660087929262508, 5.125564784753424), (0, 0),0
(-3.000000000000115, 7.65499999999933), (-1.1832913578315177e-27, -3.5527136788004694e-14),8.881784197001252e-15
(-2.0000000000001146, 7.65499999999933), (-1.1852635100945702e-27, -3.5527136788004694e-14),8.881784197001252e-15
(-1.0000000000001137, 7.65499999999933), (-1.180333129436939e-27, -3.5527136788004694e-14),8.881784197001252e-15
(-1.1308209924010272e-13, 7.65499999999933), (-1.1768374895506786e-27, -3.5527136788004694e-14),8.881784197001252e-15
(0.9999999999998872, 7.65499999999933), (-1.1773749010423601e-27, -3.5527136788004694e-14),8.881784197001252e-15
(1.9999999999998879, 7.65499999999933), (-1.1813192055684652e-27, -3.5527136788004694e-14),8.881784197001252e-15
(2.9999999999998885, 7.65499999999933), (-1.1754027487793076e-27, -3.5527136788004694e-14),8.881784197001252e-15
(-2.999999999999982, 8.65499999999932), (1.1832913578315177e-27, 3.5527136788004694e-14),8.881784197001252e-15
(-1.9999999999999811, 8.65499999999932), (1.1852635100945702e-27, 3.5527136788004694e-14),8.881784197001252e-15
(-0.9999999999999808, 8.65499999999932), (1.180333129436939e-27, 3.5527136788004694e-14),8.881784197001252e-15
(1.9418022745298952e-14, 8.65499999999932), (1.1768374895506786e-27, 3.5527136788004694e-14),8.881784197001252e-15
(1.0000000000000198, 8.65499999999932), (1.1773749010423601e-27, 3.5527136788004694e-14),8.881784197001252e-15
(2.000000000000021, 8.65499999999932), (1.1813192055684652e-27, 3.5527136788004694e-14),8.881784197001252e-15
(3.000000000000021, 8.65499999999932), (1.1754027487793076e-27, 3.5527136788004694e-14),8.881784197001252e-15
(-3.0, 9.65499999999932), (0, 0),0
(-2.0, 9.65499999999932), (0, 0),0
(-1.0, 9.65499999999932), (0, 0),0
(0.0, 9.65499999999932), (0, 0),0
(1.0, 9.65499999999932), (0, 0),0
(2.0, 9.65499999999932), (0, 0),0
(3.0, 9.65499999999932), (0, 0),0
(-3.0, 10.65499999999932), (0, 0),0
(-2.0, 10.65499999999932), (0, 0),0
(-1.0, 10.65499999999932), (0, 0),0
(0.0, 10.65499999999932), (0, 0),0
(1.0, 10.65499999999932), (0, 0),0
(2.0, 10.65499999999932), (0, 0),0
(3.0, 10.65499999999932), (0, 0),0
(-3.0, 11.65499999999932), (0, 0),0
(-2.0, 11.65499999999932), (0, 0),0
(-1.0, 11.65499999999932), (0, 0),0
(0.0, 11.65499999999932), (0, 0),0
(1.0, 11.65499999999932), (0, 0),0
(2.0, 11.65499999999932), (0, 0),0
(3.0, 11.65499999999932), (0, 0),0
(-3.0, 12.654999999999676), (0, 0),0
(-2.0, 12.654999999999676), (0, 0),0
(-1.0, 12.654999999999676), (0, 0),0
(0.0, 12.654999999999676), (0, 0),0
(1.0, 12.654999999999676), (0, 0),0
(2.0, 12.654999999999676), (0, 0),0
(3.0, 12.654999999999676), (0, 0),0
(-3.0, 13.655000000000031), (0, 0),0
(-2.0, 13.655000000000031), (0, 0),0
(-1.0, 13.655000000000031), (0, 0),0
(0.0, 13.655000000000031), (0, 0),0
(1.0, 13.655000000000031), (0, 0),0
(2.0, 13.655000000000031), (0, 0),0
(3.0, 13.655000000000031), (0, 0),0
(-3.0, 14.655000000000387), (0, 0),0
(-2.0, 14.655000000000387), (0, 0),0
(-1.0, 14.655000000000387), (0, 0),0
(0.0, 14.655000000000387), (0, 0),0
(1.0, 14.655000000000387), (0, 0),0
(2.0, 14.655000000000387), (0, 0),0
(3.0, 14.655000000000387), (0, 0),0
