(-3.0, 9.90999999999983), (0, 0),0
(-2.0, 9.90999999999983), (0, 0),0
(-1.0, 9.90999999999983), (0, 0),0
(0.0, 9.90999999999983), (0, 0),0
(1.0, 9.90999999999983), (0, 0),0
(2.0, 9.90999999999983), (0, 0),0
(3.0, 9.90999999999983), (0, 0),0
(-3.0, 10.90999999999983), (0, 0),0
(-2.0, 10.90999999999983), (0, 0),0
(-1.0, 10.90999999999983), (0, 0),0
(0.0, 10.90999999999983), (0, 0),0
(1.0, 10.90999999999983), (0, 0),0
(2.0, 10.90999999999983), (0, 0),0
(3.0, 10.90999999999983), (0, 0),0
(-3.0, 11.90999999999983), (0, 0),0
(-2.0, 11.90999999999983), (0, 0),0
(-1.0, 11.90999999999983), (0, 0),0
(0.0, 11.90999999999983), (0, 0),0
(1.0, 11.90999999999983), (0, 0),0
(2.0, 11.90999999999983), (0, 0),0
(3.0, 11.90999999999983), (0, 0),0
(-3.0, 12.90999999999983), (0, 0),0
(-2.0, 12.90999999999983), (0, 0),0
(-1.0, 12.90999999999983), (0, 0),0
(0.0, 12.90999999999983), (0, 0),0
(1.0, 12.90999999999983), (0, 0),0
(2.0, 12.90999999999983), (0, 0),0
(3.0, 12.90999999999983), (0, 0),0
(-3.0, 13.90999999999983), (0, 0),0
(-2.0, 13.90999999999983), (0, 0),0
(-1.0, 13.90999999999983), (0, 0),0
(0.0, 13.90999999999983), (0, 0),0
(1.0, 13.90999999999983), (0, 0),0
(2.0, 13.90999999999983), (0, 0),0
(3.0, 13.90999999999983), (0, 0),0
(-3.0, 14.90999999999983), (0, 0),0
(-2.0, 14.90999999999983), (0, 0),0
(-1.0, 14.90999999999983), (0, 0),0
(0.0, 14.90999999999983), (0, 0),0
(1.0, 14.90999999999983), (0, 0),0
(2.0, 14.90999999999983), (0, 0),0
(3.0, 14.90999999999983), (0, 0),0
(-3.0, 15.910000000000185), (0, 0),0
(-2.0, 15.910000000000185), (0, 0),0
(-1.0, 15.910000000000185), (0, 0),0
(0.0, 15.910000000000185), (0, 0),0
(1.0, 15.910000000000185), (0, 0),0
(2.0, 15.910000000000185), (0, 0),0
(3.0, 15.910000000000185), (0, 0),0
(-3.0, 16.910000000000217), (0, 0),0
(-2.0, 16.910000000000217), (0, 0),0
(-1.0, 16.910000000000217), (0, 0),0
(0.0, 16.910000000000217), (0, 0),0
(1.0, 16.910000000000217), (0, 0),0
(2.0, 16.910000000000217), (0, 0),0
(3.0, 16.910000000000217), (0, 0),0
(-3.0, 17.910000000000217), (0, 0),0
(-2.0, 17.910000000000217), (0, 0),0
(-1.0, 17.910000000000217), (0, 0),0
(0.0, 17.910000000000217), (0, 0),0
(1.0, 17.910000000000217), (0, 0),0
(2.0, 17.910000000000217), (0, 0),0
(3.0, 17.910000000000217), (0, 0),0
