(-3.0, 9.809999999999814), (0, 0),0
(-2.0, 9.809999999999814), (0, 0),0
(-1.0, 9.809999999999814), (0, 0),0
(0.0, 9.809999999999814), (0, 0),0
(1.0, 9.809999999999814), (0, 0),0
(2.0, 9.809999999999814), (0, 0),0
(3.0, 9.809999999999814), (0, 0),0
(-3.0, 10.809999999999814), (0, 0),0
(-2.0, 10.809999999999814), (0, 0),0
(-1.0, 10.809999999999814), (0, 0),0
(0.0, 10.809999999999814), (0, 0),0
(1.0, 10.809999999999814), (0, 0),0
(2.0, 10.809999999999814), (0, 0),0
(3.0, 10.809999999999814), (0, 0),0
(-3.0, 11.809999999999814), (0, 0),0
(-2.0, 11.809999999999814), (0, 0),0
(-1.0, 11.809999999999814), (0, 0),0
(0.0, 11.809999999999814), (0, 0),0
(1.0, 11.809999999999814), (0, 0),0
(2.0, 11.809999999999814), (0, 0),0
(3.0, 11.809999999999814), (0, 0),0
(-3.0, 12.809999999999814), (0, 0),0
(-2.0, 12.809999999999814), (0, 0),0
(-1.0, 12.809999999999814), (0, 0),0
(0.0, 12.809999999999814), (0, 0),0
(1.0, 12.809999999999814), (0, 0),0
(2.0, 12.809999999999814), (0, 0),0
(3.0, 12.809999999999814), (0, 0),0
(-3.0, 13.809999999999814), (0, 0),0
(-2.0, 13.809999999999814), (0, 0),0
(-1.0, 13.809999999999814), (0, 0),0
(0.0, 13.809999999999814), (0, 0),0
(1.0, 13.809999999999814), (0, 0),0
(2.0, 13.809999999999814), (0, 0),0
(3.0, 13.809999999999814), (0, 0),0
(-3.0, 14.809999999999814), (0, 0),0
(-2.0, 14.809999999999814), (0, 0),0
(-1.0, 14.809999999999814), (0, 0),0
(0.0, 14.809999999999814), (0, 0),0
(1.0, 14.809999999999814), (0, 0),0
(2.0, 14.809999999999814), (0, 0),0
(3.0, 14.809999999999814), (0, 0),0
(-3.0, 15.81000000000017), (0, 0),0
(-2.0, 15.81000000000017), (0, 0),0
(-1.0, 15.81000000000017), (0, 0),0
(0.0, 15.81000000000017), (0, 0),0
(1.0, 15.81000000000017), (0, 0),0
(2.0, 15.81000000000017), (0, 0),0
(3.0, 15.81000000000017), (0, 0),0
(-3.0, 16.810000000000237), (0, 0),0
(-2.0, 16.810000000000237), (0, 0),0
(-1.0, 16.810000000000237), (0, 0),0
(0.0, 16.810000000000237), (0, 0),0
(1.0, 16.810000000000237), (0, 0),0
(2.0, 16.810000000000237), (0, 0),0
(3.0, 16.810000000000237), (0, 0),0
(-3.0, 17.810000000000237), (0, 0),0
(-2.0, 17.810000000000237), (0, 0),0
(-1.0, 17.810000000000237), (0, 0),0
(0.0, 17.810000000000237), (0, 0),0
(1.0, 17.810000000000237), (0, 0),0
(2.0, 17.810000000000237), (0, 0),0
(3.0, 17.810000000000237), (0, 0),0
