(-3.0000000000000653, 7.239999999999421), (0.0, -3.5527136788004694e-14),8.881784197001252e-15
(-2.0000000000000653, 7.239999999999421), (0.0, -3.5527136788004694e-14),8.881784197001252e-15
(-1.0000000000000646, 7.239999999999421), (0.0, -3.5527136788004694e-14),8.881784197001252e-15
(-6.418787723561082e-14, 7.239999999999421), (0.0, -3.5527136788004694e-14),8.881784197001252e-15
(0.999999999999936, 7.239999999999421), (0.0, -3.5527136788004694e-14),8.881784197001252e-15
(1.9999999999999365, 7.239999999999421), (0.0, -3.5527136788004694e-14),8.881784197001252e-15
(2.9999999999999365, 7.239999999999421), (0.0, -3.5527136788004694e-14),8.881784197001252e-15
(-3.0000000000000653, 8.239999999999412), (0.0, 3.5527136788004694e-14),8.881784197001252e-15
(-2.0000000000000653, 8.239999999999412), (0.0, 3.5527136788004694e-14),8.881784197001252e-15
(-1.0000000000000646, 8.239999999999412), (0.0, 3.5527136788004694e-14),8.881784197001252e-15
(-6.418787723561082e-14, 8.239999999999412), (0.0, 3.5527136788004694e-14),8.881784197001252e-15
(0.999999999999936, 8.239999999999412), (0.0, 3.5527136788004694e-14),8.881784197001252e-15
(1.9999999999999365, 8.239999999999412), (0.0, 3.5527136788004694e-14),8.881784197001252e-15
(2.9999999999999365, 8.239999999999412), (0.0, 3.5527136788004694e-14),8.881784197001252e-15
(-3.0, 9.239999999999412), (0, 0),0
(-2.0, 9.239999999999412), (0, 0),0
(-1.0, 9.239999999999412), (0, 0),0
(0.0, 9.239999999999412), (0, 0),0
(1.0, 9.239999999999412), (0, 0),0
(2.0, 9.239999999999412), (0, 0),0
(3.0, 9.239999999999412), (0, 0),0
(-3.0, 10.239999999999412), (0, 0),0
(-2.0, 10.239999999999412), (0, 0),0
(-1.0, 10.239999999999412), (0, 0),0
(0.0, 10.239999999999412), (0, 0),0
(1.0, 10.239999999999412), (0, 0),0
(2.0, 10.239999999999412), (0, 0),0
(3.0, 10.239999999999412), (0, 0),0
(-3.0, 11.239999999999412), (0, 0),0
(-2.0, 11.239999999999412), (0, 0),0
(-1.0, 11.239999999999412), (0, 0),0
(0.0, 11.239999999999412), (0, 0),0
(1.0, 11.239999999999412), (0, 0),0
(2.0, 11.239999999999412), (0, 0),0
(3.0, 11.239999999999412), (0, 0),0
(-3.0, 12.239999999999412), (0, 0),0
(-2.0, 12.239999999999412), (0, 0),0
(-1.0, 12.239999999999412), (0, 0),0
(0.0, 12.239999999999412), (0, 0),0
(1.0, 12.239999999999412), (0, 0),0
(2.0, 12.239999999999412), (0, 0),0
(3.0, 12.239999999999412), (0, 0),0
(-3.0, 13.239999999999768), (0, 0),0
(-2.0, 13.239999999999768), (0, 0),0
(-1.0, 13.239999999999768), (0, 0),0
(0.0, 13.239999999999768), (0, 0),0
(1.0, 13.239999999999768), (0, 0),0
(2.0, 13.239999999999768), (0, 0),0
(3.0, 13.239999999999768), (0, 0),0
(-3.0, 14.240000000000123), (0, 0),0
(-2.0, 14.240000000000123), (0, 0),0
(-1.0, 14.240000000000123), (0, 0),0
(0.0, 14.240000000000123), (0, 0),0
(1.0, 14.240000000000123), (0, 0),0
(2.0, 14.240000000000123), (0, 0),0
(3.0, 14.240000000000123), (0, 0),0
(-3.0, 15.240000000000478), (0, 0),0
(-2.0, 15.240000000000478), (0, 0),0
(-1.0, 15.240000000000478), (0, 0),0
(0.0, 15.240000000000478), (0, 0),0
(1.0, 15.240000000000478), (0, 0),0
(2.0, 15.240000000000478), (0, 0),0
(3.0, 15.240000000000478), (0, 0),0
