(-1.1633989303317231, -2.541359421705827), (-0.019342705567699292, -0.18668073008585),0.06840562215466528
(0.5667058420689738, -1.8195272084329475), (-0.008062688230124414, 0.0061091987979391225),0.0662522635088516
(-1.0012994744505461, 4.655674304906867), (-0.00018149662940354852, -3.0811274650755427e-06),0.00018153121753883283
(-0.00149000991741104, 4.659917552303718), (-2.419511816917431e-05, 4.306592520623733e-06),0.00038726551987222635
(0.998303146789137, 4.658428416751638), (0.00020569174757272283, -1.225465055548191e-06),0.00020573430233339352
(-1.6282469218752011, -1.686610931409872), (-0.012562926344549379, 0.09240132277261658),0.027025880660117574
(-0.3923541929823458, -1.9717606040956692), (0.004157167225707494, 0.07666114422532051),0.07031272136275413
(-0.02549673762297955, -0.16233369394802402), (0, 0),0
(-1.9930909656241385, 5.869441538354728), (-0.003177304241011343, 0.0003052967384832143),0.003188386635698426
(-0.9965668284831155, 5.845503354771141), (0.00047247416916281664, -0.0005594153323142887),0.005901322702529743
(0.000445266611237868, 5.868920658715193), (-0.0004692989680090947, 0.0005894409619188047),0.005898318582808981
(0.9969124173965529, 5.842603382343691), (4.575681644724281e-05, -0.0006688131509153056),0.006324720950167673
(1.993419257608427, 5.869160791636967), (0.0031283722234103782, 0.0003334907828275752),0.003139338434190009
(1.5262942752634132, -1.742428566878109), (0.03581115291666559, 0.011509064289973803),0.037319283640645184
(-2.999999999999855, 7.1949999999991014), (1.8380459091649575e-27, -3.5527136788004694e-14),8.881784197001252e-15
(-1.999999999999854, 7.1949999999991014), (1.8459345182171676e-27, -3.5527136788004694e-14),8.881784197001252e-15
(-0.9999999999998536, 7.1949999999991014), (1.8390319852964838e-27, -3.5527136788004694e-14),8.881784197001252e-15
(1.4654943925052071e-13, 7.1949999999991014), (1.8369631975725428e-27, -3.5527136788004694e-14),8.881784197001252e-15
(1.000000000000147, 7.1949999999991014), (1.8390319852964838e-27, -3.5527136788004694e-14),8.881784197001252e-15
(2.0000000000001483, 7.1949999999991014), (1.84790667048022e-27, -3.5527136788004694e-14),8.881784197001252e-15
(3.0000000000001483, 7.1949999999991014), (1.8419902136910626e-27, -3.5527136788004694e-14),8.881784197001252e-15
(-3.0000000000000617, 8.194999999999093), (-1.8380459091649575e-27, 3.5527136788004694e-14),8.881784197001252e-15
(-2.0000000000000617, 8.194999999999093), (-1.8459345182171676e-27, 3.5527136788004694e-14),8.881784197001252e-15
(-1.0000000000000606, 8.194999999999093), (-1.8390319852964838e-27, 3.5527136788004694e-14),8.881784197001252e-15
(-6.027423005150472e-14, 8.194999999999093), (-1.8369631975725428e-27, 3.5527136788004694e-14),8.881784197001252e-15
(0.9999999999999399, 8.194999999999093), (-1.8390319852964838e-27, 3.5527136788004694e-14),8.881784197001252e-15
(1.9999999999999403, 8.194999999999093), (-1.84790667048022e-27, 3.5527136788004694e-14),8.881784197001252e-15
(2.999999999999941, 8.194999999999093), (-1.8419902136910626e-27, 3.5527136788004694e-14),8.881784197001252e-15
(-3.0, 9.194999999999093), (0, 0),0
(-2.0, 9.194999999999093), (0, 0),0
(-1.0, 9.194999999999093), (0, 0),0
(0.0, 9.194999999999093), (0, 0),0
(1.0, 9.194999999999093), (0, 0),0
(2.0, 9.194999999999093), (0, 0),0
(3.0, 9.194999999999093), (0, 0),0
(-3.0, 10.194999999999093), (0, 0),0
(-2.0, 10.194999999999093), (0, 0),0
(-1.0, 10.194999999999093), (0, 0),0
(0.0, 10.194999999999093), (0, 0),0
(1.0, 10.194999999999093), (0, 0),0
(2.0, 10.194999999999093), (0, 0),0
(3.0, 10.194999999999093), (0, 0),0
(-3.0, 11.194999999999448), (0, 0),0
(-2.0, 11.194999999999448), (0, 0),0
(-1.0, 11.194999999999448), (0, 0),0
(0.0, 11.194999999999448), (0, 0),0
(1.0, 11.194999999999448), (0, 0),0
(2.0, 11.194999999999448), (0, 0),0
(3.0, 11.194999999999448), (0, 0),0
(-3.0, 12.194999999999803), (0, 0),0
(-2.0, 12.194999999999803), (0, 0),0
(-1.0, 12.194999999999803), (0, 0),0
(0.0, 12.194999999999803), (0, 0),0
(1.0, 12.194999999999803), (0, 0),0
(2.0, 12.194999999999803), (0, 0),0
(3.0, 12.194999999999803), (0, 0),0
(-3.0, 13.195000000000158), (0, 0),0
(-2.0, 13.195000000000158), (0, 0),0
(-1.0, 13.195000000000158), (0, 0),0
(0.0, 13.195000000000158), (0, 0),0
(1.0, 13.195000000000158), (0, 0),0
(2.0, 13.195000000000158), (0, 0),0
(3.0, 13.195000000000158), (0, 0),0
