(-3.0000000000000826, 7.044999999999391), (0.0, -3.5527136788004694e-14),8.881784197001252e-15
(-2.0000000000000826, 7.044999999999391), (0.0, -3.5527136788004694e-14),8.881784197001252e-15
(-1.000000000000082, 7.044999999999391), (0.0, -3.5527136788004694e-14),8.881784197001252e-15
(-8.150735641976326e-14, 7.044999999999391), (0.0, -3.5527136788004694e-14),8.881784197001252e-15
(0.9999999999999187, 7.044999999999391), (0.0, -3.5527136788004694e-14),8.881784197001252e-15
(1.9999999999999192, 7.044999999999391), (0.0, -3.5527136788004694e-14),8.881784197001252e-15
(2.999999999999919, 7.044999999999391), (0.0, -3.5527136788004694e-14),8.881784197001252e-15
(-3.0000000000000826, 8.044999999999382), (0.0, 3.5527136788004694e-14),8.881784197001252e-15
(-2.0000000000000826, 8.044999999999382), (0.0, 3.5527136788004694e-14),8.881784197001252e-15
(-1.000000000000082, 8.044999999999382), (0.0, 3.5527136788004694e-14),8.881784197001252e-15
(-8.150735641976326e-14, 8.044999999999382), (0.0, 3.5527136788004694e-14),8.881784197001252e-15
(0.9999999999999187, 8.044999999999382), (0.0, 3.5527136788004694e-14),8.881784197001252e-15
(1.9999999999999192, 8.044999999999382), (0.0, 3.5527136788004694e-14),8.881784197001252e-15
(2.999999999999919, 8.044999999999382), (0.0, 3.5527136788004694e-14),8.881784197001252e-15
(-3.0, 9.044999999999382), (0, 0),0
(-2.0, 9.044999999999382), (0, 0),0
(-1.0, 9.044999999999382), (0, 0),0
(0.0, 9.044999999999382), (0, 0),0
(1.0, 9.044999999999382), (0, 0),0
(2.0, 9.044999999999382), (0, 0),0
(3.0, 9.044999999999382), (0, 0),0
(-3.0, 10.044999999999382), (0, 0),0
(-2.0, 10.044999999999382), (0, 0),0
(-1.0, 10.044999999999382), (0, 0),0
(0.0, 10.044999999999382), (0, 0),0
(1.0, 10.044999999999382), (0, 0),0
(2.0, 10.044999999999382), (0, 0),0
(3.0, 10.044999999999382), (0, 0),0
(-3.0, 11.044999999999382), (0, 0),0
(-2.0, 11.044999999999382), (0, 0),0
(-1.0, 11.044999999999382), (0, 0),0
(0.0, 11.044999999999382), (0, 0),0
(1.0, 11.044999999999382), (0, 0),0
(2.0, 11.044999999999382), (0, 0),0
(3.0, 11.044999999999382), (0, 0),0
(-3.0, 12.044999999999382), (0, 0),0
(-2.0, 12.044999999999382), (0, 0),0
(-1.0, 12.044999999999382), (0, 0),0
(0.0, 12.044999999999382), (0, 0),0
(1.0, 12.044999999999382), (0, 0),0
(2.0, 12.044999999999382), (0, 0),0
(3.0, 12.044999999999382), (0, 0),0
(-3.0, 13.044999999999737), (0, 0),0
(-2.0, 13.044999999999737), (0, 0),0
(-1.0, 13.044999999999737), (0, 0),0
(0.0, 13.044999999999737), (0, 0),0
(1.0, 13.044999999999737), (0, 0),0
(2.0, 13.044999999999737), (0, 0),0
(3.0, 13.044999999999737), (0, 0),0
(-3.0, 14.045000000000092), (0, 0),0
(-2.0, 14.045000000000092), (0, 0),0
(-1.0, 14.045000000000092), (0, 0),0
(0.0, 14.045000000000092), (0, 0),0
(1.0, 14.045000000000092), (0, 0),0
(2.0, 14.045000000000092), (0, 0),0
(3.0, 14.045000000000092), (0, 0),0
(-3.0, 15.045000000000448), (0, 0),0
(-2.0, 15.045000000000448), (0, 0),0
(-1.0, 15.045000000000448), (0, 0),0
(0.0, 15.045000000000448), (0, 0),0
(1.0, 15.045000000000448), (0, 0),0
(2.0, 15.045000000000448), (0, 0),0
(3.0, 15.045000000000448), (0, 0),0
