(-1.2350648096409755, -3.0569105610250324), (-8.578817725701842e-05, -0.0046540639824583065),0.0015022264974026145
(0.5699693332056336, -2.326625545081606), (-2.1370912435974914e-05, 6.889173923431383e-05),0.0009365851935522196
(-0.9493285837333212, 4.167659467395662), (0.16323482723167423, -0.29321586742043526),0.37658100197745215
(0.0011564037954375846, 4.220068758628331), (-0.004697245237730331, 0.020610595645944335),0.1013687871291803
(0.946568698232278, 4.170661805319687), (-0.15837875726017875, -0.288140931938735),0.38009430208192196
(-1.6640833095026033, -2.1546295417203787), (-0.0003931802005357585, 0.0033076338873427),0.0009164644430544877
(-0.41738060794613663, -2.482261654903075), (2.5920105987743615e-05, 0.0010607738443933045),0.0010446148409057887
(-0.02549673762297955, -0.5973336939480244), (0, 0),0
(-1.8296885108374432, 4.878377788441185), (3.6405813568057273, 3.0520313141162285),4.777867545838202
(-0.9106232765544929, 5.2893594626624925), (-0.08179493919905251, -0.026157381627049968),0.09019019870547762
(-0.0037072216718600027, 5.361865627419011), (0.006282290424205889, 0.05141382984345167),0.17278891851375744
(0.9105036638009331, 5.285422408096046), (0.07551264877484662, -0.025256448216401703),0.08259871980827982
(1.8301379084709624, 4.877515410379434), (-3.64029122547084, 3.0517010367691157),4.778391787707285
(1.563034022339048, -2.21319148224941), (0.0004744191842410082, 0.00021676451148798783),0.00047773240699455766
(-1.5853089279840946, 4.383131238634493), (3.6504928645540797, 1.561234062700267),5.106377350471113
(-1.8961316914676754, 6.533530366379924), (-0.05201830056009263, -0.016398406644337976),0.05522994350486665
(-0.9542820849130539, 6.607758247143974), (0.01069101536495664, 0.01090342846434989),0.09844784113129668
(0.0019718622910361553, 6.639544720351706), (-0.012736557702910475, 0.012598661424725929),0.10060407416176054
(0.9440775428247686, 6.608597880565454), (0.01104206550912814, 0.006435967364267799),0.10258372799725668
(1.8959383405310186, 6.533706375544373), (0.043021777388918325, -0.013539650609005641),0.045197551461926166
(1.5853968934085965, 4.383032244932913), (-3.650941820622732, 1.5560338279720005),5.1051885000045685
(-3.000000000000098, 7.7599999999990334), (-9.505773907913192e-28, -3.5527136788004694e-14),8.881784197001252e-15
(-2.000000000000098, 7.7599999999990334), (-9.564938475804768e-28, -3.5527136788004694e-14),8.881784197001252e-15
(-1.0000000000000968, 7.7599999999990334), (-9.476191623967404e-28, -3.5527136788004694e-14),8.881784197001252e-15
(-9.636735853746364e-14, 7.7599999999990334), (-9.45550374672799e-28, -3.5527136788004694e-14),8.881784197001252e-15
(0.9999999999999037, 7.7599999999990334), (-9.476191623967404e-28, -3.5527136788004694e-14),8.881784197001252e-15
(1.999999999999904, 7.7599999999990334), (-9.545216953174243e-28, -3.5527136788004694e-14),8.881784197001252e-15
(2.999999999999905, 7.7599999999990334), (-9.466330862652142e-28, -3.5527136788004694e-14),8.881784197001252e-15
(-2.999999999999991, 8.759999999999025), (9.505773907913192e-28, 3.5527136788004694e-14),8.881784197001252e-15
(-1.9999999999999905, 8.759999999999025), (9.564938475804768e-28, 3.5527136788004694e-14),8.881784197001252e-15
(-0.9999999999999901, 8.759999999999025), (9.476191623967404e-28, 3.5527136788004694e-14),8.881784197001252e-15
(1.0092149338447622e-14, 8.759999999999025), (9.45550374672799e-28, 3.5527136788004694e-14),8.881784197001252e-15
(1.0000000000000104, 8.759999999999025), (9.476191623967404e-28, 3.5527136788004694e-14),8.881784197001252e-15
(2.0000000000000115, 8.759999999999025), (9.545216953174243e-28, 3.5527136788004694e-14),8.881784197001252e-15
(3.0000000000000115, 8.759999999999025), (9.466330862652142e-28, 3.5527136788004694e-14),8.881784197001252e-15
(-3.0, 9.759999999999025), (0, 0),0
(-2.0, 9.759999999999025), (0, 0),0
(-1.0, 9.759999999999025), (0, 0),0
(0.0, 9.759999999999025), (0, 0),0
(1.0, 9.759999999999025), (0, 0),0
(2.0, 9.759999999999025), (0, 0),0
(3.0, 9.759999999999025), (0, 0),0
(-3.0, 10.75999999999938), (0, 0),0
(-2.0, 10.75999999999938), (0, 0),0
(-1.0, 10.75999999999938), (0, 0),0
(0.0, 10.75999999999938), (0, 0),0
(1.0, 10.75999999999938), (0, 0),0
(2.0, 10.75999999999938), (0, 0),0
(3.0, 10.75999999999938), (0, 0),0
(-3.0, 11.759999999999735), (0, 0),0
(-2.0, 11.759999999999735), (0, 0),0
(-1.0, 11.759999999999735), (0, 0),0
(0.0, 11.759999999999735), (0, 0),0
(1.0, 11.759999999999735), (0, 0),0
(2.0, 11.759999999999735), (0, 0),0
(3.0, 11.759999999999735), (0, 0),0
(-3.0, 12.76000000000009), (0, 0),0
(-2.0, 12.76000000000009), (0, 0),0
(-1.0, 12.76000000000009), (0, 0),0
(0.0, 12.76000000000009), (0, 0),0
(1.0, 12.76000000000009), (0, 0),0
(2.0, 12.76000000000009), (0, 0),0
(3.0, 12.76000000000009), (0, 0),0
