(-3.0, 9.694999999999796), (0, 0),0
(-2.0, 9.694999999999796), (0, 0),0
(-1.0, 9.694999999999796), (0, 0),0
(0.0, 9.694999999999796), (0, 0),0
(1.0, 9.694999999999796), (0, 0),0
(2.0, 9.694999999999796), (0, 0),0
(3.0, 9.694999999999796), (0, 0),0
(-3.0, 10.694999999999796), (0, 0),0
(-2.0, 10.694999999999796), (0, 0),0
(-1.0, 10.694999999999796), (0, 0),0
(0.0, 10.694999999999796), (0, 0),0
(1.0, 10.694999999999796), (0, 0),0
(2.0, 10.694999999999796), (0, 0),0
(3.0, 10.694999999999796), (0, 0),0
(-3.0, 11.694999999999796), (0, 0),0
(-2.0, 11.694999999999796), (0, 0),0
(-1.0, 11.694999999999796), (0, 0),0
(0.0, 11.694999999999796), (0, 0),0
(1.0, 11.694999999999796), (0, 0),0
(2.0, 11.694999999999796), (0, 0),0
(3.0, 11.694999999999796), (0, 0),0
(-3.0, 12.694999999999796), (0, 0),0
(-2.0, 12.694999999999796), (0, 0),0
(-1.0, 12.694999999999796), (0, 0),0
(0.0, 12.694999999999796), (0, 0),0
(1.0, 12.694999999999796), (0, 0),0
(2.0, 12.694999999999796), (0, 0),0
(3.0, 12.694999999999796), (0, 0),0
(-3.0, 13.694999999999796), (0, 0),0
(-2.0, 13.694999999999796), (0, 0),0
(-1.0, 13.694999999999796), (0, 0),0
(0.0, 13.694999999999796), (0, 0),0
(1.0, 13.694999999999796), (0, 0),0
(2.0, 13.694999999999796), (0, 0),0
(3.0, 13.694999999999796), (0, 0),0
(-3.0, 14.694999999999796), (0, 0),0
(-2.0, 14.694999999999796), (0, 0),0
(-1.0, 14.694999999999796), (0, 0),0
(0.0, 14.694999999999796), (0, 0),0
(1.0, 14.694999999999796), (0, 0),0
(2.0, 14.694999999999796), (0, 0),0
(3.0, 14.694999999999796), (0, 0),0
(-3.0, 15.695000000000151), (0, 0),0
(-2.0, 15.695000000000151), (0, 0),0
(-1.0, 15.695000000000151), (0, 0),0
(0.0, 15.695000000000151), (0, 0),0
(1.0, 15.695000000000151), (0, 0),0
(2.0, 15.695000000000151), (0, 0),0
(3.0, 15.695000000000151), (0, 0),0
(-3.0, 16.69500000000026), (0, 0),0
(-2.0, 16.69500000000026), (0, 0),0
(-1.0, 16.69500000000026), (0, 0),0
(0.0, 16.69500000000026), (0, 0),0
(1.0, 16.69500000000026), (0, 0),0
(2.0, 16.69500000000026), (0, 0),0
(3.0, 16.69500000000026), (0, 0),0
(-3.0, 17.69500000000026), (0, 0),0
(-2.0, 17.69500000000026), (0, 0),0
(-1.0, 17.69500000000026), (0, 0),0
(0.0, 17.69500000000026), (0, 0),0
(1.0, 17.69500000000026), (0, 0),0
(2.0, 17.69500000000026), (0, 0),0
(3.0, 17.69500000000026), (0, 0),0
