(-0.6173005870194392, -1.3133384944644588), (0.03417237989115583, -0.7875083966473838),0.4758920332053538
(0.5488849239864639, -0.93762353352452), (-0.03982564076126621, 0.05951396808136533),0.4809022254519213
(-0.9963670932519358, 4.975512862151113), (-0.00532383933362465, -0.00019700637302901342),0.005352718743436458
(-0.00176237202446983, 4.984714091585715), (0.0003704734716618264, 0.0003228422016951269),0.010330967463039298
(0.9932393124952218, 4.978394809657785), (0.0049533658619628235, -0.0001258358286661135),0.00497824871960284
(-1.4200125068065539, -1.1749894423985008), (-0.14886529859386322, 0.10262896283607612),0.18545295631506686
(-0.22240565782906546, -0.7238177581845228), (-0.039275033498853765, 0.8556023140024716),0.49006287086834677
(-0.02549673762297955, 1.8673966055451632), (0, 0),0
(-1.9694992811747671, 6.207553760945327), (-0.013712634928192951, -4.849653867779672e-05),0.01390601761389465
(-0.9834056842206309, 6.208425623401285), (-0.0027905066729830494, -0.001639573530016972),0.030696473652713552
(-0.0005174551563721467, 6.233559992366488), (0.0009379626261587469, 0.0034218956580618675),0.03261199019646199
(0.9832796166021844, 6.206163382592563), (0.001971561547694435, -0.001812729558435648),0.02960515407540265
(1.9694949583215298, 6.207594501005929), (0.013593617427322818, 7.890396906854962e-05),0.01378361991775956
(1.237859161887944, -1.142257823350902), (0.19379359296282736, -0.23023684827252916),0.28127843147386145
(-2.9999999999998828, 7.509999999999151), (1.34106353887572e-27, -3.5527136788004694e-14),8.881784197001252e-15
(-1.9999999999998819, 7.509999999999151), (1.3489521479279302e-27, -3.5527136788004694e-14),8.881784197001252e-15
(-0.9999999999998815, 7.509999999999151), (1.3420496150072463e-27, -3.5527136788004694e-14),8.881784197001252e-15
(1.1857181902996677e-13, 7.509999999999151), (1.3399808272833052e-27, -3.5527136788004694e-14),8.881784197001252e-15
(1.000000000000119, 7.509999999999151), (1.3420496150072463e-27, -3.5527136788004694e-14),8.881784197001252e-15
(2.0000000000001203, 7.509999999999151), (1.3509243001909827e-27, -3.5527136788004694e-14),8.881784197001252e-15
(3.0000000000001203, 7.509999999999151), (1.3450078434018251e-27, -3.5527136788004694e-14),8.881784197001252e-15
(-3.0000000000000338, 8.509999999999142), (-1.34106353887572e-27, 3.5527136788004694e-14),8.881784197001252e-15
(-2.0000000000000338, 8.509999999999142), (-1.3489521479279302e-27, 3.5527136788004694e-14),8.881784197001252e-15
(-1.0000000000000326, 8.509999999999142), (-1.3420496150072463e-27, 3.5527136788004694e-14),8.881784197001252e-15
(-3.229660983095077e-14, 8.509999999999142), (-1.3399808272833052e-27, 3.5527136788004694e-14),8.881784197001252e-15
(0.9999999999999679, 8.509999999999142), (-1.3420496150072463e-27, 3.5527136788004694e-14),8.881784197001252e-15
(1.9999999999999682, 8.509999999999142), (-1.3509243001909827e-27, 3.5527136788004694e-14),8.881784197001252e-15
(2.999999999999969, 8.509999999999142), (-1.3450078434018251e-27, 3.5527136788004694e-14),8.881784197001252e-15
(-3.0, 9.509999999999142), (0, 0),0
(-2.0, 9.509999999999142), (0, 0),0
(-1.0, 9.509999999999142), (0, 0),0
(0.0, 9.509999999999142), (0, 0),0
(1.0, 9.509999999999142), (0, 0),0
(2.0, 9.509999999999142), (0, 0),0
(3.0, 9.509999999999142), (0, 0),0
(-3.0, 10.509999999999142), (0, 0),0
(-2.0, 10.509999999999142), (0, 0),0
(-1.0, 10.509999999999142), (0, 0),0
(0.0, 10.509999999999142), (0, 0),0
(1.0, 10.509999999999142), (0, 0),0
(2.0, 10.509999999999142), (0, 0),0
(3.0, 10.509999999999142), (0, 0),0
(-3.0, 11.509999999999497), (0, 0),0
(-2.0, 11.509999999999497), (0, 0),0
(-1.0, 11.509999999999497), (0, 0),0
(0.0, 11.509999999999497), (0, 0),0
(1.0, 11.509999999999497), (0, 0),0
(2.0, 11.509999999999497), (0, 0),0
(3.0, 11.509999999999497), (0, 0),0
(-3.0, 12.509999999999852), (0, 0),0
(-2.0, 12.509999999999852), (0, 0),0
(-1.0, 12.509999999999852), (0, 0),0
(0.0, 12.509999999999852), (0, 0),0
(1.0, 12.509999999999852), (0, 0),0
(2.0, 12.509999999999852), (0, 0),0
(3.0, 12.509999999999852), (0, 0),0
(-3.0, 13.510000000000208), (0, 0),0
(-2.0, 13.510000000000208), (0, 0),0
(-1.0, 13.510000000000208), (0, 0),0
(0.0, 13.510000000000208), (0, 0),0
(1.0, 13.510000000000208), (0, 0),0
(2.0, 13.510000000000208), (0, 0),0
(3.0, 13.510000000000208), (0, 0),0
