(-3.0, 9.239999999999725), (0, 0),0
(-2.0, 9.239999999999725), (0, 0),0
(-1.0, 9.239999999999725), (0, 0),0
(0.0, 9.239999999999725), (0, 0),0
(1.0, 9.239999999999725), (0, 0),0
(2.0, 9.239999999999725), (0, 0),0
(3.0, 9.239999999999725), (0, 0),0
(-3.0, 10.239999999999725), (0, 0),0
(-2.0, 10.239999999999725), (0, 0),0
(-1.0, 10.239999999999725), (0, 0),0
(0.0, 10.239999999999725), (0, 0),0
(1.0, 10.239999999999725), (0, 0),0
(2.0, 10.239999999999725), (0, 0),0
(3.0, 10.239999999999725), (0, 0),0
(-3.0, 11.239999999999725), (0, 0),0
(-2.0, 11.239999999999725), (0, 0),0
(-1.0, 11.239999999999725), (0, 0),0
(0.0, 11.239999999999725), (0, 0),0
(1.0, 11.239999999999725), (0, 0),0
(2.0, 11.239999999999725), (0, 0),0
(3.0, 11.239999999999725), (0, 0),0
(-3.0, 12.239999999999725), (0, 0),0
(-2.0, 12.239999999999725), (0, 0),0
(-1.0, 12.239999999999725), (0, 0),0
(0.0, 12.239999999999725), (0, 0),0
(1.0, 12.239999999999725), (0, 0),0
(2.0, 12.239999999999725), (0, 0),0
(3.0, 12.239999999999725), (0, 0),0
(-3.0, 13.239999999999725), (0, 0),0
(-2.0, 13.239999999999725), (0, 0),0
(-1.0, 13.239999999999725), (0, 0),0
(0.0, 13.239999999999725), (0, 0),0
(1.0, 13.239999999999725), (0, 0),0
(2.0, 13.239999999999725), (0, 0),0
(3.0, 13.239999999999725), (0, 0),0
(-3.0, 14.239999999999725), (0, 0),0
(-2.0, 14.239999999999725), (0, 0),0
(-1.0, 14.239999999999725), (0, 0),0
(0.0, 14.239999999999725), (0, 0),0
(1.0, 14.239999999999725), (0, 0),0
(2.0, 14.239999999999725), (0, 0),0
(3.0, 14.239999999999725), (0, 0),0
(-3.0, 15.24000000000008), (0, 0),0
(-2.0, 15.24000000000008), (0, 0),0
(-1.0, 15.24000000000008), (0, 0),0
(0.0, 15.24000000000008), (0, 0),0
(1.0, 15.24000000000008), (0, 0),0
(2.0, 15.24000000000008), (0, 0),0
(3.0, 15.24000000000008), (0, 0),0
(-3.0, 16.24000000000035), (0, 0),0
(-2.0, 16.24000000000035), (0, 0),0
(-1.0, 16.24000000000035), (0, 0),0
(0.0, 16.24000000000035), (0, 0),0
(1.0, 16.24000000000035), (0, 0),0
(2.0, 16.24000000000035), (0, 0),0
(3.0, 16.24000000000035), (0, 0),0
(-3.0, 17.24000000000035), (0, 0),0
(-2.0, 17.24000000000035), (0, 0),0
(-1.0, 17.24000000000035), (0, 0),0
(0.0, 17.24000000000035), (0, 0),0
(1.0, 17.24000000000035), (0, 0),0
(2.0, 17.24000000000035), (0, 0),0
(3.0, 17.24000000000035), (0, 0),0
