(-3.0, 9.499999999999766), (0, 0),0
(-2.0, 9.499999999999766), (0, 0),0
(-1.0, 9.499999999999766), (0, 0),0
(0.0, 9.499999999999766), (0, 0),0
(1.0, 9.499999999999766), (0, 0),0
(2.0, 9.499999999999766), (0, 0),0
(3.0, 9.499999999999766), (0, 0),0
(-3.0, 10.499999999999766), (0, 0),0
(-2.0, 10.499999999999766), (0, 0),0
(-1.0, 10.499999999999766), (0, 0),0
(0.0, 10.499999999999766), (0, 0),0
(1.0, 10.499999999999766), (0, 0),0
(2.0, 10.499999999999766), (0, 0),0
(3.0, 10.499999999999766), (0, 0),0
(-3.0, 11.499999999999766), (0, 0),0
(-2.0, 11.499999999999766), (0, 0),0
(-1.0, 11.499999999999766), (0, 0),0
(0.0, 11.499999999999766), (0, 0),0
(1.0, 11.499999999999766), (0, 0),0
(2.0, 11.499999999999766), (0, 0),0
(3.0, 11.499999999999766), (0, 0),0
(-3.0, 12.499999999999766), (0, 0),0
(-2.0, 12.499999999999766), (0, 0),0
(-1.0, 12.499999999999766), (0, 0),0
(0.0, 12.499999999999766), (0, 0),0
(1.0, 12.499999999999766), (0, 0),0
(2.0, 12.499999999999766), (0, 0),0
(3.0, 12.499999999999766), (0, 0),0
(-3.0, 13.499999999999766), (0, 0),0
(-2.0, 13.499999999999766), (0, 0),0
(-1.0, 13.499999999999766), (0, 0),0
(0.0, 13.499999999999766), (0, 0),0
(1.0, 13.499999999999766), (0, 0),0
(2.0, 13.499999999999766), (0, 0),0
(3.0, 13.499999999999766), (0, 0),0
(-3.0, 14.499999999999766), (0, 0),0
(-2.0, 14.499999999999766), (0, 0),0
(-1.0, 14.499999999999766), (0, 0),0
(0.0, 14.499999999999766), (0, 0),0
(1.0, 14.499999999999766), (0, 0),0
(2.0, 14.499999999999766), (0, 0),0
(3.0, 14.499999999999766), (0, 0),0
(-3.0, 15.50000000000012), (0, 0),0
(-2.0, 15.50000000000012), (0, 0),0
(-1.0, 15.50000000000012), (0, 0),0
(0.0, 15.50000000000012), (0, 0),0
(1.0, 15.50000000000012), (0, 0),0
(2.0, 15.50000000000012), (0, 0),0
(3.0, 15.50000000000012), (0, 0),0
(-3.0, 16.5000000000003), (0, 0),0
(-2.0, 16.5000000000003), (0, 0),0
(-1.0, 16.5000000000003), (0, 0),0
(0.0, 16.5000000000003), (0, 0),0
(1.0, 16.5000000000003), (0, 0),0
(2.0, 16.5000000000003), (0, 0),0
(3.0, 16.5000000000003), (0, 0),0
(-3.0, 17.5000000000003), (0, 0),0
(-2.0, 17.5000000000003), (0, 0),0
(-1.0, 17.5000000000003), (0, 0),0
(0.0, 17.5000000000003), (0, 0),0
(1.0, 17.5000000000003), (0, 0),0
(2.0, 17.5000000000003), (0, 0),0
(3.0, 17.5000000000003), (0, 0),0
