(-3.0, 8.544999999999616), (0, 0),0
(-2.0, 8.544999999999616), (0, 0),0
(-1.0, 8.544999999999616), (0, 0),0
(0.0, 8.544999999999616), (0, 0),0
(1.0, 8.544999999999616), (0, 0),0
(2.0, 8.544999999999616), (0, 0),0
(3.0, 8.544999999999616), (0, 0),0
(-3.0, 9.544999999999616), (0, 0),0
(-2.0, 9.544999999999616), (0, 0),0
(-1.0, 9.544999999999616), (0, 0),0
(0.0, 9.544999999999616), (0, 0),0
(1.0, 9.544999999999616), (0, 0),0
(2.0, 9.544999999999616), (0, 0),0
(3.0, 9.544999999999616), (0, 0),0
(-3.0, 10.544999999999616), (0, 0),0
(-2.0, 10.544999999999616), (0, 0),0
(-1.0, 10.544999999999616), (0, 0),0
(0.0, 10.544999999999616), (0, 0),0
(1.0, 10.544999999999616), (0, 0),0
(2.0, 10.544999999999616), (0, 0),0
(3.0, 10.544999999999616), (0, 0),0
(-3.0, 11.544999999999616), (0, 0),0
(-2.0, 11.544999999999616), (0, 0),0
(-1.0, 11.544999999999616), (0, 0),0
(0.0, 11.544999999999616), (0, 0),0
(1.0, 11.544999999999616), (0, 0),0
(2.0, 11.544999999999616), (0, 0),0
(3.0, 11.544999999999616), (0, 0),0
(-3.0, 12.544999999999616), (0, 0),0
(-2.0, 12.544999999999616), (0, 0),0
(-1.0, 12.544999999999616), (0, 0),0
(0.0, 12.544999999999616), (0, 0),0
(1.0, 12.544999999999616), (0, 0),0
(2.0, 12.544999999999616), (0, 0),0
(3.0, 12.544999999999616), (0, 0),0
(-3.0, 13.544999999999616), (0, 0),0
(-2.0, 13.544999999999616), (0, 0),0
(-1.0, 13.544999999999616), (0, 0),0
(0.0, 13.544999999999616), (0, 0),0
(1.0, 13.544999999999616), (0, 0),0
(2.0, 13.544999999999616), (0, 0),0
(3.0, 13.544999999999616), (0, 0),0
(-3.0, 14.544999999999972), (0, 0),0
(-2.0, 14.544999999999972), (0, 0),0
(-1.0, 14.544999999999972), (0, 0),0
(0.0, 14.544999999999972), (0, 0),0
(1.0, 14.544999999999972), (0, 0),0
(2.0, 14.544999999999972), (0, 0),0
(3.0, 14.544999999999972), (0, 0),0
(-3.0, 15.545000000000327), (0, 0),0
(-2.0, 15.545000000000327), (0, 0),0
(-1.0, 15.545000000000327), (0, 0),0
(0.0, 15.545000000000327), (0, 0),0
(1.0, 15.545000000000327), (0, 0),0
(2.0, 15.545000000000327), (0, 0),0
(3.0, 15.545000000000327), (0, 0),0
(-3.0, 16.54500000000049), (0, 0),0
(-2.0, 16.54500000000049), (0, 0),0
(-1.0, 16.54500000000049), (0, 0),0
(0.0, 16.54500000000049), (0, 0),0
(1.0, 16.54500000000049), (0, 0),0
(2.0, 16.54500000000049), (0, 0),0
(3.0, 16.54500000000049), (0, 0),0
