(-1.2076253850086647, 3.960497190405754), (0, 0),0
(-1.995175443150189, 5.709688419105409), (-0.002396001510509388, -0.0005230780372111172),0.0024053531646422988
(-0.9990632939117222, 5.7640544520127746), (-0.00028068161616564766, 0.00025496618409015444),0.005090083172911708
(-0.0020605716899673235, 5.789020822215284), (0.0003259941864792821, 0.00047193905437163414),0.005041525674620129
(0.9953483143487525, 5.767399601063104), (0.00028166043068778924, 0.00023150446197394334),0.00443299516171225
(1.9918944141481276, 5.7149803051094645), (0.002069028509507964, -0.0004353316632246147),0.0020761994953615304
(1.2052397400879222, 3.962540922443488), (0, 0),0
(-3.000000000000161, 7.134999999999248), (-2.00370669926137e-27, -3.5527136788004694e-14),8.881784197001252e-15
(-2.0000000000001608, 7.134999999999248), (-2.0056788515244225e-27, -3.5527136788004694e-14),8.881784197001252e-15
(-1.0000000000001599, 7.134999999999248), (-2.0007484708667912e-27, -3.5527136788004694e-14),8.881784197001252e-15
(-1.5926737706450923e-13, 7.134999999999248), (-1.997252830980531e-27, -3.5527136788004694e-14),8.881784197001252e-15
(0.999999999999841, 7.134999999999248), (-1.9977902424722124e-27, -3.5527136788004694e-14),8.881784197001252e-15
(1.9999999999998417, 7.134999999999248), (-2.0017345469983175e-27, -3.5527136788004694e-14),8.881784197001252e-15
(2.9999999999998423, 7.134999999999248), (-1.99581809020916e-27, -3.5527136788004694e-14),8.881784197001252e-15
(-2.9999999999999356, 8.13499999999924), (2.00370669926137e-27, 3.5527136788004694e-14),8.881784197001252e-15
(-1.999999999999935, 8.13499999999924), (2.0056788515244225e-27, 3.5527136788004694e-14),8.881784197001252e-15
(-0.9999999999999346, 8.13499999999924), (2.0007484708667912e-27, 3.5527136788004694e-14),8.881784197001252e-15
(6.560330056970547e-14, 8.13499999999924), (1.997252830980531e-27, 3.5527136788004694e-14),8.881784197001252e-15
(1.000000000000066, 8.13499999999924), (1.9977902424722124e-27, 3.5527136788004694e-14),8.881784197001252e-15
(2.000000000000067, 8.13499999999924), (2.0017345469983175e-27, 3.5527136788004694e-14),8.881784197001252e-15
(3.000000000000067, 8.13499999999924), (1.99581809020916e-27, 3.5527136788004694e-14),8.881784197001252e-15
(-3.0, 9.13499999999924), (0, 0),0
(-2.0, 9.13499999999924), (0, 0),0
(-1.0, 9.13499999999924), (0, 0),0
(0.0, 9.13499999999924), (0, 0),0
(1.0, 9.13499999999924), (0, 0),0
(2.0, 9.13499999999924), (0, 0),0
(3.0, 9.13499999999924), (0, 0),0
(-3.0, 10.13499999999924), (0, 0),0
(-2.0, 10.13499999999924), (0, 0),0
(-1.0, 10.13499999999924), (0, 0),0
(0.0, 10.13499999999924), (0, 0),0
(1.0, 10.13499999999924), (0, 0),0
(2.0, 10.13499999999924), (0, 0),0
(3.0, 10.13499999999924), (0, 0),0
(-3.0, 11.13499999999924), (0, 0),0
(-2.0, 11.13499999999924), (0, 0),0
(-1.0, 11.13499999999924), (0, 0),0
(0.0, 11.13499999999924), (0, 0),0
(1.0, 11.13499999999924), (0, 0),0
(2.0, 11.13499999999924), (0, 0),0
(3.0, 11.13499999999924), (0, 0),0
(-3.0, 12.134999999999595), (0, 0),0
(-2.0, 12.134999999999595), (0, 0),0
(-1.0, 12.134999999999595), (0, 0),0
(0.0, 12.134999999999595), (0, 0),0
(1.0, 12.134999999999595), (0, 0),0
(2.0, 12.134999999999595), (0, 0),0
(3.0, 12.134999999999595), (0, 0),0
(-3.0, 13.13499999999995), (0, 0),0
(-2.0, 13.13499999999995), (0, 0),0
(-1.0, 13.13499999999995), (0, 0),0
(0.0, 13.13499999999995), (0, 0),0
(1.0, 13.13499999999995), (0, 0),0
(2.0, 13.13499999999995), (0, 0),0
(3.0, 13.13499999999995), (0, 0),0
(-3.0, 14.135000000000305), (0, 0),0
(-2.0, 14.135000000000305), (0, 0),0
(-1.0, 14.135000000000305), (0, 0),0
(0.0, 14.135000000000305), (0, 0),0
(1.0, 14.135000000000305), (0, 0),0
(2.0, 14.135000000000305), (0, 0),0
(3.0, 14.135000000000305), (0, 0),0
