(-1.2076253850086647, 3.8304971904057568), (0, 0),0
(-1.9976038147347208, 5.577297380812416), (-0.001295789852744089, -0.000269643015749064),0.001299230118533612
(-1.000251741180119, 5.629182534162578), (-0.00013397874352123122, 0.00012611915323915515),0.0027315002697139157
(-0.0019983075753777215, 5.654234348303862), (0.00015651752657002685, 0.00025219844135617006),0.002707437101052035
(0.9964992380388413, 5.6329283971777775), (0.00015035125218627377, 0.0001170452543372505),0.0024007507214263146
(1.9941147384454818, 5.58279444915724), (0.0011228998175090196, -0.0002257198331835117),0.0011255837715545836
(1.2052397400879222, 3.8325409224434908), (0, 0),0
(-3.0000000000001728, 7.004999999999228), (-2.208810534618833e-27, -3.5527136788004694e-14),8.881784197001252e-15
(-2.0000000000001723, 7.004999999999228), (-2.2107826868818856e-27, -3.5527136788004694e-14),8.881784197001252e-15
(-1.0000000000001714, 7.004999999999228), (-2.2058523062242543e-27, -3.5527136788004694e-14),8.881784197001252e-15
(-1.7081369652061086e-13, 7.004999999999228), (-2.202356666337994e-27, -3.5527136788004694e-14),8.881784197001252e-15
(0.9999999999998295, 7.004999999999228), (-2.2028940778296755e-27, -3.5527136788004694e-14),8.881784197001252e-15
(1.9999999999998301, 7.004999999999228), (-2.2068383823557805e-27, -3.5527136788004694e-14),8.881784197001252e-15
(2.999999999999831, 7.004999999999228), (-2.200921925566623e-27, -3.5527136788004694e-14),8.881784197001252e-15
(-2.999999999999924, 8.00499999999922), (2.208810534618833e-27, 3.5527136788004694e-14),8.881784197001252e-15
(-1.9999999999999234, 8.00499999999922), (2.2107826868818856e-27, 3.5527136788004694e-14),8.881784197001252e-15
(-0.9999999999999231, 8.00499999999922), (2.2058523062242543e-27, 3.5527136788004694e-14),8.881784197001252e-15
(7.71496200258071e-14, 8.00499999999922), (2.202356666337994e-27, 3.5527136788004694e-14),8.881784197001252e-15
(1.0000000000000775, 8.00499999999922), (2.2028940778296755e-27, 3.5527136788004694e-14),8.881784197001252e-15
(2.0000000000000786, 8.00499999999922), (2.2068383823557805e-27, 3.5527136788004694e-14),8.881784197001252e-15
(3.0000000000000786, 8.00499999999922), (2.200921925566623e-27, 3.5527136788004694e-14),8.881784197001252e-15
(-3.0, 9.00499999999922), (0, 0),0
(-2.0, 9.00499999999922), (0, 0),0
(-1.0, 9.00499999999922), (0, 0),0
(0.0, 9.00499999999922), (0, 0),0
(1.0, 9.00499999999922), (0, 0),0
(2.0, 9.00499999999922), (0, 0),0
(3.0, 9.00499999999922), (0, 0),0
(-3.0, 10.00499999999922), (0, 0),0
(-2.0, 10.00499999999922), (0, 0),0
(-1.0, 10.00499999999922), (0, 0),0
(0.0, 10.00499999999922), (0, 0),0
(1.0, 10.00499999999922), (0, 0),0
(2.0, 10.00499999999922), (0, 0),0
(3.0, 10.00499999999922), (0, 0),0
(-3.0, 11.00499999999922), (0, 0),0
(-2.0, 11.00499999999922), (0, 0),0
(-1.0, 11.00499999999922), (0, 0),0
(0.0, 11.00499999999922), (0, 0),0
(1.0, 11.00499999999922), (0, 0),0
(2.0, 11.00499999999922), (0, 0),0
(3.0, 11.00499999999922), (0, 0),0
(-3.0, 12.004999999999574), (0, 0),0
(-2.0, 12.004999999999574), (0, 0),0
(-1.0, 12.004999999999574), (0, 0),0
(0.0, 12.004999999999574), (0, 0),0
(1.0, 12.004999999999574), (0, 0),0
(2.0, 12.004999999999574), (0, 0),0
(3.0, 12.004999999999574), (0, 0),0
(-3.0, 13.00499999999993), (0, 0),0
(-2.0, 13.00499999999993), (0, 0),0
(-1.0, 13.00499999999993), (0, 0),0
(0.0, 13.00499999999993), (0, 0),0
(1.0, 13.00499999999993), (0, 0),0
(2.0, 13.00499999999993), (0, 0),0
(3.0, 13.00499999999993), (0, 0),0
(-3.0, 14.005000000000285), (0, 0),0
(-2.0, 14.005000000000285), (0, 0),0
(-1.0, 14.005000000000285), (0, 0),0
(0.0, 14.005000000000285), (0, 0),0
(1.0, 14.005000000000285), (0, 0),0
(2.0, 14.005000000000285), (0, 0),0
(3.0, 14.005000000000285), (0, 0),0
