(-1.4278817359547742, 4.2548384778424015), (0, 0),0
(-1.9927517820189258, 5.792075356940124), (-0.0033529018538499067, -0.0007667633482733355),0.00336973211603786
(-0.9977463221213427, 5.84896143288545), (-0.0006994296242823555, 0.00036204770690619834),0.007439892726000319
(-0.0021267713317637076, 5.873820135044311), (0.0012095258279905337, 0.000655245506217048),0.006921787911401189
(0.9947796787879447, 5.85185637204454), (-0.000756269027812615, 0.0005406612976152564),0.006469220140594145
(1.989660760760289, 5.797179740535486), (0.0035990746779543436, -0.0007911911624651674),0.0036175928391554146
(1.4254960910340317, 4.2568822098801355), (0, 0),0
(-3.000000000000154, 7.214999999999261), (-1.877488954426008e-27, -3.5527136788004694e-14),8.881784197001252e-15
(-2.0000000000001537, 7.214999999999261), (-1.8794611066890606e-27, -3.5527136788004694e-14),8.881784197001252e-15
(-1.0000000000001528, 7.214999999999261), (-1.8745307260314293e-27, -3.5527136788004694e-14),8.881784197001252e-15
(-1.5216194970690823e-13, 7.214999999999261), (-1.871035086145169e-27, -3.5527136788004694e-14),8.881784197001252e-15
(0.9999999999998481, 7.214999999999261), (-1.8715724976368505e-27, -3.5527136788004694e-14),8.881784197001252e-15
(1.9999999999998488, 7.214999999999261), (-1.8755168021629556e-27, -3.5527136788004694e-14),8.881784197001252e-15
(2.9999999999998495, 7.214999999999261), (-1.869600345373798e-27, -3.5527136788004694e-14),8.881784197001252e-15
(-2.9999999999999427, 8.214999999999252), (1.877488954426008e-27, 3.5527136788004694e-14),8.881784197001252e-15
(-1.999999999999942, 8.214999999999252), (1.8794611066890606e-27, 3.5527136788004694e-14),8.881784197001252e-15
(-0.9999999999999417, 8.214999999999252), (1.8745307260314293e-27, 3.5527136788004694e-14),8.881784197001252e-15
(5.849787321210447e-14, 8.214999999999252), (1.871035086145169e-27, 3.5527136788004694e-14),8.881784197001252e-15
(1.0000000000000588, 8.214999999999252), (1.8715724976368505e-27, 3.5527136788004694e-14),8.881784197001252e-15
(2.00000000000006, 8.214999999999252), (1.8755168021629556e-27, 3.5527136788004694e-14),8.881784197001252e-15
(3.00000000000006, 8.214999999999252), (1.869600345373798e-27, 3.5527136788004694e-14),8.881784197001252e-15
(-3.0, 9.214999999999252), (0, 0),0
(-2.0, 9.214999999999252), (0, 0),0
(-1.0, 9.214999999999252), (0, 0),0
(0.0, 9.214999999999252), (0, 0),0
(1.0, 9.214999999999252), (0, 0),0
(2.0, 9.214999999999252), (0, 0),0
(3.0, 9.214999999999252), (0, 0),0
(-3.0, 10.214999999999252), (0, 0),0
(-2.0, 10.214999999999252), (0, 0),0
(-1.0, 10.214999999999252), (0, 0),0
(0.0, 10.214999999999252), (0, 0),0
(1.0, 10.214999999999252), (0, 0),0
(2.0, 10.214999999999252), (0, 0),0
(3.0, 10.214999999999252), (0, 0),0
(-3.0, 11.214999999999252), (0, 0),0
(-2.0, 11.214999999999252), (0, 0),0
(-1.0, 11.214999999999252), (0, 0),0
(0.0, 11.214999999999252), (0, 0),0
(1.0, 11.214999999999252), (0, 0),0
(2.0, 11.214999999999252), (0, 0),0
(3.0, 11.214999999999252), (0, 0),0
(-3.0, 12.214999999999607), (0, 0),0
(-2.0, 12.214999999999607), (0, 0),0
(-1.0, 12.214999999999607), (0, 0),0
(0.0, 12.214999999999607), (0, 0),0
(1.0, 12.214999999999607), (0, 0),0
(2.0, 12.214999999999607), (0, 0),0
(3.0, 12.214999999999607), (0, 0),0
(-3.0, 13.214999999999963), (0, 0),0
(-2.0, 13.214999999999963), (0, 0),0
(-1.0, 13.214999999999963), (0, 0),0
(0.0, 13.214999999999963), (0, 0),0
(1.0, 13.214999999999963), (0, 0),0
(2.0, 13.214999999999963), (0, 0),0
(3.0, 13.214999999999963), (0, 0),0
(-3.0, 14.215000000000318), (0, 0),0
(-2.0, 14.215000000000318), (0, 0),0
(-1.0, 14.215000000000318), (0, 0),0
(0.0, 14.215000000000318), (0, 0),0
(1.0, 14.215000000000318), (0, 0),0
(2.0, 14.215000000000318), (0, 0),0
(3.0, 14.215000000000318), (0, 0),0
