(-1.4278817359547742, 4.2098384778424025), (0, 0),0
(-1.9942263065247243, 5.745623109614289), (-0.002990660695390338, -0.000665075146623991),0.0030043049175684233
(-0.9987678635745088, 5.800966622079918), (0.0002683759330593047, 0.00039276320664191253),0.005734896915228216
(-0.0018101472023368996, 5.825898206532617), (-0.00015771094277722665, 0.0005235748452859293),0.005619619137560816
(0.9950637365116553, 5.804155341795073), (0.00026929170932341387, 0.00030771393156741467),0.005510339813066922
(1.9910166506795635, 5.750844567140693), (0.0026107039957848463, -0.0005589768368712654),0.0026213126731658987
(1.4254960910340317, 4.2118822098801365), (0, 0),0
(-3.000000000000158, 7.169999999999254), (-1.948486435895899e-27, -3.5527136788004694e-14),8.881784197001252e-15
(-2.0000000000001577, 7.169999999999254), (-1.9504585881589517e-27, -3.5527136788004694e-14),8.881784197001252e-15
(-1.0000000000001568, 7.169999999999254), (-1.9455282075013204e-27, -3.5527136788004694e-14),8.881784197001252e-15
(-1.561587525955588e-13, 7.169999999999254), (-1.94203256761506e-27, -3.5527136788004694e-14),8.881784197001252e-15
(0.9999999999998441, 7.169999999999254), (-1.9425699791067416e-27, -3.5527136788004694e-14),8.881784197001252e-15
(1.9999999999998448, 7.169999999999254), (-1.9465142836328466e-27, -3.5527136788004694e-14),8.881784197001252e-15
(2.9999999999998455, 7.169999999999254), (-1.940597826843689e-27, -3.5527136788004694e-14),8.881784197001252e-15
(-2.9999999999999387, 8.169999999999245), (1.948486435895899e-27, 3.5527136788004694e-14),8.881784197001252e-15
(-1.999999999999938, 8.169999999999245), (1.9504585881589517e-27, 3.5527136788004694e-14),8.881784197001252e-15
(-0.9999999999999377, 8.169999999999245), (1.9455282075013204e-27, 3.5527136788004694e-14),8.881784197001252e-15
(6.249467610075503e-14, 8.169999999999245), (1.94203256761506e-27, 3.5527136788004694e-14),8.881784197001252e-15
(1.0000000000000628, 8.169999999999245), (1.9425699791067416e-27, 3.5527136788004694e-14),8.881784197001252e-15
(2.000000000000064, 8.169999999999245), (1.9465142836328466e-27, 3.5527136788004694e-14),8.881784197001252e-15
(3.000000000000064, 8.169999999999245), (1.940597826843689e-27, 3.5527136788004694e-14),8.881784197001252e-15
(-3.0, 9.169999999999245), (0, 0),0
(-2.0, 9.169999999999245), (0, 0),0
(-1.0, 9.169999999999245), (0, 0),0
(0.0, 9.169999999999245), (0, 0),0
(1.0, 9.169999999999245), (0, 0),0
(2.0, 9.169999999999245), (0, 0),0
(3.0, 9.169999999999245), (0, 0),0
(-3.0, 10.169999999999245), (0, 0),0
(-2.0, 10.169999999999245), (0, 0),0
(-1.0, 10.169999999999245), (0, 0),0
(0.0, 10.169999999999245), (0, 0),0
(1.0, 10.169999999999245), (0, 0),0
(2.0, 10.169999999999245), (0, 0),0
(3.0, 10.169999999999245), (0, 0),0
(-3.0, 11.169999999999245), (0, 0),0
(-2.0, 11.169999999999245), (0, 0),0
(-1.0, 11.169999999999245), (0, 0),0
(0.0, 11.169999999999245), (0, 0),0
(1.0, 11.169999999999245), (0, 0),0
(2.0, 11.169999999999245), (0, 0),0
(3.0, 11.169999999999245), (0, 0),0
(-3.0, 12.1699999999996), (0, 0),0
(-2.0, 12.1699999999996), (0, 0),0
(-1.0, 12.1699999999996), (0, 0),0
(0.0, 12.1699999999996), (0, 0),0
(1.0, 12.1699999999996), (0, 0),0
(2.0, 12.1699999999996), (0, 0),0
(3.0, 12.1699999999996), (0, 0),0
(-3.0, 13.169999999999956), (0, 0),0
(-2.0, 13.169999999999956), (0, 0),0
(-1.0, 13.169999999999956), (0, 0),0
(0.0, 13.169999999999956), (0, 0),0
(1.0, 13.169999999999956), (0, 0),0
(2.0, 13.169999999999956), (0, 0),0
(3.0, 13.169999999999956), (0, 0),0
(-3.0, 14.17000000000031), (0, 0),0
(-2.0, 14.17000000000031), (0, 0),0
(-1.0, 14.17000000000031), (0, 0),0
(0.0, 14.17000000000031), (0, 0),0
(1.0, 14.17000000000031), (0, 0),0
(2.0, 14.17000000000031), (0, 0),0
(3.0, 14.17000000000031), (0, 0),0
