(-3.000000000000082, 7.049999999999391), (0.0, -3.5527136788004694e-14),8.881784197001252e-15
(-2.000000000000082, 7.049999999999391), (0.0, -3.5527136788004694e-14),8.881784197001252e-15
(-1.0000000000000815, 7.049999999999391), (0.0, -3.5527136788004694e-14),8.881784197001252e-15
(-8.10632672099132e-14, 7.049999999999391), (0.0, -3.5527136788004694e-14),8.881784197001252e-15
(0.9999999999999192, 7.049999999999391), (0.0, -3.5527136788004694e-14),8.881784197001252e-15
(1.9999999999999196, 7.049999999999391), (0.0, -3.5527136788004694e-14),8.881784197001252e-15
(2.9999999999999196, 7.049999999999391), (0.0, -3.5527136788004694e-14),8.881784197001252e-15
(-3.000000000000082, 8.049999999999383), (0.0, 3.5527136788004694e-14),8.881784197001252e-15
(-2.000000000000082, 8.049999999999383), (0.0, 3.5527136788004694e-14),8.881784197001252e-15
(-1.0000000000000815, 8.049999999999383), (0.0, 3.5527136788004694e-14),8.881784197001252e-15
(-8.10632672099132e-14, 8.049999999999383), (0.0, 3.5527136788004694e-14),8.881784197001252e-15
(0.9999999999999192, 8.049999999999383), (0.0, 3.5527136788004694e-14),8.881784197001252e-15
(1.9999999999999196, 8.049999999999383), (0.0, 3.5527136788004694e-14),8.881784197001252e-15
(2.9999999999999196, 8.049999999999383), (0.0, 3.5527136788004694e-14),8.881784197001252e-15
(-3.0, 9.049999999999383), (0, 0),0
(-2.0, 9.049999999999383), (0, 0),0
(-1.0, 9.049999999999383), (0, 0),0
(0.0, 9.049999999999383), (0, 0),0
(1.0, 9.049999999999383), (0, 0),0
(2.0, 9.049999999999383), (0, 0),0
(3.0, 9.049999999999383), (0, 0),0
(-3.0, 10.049999999999383), (0, 0),0
(-2.0, 10.049999999999383), (0, 0),0
(-1.0, 10.049999999999383), (0, 0),0
(0.0, 10.049999999999383), (0, 0),0
(1.0, 10.049999999999383), (0, 0),0
(2.0, 10.049999999999383), (0, 0),0
(3.0, 10.049999999999383), (0, 0),0
(-3.0, 11.049999999999383), (0, 0),0
(-2.0, 11.049999999999383), (0, 0),0
(-1.0, 11.049999999999383), (0, 0),0
(0.0, 11.049999999999383), (0, 0),0
(1.0, 11.049999999999383), (0, 0),0
(2.0, 11.049999999999383), (0, 0),0
(3.0, 11.049999999999383), (0, 0),0
(-3.0, 12.049999999999383), (0, 0),0
(-2.0, 12.049999999999383), (0, 0),0
(-1.0, 12.049999999999383), (0, 0),0
(0.0, 12.049999999999383), (0, 0),0
(1.0, 12.049999999999383), (0, 0),0
(2.0, 12.049999999999383), (0, 0),0
(3.0, 12.049999999999383), (0, 0),0
(-3.0, 13.049999999999738), (0, 0),0
(-2.0, 13.049999999999738), (0, 0),0
(-1.0, 13.049999999999738), (0, 0),0
(0.0, 13.049999999999738), (0, 0),0
(1.0, 13.049999999999738), (0, 0),0
(2.0, 13.049999999999738), (0, 0),0
(3.0, 13.049999999999738), (0, 0),0
(-3.0, 14.050000000000093), (0, 0),0
(-2.0, 14.050000000000093), (0, 0),0
(-1.0, 14.050000000000093), (0, 0),0
(0.0, 14.050000000000093), (0, 0),0
(1.0, 14.050000000000093), (0, 0),0
(2.0, 14.050000000000093), (0, 0),0
(3.0, 14.050000000000093), (0, 0),0
(-3.0, 15.050000000000448), (0, 0),0
(-2.0, 15.050000000000448), (0, 0),0
(-1.0, 15.050000000000448), (0, 0),0
(0.0, 15.050000000000448), (0, 0),0
(1.0, 15.050000000000448), (0, 0),0
(2.0, 15.050000000000448), (0, 0),0
(3.0, 15.050000000000448), (0, 0),0
