(-3.0, 9.689999999999795), (0, 0),0
(-2.0, 9.689999999999795), (0, 0),0
(-1.0, 9.689999999999795), (0, 0),0
(0.0, 9.689999999999795), (0, 0),0
(1.0, 9.689999999999795), (0, 0),0
(2.0, 9.689999999999795), (0, 0),0
(3.0, 9.689999999999795), (0, 0),0
(-3.0, 10.689999999999795), (0, 0),0
(-2.0, 10.689999999999795), (0, 0),0
(-1.0, 10.689999999999795), (0, 0),0
(0.0, 10.689999999999795), (0, 0),0
(1.0, 10.689999999999795), (0, 0),0
(2.0, 10.689999999999795), (0, 0),0
(3.0, 10.689999999999795), (0, 0),0
(-3.0, 11.689999999999795), (0, 0),0
(-2.0, 11.689999999999795), (0, 0),0
(-1.0, 11.689999999999795), (0, 0),0
(0.0, 11.689999999999795), (0, 0),0
(1.0, 11.689999999999795), (0, 0),0
(2.0, 11.689999999999795), (0, 0),0
(3.0, 11.689999999999795), (0, 0),0
(-3.0, 12.689999999999795), (0, 0),0
(-2.0, 12.689999999999795), (0, 0),0
(-1.0, 12.689999999999795), (0, 0),0
(0.0, 12.689999999999795), (0, 0),0
(1.0, 12.689999999999795), (0, 0),0
(2.0, 12.689999999999795), (0, 0),0
(3.0, 12.689999999999795), (0, 0),0
(-3.0, 13.689999999999795), (0, 0),0
(-2.0, 13.689999999999795), (0, 0),0
(-1.0, 13.689999999999795), (0, 0),0
(0.0, 13.689999999999795), (0, 0),0
(1.0, 13.689999999999795), (0, 0),0
(2.0, 13.689999999999795), (0, 0),0
(3.0, 13.689999999999795), (0, 0),0
(-3.0, 14.689999999999795), (0, 0),0
(-2.0, 14.689999999999795), (0, 0),0
(-1.0, 14.689999999999795), (0, 0),0
(0.0, 14.689999999999795), (0, 0),0
(1.0, 14.689999999999795), (0, 0),0
(2.0, 14.689999999999795), (0, 0),0
(3.0, 14.689999999999795), (0, 0),0
(-3.0, 15.69000000000015), (0, 0),0
(-2.0, 15.69000000000015), (0, 0),0
(-1.0, 15.69000000000015), (0, 0),0
(0.0, 15.69000000000015), (0, 0),0
(1.0, 15.69000000000015), (0, 0),0
(2.0, 15.69000000000015), (0, 0),0
(3.0, 15.69000000000015), (0, 0),0
(-3.0, 16.69000000000026), (0, 0),0
(-2.0, 16.69000000000026), (0, 0),0
(-1.0, 16.69000000000026), (0, 0),0
(0.0, 16.69000000000026), (0, 0),0
(1.0, 16.69000000000026), (0, 0),0
(2.0, 16.69000000000026), (0, 0),0
(3.0, 16.69000000000026), (0, 0),0
(-3.0, 17.69000000000026), (0, 0),0
(-2.0, 17.69000000000026), (0, 0),0
(-1.0, 17.69000000000026), (0, 0),0
(0.0, 17.69000000000026), (0, 0),0
(1.0, 17.69000000000026), (0, 0),0
(2.0, 17.69000000000026), (0, 0),0
(3.0, 17.69000000000026), (0, 0),0
