(-1.2076253850086647, 3.9804971904057536), (0, 0),0
(-1.9946506291006232, 5.730205234579692), (-0.0023300001235743674, -0.0005137283796085998),0.0023390080547766035
(-0.9985018048944989, 5.785114021507498), (-0.0009328438069883017, 0.00018700794458004232),0.005613597124605407
(-0.0020885570077187323, 5.810057642528443), (0.0009402756426860801, 0.0005287874683160422),0.005603128769391508
(0.9953469981227193, 5.788363033528924), (-0.0001972333861865131, 0.0003333175278974135),0.0048582933245447935
(1.9914130375896821, 5.735454268432413), (0.002519801674063102, -0.0005353845611848981),0.0025297536249820896
(1.4254960910340317, 4.196882209880137), (-3.75, 2.1650635094610964),4.330127018922194
(-3.0000000000001594, 7.1549999999992515), (-1.9721522630525295e-27, -3.5527136788004694e-14),8.881784197001252e-15
(-2.000000000000159, 7.1549999999992515), (-1.974124415315582e-27, -3.5527136788004694e-14),8.881784197001252e-15
(-1.000000000000158, 7.1549999999992515), (-1.9691940346579507e-27, -3.5527136788004694e-14),8.881784197001252e-15
(-1.5749102022510898e-13, 7.1549999999992515), (-1.9656983947716904e-27, -3.5527136788004694e-14),8.881784197001252e-15
(0.9999999999998428, 7.1549999999992515), (-1.966235806263372e-27, -3.5527136788004694e-14),8.881784197001252e-15
(1.9999999999998435, 7.1549999999992515), (-1.970180110789477e-27, -3.5527136788004694e-14),8.881784197001252e-15
(2.999999999999844, 7.1549999999992515), (-1.9642636540003194e-27, -3.5527136788004694e-14),8.881784197001252e-15
(-2.9999999999999374, 8.154999999999243), (1.9721522630525295e-27, 3.5527136788004694e-14),8.881784197001252e-15
(-1.9999999999999367, 8.154999999999243), (1.974124415315582e-27, 3.5527136788004694e-14),8.881784197001252e-15
(-0.9999999999999364, 8.154999999999243), (1.9691940346579507e-27, 3.5527136788004694e-14),8.881784197001252e-15
(6.382694373030522e-14, 8.154999999999243), (1.9656983947716904e-27, 3.5527136788004694e-14),8.881784197001252e-15
(1.0000000000000642, 8.154999999999243), (1.966235806263372e-27, 3.5527136788004694e-14),8.881784197001252e-15
(2.0000000000000653, 8.154999999999243), (1.970180110789477e-27, 3.5527136788004694e-14),8.881784197001252e-15
(3.0000000000000653, 8.154999999999243), (1.9642636540003194e-27, 3.5527136788004694e-14),8.881784197001252e-15
(-3.0, 9.154999999999243), (0, 0),0
(-2.0, 9.154999999999243), (0, 0),0
(-1.0, 9.154999999999243), (0, 0),0
(0.0, 9.154999999999243), (0, 0),0
(1.0, 9.154999999999243), (0, 0),0
(2.0, 9.154999999999243), (0, 0),0
(3.0, 9.154999999999243), (0, 0),0
(-3.0, 10.154999999999243), (0, 0),0
(-2.0, 10.154999999999243), (0, 0),0
(-1.0, 10.154999999999243), (0, 0),0
(0.0, 10.154999999999243), (0, 0),0
(1.0, 10.154999999999243), (0, 0),0
(2.0, 10.154999999999243), (0, 0),0
(3.0, 10.154999999999243), (0, 0),0
(-3.0, 11.154999999999243), (0, 0),0
(-2.0, 11.154999999999243), (0, 0),0
(-1.0, 11.154999999999243), (0, 0),0
(0.0, 11.154999999999243), (0, 0),0
(1.0, 11.154999999999243), (0, 0),0
(2.0, 11.154999999999243), (0, 0),0
(3.0, 11.154999999999243), (0, 0),0
(-3.0, 12.154999999999598), (0, 0),0
(-2.0, 12.154999999999598), (0, 0),0
(-1.0, 12.154999999999598), (0, 0),0
(0.0, 12.154999999999598), (0, 0),0
(1.0, 12.154999999999598), (0, 0),0
(2.0, 12.154999999999598), (0, 0),0
(3.0, 12.154999999999598), (0, 0),0
(-3.0, 13.154999999999953), (0, 0),0
(-2.0, 13.154999999999953), (0, 0),0
(-1.0, 13.154999999999953), (0, 0),0
(0.0, 13.154999999999953), (0, 0),0
(1.0, 13.154999999999953), (0, 0),0
(2.0, 13.154999999999953), (0, 0),0
(3.0, 13.154999999999953), (0, 0),0
(-3.0, 14.155000000000308), (0, 0),0
(-2.0, 14.155000000000308), (0, 0),0
(-1.0, 14.155000000000308), (0, 0),0
(0.0, 14.155000000000308), (0, 0),0
(1.0, 14.155000000000308), (0, 0),0
(2.0, 14.155000000000308), (0, 0),0
(3.0, 14.155000000000308), (0, 0),0
