(-0.987369034062555, 3.5961559029691084), (0, 0),0
(-1.9978641471127985, 5.5570410823980865), (-0.001068878523289489, -0.0002212722855873334),0.0010714570347017949
(-1.0002706938326336, 5.608669910811378), (-0.0003279657968491853, 8.099639216345854e-05),0.002470699382953745
(-0.001984498532921108, 5.63373274099214), (0.0003560937310924206, 0.00022898243069395885),0.0024413150993828348
(0.9967467204887873, 5.612451468361746), (-0.0001042588793369343, 0.00014034357527806482),0.0021898305379115524
(1.9943522097051243, 5.562560691059636), (0.0011450094683831881, -0.0002290501125481488),0.0011477577867806676
(0.9849833891418126, 3.5981996350068424), (0, 0),0
(-3.0000000000001745, 6.984999999999225), (-2.2403649708276735e-27, -3.5527136788004694e-14),8.881784197001252e-15
(-2.000000000000174, 6.984999999999225), (-2.242337123090726e-27, -3.5527136788004694e-14),8.881784197001252e-15
(-1.0000000000001732, 6.984999999999225), (-2.2374067424330947e-27, -3.5527136788004694e-14),8.881784197001252e-15
(-1.725900533600111e-13, 6.984999999999225), (-2.2339111025468344e-27, -3.5527136788004694e-14),8.881784197001252e-15
(0.9999999999998277, 6.984999999999225), (-2.234448514038516e-27, -3.5527136788004694e-14),8.881784197001252e-15
(1.9999999999998284, 6.984999999999225), (-2.238392818564621e-27, -3.5527136788004694e-14),8.881784197001252e-15
(2.999999999999829, 6.984999999999225), (-2.2324763617754634e-27, -3.5527136788004694e-14),8.881784197001252e-15
(-2.9999999999999223, 7.984999999999216), (2.2403649708276735e-27, 3.5527136788004694e-14),8.881784197001252e-15
(-1.9999999999999216, 7.984999999999216), (2.242337123090726e-27, 3.5527136788004694e-14),8.881784197001252e-15
(-0.9999999999999213, 7.984999999999216), (2.2374067424330947e-27, 3.5527136788004694e-14),8.881784197001252e-15
(7.892597686520735e-14, 7.984999999999216), (2.2339111025468344e-27, 3.5527136788004694e-14),8.881784197001252e-15
(1.0000000000000793, 7.984999999999216), (2.234448514038516e-27, 3.5527136788004694e-14),8.881784197001252e-15
(2.0000000000000804, 7.984999999999216), (2.238392818564621e-27, 3.5527136788004694e-14),8.881784197001252e-15
(3.0000000000000804, 7.984999999999216), (2.2324763617754634e-27, 3.5527136788004694e-14),8.881784197001252e-15
(-3.0, 8.984999999999216), (0, 0),0
(-2.0, 8.984999999999216), (0, 0),0
(-1.0, 8.984999999999216), (0, 0),0
(0.0, 8.984999999999216), (0, 0),0
(1.0, 8.984999999999216), (0, 0),0
(2.0, 8.984999999999216), (0, 0),0
(3.0, 8.984999999999216), (0, 0),0
(-3.0, 9.984999999999216), (0, 0),0
(-2.0, 9.984999999999216), (0, 0),0
(-1.0, 9.984999999999216), (0, 0),0
(0.0, 9.984999999999216), (0, 0),0
(1.0, 9.984999999999216), (0, 0),0
(2.0, 9.984999999999216), (0, 0),0
(3.0, 9.984999999999216), (0, 0),0
(-3.0, 10.984999999999216), (0, 0),0
(-2.0, 10.984999999999216), (0, 0),0
(-1.0, 10.984999999999216), (0, 0),0
(0.0, 10.984999999999216), (0, 0),0
(1.0, 10.984999999999216), (0, 0),0
(2.0, 10.984999999999216), (0, 0),0
(3.0, 10.984999999999216), (0, 0),0
(-3.0, 11.984999999999571), (0, 0),0
(-2.0, 11.984999999999571), (0, 0),0
(-1.0, 11.984999999999571), (0, 0),0
(0.0, 11.984999999999571), (0, 0),0
(1.0, 11.984999999999571), (0, 0),0
(2.0, 11.984999999999571), (0, 0),0
(3.0, 11.984999999999571), (0, 0),0
(-3.0, 12.984999999999927), (0, 0),0
(-2.0, 12.984999999999927), (0, 0),0
(-1.0, 12.984999999999927), (0, 0),0
(0.0, 12.984999999999927), (0, 0),0
(1.0, 12.984999999999927), (0, 0),0
(2.0, 12.984999999999927), (0, 0),0
(3.0, 12.984999999999927), (0, 0),0
(-3.0, 13.985000000000282), (0, 0),0
(-2.0, 13.985000000000282), (0, 0),0
(-1.0, 13.985000000000282), (0, 0),0
(0.0, 13.985000000000282), (0, 0),0
(1.0, 13.985000000000282), (0, 0),0
(2.0, 13.985000000000282), (0, 0),0
(3.0, 13.985000000000282), (0, 0),0
