(-3.0, 10.459999999999916), (0, 0),0
(-2.0, 10.459999999999916), (0, 0),0
(-1.0, 10.459999999999916), (0, 0),0
(0.0, 10.459999999999916), (0, 0),0
(1.0, 10.459999999999916), (0, 0),0
(2.0, 10.459999999999916), (0, 0),0
(3.0, 10.459999999999916), (0, 0),0
(-3.0, 11.459999999999916), (0, 0),0
(-2.0, 11.459999999999916), (0, 0),0
(-1.0, 11.459999999999916), (0, 0),0
(0.0, 11.459999999999916), (0, 0),0
(1.0, 11.459999999999916), (0, 0),0
(2.0, 11.459999999999916), (0, 0),0
(3.0, 11.459999999999916), (0, 0),0
(-3.0, 12.459999999999916), (0, 0),0
(-2.0, 12.459999999999916), (0, 0),0
(-1.0, 12.459999999999916), (0, 0),0
(0.0, 12.459999999999916), (0, 0),0
(1.0, 12.459999999999916), (0, 0),0
(2.0, 12.459999999999916), (0, 0),0
(3.0, 12.459999999999916), (0, 0),0
(-3.0, 13.459999999999916), (0, 0),0
(-2.0, 13.459999999999916), (0, 0),0
(-1.0, 13.459999999999916), (0, 0),0
(0.0, 13.459999999999916), (0, 0),0
(1.0, 13.459999999999916), (0, 0),0
(2.0, 13.459999999999916), (0, 0),0
(3.0, 13.459999999999916), (0, 0),0
(-3.0, 14.459999999999916), (0, 0),0
(-2.0, 14.459999999999916), (0, 0),0
(-1.0, 14.459999999999916), (0, 0),0
(0.0, 14.459999999999916), (0, 0),0
(1.0, 14.459999999999916), (0, 0),0
(2.0, 14.459999999999916), (0, 0),0
(3.0, 14.459999999999916), (0, 0),0
(-3.0, 15.459999999999916), (0, 0),0
(-2.0, 15.459999999999916), (0, 0),0
(-1.0, 15.459999999999916), (0, 0),0
(0.0, 15.459999999999916), (0, 0),0
(1.0, 15.459999999999916), (0, 0),0
(2.0, 15.459999999999916), (0, 0),0
(3.0, 15.459999999999916), (0, 0),0
(-3.0, 16.460000000000107), (0, 0),0
(-2.0, 16.460000000000107), (0, 0),0
(-1.0, 16.460000000000107), (0, 0),0
(0.0, 16.460000000000107), (0, 0),0
(1.0, 16.460000000000107), (0, 0),0
(2.0, 16.460000000000107), (0, 0),0
(3.0, 16.460000000000107), (0, 0),0
(-3.0, 17.460000000000107), (0, 0),0
(-2.0, 17.460000000000107), (0, 0),0
(-1.0, 17.460000000000107), (0, 0),0
(0.0, 17.460000000000107), (0, 0),0
(1.0, 17.460000000000107), (0, 0),0
(2.0, 17.460000000000107), (0, 0),0
(3.0, 17.460000000000107), (0, 0),0
(-3.0, 18.460000000000107), (0, 0),0
(-2.0, 18.460000000000107), (0, 0),0
(-1.0, 18.460000000000107), (0, 0),0
(0.0, 18.460000000000107), (0, 0),0
(1.0, 18.460000000000107), (0, 0),0
(2.0, 18.460000000000107), (0, 0),0
(3.0, 18.460000000000107), (0, 0),0
