(-3.0, 10.634999999999943), (0, 0),0
(-2.0, 10.634999999999943), (0, 0),0
(-1.0, 10.634999999999943), (0, 0),0
(0.0, 10.634999999999943), (0, 0),0
(1.0, 10.634999999999943), (0, 0),0
(2.0, 10.634999999999943), (0, 0),0
(3.0, 10.634999999999943), (0, 0),0
(-3.0, 11.634999999999943), (0, 0),0
(-2.0, 11.634999999999943), (0, 0),0
(-1.0, 11.634999999999943), (0, 0),0
(0.0, 11.634999999999943), (0, 0),0
(1.0, 11.634999999999943), (0, 0),0
(2.0, 11.634999999999943), (0, 0),0
(3.0, 11.634999999999943), (0, 0),0
(-3.0, 12.634999999999943), (0, 0),0
(-2.0, 12.634999999999943), (0, 0),0
(-1.0, 12.634999999999943), (0, 0),0
(0.0, 12.634999999999943), (0, 0),0
(1.0, 12.634999999999943), (0, 0),0
(2.0, 12.634999999999943), (0, 0),0
(3.0, 12.634999999999943), (0, 0),0
(-3.0, 13.634999999999943), (0, 0),0
(-2.0, 13.634999999999943), (0, 0),0
(-1.0, 13.634999999999943), (0, 0),0
(0.0, 13.634999999999943), (0, 0),0
(1.0, 13.634999999999943), (0, 0),0
(2.0, 13.634999999999943), (0, 0),0
(3.0, 13.634999999999943), (0, 0),0
(-3.0, 14.634999999999943), (0, 0),0
(-2.0, 14.634999999999943), (0, 0),0
(-1.0, 14.634999999999943), (0, 0),0
(0.0, 14.634999999999943), (0, 0),0
(1.0, 14.634999999999943), (0, 0),0
(2.0, 14.634999999999943), (0, 0),0
(3.0, 14.634999999999943), (0, 0),0
(-3.0, 15.634999999999943), (0, 0),0
(-2.0, 15.634999999999943), (0, 0),0
(-1.0, 15.634999999999943), (0, 0),0
(0.0, 15.634999999999943), (0, 0),0
(1.0, 15.634999999999943), (0, 0),0
(2.0, 15.634999999999943), (0, 0),0
(3.0, 15.634999999999943), (0, 0),0
(-3.0, 16.635000000000073), (0, 0),0
(-2.0, 16.635000000000073), (0, 0),0
(-1.0, 16.635000000000073), (0, 0),0
(0.0, 16.635000000000073), (0, 0),0
(1.0, 16.635000000000073), (0, 0),0
(2.0, 16.635000000000073), (0, 0),0
(3.0, 16.635000000000073), (0, 0),0
(-3.0, 17.635000000000073), (0, 0),0
(-2.0, 17.635000000000073), (0, 0),0
(-1.0, 17.635000000000073), (0, 0),0
(0.0, 17.635000000000073), (0, 0),0
(1.0, 17.635000000000073), (0, 0),0
(2.0, 17.635000000000073), (0, 0),0
(3.0, 17.635000000000073), (0, 0),0
(-3.0, 18.635000000000073), (0, 0),0
(-2.0, 18.635000000000073), (0, 0),0
(-1.0, 18.635000000000073), (0, 0),0
(0.0, 18.635000000000073), (0, 0),0
(1.0, 18.635000000000073), (0, 0),0
(2.0, 18.635000000000073), (0, 0),0
(3.0, 18.635000000000073), (0, 0),0
