(-0.69834371963047, 3.0295885009173), (0.12134806036474194, -1.1333950528694885),0.4362514457273017
(-0.9155058245156832, 3.650180239853579), (0.12031320115316083, 0.48106078157178567),1.0283555424865836
(-0.9632712080257032, 5.203042976408532), (-0.03400609582916913, -0.006060972814249816),0.03528485841747275
(0.0004876776364142782, 5.2459861330916295), (-0.005352092101699492, 0.01240102047734317),0.0763623054500292
(0.9586335891794271, 5.207400192867128), (0.03935818793086862, -0.006340047663093355),0.04107744703255645
(1.1601991928773014, 3.6740410893464914), (-3.5791858705235122, 2.6074688689865506),5.481280015595942
(0.7138823745712538, 3.0504573613979016), (-0.19383870787107288, -1.2173948515674526),0.47346005372232136
(-1.1993791378366625, 3.7847491094393395), (3.508338738482097, 2.8173977807587995),5.109714594421124
(-1.9204529844740166, 6.450768264376271), (-0.0360336925588427, -0.007741503021192935),0.03749122149885298
(-0.9593295236141155, 6.50239036890966), (-0.00011986211933671248, 0.0033931119573279225),0.07507354764193064
(0.0026533653784696822, 6.531316140077406), (-0.00591703161751924, 0.009510459341948524),0.0816112469893765
(0.9581749972295759, 6.502005472345486), (0.006505679767724461, 0.0023269817785643958),0.08101072864749959
(1.9198615302178157, 6.4513788906427605), (0.03556490652797419, -0.0074890500566479066),0.03698180780120075
(1.0874821127687795, 3.7119371958237712), (0.023024578394584688, 0.7749894920419984),1.1583084152780199
(-2.9999999999999, 7.704999999999181), (1.0334077858395255e-27, -3.5527136788004694e-14),8.881784197001252e-15
(-1.9999999999998992, 7.704999999999181), (1.0412963948917356e-27, -3.5527136788004694e-14),8.881784197001252e-15
(-0.9999999999998989, 7.704999999999181), (1.0343938619710517e-27, -3.5527136788004694e-14),8.881784197001252e-15
(1.0125233984581433e-13, 7.704999999999181), (1.0323250742471104e-27, -3.5527136788004694e-14),8.881784197001252e-15
(1.0000000000001017, 7.704999999999181), (1.0343938619710517e-27, -3.5527136788004694e-14),8.881784197001252e-15
(2.000000000000103, 7.704999999999181), (1.0432685471547881e-27, -3.5527136788004694e-14),8.881784197001252e-15
(3.000000000000103, 7.704999999999181), (1.0373520903656305e-27, -3.5527136788004694e-14),8.881784197001252e-15
(-3.0000000000000164, 8.704999999999172), (-1.0334077858395255e-27, 3.5527136788004694e-14),8.881784197001252e-15
(-2.0000000000000164, 8.704999999999172), (-1.0412963948917356e-27, 3.5527136788004694e-14),8.881784197001252e-15
(-1.0000000000000153, 8.704999999999172), (-1.0343938619710517e-27, 3.5527136788004694e-14),8.881784197001252e-15
(-1.4977130646798326e-14, 8.704999999999172), (-1.0323250742471104e-27, 3.5527136788004694e-14),8.881784197001252e-15
(0.9999999999999852, 8.704999999999172), (-1.0343938619710517e-27, 3.5527136788004694e-14),8.881784197001252e-15
(1.9999999999999856, 8.704999999999172), (-1.0432685471547881e-27, 3.5527136788004694e-14),8.881784197001252e-15
(2.9999999999999862, 8.704999999999172), (-1.0373520903656305e-27, 3.5527136788004694e-14),8.881784197001252e-15
(-3.0, 9.704999999999172), (0, 0),0
(-2.0, 9.704999999999172), (0, 0),0
(-1.0, 9.704999999999172), (0, 0),0
(0.0, 9.704999999999172), (0, 0),0
(1.0, 9.704999999999172), (0, 0),0
(2.0, 9.704999999999172), (0, 0),0
(3.0, 9.704999999999172), (0, 0),0
(-3.0, 10.704999999999172), (0, 0),0
(-2.0, 10.704999999999172), (0, 0),0
(-1.0, 10.704999999999172), (0, 0),0
(0.0, 10.704999999999172), (0, 0),0
(1.0, 10.704999999999172), (0, 0),0
(2.0, 10.704999999999172), (0, 0),0
(3.0, 10.704999999999172), (0, 0),0
(-3.0, 11.704999999999528), (0, 0),0
(-2.0, 11.704999999999528), (0, 0),0
(-1.0, 11.704999999999528), (0, 0),0
(0.0, 11.704999999999528), (0, 0),0
(1.0, 11.704999999999528), (0, 0),0
(2.0, 11.704999999999528), (0, 0),0
(3.0, 11.704999999999528), (0, 0),0
(-3.0, 12.704999999999883), (0, 0),0
(-2.0, 12.704999999999883), (0, 0),0
(-1.0, 12.704999999999883), (0, 0),0
(0.0, 12.704999999999883), (0, 0),0
(1.0, 12.704999999999883), (0, 0),0
(2.0, 12.704999999999883), (0, 0),0
(3.0, 12.704999999999883), (0, 0),0
(-3.0, 13.705000000000238), (0, 0),0
(-2.0, 13.705000000000238), (0, 0),0
(-1.0, 13.705000000000238), (0, 0),0
(0.0, 13.705000000000238), (0, 0),0
(1.0, 13.705000000000238), (0, 0),0
(2.0, 13.705000000000238), (0, 0),0
(3.0, 13.705000000000238), (0, 0),0
