(-3.0, 8.724999999999644), (0, 0),0
(-2.0, 8.724999999999644), (0, 0),0
(-1.0, 8.724999999999644), (0, 0),0
(0.0, 8.724999999999644), (0, 0),0
(1.0, 8.724999999999644), (0, 0),0
(2.0, 8.724999999999644), (0, 0),0
(3.0, 8.724999999999644), (0, 0),0
(-3.0, 9.724999999999644), (0, 0),0
(-2.0, 9.724999999999644), (0, 0),0
(-1.0, 9.724999999999644), (0, 0),0
(0.0, 9.724999999999644), (0, 0),0
(1.0, 9.724999999999644), (0, 0),0
(2.0, 9.724999999999644), (0, 0),0
(3.0, 9.724999999999644), (0, 0),0
(-3.0, 10.724999999999644), (0, 0),0
(-2.0, 10.724999999999644), (0, 0),0
(-1.0, 10.724999999999644), (0, 0),0
(0.0, 10.724999999999644), (0, 0),0
(1.0, 10.724999999999644), (0, 0),0
(2.0, 10.724999999999644), (0, 0),0
(3.0, 10.724999999999644), (0, 0),0
(-3.0, 11.724999999999644), (0, 0),0
(-2.0, 11.724999999999644), (0, 0),0
(-1.0, 11.724999999999644), (0, 0),0
(0.0, 11.724999999999644), (0, 0),0
(1.0, 11.724999999999644), (0, 0),0
(2.0, 11.724999999999644), (0, 0),0
(3.0, 11.724999999999644), (0, 0),0
(-3.0, 12.724999999999644), (0, 0),0
(-2.0, 12.724999999999644), (0, 0),0
(-1.0, 12.724999999999644), (0, 0),0
(0.0, 12.724999999999644), (0, 0),0
(1.0, 12.724999999999644), (0, 0),0
(2.0, 12.724999999999644), (0, 0),0
(3.0, 12.724999999999644), (0, 0),0
(-3.0, 13.724999999999644), (0, 0),0
(-2.0, 13.724999999999644), (0, 0),0
(-1.0, 13.724999999999644), (0, 0),0
(0.0, 13.724999999999644), (0, 0),0
(1.0, 13.724999999999644), (0, 0),0
(2.0, 13.724999999999644), (0, 0),0
(3.0, 13.724999999999644), (0, 0),0
(-3.0, 14.725), (0, 0),0
(-2.0, 14.725), (0, 0),0
(-1.0, 14.725), (0, 0),0
(0.0, 14.725), (0, 0),0
(1.0, 14.725), (0, 0),0
(2.0, 14.725), (0, 0),0
(3.0, 14.725), (0, 0),0
(-3.0, 15.725000000000355), (0, 0),0
(-2.0, 15.725000000000355), (0, 0),0
(-1.0, 15.725000000000355), (0, 0),0
(0.0, 15.725000000000355), (0, 0),0
(1.0, 15.725000000000355), (0, 0),0
(2.0, 15.725000000000355), (0, 0),0
(3.0, 15.725000000000355), (0, 0),0
(-3.0, 16.725000000000453), (0, 0),0
(-2.0, 16.725000000000453), (0, 0),0
(-1.0, 16.725000000000453), (0, 0),0
(0.0, 16.725000000000453), (0, 0),0
(1.0, 16.725000000000453), (0, 0),0
(2.0, 16.725000000000453), (0, 0),0
(3.0, 16.725000000000453), (0, 0),0
