(-3.0000000000000444, 7.474999999999458), (0.0, -3.5527136788004694e-14),8.881784197001252e-15
(-2.0000000000000444, 7.474999999999458), (0.0, -3.5527136788004694e-14),8.881784197001252e-15
(-1.0000000000000437, 7.474999999999458), (0.0, -3.5527136788004694e-14),8.881784197001252e-15
(-4.331568437265787e-14, 7.474999999999458), (0.0, -3.5527136788004694e-14),8.881784197001252e-15
(0.9999999999999569, 7.474999999999458), (0.0, -3.5527136788004694e-14),8.881784197001252e-15
(1.9999999999999574, 7.474999999999458), (0.0, -3.5527136788004694e-14),8.881784197001252e-15
(2.9999999999999574, 7.474999999999458), (0.0, -3.5527136788004694e-14),8.881784197001252e-15
(-3.0000000000000444, 8.474999999999449), (0.0, 3.5527136788004694e-14),8.881784197001252e-15
(-2.0000000000000444, 8.474999999999449), (0.0, 3.5527136788004694e-14),8.881784197001252e-15
(-1.0000000000000437, 8.474999999999449), (0.0, 3.5527136788004694e-14),8.881784197001252e-15
(-4.331568437265787e-14, 8.474999999999449), (0.0, 3.5527136788004694e-14),8.881784197001252e-15
(0.9999999999999569, 8.474999999999449), (0.0, 3.5527136788004694e-14),8.881784197001252e-15
(1.9999999999999574, 8.474999999999449), (0.0, 3.5527136788004694e-14),8.881784197001252e-15
(2.9999999999999574, 8.474999999999449), (0.0, 3.5527136788004694e-14),8.881784197001252e-15
(-3.0, 9.474999999999449), (0, 0),0
(-2.0, 9.474999999999449), (0, 0),0
(-1.0, 9.474999999999449), (0, 0),0
(0.0, 9.474999999999449), (0, 0),0
(1.0, 9.474999999999449), (0, 0),0
(2.0, 9.474999999999449), (0, 0),0
(3.0, 9.474999999999449), (0, 0),0
(-3.0, 10.474999999999449), (0, 0),0
(-2.0, 10.474999999999449), (0, 0),0
(-1.0, 10.474999999999449), (0, 0),0
(0.0, 10.474999999999449), (0, 0),0
(1.0, 10.474999999999449), (0, 0),0
(2.0, 10.474999999999449), (0, 0),0
(3.0, 10.474999999999449), (0, 0),0
(-3.0, 11.474999999999449), (0, 0),0
(-2.0, 11.474999999999449), (0, 0),0
(-1.0, 11.474999999999449), (0, 0),0
(0.0, 11.474999999999449), (0, 0),0
(1.0, 11.474999999999449), (0, 0),0
(2.0, 11.474999999999449), (0, 0),0
(3.0, 11.474999999999449), (0, 0),0
(-3.0, 12.474999999999449), (0, 0),0
(-2.0, 12.474999999999449), (0, 0),0
(-1.0, 12.474999999999449), (0, 0),0
(0.0, 12.474999999999449), (0, 0),0
(1.0, 12.474999999999449), (0, 0),0
(2.0, 12.474999999999449), (0, 0),0
(3.0, 12.474999999999449), (0, 0),0
(-3.0, 13.474999999999804), (0, 0),0
(-2.0, 13.474999999999804), (0, 0),0
(-1.0, 13.474999999999804), (0, 0),0
(0.0, 13.474999999999804), (0, 0),0
(1.0, 13.474999999999804), (0, 0),0
(2.0, 13.474999999999804), (0, 0),0
(3.0, 13.474999999999804), (0, 0),0
(-3.0, 14.47500000000016), (0, 0),0
(-2.0, 14.47500000000016), (0, 0),0
(-1.0, 14.47500000000016), (0, 0),0
(0.0, 14.47500000000016), (0, 0),0
(1.0, 14.47500000000016), (0, 0),0
(2.0, 14.47500000000016), (0, 0),0
(3.0, 14.47500000000016), (0, 0),0
(-3.0, 15.475000000000515), (0, 0),0
(-2.0, 15.475000000000515), (0, 0),0
(-1.0, 15.475000000000515), (0, 0),0
(0.0, 15.475000000000515), (0, 0),0
(1.0, 15.475000000000515), (0, 0),0
(2.0, 15.475000000000515), (0, 0),0
(3.0, 15.475000000000515), (0, 0),0
