(-3.0, 10.584999999999935), (0, 0),0
(-2.0, 10.584999999999935), (0, 0),0
(-1.0, 10.584999999999935), (0, 0),0
(0.0, 10.584999999999935), (0, 0),0
(1.0, 10.584999999999935), (0, 0),0
(2.0, 10.584999999999935), (0, 0),0
(3.0, 10.584999999999935), (0, 0),0
(-3.0, 11.584999999999935), (0, 0),0
(-2.0, 11.584999999999935), (0, 0),0
(-1.0, 11.584999999999935), (0, 0),0
(0.0, 11.584999999999935), (0, 0),0
(1.0, 11.584999999999935), (0, 0),0
(2.0, 11.584999999999935), (0, 0),0
(3.0, 11.584999999999935), (0, 0),0
(-3.0, 12.584999999999935), (0, 0),0
(-2.0, 12.584999999999935), (0, 0),0
(-1.0, 12.584999999999935), (0, 0),0
(0.0, 12.584999999999935), (0, 0),0
(1.0, 12.584999999999935), (0, 0),0
(2.0, 12.584999999999935), (0, 0),0
(3.0, 12.584999999999935), (0, 0),0
(-3.0, 13.584999999999935), (0, 0),0
(-2.0, 13.584999999999935), (0, 0),0
(-1.0, 13.584999999999935), (0, 0),0
(0.0, 13.584999999999935), (0, 0),0
(1.0, 13.584999999999935), (0, 0),0
(2.0, 13.584999999999935), (0, 0),0
(3.0, 13.584999999999935), (0, 0),0
(-3.0, 14.584999999999935), (0, 0),0
(-2.0, 14.584999999999935), (0, 0),0
(-1.0, 14.584999999999935), (0, 0),0
(0.0, 14.584999999999935), (0, 0),0
(1.0, 14.584999999999935), (0, 0),0
(2.0, 14.584999999999935), (0, 0),0
(3.0, 14.584999999999935), (0, 0),0
(-3.0, 15.584999999999935), (0, 0),0
(-2.0, 15.584999999999935), (0, 0),0
(-1.0, 15.584999999999935), (0, 0),0
(0.0, 15.584999999999935), (0, 0),0
(1.0, 15.584999999999935), (0, 0),0
(2.0, 15.584999999999935), (0, 0),0
(3.0, 15.584999999999935), (0, 0),0
(-3.0, 16.585000000000083), (0, 0),0
(-2.0, 16.585000000000083), (0, 0),0
(-1.0, 16.585000000000083), (0, 0),0
(0.0, 16.585000000000083), (0, 0),0
(1.0, 16.585000000000083), (0, 0),0
(2.0, 16.585000000000083), (0, 0),0
(3.0, 16.585000000000083), (0, 0),0
(-3.0, 17.585000000000083), (0, 0),0
(-2.0, 17.585000000000083), (0, 0),0
(-1.0, 17.585000000000083), (0, 0),0
(0.0, 17.585000000000083), (0, 0),0
(1.0, 17.585000000000083), (0, 0),0
(2.0, 17.585000000000083), (0, 0),0
(3.0, 17.585000000000083), (0, 0),0
(-3.0, 18.585000000000083), (0, 0),0
(-2.0, 18.585000000000083), (0, 0),0
(-1.0, 18.585000000000083), (0, 0),0
(0.0, 18.585000000000083), (0, 0),0
(1.0, 18.585000000000083), (0, 0),0
(2.0, 18.585000000000083), (0, 0),0
(3.0, 18.585000000000083), (0, 0),0
