(-1.18126980682167, -2.5901173372982904), (-0.015512527215396692, -0.1478114016702796),0.05372100919688094
(0.5666066710875403, -1.8681265438707504), (-0.004056851017801517, 0.0046656292835171205),0.04974466440831782
(-1.0013511149616714, 4.625623659679902), (-0.00013278368120977192, -2.2265893053636703e-06),0.00013280248447533616
(-0.0014927031679353028, 4.629815202696134), (-1.7529390184262437e-05, 3.0916437145320317e-06),0.0002831383123055309
(0.9983559261542376, 4.628376666018528), (0.00015031307139403436, -8.650544091683612e-07),0.00015033582783019472
(-1.6356905075902959, -1.7234792836649289), (-0.009747419974502462, 0.07435827690385884),0.021450211132581054
(-0.3985204264199688, -2.0210802420576903), (0.0032280408938890927, 0.059486626240845386),0.05509878243331057
(-0.02549673762297955, -0.19233369394802405), (0, 0),0
(-1.9939382734280648, 5.838612408827249), (-0.002320428093149707, 0.00023093094737024306),0.002326559060390254
(-0.996573481510648, 5.813797763961592), (-0.00040742045414098255, -0.00048697662727897266),0.005062644711786413
(0.0004159752699663988, 5.837193018399083), (-0.0003512596238753065, 0.0005814125274183235),0.005825814473408464
(0.9969785697699614, 5.810866529388821), (0.0007939335998634364, -0.0005766979372796603),0.0053810170514879685
(1.9943103510384828, 5.838288994897185), (0.0022851745713025596, 0.00025133108977006636),0.002291288229475663
(1.5358479473412787, -1.781740804354622), (0.026088757313811578, 0.009300869242058247),0.02691668003930714
(-2.999999999999852, 7.164999999999097), (1.8853775634782182e-27, -3.5527136788004694e-14),8.881784197001252e-15
(-1.9999999999998512, 7.164999999999097), (1.8932661725304283e-27, -3.5527136788004694e-14),8.881784197001252e-15
(-0.9999999999998509, 7.164999999999097), (1.8863636396097445e-27, -3.5527136788004694e-14),8.881784197001252e-15
(1.492139745096211e-13, 7.164999999999097), (1.8842948518858035e-27, -3.5527136788004694e-14),8.881784197001252e-15
(1.0000000000001497, 7.164999999999097), (1.8863636396097445e-27, -3.5527136788004694e-14),8.881784197001252e-15
(2.000000000000151, 7.164999999999097), (1.895238324793481e-27, -3.5527136788004694e-14),8.881784197001252e-15
(3.000000000000151, 7.164999999999097), (1.8893218680043233e-27, -3.5527136788004694e-14),8.881784197001252e-15
(-3.0000000000000644, 8.164999999999088), (-1.8853775634782182e-27, 3.5527136788004694e-14),8.881784197001252e-15
(-2.0000000000000644, 8.164999999999088), (-1.8932661725304283e-27, 3.5527136788004694e-14),8.881784197001252e-15
(-1.0000000000000633, 8.164999999999088), (-1.8863636396097445e-27, 3.5527136788004694e-14),8.881784197001252e-15
(-6.293876531060509e-14, 8.164999999999088), (-1.8842948518858035e-27, 3.5527136788004694e-14),8.881784197001252e-15
(0.9999999999999373, 8.164999999999088), (-1.8863636396097445e-27, 3.5527136788004694e-14),8.881784197001252e-15
(1.9999999999999376, 8.164999999999088), (-1.895238324793481e-27, 3.5527136788004694e-14),8.881784197001252e-15
(2.9999999999999383, 8.164999999999088), (-1.8893218680043233e-27, 3.5527136788004694e-14),8.881784197001252e-15
(-3.0, 9.164999999999088), (0, 0),0
(-2.0, 9.164999999999088), (0, 0),0
(-1.0, 9.164999999999088), (0, 0),0
(0.0, 9.164999999999088), (0, 0),0
(1.0, 9.164999999999088), (0, 0),0
(2.0, 9.164999999999088), (0, 0),0
(3.0, 9.164999999999088), (0, 0),0
(-3.0, 10.164999999999088), (0, 0),0
(-2.0, 10.164999999999088), (0, 0),0
(-1.0, 10.164999999999088), (0, 0),0
(0.0, 10.164999999999088), (0, 0),0
(1.0, 10.164999999999088), (0, 0),0
(2.0, 10.164999999999088), (0, 0),0
(3.0, 10.164999999999088), (0, 0),0
(-3.0, 11.164999999999443), (0, 0),0
(-2.0, 11.164999999999443), (0, 0),0
(-1.0, 11.164999999999443), (0, 0),0
(0.0, 11.164999999999443), (0, 0),0
(1.0, 11.164999999999443), (0, 0),0
(2.0, 11.164999999999443), (0, 0),0
(3.0, 11.164999999999443), (0, 0),0
(-3.0, 12.164999999999798), (0, 0),0
(-2.0, 12.164999999999798), (0, 0),0
(-1.0, 12.164999999999798), (0, 0),0
(0.0, 12.164999999999798), (0, 0),0
(1.0, 12.164999999999798), (0, 0),0
(2.0, 12.164999999999798), (0, 0),0
(3.0, 12.164999999999798), (0, 0),0
(-3.0, 13.165000000000154), (0, 0),0
(-2.0, 13.165000000000154), (0, 0),0
(-1.0, 13.165000000000154), (0, 0),0
(0.0, 13.165000000000154), (0, 0),0
(1.0, 13.165000000000154), (0, 0),0
(2.0, 13.165000000000154), (0, 0),0
(3.0, 13.165000000000154), (0, 0),0
