(-0.7189722955290205, 3.0562187797861875), (0.12294001981937205, -1.1246429901565314),0.41011271757462187
(-0.969458433499719, 3.708665542266582), (0.0685871143322582, 0.39871945670062336),1.0776804373940738
(-0.9611660673339516, 5.210115970205876), (-0.03956153336314821, -0.007414638955416857),0.04131158316776995
(-0.003528273534441108, 5.25498618811368), (0.002148780733701512, 0.013747368071829802),0.08027604780243369
(0.9566479531950645, 5.214354748827978), (0.0374127526294467, -0.006332729116412944),0.03896446463466374
(1.1015594089896164, 3.7370025712173653), (0.15761380538820208, 0.5206882114231266),1.169643401645938
(0.7390598337871415, 3.0818199621255955), (-0.16330604216605568, -1.3484475539721448),0.5002830634744317
(-1.1549101798326906, 3.8333006167757038), (-0.19152713415163025, 0.725923533455908),0.8855486173964042
(-1.9186637678023764, 6.457531227654241), (-0.033822429636578936, -0.007569035966293285),0.03510788484007399
(-0.9552781981319349, 6.511429632533745), (-0.009789723928585167, 0.0022721341675850182),0.08083071516503837
(-0.0014406238785287934, 6.540391650857314), (0.008944691260620405, 0.009533785829230514),0.08170089131475711
(0.9621316574175406, 6.510950903399271), (-0.00644571034187201, 0.004783423837245169),0.0790042895524562
(1.9176691056170363, 6.458539222378762), (0.04111317264641571, -0.009020307867767415),0.04302622856266347
(1.029102183758159, 3.7744836732550646), (0.005692236777853604, 0.8277593425490183),1.1674847354768505
(-2.9999999999999005, 7.709999999999182), (1.0255191767873153e-27, -3.5527136788004694e-14),8.881784197001252e-15
(-1.9999999999998996, 7.709999999999182), (1.0334077858395255e-27, -3.5527136788004694e-14),8.881784197001252e-15
(-0.9999999999998993, 7.709999999999182), (1.0265052529188416e-27, -3.5527136788004694e-14),8.881784197001252e-15
(1.0080825063596426e-13, 7.709999999999182), (1.0244364651949003e-27, -3.5527136788004694e-14),8.881784197001252e-15
(1.0000000000001013, 7.709999999999182), (1.0265052529188416e-27, -3.5527136788004694e-14),8.881784197001252e-15
(2.0000000000001026, 7.709999999999182), (1.035379938102578e-27, -3.5527136788004694e-14),8.881784197001252e-15
(3.0000000000001026, 7.709999999999182), (1.0294634813134204e-27, -3.5527136788004694e-14),8.881784197001252e-15
(-3.000000000000016, 8.709999999999173), (-1.0255191767873153e-27, 3.5527136788004694e-14),8.881784197001252e-15
(-2.000000000000016, 8.709999999999173), (-1.0334077858395255e-27, 3.5527136788004694e-14),8.881784197001252e-15
(-1.0000000000000149, 8.709999999999173), (-1.0265052529188416e-27, 3.5527136788004694e-14),8.881784197001252e-15
(-1.4533041436948264e-14, 8.709999999999173), (-1.0244364651949003e-27, 3.5527136788004694e-14),8.881784197001252e-15
(0.9999999999999857, 8.709999999999173), (-1.0265052529188416e-27, 3.5527136788004694e-14),8.881784197001252e-15
(1.999999999999986, 8.709999999999173), (-1.035379938102578e-27, 3.5527136788004694e-14),8.881784197001252e-15
(2.9999999999999867, 8.709999999999173), (-1.0294634813134204e-27, 3.5527136788004694e-14),8.881784197001252e-15
(-3.0, 9.709999999999173), (0, 0),0
(-2.0, 9.709999999999173), (0, 0),0
(-1.0, 9.709999999999173), (0, 0),0
(0.0, 9.709999999999173), (0, 0),0
(1.0, 9.709999999999173), (0, 0),0
(2.0, 9.709999999999173), (0, 0),0
(3.0, 9.709999999999173), (0, 0),0
(-3.0, 10.709999999999173), (0, 0),0
(-2.0, 10.709999999999173), (0, 0),0
(-1.0, 10.709999999999173), (0, 0),0
(0.0, 10.709999999999173), (0, 0),0
(1.0, 10.709999999999173), (0, 0),0
(2.0, 10.709999999999173), (0, 0),0
(3.0, 10.709999999999173), (0, 0),0
(-3.0, 11.709999999999528), (0, 0),0
(-2.0, 11.709999999999528), (0, 0),0
(-1.0, 11.709999999999528), (0, 0),0
(0.0, 11.709999999999528), (0, 0),0
(1.0, 11.709999999999528), (0, 0),0
(2.0, 11.709999999999528), (0, 0),0
(3.0, 11.709999999999528), (0, 0),0
(-3.0, 12.709999999999884), (0, 0),0
(-2.0, 12.709999999999884), (0, 0),0
(-1.0, 12.709999999999884), (0, 0),0
(0.0, 12.709999999999884), (0, 0),0
(1.0, 12.709999999999884), (0, 0),0
(2.0, 12.709999999999884), (0, 0),0
(3.0, 12.709999999999884), (0, 0),0
(-3.0, 13.710000000000239), (0, 0),0
(-2.0, 13.710000000000239), (0, 0),0
(-1.0, 13.710000000000239), (0, 0),0
(0.0, 13.710000000000239), (0, 0),0
(1.0, 13.710000000000239), (0, 0),0
(2.0, 13.710000000000239), (0, 0),0
(3.0, 13.710000000000239), (0, 0),0
