(-3.0, 10.369999999999902), (0, 0),0
(-2.0, 10.369999999999902), (0, 0),0
(-1.0, 10.369999999999902), (0, 0),0
(0.0, 10.369999999999902), (0, 0),0
(1.0, 10.369999999999902), (0, 0),0
(2.0, 10.369999999999902), (0, 0),0
(3.0, 10.369999999999902), (0, 0),0
(-3.0, 11.369999999999902), (0, 0),0
(-2.0, 11.369999999999902), (0, 0),0
(-1.0, 11.369999999999902), (0, 0),0
(0.0, 11.369999999999902), (0, 0),0
(1.0, 11.369999999999902), (0, 0),0
(2.0, 11.369999999999902), (0, 0),0
(3.0, 11.369999999999902), (0, 0),0
(-3.0, 12.369999999999902), (0, 0),0
(-2.0, 12.369999999999902), (0, 0),0
(-1.0, 12.369999999999902), (0, 0),0
(0.0, 12.369999999999902), (0, 0),0
(1.0, 12.369999999999902), (0, 0),0
(2.0, 12.369999999999902), (0, 0),0
(3.0, 12.369999999999902), (0, 0),0
(-3.0, 13.369999999999902), (0, 0),0
(-2.0, 13.369999999999902), (0, 0),0
(-1.0, 13.369999999999902), (0, 0),0
(0.0, 13.369999999999902), (0, 0),0
(1.0, 13.369999999999902), (0, 0),0
(2.0, 13.369999999999902), (0, 0),0
(3.0, 13.369999999999902), (0, 0),0
(-3.0, 14.369999999999902), (0, 0),0
(-2.0, 14.369999999999902), (0, 0),0
(-1.0, 14.369999999999902), (0, 0),0
(0.0, 14.369999999999902), (0, 0),0
(1.0, 14.369999999999902), (0, 0),0
(2.0, 14.369999999999902), (0, 0),0
(3.0, 14.369999999999902), (0, 0),0
(-3.0, 15.369999999999902), (0, 0),0
(-2.0, 15.369999999999902), (0, 0),0
(-1.0, 15.369999999999902), (0, 0),0
(0.0, 15.369999999999902), (0, 0),0
(1.0, 15.369999999999902), (0, 0),0
(2.0, 15.369999999999902), (0, 0),0
(3.0, 15.369999999999902), (0, 0),0
(-3.0, 16.370000000000125), (0, 0),0
(-2.0, 16.370000000000125), (0, 0),0
(-1.0, 16.370000000000125), (0, 0),0
(0.0, 16.370000000000125), (0, 0),0
(1.0, 16.370000000000125), (0, 0),0
(2.0, 16.370000000000125), (0, 0),0
(3.0, 16.370000000000125), (0, 0),0
(-3.0, 17.370000000000125), (0, 0),0
(-2.0, 17.370000000000125), (0, 0),0
(-1.0, 17.370000000000125), (0, 0),0
(0.0, 17.370000000000125), (0, 0),0
(1.0, 17.370000000000125), (0, 0),0
(2.0, 17.370000000000125), (0, 0),0
(3.0, 17.370000000000125), (0, 0),0
(-3.0, 18.370000000000125), (0, 0),0
(-2.0, 18.370000000000125), (0, 0),0
(-1.0, 18.370000000000125), (0, 0),0
(0.0, 18.370000000000125), (0, 0),0
(1.0, 18.370000000000125), (0, 0),0
(2.0, 18.370000000000125), (0, 0),0
(3.0, 18.370000000000125), (0, 0),0
