(-0.987369034062555, 3.5911559029691085), (0, 0),0
(-1.9979187888430567, 5.5519872882740655), (-0.0011413511242342536, -0.00023597267359932336),0.0011441838579294705
(-1.000394556767578, 5.603546456838623), (-9.951379550196841e-06, 0.00012037598905968505),0.002297178404174316
(-0.0018620766842208742, 5.6286109042196015), (-0.00012108871138002183, 0.00022400825963473563),0.00242729823461707
(0.9966371247030125, 5.607342117178425), (0.00029215728043099866, 8.74401508028415e-05),0.0022567248680338547
(1.9944107426039317, 5.557503074120183), (0.0009802339347334736, -0.00019585172589793882),0.00098242117966163
(0.9849833891418126, 3.5931996350068425), (0, 0),0
(-3.000000000000175, 6.979999999999224), (-2.2482535798798836e-27, -3.5527136788004694e-14),8.881784197001252e-15
(-2.0000000000001745, 6.979999999999224), (-2.250225732142936e-27, -3.5527136788004694e-14),8.881784197001252e-15
(-1.0000000000001736, 6.979999999999224), (-2.245295351485305e-27, -3.5527136788004694e-14),8.881784197001252e-15
(-1.7303414256986117e-13, 6.979999999999224), (-2.2417997115990445e-27, -3.5527136788004694e-14),8.881784197001252e-15
(0.9999999999998272, 6.979999999999224), (-2.242337123090726e-27, -3.5527136788004694e-14),8.881784197001252e-15
(1.999999999999828, 6.979999999999224), (-2.246281427616831e-27, -3.5527136788004694e-14),8.881784197001252e-15
(2.9999999999998286, 6.979999999999224), (-2.2403649708276735e-27, -3.5527136788004694e-14),8.881784197001252e-15
(-2.999999999999922, 7.979999999999215), (2.2482535798798836e-27, 3.5527136788004694e-14),8.881784197001252e-15
(-1.9999999999999212, 7.979999999999215), (2.250225732142936e-27, 3.5527136788004694e-14),8.881784197001252e-15
(-0.9999999999999208, 7.979999999999215), (2.245295351485305e-27, 3.5527136788004694e-14),8.881784197001252e-15
(7.937006607505741e-14, 7.979999999999215), (2.2417997115990445e-27, 3.5527136788004694e-14),8.881784197001252e-15
(1.0000000000000797, 7.979999999999215), (2.242337123090726e-27, 3.5527136788004694e-14),8.881784197001252e-15
(2.000000000000081, 7.979999999999215), (2.246281427616831e-27, 3.5527136788004694e-14),8.881784197001252e-15
(3.000000000000081, 7.979999999999215), (2.2403649708276735e-27, 3.5527136788004694e-14),8.881784197001252e-15
(-3.0, 8.979999999999215), (0, 0),0
(-2.0, 8.979999999999215), (0, 0),0
(-1.0, 8.979999999999215), (0, 0),0
(0.0, 8.979999999999215), (0, 0),0
(1.0, 8.979999999999215), (0, 0),0
(2.0, 8.979999999999215), (0, 0),0
(3.0, 8.979999999999215), (0, 0),0
(-3.0, 9.979999999999215), (0, 0),0
(-2.0, 9.979999999999215), (0, 0),0
(-1.0, 9.979999999999215), (0, 0),0
(0.0, 9.979999999999215), (0, 0),0
(1.0, 9.979999999999215), (0, 0),0
(2.0, 9.979999999999215), (0, 0),0
(3.0, 9.979999999999215), (0, 0),0
(-3.0, 10.979999999999215), (0, 0),0
(-2.0, 10.979999999999215), (0, 0),0
(-1.0, 10.979999999999215), (0, 0),0
(0.0, 10.979999999999215), (0, 0),0
(1.0, 10.979999999999215), (0, 0),0
(2.0, 10.979999999999215), (0, 0),0
(3.0, 10.979999999999215), (0, 0),0
(-3.0, 11.97999999999957), (0, 0),0
(-2.0, 11.97999999999957), (0, 0),0
(-1.0, 11.97999999999957), (0, 0),0
(0.0, 11.97999999999957), (0, 0),0
(1.0, 11.97999999999957), (0, 0),0
(2.0, 11.97999999999957), (0, 0),0
(3.0, 11.97999999999957), (0, 0),0
(-3.0, 12.979999999999926), (0, 0),0
(-2.0, 12.979999999999926), (0, 0),0
(-1.0, 12.979999999999926), (0, 0),0
(0.0, 12.979999999999926), (0, 0),0
(1.0, 12.979999999999926), (0, 0),0
(2.0, 12.979999999999926), (0, 0),0
(3.0, 12.979999999999926), (0, 0),0
(-3.0, 13.980000000000281), (0, 0),0
(-2.0, 13.980000000000281), (0, 0),0
(-1.0, 13.980000000000281), (0, 0),0
(0.0, 13.980000000000281), (0, 0),0
(1.0, 13.980000000000281), (0, 0),0
(2.0, 13.980000000000281), (0, 0),0
(3.0, 13.980000000000281), (0, 0),0
