(-1.6481380869008837, 4.6041797652790475), (0, 0),0
(-1.9858938221454976, 5.933832316111032), (-0.005766611068234921, -0.0014879108389717014),0.005812379661949807
(-0.9937681518308941, 5.997829806188641), (-0.0018107982719389546, 0.0007347646262342874),0.013450468350426847
(-0.0017124623486165077, 6.022480809975544), (0.0012104779715787556, 0.0013423202141637427),0.014047808086381064
(0.9916120458470316, 5.999501098819273), (9.204787589771422e-05, 0.0009585094783972913),0.012736549478430281
(1.9834015222249823, 5.938345533547047), (0.006274883492697406, -0.0015476834798236199),0.006326830080526258
(1.6457524419801413, 4.6062234973167815), (0, 0),0
(-3.000000000000142, 7.349999999999282), (-1.664496510016335e-27, -3.5527136788004694e-14),8.881784197001252e-15
(-2.0000000000001417, 7.349999999999282), (-1.6664686622793874e-27, -3.5527136788004694e-14),8.881784197001252e-15
(-1.0000000000001408, 7.349999999999282), (-1.661538281621756e-27, -3.5527136788004694e-14),8.881784197001252e-15
(-1.4017154104095654e-13, 7.349999999999282), (-1.6580426417354958e-27, -3.5527136788004694e-14),8.881784197001252e-15
(0.9999999999998601, 7.349999999999282), (-1.6585800532271773e-27, -3.5527136788004694e-14),8.881784197001252e-15
(1.9999999999998608, 7.349999999999282), (-1.6625243577532824e-27, -3.5527136788004694e-14),8.881784197001252e-15
(2.9999999999998614, 7.349999999999282), (-1.6566079009641248e-27, -3.5527136788004694e-14),8.881784197001252e-15
(-2.9999999999999547, 8.349999999999273), (1.664496510016335e-27, 3.5527136788004694e-14),8.881784197001252e-15
(-1.999999999999954, 8.349999999999273), (1.6664686622793874e-27, 3.5527136788004694e-14),8.881784197001252e-15
(-0.9999999999999537, 8.349999999999273), (1.661538281621756e-27, 3.5527136788004694e-14),8.881784197001252e-15
(4.6507464546152775e-14, 8.349999999999273), (1.6580426417354958e-27, 3.5527136788004694e-14),8.881784197001252e-15
(1.0000000000000469, 8.349999999999273), (1.6585800532271773e-27, 3.5527136788004694e-14),8.881784197001252e-15
(2.000000000000048, 8.349999999999273), (1.6625243577532824e-27, 3.5527136788004694e-14),8.881784197001252e-15
(3.000000000000048, 8.349999999999273), (1.6566079009641248e-27, 3.5527136788004694e-14),8.881784197001252e-15
(-3.0, 9.349999999999273), (0, 0),0
(-2.0, 9.349999999999273), (0, 0),0
(-1.0, 9.349999999999273), (0, 0),0
(0.0, 9.349999999999273), (0, 0),0
(1.0, 9.349999999999273), (0, 0),0
(2.0, 9.349999999999273), (0, 0),0
(3.0, 9.349999999999273), (0, 0),0
(-3.0, 10.349999999999273), (0, 0),0
(-2.0, 10.349999999999273), (0, 0),0
(-1.0, 10.349999999999273), (0, 0),0
(0.0, 10.349999999999273), (0, 0),0
(1.0, 10.349999999999273), (0, 0),0
(2.0, 10.349999999999273), (0, 0),0
(3.0, 10.349999999999273), (0, 0),0
(-3.0, 11.349999999999273), (0, 0),0
(-2.0, 11.349999999999273), (0, 0),0
(-1.0, 11.349999999999273), (0, 0),0
(0.0, 11.349999999999273), (0, 0),0
(1.0, 11.349999999999273), (0, 0),0
(2.0, 11.349999999999273), (0, 0),0
(3.0, 11.349999999999273), (0, 0),0
(-3.0, 12.349999999999628), (0, 0),0
(-2.0, 12.349999999999628), (0, 0),0
(-1.0, 12.349999999999628), (0, 0),0
(0.0, 12.349999999999628), (0, 0),0
(1.0, 12.349999999999628), (0, 0),0
(2.0, 12.349999999999628), (0, 0),0
(3.0, 12.349999999999628), (0, 0),0
(-3.0, 13.349999999999984), (0, 0),0
(-2.0, 13.349999999999984), (0, 0),0
(-1.0, 13.349999999999984), (0, 0),0
(0.0, 13.349999999999984), (0, 0),0
(1.0, 13.349999999999984), (0, 0),0
(2.0, 13.349999999999984), (0, 0),0
(3.0, 13.349999999999984), (0, 0),0
(-3.0, 14.350000000000339), (0, 0),0
(-2.0, 14.350000000000339), (0, 0),0
(-1.0, 14.350000000000339), (0, 0),0
(0.0, 14.350000000000339), (0, 0),0
(1.0, 14.350000000000339), (0, 0),0
(2.0, 14.350000000000339), (0, 0),0
(3.0, 14.350000000000339), (0, 0),0
