(-3.0000000000000857, 7.009999999999385), (0.0, -3.5527136788004694e-14),8.881784197001252e-15
(-2.0000000000000857, 7.009999999999385), (0.0, -3.5527136788004694e-14),8.881784197001252e-15
(-1.000000000000085, 7.009999999999385), (0.0, -3.5527136788004694e-14),8.881784197001252e-15
(-8.46159808887137e-14, 7.009999999999385), (0.0, -3.5527136788004694e-14),8.881784197001252e-15
(0.9999999999999156, 7.009999999999385), (0.0, -3.5527136788004694e-14),8.881784197001252e-15
(1.999999999999916, 7.009999999999385), (0.0, -3.5527136788004694e-14),8.881784197001252e-15
(2.999999999999916, 7.009999999999385), (0.0, -3.5527136788004694e-14),8.881784197001252e-15
(-3.0000000000000857, 8.009999999999376), (0.0, 3.5527136788004694e-14),8.881784197001252e-15
(-2.0000000000000857, 8.009999999999376), (0.0, 3.5527136788004694e-14),8.881784197001252e-15
(-1.000000000000085, 8.009999999999376), (0.0, 3.5527136788004694e-14),8.881784197001252e-15
(-8.46159808887137e-14, 8.009999999999376), (0.0, 3.5527136788004694e-14),8.881784197001252e-15
(0.9999999999999156, 8.009999999999376), (0.0, 3.5527136788004694e-14),8.881784197001252e-15
(1.999999999999916, 8.009999999999376), (0.0, 3.5527136788004694e-14),8.881784197001252e-15
(2.999999999999916, 8.009999999999376), (0.0, 3.5527136788004694e-14),8.881784197001252e-15
(-3.0, 9.009999999999376), (0, 0),0
(-2.0, 9.009999999999376), (0, 0),0
(-1.0, 9.009999999999376), (0, 0),0
(0.0, 9.009999999999376), (0, 0),0
(1.0, 9.009999999999376), (0, 0),0
(2.0, 9.009999999999376), (0, 0),0
(3.0, 9.009999999999376), (0, 0),0
(-3.0, 10.009999999999376), (0, 0),0
(-2.0, 10.009999999999376), (0, 0),0
(-1.0, 10.009999999999376), (0, 0),0
(0.0, 10.009999999999376), (0, 0),0
(1.0, 10.009999999999376), (0, 0),0
(2.0, 10.009999999999376), (0, 0),0
(3.0, 10.009999999999376), (0, 0),0
(-3.0, 11.009999999999376), (0, 0),0
(-2.0, 11.009999999999376), (0, 0),0
(-1.0, 11.009999999999376), (0, 0),0
(0.0, 11.009999999999376), (0, 0),0
(1.0, 11.009999999999376), (0, 0),0
(2.0, 11.009999999999376), (0, 0),0
(3.0, 11.009999999999376), (0, 0),0
(-3.0, 12.009999999999376), (0, 0),0
(-2.0, 12.009999999999376), (0, 0),0
(-1.0, 12.009999999999376), (0, 0),0
(0.0, 12.009999999999376), (0, 0),0
(1.0, 12.009999999999376), (0, 0),0
(2.0, 12.009999999999376), (0, 0),0
(3.0, 12.009999999999376), (0, 0),0
(-3.0, 13.009999999999732), (0, 0),0
(-2.0, 13.009999999999732), (0, 0),0
(-1.0, 13.009999999999732), (0, 0),0
(0.0, 13.009999999999732), (0, 0),0
(1.0, 13.009999999999732), (0, 0),0
(2.0, 13.009999999999732), (0, 0),0
(3.0, 13.009999999999732), (0, 0),0
(-3.0, 14.010000000000087), (0, 0),0
(-2.0, 14.010000000000087), (0, 0),0
(-1.0, 14.010000000000087), (0, 0),0
(0.0, 14.010000000000087), (0, 0),0
(1.0, 14.010000000000087), (0, 0),0
(2.0, 14.010000000000087), (0, 0),0
(3.0, 14.010000000000087), (0, 0),0
(-3.0, 15.010000000000442), (0, 0),0
(-2.0, 15.010000000000442), (0, 0),0
(-1.0, 15.010000000000442), (0, 0),0
(0.0, 15.010000000000442), (0, 0),0
(1.0, 15.010000000000442), (0, 0),0
(2.0, 15.010000000000442), (0, 0),0
(3.0, 15.010000000000442), (0, 0),0
