(-3.0, 9.959999999999837), (0, 0),0
(-2.0, 9.959999999999837), (0, 0),0
(-1.0, 9.959999999999837), (0, 0),0
(0.0, 9.959999999999837), (0, 0),0
(1.0, 9.959999999999837), (0, 0),0
(2.0, 9.959999999999837), (0, 0),0
(3.0, 9.959999999999837), (0, 0),0
(-3.0, 10.959999999999837), (0, 0),0
(-2.0, 10.959999999999837), (0, 0),0
(-1.0, 10.959999999999837), (0, 0),0
(0.0, 10.959999999999837), (0, 0),0
(1.0, 10.959999999999837), (0, 0),0
(2.0, 10.959999999999837), (0, 0),0
(3.0, 10.959999999999837), (0, 0),0
(-3.0, 11.959999999999837), (0, 0),0
(-2.0, 11.959999999999837), (0, 0),0
(-1.0, 11.959999999999837), (0, 0),0
(0.0, 11.959999999999837), (0, 0),0
(1.0, 11.959999999999837), (0, 0),0
(2.0, 11.959999999999837), (0, 0),0
(3.0, 11.959999999999837), (0, 0),0
(-3.0, 12.959999999999837), (0, 0),0
(-2.0, 12.959999999999837), (0, 0),0
(-1.0, 12.959999999999837), (0, 0),0
(0.0, 12.959999999999837), (0, 0),0
(1.0, 12.959999999999837), (0, 0),0
(2.0, 12.959999999999837), (0, 0),0
(3.0, 12.959999999999837), (0, 0),0
(-3.0, 13.959999999999837), (0, 0),0
(-2.0, 13.959999999999837), (0, 0),0
(-1.0, 13.959999999999837), (0, 0),0
(0.0, 13.959999999999837), (0, 0),0
(1.0, 13.959999999999837), (0, 0),0
(2.0, 13.959999999999837), (0, 0),0
(3.0, 13.959999999999837), (0, 0),0
(-3.0, 14.959999999999837), (0, 0),0
(-2.0, 14.959999999999837), (0, 0),0
(-1.0, 14.959999999999837), (0, 0),0
(0.0, 14.959999999999837), (0, 0),0
(1.0, 14.959999999999837), (0, 0),0
(2.0, 14.959999999999837), (0, 0),0
(3.0, 14.959999999999837), (0, 0),0
(-3.0, 15.960000000000193), (0, 0),0
(-2.0, 15.960000000000193), (0, 0),0
(-1.0, 15.960000000000193), (0, 0),0
(0.0, 15.960000000000193), (0, 0),0
(1.0, 15.960000000000193), (0, 0),0
(2.0, 15.960000000000193), (0, 0),0
(3.0, 15.960000000000193), (0, 0),0
(-3.0, 16.960000000000207), (0, 0),0
(-2.0, 16.960000000000207), (0, 0),0
(-1.0, 16.960000000000207), (0, 0),0
(0.0, 16.960000000000207), (0, 0),0
(1.0, 16.960000000000207), (0, 0),0
(2.0, 16.960000000000207), (0, 0),0
(3.0, 16.960000000000207), (0, 0),0
(-3.0, 17.960000000000207), (0, 0),0
(-2.0, 17.960000000000207), (0, 0),0
(-1.0, 17.960000000000207), (0, 0),0
(0.0, 17.960000000000207), (0, 0),0
(1.0, 17.960000000000207), (0, 0),0
(2.0, 17.960000000000207), (0, 0),0
(3.0, 17.960000000000207), (0, 0),0
