(-0.5130295581832723, 2.6370963825729605), (-0.007556284040707031, -1.2821610576581666),1.5714170927007198
(-0.5710174321992832, 2.8091274457741062), (-0.15672614506640034, 0.33130814692111016),1.6738562171634275
(-0.9746913029256559, 5.1568055729588425), (-0.026888149566563768, -0.0034468056206547744),0.027667441060807985
(-0.002857676987191884, 5.187950535128269), (0.0015808268781829886, 0.006304051963026312),0.05366048075184815
(0.9707615298924194, 5.160469655858919), (0.02530732268838078, -0.0028572463423715377),0.025993039691040165
(0.5294184246822791, 2.678885071085426), (0.02702213012954325, 0.8276384249960094),1.756445399573472
(0.4821550468779492, 2.5721822232158207), (-0.08225043597634535, -0.3163181283390563),1.8349368056649311
(-0.44328096365244496, 2.8769009174742037), (0.1306738159497351, 0.9886852123496624),1.6386926824181742
(-1.933214965811398, 6.403201151161052), (-0.02845466318279079, -0.0045820287289738),0.02933845636889143
(-0.9633390178401801, 6.44224571328253), (-0.00783601490065448, 0.0003749971229114399),0.06706788153174736
(-0.0014723069958041467, 6.470122043149093), (0.008381090476617486, 0.007529585733928682),0.0664778421463732
(0.969349412434159, 6.441228677213751), (-0.0071065382032241935, 0.0020694051548041537),0.06511285157294378
(1.9322717349012166, 6.4041597708527105), (0.03501612581005198, -0.0053919592826704756),0.03636443458942651
(0.5546837928086734, 2.5470822319025554), (-3.6611630809958258, 1.6159109111915373),6.11917533106992
(-2.999999999999897, 7.669999999999176), (1.0886280492049963e-27, -3.5527136788004694e-14),8.881784197001252e-15
(-1.999999999999896, 7.669999999999176), (1.0965166582572064e-27, -3.5527136788004694e-14),8.881784197001252e-15
(-0.9999999999998958, 7.669999999999176), (1.0896141253365226e-27, -3.5527136788004694e-14),8.881784197001252e-15
(1.0436096431476477e-13, 7.669999999999176), (1.0875453376125812e-27, -3.5527136788004694e-14),8.881784197001252e-15
(1.0000000000001048, 7.669999999999176), (1.0896141253365226e-27, -3.5527136788004694e-14),8.881784197001252e-15
(2.000000000000106, 7.669999999999176), (1.098488810520259e-27, -3.5527136788004694e-14),8.881784197001252e-15
(3.000000000000106, 7.669999999999176), (1.0925723537311014e-27, -3.5527136788004694e-14),8.881784197001252e-15
(-3.0000000000000195, 8.669999999999167), (-1.0886280492049963e-27, 3.5527136788004694e-14),8.881784197001252e-15
(-2.0000000000000195, 8.669999999999167), (-1.0965166582572064e-27, 3.5527136788004694e-14),8.881784197001252e-15
(-1.0000000000000184, 8.669999999999167), (-1.0896141253365226e-27, 3.5527136788004694e-14),8.881784197001252e-15
(-1.8085755115748765e-14, 8.669999999999167), (-1.0875453376125812e-27, 3.5527136788004694e-14),8.881784197001252e-15
(0.9999999999999821, 8.669999999999167), (-1.0896141253365226e-27, 3.5527136788004694e-14),8.881784197001252e-15
(1.9999999999999825, 8.669999999999167), (-1.098488810520259e-27, 3.5527136788004694e-14),8.881784197001252e-15
(2.999999999999983, 8.669999999999167), (-1.0925723537311014e-27, 3.5527136788004694e-14),8.881784197001252e-15
(-3.0, 9.669999999999167), (0, 0),0
(-2.0, 9.669999999999167), (0, 0),0
(-1.0, 9.669999999999167), (0, 0),0
(0.0, 9.669999999999167), (0, 0),0
(1.0, 9.669999999999167), (0, 0),0
(2.0, 9.669999999999167), (0, 0),0
(3.0, 9.669999999999167), (0, 0),0
(-3.0, 10.669999999999167), (0, 0),0
(-2.0, 10.669999999999167), (0, 0),0
(-1.0, 10.669999999999167), (0, 0),0
(0.0, 10.669999999999167), (0, 0),0
(1.0, 10.669999999999167), (0, 0),0
(2.0, 10.669999999999167), (0, 0),0
(3.0, 10.669999999999167), (0, 0),0
(-3.0, 11.669999999999522), (0, 0),0
(-2.0, 11.669999999999522), (0, 0),0
(-1.0, 11.669999999999522), (0, 0),0
(0.0, 11.669999999999522), (0, 0),0
(1.0, 11.669999999999522), (0, 0),0
(2.0, 11.669999999999522), (0, 0),0
(3.0, 11.669999999999522), (0, 0),0
(-3.0, 12.669999999999877), (0, 0),0
(-2.0, 12.669999999999877), (0, 0),0
(-1.0, 12.669999999999877), (0, 0),0
(0.0, 12.669999999999877), (0, 0),0
(1.0, 12.669999999999877), (0, 0),0
(2.0, 12.669999999999877), (0, 0),0
(3.0, 12.669999999999877), (0, 0),0
(-3.0, 13.670000000000233), (0, 0),0
(-2.0, 13.670000000000233), (0, 0),0
(-1.0, 13.670000000000233), (0, 0),0
(0.0, 13.670000000000233), (0, 0),0
(1.0, 13.670000000000233), (0, 0),0
(2.0, 13.670000000000233), (0, 0),0
(3.0, 13.670000000000233), (0, 0),0
