(-3.0, 9.519999999999769), (0, 0),0
(-2.0, 9.519999999999769), (0, 0),0
(-1.0, 9.519999999999769), (0, 0),0
(0.0, 9.519999999999769), (0, 0),0
(1.0, 9.519999999999769), (0, 0),0
(2.0, 9.519999999999769), (0, 0),0
(3.0, 9.519999999999769), (0, 0),0
(-3.0, 10.519999999999769), (0, 0),0
(-2.0, 10.519999999999769), (0, 0),0
(-1.0, 10.519999999999769), (0, 0),0
(0.0, 10.519999999999769), (0, 0),0
(1.0, 10.519999999999769), (0, 0),0
(2.0, 10.519999999999769), (0, 0),0
(3.0, 10.519999999999769), (0, 0),0
(-3.0, 11.519999999999769), (0, 0),0
(-2.0, 11.519999999999769), (0, 0),0
(-1.0, 11.519999999999769), (0, 0),0
(0.0, 11.519999999999769), (0, 0),0
(1.0, 11.519999999999769), (0, 0),0
(2.0, 11.519999999999769), (0, 0),0
(3.0, 11.519999999999769), (0, 0),0
(-3.0, 12.519999999999769), (0, 0),0
(-2.0, 12.519999999999769), (0, 0),0
(-1.0, 12.519999999999769), (0, 0),0
(0.0, 12.519999999999769), (0, 0),0
(1.0, 12.519999999999769), (0, 0),0
(2.0, 12.519999999999769), (0, 0),0
(3.0, 12.519999999999769), (0, 0),0
(-3.0, 13.519999999999769), (0, 0),0
(-2.0, 13.519999999999769), (0, 0),0
(-1.0, 13.519999999999769), (0, 0),0
(0.0, 13.519999999999769), (0, 0),0
(1.0, 13.519999999999769), (0, 0),0
(2.0, 13.519999999999769), (0, 0),0
(3.0, 13.519999999999769), (0, 0),0
(-3.0, 14.519999999999769), (0, 0),0
(-2.0, 14.519999999999769), (0, 0),0
(-1.0, 14.519999999999769), (0, 0),0
(0.0, 14.519999999999769), (0, 0),0
(1.0, 14.519999999999769), (0, 0),0
(2.0, 14.519999999999769), (0, 0),0
(3.0, 14.519999999999769), (0, 0),0
(-3.0, 15.520000000000124), (0, 0),0
(-2.0, 15.520000000000124), (0, 0),0
(-1.0, 15.520000000000124), (0, 0),0
(0.0, 15.520000000000124), (0, 0),0
(1.0, 15.520000000000124), (0, 0),0
(2.0, 15.520000000000124), (0, 0),0
(3.0, 15.520000000000124), (0, 0),0
(-3.0, 16.520000000000294), (0, 0),0
(-2.0, 16.520000000000294), (0, 0),0
(-1.0, 16.520000000000294), (0, 0),0
(0.0, 16.520000000000294), (0, 0),0
(1.0, 16.520000000000294), (0, 0),0
(2.0, 16.520000000000294), (0, 0),0
(3.0, 16.520000000000294), (0, 0),0
(-3.0, 17.520000000000294), (0, 0),0
(-2.0, 17.520000000000294), (0, 0),0
(-1.0, 17.520000000000294), (0, 0),0
(0.0, 17.520000000000294), (0, 0),0
(1.0, 17.520000000000294), (0, 0),0
(2.0, 17.520000000000294), (0, 0),0
(3.0, 17.520000000000294), (0, 0),0
