(-3.0, 8.684999999999638), (0, 0),0
(-2.0, 8.684999999999638), (0, 0),0
(-1.0, 8.684999999999638), (0, 0),0
(0.0, 8.684999999999638), (0, 0),0
(1.0, 8.684999999999638), (0, 0),0
(2.0, 8.684999999999638), (0, 0),0
(3.0, 8.684999999999638), (0, 0),0
(-3.0, 9.684999999999638), (0, 0),0
(-2.0, 9.684999999999638), (0, 0),0
(-1.0, 9.684999999999638), (0, 0),0
(0.0, 9.684999999999638), (0, 0),0
(1.0, 9.684999999999638), (0, 0),0
(2.0, 9.684999999999638), (0, 0),0
(3.0, 9.684999999999638), (0, 0),0
(-3.0, 10.684999999999638), (0, 0),0
(-2.0, 10.684999999999638), (0, 0),0
(-1.0, 10.684999999999638), (0, 0),0
(0.0, 10.684999999999638), (0, 0),0
(1.0, 10.684999999999638), (0, 0),0
(2.0, 10.684999999999638), (0, 0),0
(3.0, 10.684999999999638), (0, 0),0
(-3.0, 11.684999999999638), (0, 0),0
(-2.0, 11.684999999999638), (0, 0),0
(-1.0, 11.684999999999638), (0, 0),0
(0.0, 11.684999999999638), (0, 0),0
(1.0, 11.684999999999638), (0, 0),0
(2.0, 11.684999999999638), (0, 0),0
(3.0, 11.684999999999638), (0, 0),0
(-3.0, 12.684999999999638), (0, 0),0
(-2.0, 12.684999999999638), (0, 0),0
(-1.0, 12.684999999999638), (0, 0),0
(0.0, 12.684999999999638), (0, 0),0
(1.0, 12.684999999999638), (0, 0),0
(2.0, 12.684999999999638), (0, 0),0
(3.0, 12.684999999999638), (0, 0),0
(-3.0, 13.684999999999638), (0, 0),0
(-2.0, 13.684999999999638), (0, 0),0
(-1.0, 13.684999999999638), (0, 0),0
(0.0, 13.684999999999638), (0, 0),0
(1.0, 13.684999999999638), (0, 0),0
(2.0, 13.684999999999638), (0, 0),0
(3.0, 13.684999999999638), (0, 0),0
(-3.0, 14.684999999999993), (0, 0),0
(-2.0, 14.684999999999993), (0, 0),0
(-1.0, 14.684999999999993), (0, 0),0
(0.0, 14.684999999999993), (0, 0),0
(1.0, 14.684999999999993), (0, 0),0
(2.0, 14.684999999999993), (0, 0),0
(3.0, 14.684999999999993), (0, 0),0
(-3.0, 15.685000000000349), (0, 0),0
(-2.0, 15.685000000000349), (0, 0),0
(-1.0, 15.685000000000349), (0, 0),0
(0.0, 15.685000000000349), (0, 0),0
(1.0, 15.685000000000349), (0, 0),0
(2.0, 15.685000000000349), (0, 0),0
(3.0, 15.685000000000349), (0, 0),0
(-3.0, 16.68500000000046), (0, 0),0
(-2.0, 16.68500000000046), (0, 0),0
(-1.0, 16.68500000000046), (0, 0),0
(0.0, 16.68500000000046), (0, 0),0
(1.0, 16.68500000000046), (0, 0),0
(2.0, 16.68500000000046), (0, 0),0
(3.0, 16.68500000000046), (0, 0),0
