(-3.0, 8.659999999999634), (0, 0),0
(-2.0, 8.659999999999634), (0, 0),0
(-1.0, 8.659999999999634), (0, 0),0
(0.0, 8.659999999999634), (0, 0),0
(1.0, 8.659999999999634), (0, 0),0
(2.0, 8.659999999999634), (0, 0),0
(3.0, 8.659999999999634), (0, 0),0
(-3.0, 9.659999999999634), (0, 0),0
(-2.0, 9.659999999999634), (0, 0),0
(-1.0, 9.659999999999634), (0, 0),0
(0.0, 9.659999999999634), (0, 0),0
(1.0, 9.659999999999634), (0, 0),0
(2.0, 9.659999999999634), (0, 0),0
(3.0, 9.659999999999634), (0, 0),0
(-3.0, 10.659999999999634), (0, 0),0
(-2.0, 10.659999999999634), (0, 0),0
(-1.0, 10.659999999999634), (0, 0),0
(0.0, 10.659999999999634), (0, 0),0
(1.0, 10.659999999999634), (0, 0),0
(2.0, 10.659999999999634), (0, 0),0
(3.0, 10.659999999999634), (0, 0),0
(-3.0, 11.659999999999634), (0, 0),0
(-2.0, 11.659999999999634), (0, 0),0
(-1.0, 11.659999999999634), (0, 0),0
(0.0, 11.659999999999634), (0, 0),0
(1.0, 11.659999999999634), (0, 0),0
(2.0, 11.659999999999634), (0, 0),0
(3.0, 11.659999999999634), (0, 0),0
(-3.0, 12.659999999999634), (0, 0),0
(-2.0, 12.659999999999634), (0, 0),0
(-1.0, 12.659999999999634), (0, 0),0
(0.0, 12.659999999999634), (0, 0),0
(1.0, 12.659999999999634), (0, 0),0
(2.0, 12.659999999999634), (0, 0),0
(3.0, 12.659999999999634), (0, 0),0
(-3.0, 13.659999999999634), (0, 0),0
(-2.0, 13.659999999999634), (0, 0),0
(-1.0, 13.659999999999634), (0, 0),0
(0.0, 13.659999999999634), (0, 0),0
(1.0, 13.659999999999634), (0, 0),0
(2.0, 13.659999999999634), (0, 0),0
(3.0, 13.659999999999634), (0, 0),0
(-3.0, 14.65999999999999), (0, 0),0
(-2.0, 14.65999999999999), (0, 0),0
(-1.0, 14.65999999999999), (0, 0),0
(0.0, 14.65999999999999), (0, 0),0
(1.0, 14.65999999999999), (0, 0),0
(2.0, 14.65999999999999), (0, 0),0
(3.0, 14.65999999999999), (0, 0),0
(-3.0, 15.660000000000345), (0, 0),0
(-2.0, 15.660000000000345), (0, 0),0
(-1.0, 15.660000000000345), (0, 0),0
(0.0, 15.660000000000345), (0, 0),0
(1.0, 15.660000000000345), (0, 0),0
(2.0, 15.660000000000345), (0, 0),0
(3.0, 15.660000000000345), (0, 0),0
(-3.0, 16.660000000000466), (0, 0),0
(-2.0, 16.660000000000466), (0, 0),0
(-1.0, 16.660000000000466), (0, 0),0
(0.0, 16.660000000000466), (0, 0),0
(1.0, 16.660000000000466), (0, 0),0
(2.0, 16.660000000000466), (0, 0),0
(3.0, 16.660000000000466), (0, 0),0
