(-3.0000000000000413, 7.509999999999463), (0.0, -3.5527136788004694e-14),8.881784197001252e-15
(-2.0000000000000413, 7.509999999999463), (0.0, -3.5527136788004694e-14),8.881784197001252e-15
(-1.0000000000000406, 7.509999999999463), (0.0, -3.5527136788004694e-14),8.881784197001252e-15
(-4.0207059903707434e-14, 7.509999999999463), (0.0, -3.5527136788004694e-14),8.881784197001252e-15
(0.99999999999996, 7.509999999999463), (0.0, -3.5527136788004694e-14),8.881784197001252e-15
(1.9999999999999605, 7.509999999999463), (0.0, -3.5527136788004694e-14),8.881784197001252e-15
(2.9999999999999605, 7.509999999999463), (0.0, -3.5527136788004694e-14),8.881784197001252e-15
(-3.0000000000000413, 8.509999999999454), (0.0, 3.5527136788004694e-14),8.881784197001252e-15
(-2.0000000000000413, 8.509999999999454), (0.0, 3.5527136788004694e-14),8.881784197001252e-15
(-1.0000000000000406, 8.509999999999454), (0.0, 3.5527136788004694e-14),8.881784197001252e-15
(-4.0207059903707434e-14, 8.509999999999454), (0.0, 3.5527136788004694e-14),8.881784197001252e-15
(0.99999999999996, 8.509999999999454), (0.0, 3.5527136788004694e-14),8.881784197001252e-15
(1.9999999999999605, 8.509999999999454), (0.0, 3.5527136788004694e-14),8.881784197001252e-15
(2.9999999999999605, 8.509999999999454), (0.0, 3.5527136788004694e-14),8.881784197001252e-15
(-3.0, 9.509999999999454), (0, 0),0
(-2.0, 9.509999999999454), (0, 0),0
(-1.0, 9.509999999999454), (0, 0),0
(0.0, 9.509999999999454), (0, 0),0
(1.0, 9.509999999999454), (0, 0),0
(2.0, 9.509999999999454), (0, 0),0
(3.0, 9.509999999999454), (0, 0),0
(-3.0, 10.509999999999454), (0, 0),0
(-2.0, 10.509999999999454), (0, 0),0
(-1.0, 10.509999999999454), (0, 0),0
(0.0, 10.509999999999454), (0, 0),0
(1.0, 10.509999999999454), (0, 0),0
(2.0, 10.509999999999454), (0, 0),0
(3.0, 10.509999999999454), (0, 0),0
(-3.0, 11.509999999999454), (0, 0),0
(-2.0, 11.509999999999454), (0, 0),0
(-1.0, 11.509999999999454), (0, 0),0
(0.0, 11.509999999999454), (0, 0),0
(1.0, 11.509999999999454), (0, 0),0
(2.0, 11.509999999999454), (0, 0),0
(3.0, 11.509999999999454), (0, 0),0
(-3.0, 12.509999999999454), (0, 0),0
(-2.0, 12.509999999999454), (0, 0),0
(-1.0, 12.509999999999454), (0, 0),0
(0.0, 12.509999999999454), (0, 0),0
(1.0, 12.509999999999454), (0, 0),0
(2.0, 12.509999999999454), (0, 0),0
(3.0, 12.509999999999454), (0, 0),0
(-3.0, 13.50999999999981), (0, 0),0
(-2.0, 13.50999999999981), (0, 0),0
(-1.0, 13.50999999999981), (0, 0),0
(0.0, 13.50999999999981), (0, 0),0
(1.0, 13.50999999999981), (0, 0),0
(2.0, 13.50999999999981), (0, 0),0
(3.0, 13.50999999999981), (0, 0),0
(-3.0, 14.510000000000165), (0, 0),0
(-2.0, 14.510000000000165), (0, 0),0
(-1.0, 14.510000000000165), (0, 0),0
(0.0, 14.510000000000165), (0, 0),0
(1.0, 14.510000000000165), (0, 0),0
(2.0, 14.510000000000165), (0, 0),0
(3.0, 14.510000000000165), (0, 0),0
(-3.0, 15.51000000000052), (0, 0),0
(-2.0, 15.51000000000052), (0, 0),0
(-1.0, 15.51000000000052), (0, 0),0
(0.0, 15.51000000000052), (0, 0),0
(1.0, 15.51000000000052), (0, 0),0
(2.0, 15.51000000000052), (0, 0),0
(3.0, 15.51000000000052), (0, 0),0
