(-0.9581648010857385, -2.1764921910464503), (-0.05041614749176752, -0.5716125931366058),0.22873492341883728
(0.5210396790742403, -1.4690976733809542), (0.022134514532469063, 0.07034540946868074),0.21631613900327173
(-1.0005739078269977, 4.806385915740746), (-0.0008649980095238105, -1.72208258911973e-05),0.0008657582606067526
(-0.0014520410398523916, 4.811358673921283), (-0.0001211546352487238, 2.5907577506911603e-05),0.0018528877211746453
(0.9975584070985342, 4.809158670790306), (0.0009861526447725343, -8.686751615714301e-06),0.0009871294605678926
(-1.5534807090662197, -1.4672638345967424), (-0.044075913544820815, 0.21003898806236918),0.07403785612640801
(-0.3473448114736104, -1.5921669491355266), (-0.01226543195039706, 0.3010540196311885),0.2776351139169535
(-0.02549673762297955, -0.012333693948023947), (0, 0),0
(-1.9862693658699273, 6.026119198477447), (-0.006503813967555281, 0.00043855647943838764),0.006547609218183759
(-0.9929581050981101, 6.009374289579233), (0.0004401835990987882, -0.0010232151821561253),0.012650243131676953
(0.000650630803536723, 6.033325370006367), (-0.0010151041200860342, 0.0013456604054290263),0.013234792239810722
(0.9931600739018668, 6.006650355659616), (0.0006890188707142112, -0.0012560764678425354),0.01356444686639724
(1.9865414463346918, 6.025892137260613), (0.006389715617828316, 0.0004950747651312469),0.006432288540079711
(1.42727985060484, -1.4954042292746492), (0.08462297845451633, -0.00982582402563255),0.0933780923787475
(-2.999999999999868, 7.344999999999125), (1.601387637598654e-27, -3.5527136788004694e-14),8.881784197001252e-15
(-1.9999999999998672, 7.344999999999125), (1.609276246650864e-27, -3.5527136788004694e-14),8.881784197001252e-15
(-0.9999999999998669, 7.344999999999125), (1.6023737137301802e-27, -3.5527136788004694e-14),8.881784197001252e-15
(1.3322676295501884e-13, 7.344999999999125), (1.600304926006239e-27, -3.5527136788004694e-14),8.881784197001252e-15
(1.0000000000001337, 7.344999999999125), (1.6023737137301802e-27, -3.5527136788004694e-14),8.881784197001252e-15
(2.000000000000135, 7.344999999999125), (1.6112483989139166e-27, -3.5527136788004694e-14),8.881784197001252e-15
(3.000000000000135, 7.344999999999125), (1.605331942124759e-27, -3.5527136788004694e-14),8.881784197001252e-15
(-3.0000000000000484, 8.344999999999116), (-1.601387637598654e-27, 3.5527136788004694e-14),8.881784197001252e-15
(-2.0000000000000484, 8.344999999999116), (-1.609276246650864e-27, 3.5527136788004694e-14),8.881784197001252e-15
(-1.0000000000000473, 8.344999999999116), (-1.6023737137301802e-27, 3.5527136788004694e-14),8.881784197001252e-15
(-4.695155375600284e-14, 8.344999999999116), (-1.600304926006239e-27, 3.5527136788004694e-14),8.881784197001252e-15
(0.9999999999999533, 8.344999999999116), (-1.6023737137301802e-27, 3.5527136788004694e-14),8.881784197001252e-15
(1.9999999999999536, 8.344999999999116), (-1.6112483989139166e-27, 3.5527136788004694e-14),8.881784197001252e-15
(2.9999999999999543, 8.344999999999116), (-1.605331942124759e-27, 3.5527136788004694e-14),8.881784197001252e-15
(-3.0, 9.344999999999116), (0, 0),0
(-2.0, 9.344999999999116), (0, 0),0
(-1.0, 9.344999999999116), (0, 0),0
(0.0, 9.344999999999116), (0, 0),0
(1.0, 9.344999999999116), (0, 0),0
(2.0, 9.344999999999116), (0, 0),0
(3.0, 9.344999999999116), (0, 0),0
(-3.0, 10.344999999999116), (0, 0),0
(-2.0, 10.344999999999116), (0, 0),0
(-1.0, 10.344999999999116), (0, 0),0
(0.0, 10.344999999999116), (0, 0),0
(1.0, 10.344999999999116), (0, 0),0
(2.0, 10.344999999999116), (0, 0),0
(3.0, 10.344999999999116), (0, 0),0
(-3.0, 11.344999999999471), (0, 0),0
(-2.0, 11.344999999999471), (0, 0),0
(-1.0, 11.344999999999471), (0, 0),0
(0.0, 11.344999999999471), (0, 0),0
(1.0, 11.344999999999471), (0, 0),0
(2.0, 11.344999999999471), (0, 0),0
(3.0, 11.344999999999471), (0, 0),0
(-3.0, 12.344999999999827), (0, 0),0
(-2.0, 12.344999999999827), (0, 0),0
(-1.0, 12.344999999999827), (0, 0),0
(0.0, 12.344999999999827), (0, 0),0
(1.0, 12.344999999999827), (0, 0),0
(2.0, 12.344999999999827), (0, 0),0
(3.0, 12.344999999999827), (0, 0),0
(-3.0, 13.345000000000182), (0, 0),0
(-2.0, 13.345000000000182), (0, 0),0
(-1.0, 13.345000000000182), (0, 0),0
(0.0, 13.345000000000182), (0, 0),0
(1.0, 13.345000000000182), (0, 0),0
(2.0, 13.345000000000182), (0, 0),0
(3.0, 13.345000000000182), (0, 0),0
