(-3.0000000000000044, 7.924999999999528), (0.0, -3.5527136788004694e-14),8.881784197001252e-15
(-2.0000000000000044, 7.924999999999528), (0.0, -3.5527136788004694e-14),8.881784197001252e-15
(-1.0000000000000038, 7.924999999999528), (0.0, -3.5527136788004694e-14),8.881784197001252e-15
(-3.3476554861522344e-15, 7.924999999999528), (0.0, -3.5527136788004694e-14),8.881784197001252e-15
(0.9999999999999969, 7.924999999999528), (0.0, -3.5527136788004694e-14),8.881784197001252e-15
(1.9999999999999973, 7.924999999999528), (0.0, -3.5527136788004694e-14),8.881784197001252e-15
(2.9999999999999973, 7.924999999999528), (0.0, -3.5527136788004694e-14),8.881784197001252e-15
(-3.0000000000000044, 8.92499999999952), (0.0, 3.5527136788004694e-14),8.881784197001252e-15
(-2.0000000000000044, 8.92499999999952), (0.0, 3.5527136788004694e-14),8.881784197001252e-15
(-1.0000000000000038, 8.92499999999952), (0.0, 3.5527136788004694e-14),8.881784197001252e-15
(-3.3476554861522344e-15, 8.92499999999952), (0.0, 3.5527136788004694e-14),8.881784197001252e-15
(0.9999999999999969, 8.92499999999952), (0.0, 3.5527136788004694e-14),8.881784197001252e-15
(1.9999999999999973, 8.92499999999952), (0.0, 3.5527136788004694e-14),8.881784197001252e-15
(2.9999999999999973, 8.92499999999952), (0.0, 3.5527136788004694e-14),8.881784197001252e-15
(-3.0, 9.92499999999952), (0, 0),0
(-2.0, 9.92499999999952), (0, 0),0
(-1.0, 9.92499999999952), (0, 0),0
(0.0, 9.92499999999952), (0, 0),0
(1.0, 9.92499999999952), (0, 0),0
(2.0, 9.92499999999952), (0, 0),0
(3.0, 9.92499999999952), (0, 0),0
(-3.0, 10.92499999999952), (0, 0),0
(-2.0, 10.92499999999952), (0, 0),0
(-1.0, 10.92499999999952), (0, 0),0
(0.0, 10.92499999999952), (0, 0),0
(1.0, 10.92499999999952), (0, 0),0
(2.0, 10.92499999999952), (0, 0),0
(3.0, 10.92499999999952), (0, 0),0
(-3.0, 11.92499999999952), (0, 0),0
(-2.0, 11.92499999999952), (0, 0),0
(-1.0, 11.92499999999952), (0, 0),0
(0.0, 11.92499999999952), (0, 0),0
(1.0, 11.92499999999952), (0, 0),0
(2.0, 11.92499999999952), (0, 0),0
(3.0, 11.92499999999952), (0, 0),0
(-3.0, 12.92499999999952), (0, 0),0
(-2.0, 12.92499999999952), (0, 0),0
(-1.0, 12.92499999999952), (0, 0),0
(0.0, 12.92499999999952), (0, 0),0
(1.0, 12.92499999999952), (0, 0),0
(2.0, 12.92499999999952), (0, 0),0
(3.0, 12.92499999999952), (0, 0),0
(-3.0, 13.924999999999875), (0, 0),0
(-2.0, 13.924999999999875), (0, 0),0
(-1.0, 13.924999999999875), (0, 0),0
(0.0, 13.924999999999875), (0, 0),0
(1.0, 13.924999999999875), (0, 0),0
(2.0, 13.924999999999875), (0, 0),0
(3.0, 13.924999999999875), (0, 0),0
(-3.0, 14.92500000000023), (0, 0),0
(-2.0, 14.92500000000023), (0, 0),0
(-1.0, 14.92500000000023), (0, 0),0
(0.0, 14.92500000000023), (0, 0),0
(1.0, 14.92500000000023), (0, 0),0
(2.0, 14.92500000000023), (0, 0),0
(3.0, 14.92500000000023), (0, 0),0
(-3.0, 15.925000000000585), (0, 0),0
(-2.0, 15.925000000000585), (0, 0),0
(-1.0, 15.925000000000585), (0, 0),0
(0.0, 15.925000000000585), (0, 0),0
(1.0, 15.925000000000585), (0, 0),0
(2.0, 15.925000000000585), (0, 0),0
(3.0, 15.925000000000585), (0, 0),0
