(-3.000000000000028, 7.659999999999487), (0.0, -3.5527136788004694e-14),8.881784197001252e-15
(-2.000000000000028, 7.659999999999487), (0.0, -3.5527136788004694e-14),8.881784197001252e-15
(-1.0000000000000273, 7.659999999999487), (0.0, -3.5527136788004694e-14),8.881784197001252e-15
(-2.6884383608205552e-14, 7.659999999999487), (0.0, -3.5527136788004694e-14),8.881784197001252e-15
(0.9999999999999734, 7.659999999999487), (0.0, -3.5527136788004694e-14),8.881784197001252e-15
(1.9999999999999738, 7.659999999999487), (0.0, -3.5527136788004694e-14),8.881784197001252e-15
(2.999999999999974, 7.659999999999487), (0.0, -3.5527136788004694e-14),8.881784197001252e-15
(-3.000000000000028, 8.659999999999478), (0.0, 3.5527136788004694e-14),8.881784197001252e-15
(-2.000000000000028, 8.659999999999478), (0.0, 3.5527136788004694e-14),8.881784197001252e-15
(-1.0000000000000273, 8.659999999999478), (0.0, 3.5527136788004694e-14),8.881784197001252e-15
(-2.6884383608205552e-14, 8.659999999999478), (0.0, 3.5527136788004694e-14),8.881784197001252e-15
(0.9999999999999734, 8.659999999999478), (0.0, 3.5527136788004694e-14),8.881784197001252e-15
(1.9999999999999738, 8.659999999999478), (0.0, 3.5527136788004694e-14),8.881784197001252e-15
(2.999999999999974, 8.659999999999478), (0.0, 3.5527136788004694e-14),8.881784197001252e-15
(-3.0, 9.659999999999478), (0, 0),0
(-2.0, 9.659999999999478), (0, 0),0
(-1.0, 9.659999999999478), (0, 0),0
(0.0, 9.659999999999478), (0, 0),0
(1.0, 9.659999999999478), (0, 0),0
(2.0, 9.659999999999478), (0, 0),0
(3.0, 9.659999999999478), (0, 0),0
(-3.0, 10.659999999999478), (0, 0),0
(-2.0, 10.659999999999478), (0, 0),0
(-1.0, 10.659999999999478), (0, 0),0
(0.0, 10.659999999999478), (0, 0),0
(1.0, 10.659999999999478), (0, 0),0
(2.0, 10.659999999999478), (0, 0),0
(3.0, 10.659999999999478), (0, 0),0
(-3.0, 11.659999999999478), (0, 0),0
(-2.0, 11.659999999999478), (0, 0),0
(-1.0, 11.659999999999478), (0, 0),0
(0.0, 11.659999999999478), (0, 0),0
(1.0, 11.659999999999478), (0, 0),0
(2.0, 11.659999999999478), (0, 0),0
(3.0, 11.659999999999478), (0, 0),0
(-3.0, 12.659999999999478), (0, 0),0
(-2.0, 12.659999999999478), (0, 0),0
(-1.0, 12.659999999999478), (0, 0),0
(0.0, 12.659999999999478), (0, 0),0
(1.0, 12.659999999999478), (0, 0),0
(2.0, 12.659999999999478), (0, 0),0
(3.0, 12.659999999999478), (0, 0),0
(-3.0, 13.659999999999833), (0, 0),0
(-2.0, 13.659999999999833), (0, 0),0
(-1.0, 13.659999999999833), (0, 0),0
(0.0, 13.659999999999833), (0, 0),0
(1.0, 13.659999999999833), (0, 0),0
(2.0, 13.659999999999833), (0, 0),0
(3.0, 13.659999999999833), (0, 0),0
(-3.0, 14.660000000000188), (0, 0),0
(-2.0, 14.660000000000188), (0, 0),0
(-1.0, 14.660000000000188), (0, 0),0
(0.0, 14.660000000000188), (0, 0),0
(1.0, 14.660000000000188), (0, 0),0
(2.0, 14.660000000000188), (0, 0),0
(3.0, 14.660000000000188), (0, 0),0
(-3.0, 15.660000000000544), (0, 0),0
(-2.0, 15.660000000000544), (0, 0),0
(-1.0, 15.660000000000544), (0, 0),0
(0.0, 15.660000000000544), (0, 0),0
(1.0, 15.660000000000544), (0, 0),0
(2.0, 15.660000000000544), (0, 0),0
(3.0, 15.660000000000544), (0, 0),0
