(-3.0, 8.219999999999565), (0, 0),0
(-2.0, 8.219999999999565), (0, 0),0
(-1.0, 8.219999999999565), (0, 0),0
(0.0, 8.219999999999565), (0, 0),0
(1.0, 8.219999999999565), (0, 0),0
(2.0, 8.219999999999565), (0, 0),0
(3.0, 8.219999999999565), (0, 0),0
(-3.0, 9.219999999999565), (0, 0),0
(-2.0, 9.219999999999565), (0, 0),0
(-1.0, 9.219999999999565), (0, 0),0
(0.0, 9.219999999999565), (0, 0),0
(1.0, 9.219999999999565), (0, 0),0
(2.0, 9.219999999999565), (0, 0),0
(3.0, 9.219999999999565), (0, 0),0
(-3.0, 10.219999999999565), (0, 0),0
(-2.0, 10.219999999999565), (0, 0),0
(-1.0, 10.219999999999565), (0, 0),0
(0.0, 10.219999999999565), (0, 0),0
(1.0, 10.219999999999565), (0, 0),0
(2.0, 10.219999999999565), (0, 0),0
(3.0, 10.219999999999565), (0, 0),0
(-3.0, 11.219999999999565), (0, 0),0
(-2.0, 11.219999999999565), (0, 0),0
(-1.0, 11.219999999999565), (0, 0),0
(0.0, 11.219999999999565), (0, 0),0
(1.0, 11.219999999999565), (0, 0),0
(2.0, 11.219999999999565), (0, 0),0
(3.0, 11.219999999999565), (0, 0),0
(-3.0, 12.219999999999565), (0, 0),0
(-2.0, 12.219999999999565), (0, 0),0
(-1.0, 12.219999999999565), (0, 0),0
(0.0, 12.219999999999565), (0, 0),0
(1.0, 12.219999999999565), (0, 0),0
(2.0, 12.219999999999565), (0, 0),0
(3.0, 12.219999999999565), (0, 0),0
(-3.0, 13.219999999999565), (0, 0),0
(-2.0, 13.219999999999565), (0, 0),0
(-1.0, 13.219999999999565), (0, 0),0
(0.0, 13.219999999999565), (0, 0),0
(1.0, 13.219999999999565), (0, 0),0
(2.0, 13.219999999999565), (0, 0),0
(3.0, 13.219999999999565), (0, 0),0
(-3.0, 14.21999999999992), (0, 0),0
(-2.0, 14.21999999999992), (0, 0),0
(-1.0, 14.21999999999992), (0, 0),0
(0.0, 14.21999999999992), (0, 0),0
(1.0, 14.21999999999992), (0, 0),0
(2.0, 14.21999999999992), (0, 0),0
(3.0, 14.21999999999992), (0, 0),0
(-3.0, 15.220000000000276), (0, 0),0
(-2.0, 15.220000000000276), (0, 0),0
(-1.0, 15.220000000000276), (0, 0),0
(0.0, 15.220000000000276), (0, 0),0
(1.0, 15.220000000000276), (0, 0),0
(2.0, 15.220000000000276), (0, 0),0
(3.0, 15.220000000000276), (0, 0),0
(-3.0, 16.220000000000553), (0, 0),0
(-2.0, 16.220000000000553), (0, 0),0
(-1.0, 16.220000000000553), (0, 0),0
(0.0, 16.220000000000553), (0, 0),0
(1.0, 16.220000000000553), (0, 0),0
(2.0, 16.220000000000553), (0, 0),0
(3.0, 16.220000000000553), (0, 0),0
