(-3.0, 8.94999999999968), (0, 0),0
(-2.0, 8.94999999999968), (0, 0),0
(-1.0, 8.94999999999968), (0, 0),0
(0.0, 8.94999999999968), (0, 0),0
(1.0, 8.94999999999968), (0, 0),0
(2.0, 8.94999999999968), (0, 0),0
(3.0, 8.94999999999968), (0, 0),0
(-3.0, 9.94999999999968), (0, 0),0
(-2.0, 9.94999999999968), (0, 0),0
(-1.0, 9.94999999999968), (0, 0),0
(0.0, 9.94999999999968), (0, 0),0
(1.0, 9.94999999999968), (0, 0),0
(2.0, 9.94999999999968), (0, 0),0
(3.0, 9.94999999999968), (0, 0),0
(-3.0, 10.94999999999968), (0, 0),0
(-2.0, 10.94999999999968), (0, 0),0
(-1.0, 10.94999999999968), (0, 0),0
(0.0, 10.94999999999968), (0, 0),0
(1.0, 10.94999999999968), (0, 0),0
(2.0, 10.94999999999968), (0, 0),0
(3.0, 10.94999999999968), (0, 0),0
(-3.0, 11.94999999999968), (0, 0),0
(-2.0, 11.94999999999968), (0, 0),0
(-1.0, 11.94999999999968), (0, 0),0
(0.0, 11.94999999999968), (0, 0),0
(1.0, 11.94999999999968), (0, 0),0
(2.0, 11.94999999999968), (0, 0),0
(3.0, 11.94999999999968), (0, 0),0
(-3.0, 12.94999999999968), (0, 0),0
(-2.0, 12.94999999999968), (0, 0),0
(-1.0, 12.94999999999968), (0, 0),0
(0.0, 12.94999999999968), (0, 0),0
(1.0, 12.94999999999968), (0, 0),0
(2.0, 12.94999999999968), (0, 0),0
(3.0, 12.94999999999968), (0, 0),0
(-3.0, 13.94999999999968), (0, 0),0
(-2.0, 13.94999999999968), (0, 0),0
(-1.0, 13.94999999999968), (0, 0),0
(0.0, 13.94999999999968), (0, 0),0
(1.0, 13.94999999999968), (0, 0),0
(2.0, 13.94999999999968), (0, 0),0
(3.0, 13.94999999999968), (0, 0),0
(-3.0, 14.950000000000035), (0, 0),0
(-2.0, 14.950000000000035), (0, 0),0
(-1.0, 14.950000000000035), (0, 0),0
(0.0, 14.950000000000035), (0, 0),0
(1.0, 14.950000000000035), (0, 0),0
(2.0, 14.950000000000035), (0, 0),0
(3.0, 14.950000000000035), (0, 0),0
(-3.0, 15.95000000000039), (0, 0),0
(-2.0, 15.95000000000039), (0, 0),0
(-1.0, 15.95000000000039), (0, 0),0
(0.0, 15.95000000000039), (0, 0),0
(1.0, 15.95000000000039), (0, 0),0
(2.0, 15.95000000000039), (0, 0),0
(3.0, 15.95000000000039), (0, 0),0
(-3.0, 16.950000000000408), (0, 0),0
(-2.0, 16.950000000000408), (0, 0),0
(-1.0, 16.950000000000408), (0, 0),0
(0.0, 16.950000000000408), (0, 0),0
(1.0, 16.950000000000408), (0, 0),0
(2.0, 16.950000000000408), (0, 0),0
(3.0, 16.950000000000408), (0, 0),0
