(-3.0, 9.989999999999842), (0, 0),0
(-2.0, 9.989999999999842), (0, 0),0
(-1.0, 9.989999999999842), (0, 0),0
(0.0, 9.989999999999842), (0, 0),0
(1.0, 9.989999999999842), (0, 0),0
(2.0, 9.989999999999842), (0, 0),0
(3.0, 9.989999999999842), (0, 0),0
(-3.0, 10.989999999999842), (0, 0),0
(-2.0, 10.989999999999842), (0, 0),0
(-1.0, 10.989999999999842), (0, 0),0
(0.0, 10.989999999999842), (0, 0),0
(1.0, 10.989999999999842), (0, 0),0
(2.0, 10.989999999999842), (0, 0),0
(3.0, 10.989999999999842), (0, 0),0
(-3.0, 11.989999999999842), (0, 0),0
(-2.0, 11.989999999999842), (0, 0),0
(-1.0, 11.989999999999842), (0, 0),0
(0.0, 11.989999999999842), (0, 0),0
(1.0, 11.989999999999842), (0, 0),0
(2.0, 11.989999999999842), (0, 0),0
(3.0, 11.989999999999842), (0, 0),0
(-3.0, 12.989999999999842), (0, 0),0
(-2.0, 12.989999999999842), (0, 0),0
(-1.0, 12.989999999999842), (0, 0),0
(0.0, 12.989999999999842), (0, 0),0
(1.0, 12.989999999999842), (0, 0),0
(2.0, 12.989999999999842), (0, 0),0
(3.0, 12.989999999999842), (0, 0),0
(-3.0, 13.989999999999842), (0, 0),0
(-2.0, 13.989999999999842), (0, 0),0
(-1.0, 13.989999999999842), (0, 0),0
(0.0, 13.989999999999842), (0, 0),0
(1.0, 13.989999999999842), (0, 0),0
(2.0, 13.989999999999842), (0, 0),0
(3.0, 13.989999999999842), (0, 0),0
(-3.0, 14.989999999999842), (0, 0),0
(-2.0, 14.989999999999842), (0, 0),0
(-1.0, 14.989999999999842), (0, 0),0
(0.0, 14.989999999999842), (0, 0),0
(1.0, 14.989999999999842), (0, 0),0
(2.0, 14.989999999999842), (0, 0),0
(3.0, 14.989999999999842), (0, 0),0
(-3.0, 15.990000000000197), (0, 0),0
(-2.0, 15.990000000000197), (0, 0),0
(-1.0, 15.990000000000197), (0, 0),0
(0.0, 15.990000000000197), (0, 0),0
(1.0, 15.990000000000197), (0, 0),0
(2.0, 15.990000000000197), (0, 0),0
(3.0, 15.990000000000197), (0, 0),0
(-3.0, 16.9900000000002), (0, 0),0
(-2.0, 16.9900000000002), (0, 0),0
(-1.0, 16.9900000000002), (0, 0),0
(0.0, 16.9900000000002), (0, 0),0
(1.0, 16.9900000000002), (0, 0),0
(2.0, 16.9900000000002), (0, 0),0
(3.0, 16.9900000000002), (0, 0),0
(-3.0, 17.9900000000002), (0, 0),0
(-2.0, 17.9900000000002), (0, 0),0
(-1.0, 17.9900000000002), (0, 0),0
(0.0, 17.9900000000002), (0, 0),0
(1.0, 17.9900000000002), (0, 0),0
(2.0, 17.9900000000002), (0, 0),0
(3.0, 17.9900000000002), (0, 0),0
