(-1.2076253850086647, 3.8904971904057555), (0, 0),0
(-1.9966582804733928, 5.638228314845689), (-0.0018634137154801818, -0.00039512888961340666),0.0018695252967516618
(-0.9999273356084578, 5.691066445773892), (7.790362790135964e-05, 0.00021614057785563544),0.0036587974997271955
(-0.002029930948873405, 5.716074981571312), (0.0002488636072913214, 0.0003109041932297073),0.003328642194066145
(0.9962008317534833, 5.694651301391202), (-9.673054865301858e-05, 0.0002023674354689983),0.003177567240470358
(1.9932584385581262, 5.643637402261), (0.0016333770289405193, -0.0003342833169409343),0.001638197249379747
(1.2052397400879222, 3.8925409224434895), (0, 0),0
(-3.0000000000001674, 7.0649999999992374), (-2.1141472259923116e-27, -3.5527136788004694e-14),8.881784197001252e-15
(-2.000000000000167, 7.0649999999992374), (-2.116119378255364e-27, -3.5527136788004694e-14),8.881784197001252e-15
(-1.000000000000166, 7.0649999999992374), (-2.111188997597733e-27, -3.5527136788004694e-14),8.881784197001252e-15
(-1.654846260024101e-13, 7.0649999999992374), (-2.1076933577114725e-27, -3.5527136788004694e-14),8.881784197001252e-15
(0.9999999999998348, 7.0649999999992374), (-2.108230769203154e-27, -3.5527136788004694e-14),8.881784197001252e-15
(1.9999999999998355, 7.0649999999992374), (-2.112175073729259e-27, -3.5527136788004694e-14),8.881784197001252e-15
(2.999999999999836, 7.0649999999992374), (-2.1062586169401015e-27, -3.5527136788004694e-14),8.881784197001252e-15
(-2.9999999999999294, 8.064999999999229), (2.1141472259923116e-27, 3.5527136788004694e-14),8.881784197001252e-15
(-1.9999999999999287, 8.064999999999229), (2.116119378255364e-27, 3.5527136788004694e-14),8.881784197001252e-15
(-0.9999999999999284, 8.064999999999229), (2.111188997597733e-27, 3.5527136788004694e-14),8.881784197001252e-15
(7.182054950760634e-14, 8.064999999999229), (2.1076933577114725e-27, 3.5527136788004694e-14),8.881784197001252e-15
(1.0000000000000722, 8.064999999999229), (2.108230769203154e-27, 3.5527136788004694e-14),8.881784197001252e-15
(2.0000000000000733, 8.064999999999229), (2.112175073729259e-27, 3.5527136788004694e-14),8.881784197001252e-15
(3.0000000000000733, 8.064999999999229), (2.1062586169401015e-27, 3.5527136788004694e-14),8.881784197001252e-15
(-3.0, 9.064999999999229), (0, 0),0
(-2.0, 9.064999999999229), (0, 0),0
(-1.0, 9.064999999999229), (0, 0),0
(0.0, 9.064999999999229), (0, 0),0
(1.0, 9.064999999999229), (0, 0),0
(2.0, 9.064999999999229), (0, 0),0
(3.0, 9.064999999999229), (0, 0),0
(-3.0, 10.064999999999229), (0, 0),0
(-2.0, 10.064999999999229), (0, 0),0
(-1.0, 10.064999999999229), (0, 0),0
(0.0, 10.064999999999229), (0, 0),0
(1.0, 10.064999999999229), (0, 0),0
(2.0, 10.064999999999229), (0, 0),0
(3.0, 10.064999999999229), (0, 0),0
(-3.0, 11.064999999999229), (0, 0),0
(-2.0, 11.064999999999229), (0, 0),0
(-1.0, 11.064999999999229), (0, 0),0
(0.0, 11.064999999999229), (0, 0),0
(1.0, 11.064999999999229), (0, 0),0
(2.0, 11.064999999999229), (0, 0),0
(3.0, 11.064999999999229), (0, 0),0
(-3.0, 12.064999999999584), (0, 0),0
(-2.0, 12.064999999999584), (0, 0),0
(-1.0, 12.064999999999584), (0, 0),0
(0.0, 12.064999999999584), (0, 0),0
(1.0, 12.064999999999584), (0, 0),0
(2.0, 12.064999999999584), (0, 0),0
(3.0, 12.064999999999584), (0, 0),0
(-3.0, 13.064999999999939), (0, 0),0
(-2.0, 13.064999999999939), (0, 0),0
(-1.0, 13.064999999999939), (0, 0),0
(0.0, 13.064999999999939), (0, 0),0
(1.0, 13.064999999999939), (0, 0),0
(2.0, 13.064999999999939), (0, 0),0
(3.0, 13.064999999999939), (0, 0),0
(-3.0, 14.065000000000294), (0, 0),0
(-2.0, 14.065000000000294), (0, 0),0
(-1.0, 14.065000000000294), (0, 0),0
(0.0, 14.065000000000294), (0, 0),0
(1.0, 14.065000000000294), (0, 0),0
(2.0, 14.065000000000294), (0, 0),0
(3.0, 14.065000000000294), (0, 0),0
