(-0.35852683815228004, -0.05241878414934431), (-0.6149055872586238, -1.0016623374232776),2.206653011894475
(0.2690406764259314, 0.1730361279749819), (0.6037517234181611, 1.3270409092466517),2.0792734561377113
(-0.984669799402303, 5.101997488079438), (-0.015471261511612825, -0.0013284298065749211),0.01572200713316585
(-0.0006185023528360719, 5.123121219218266), (-0.002376041476594315, 0.0026194075765491416),0.03390276815343962
(0.9810402394514929, 5.105369242712241), (0.01784730298820714, -0.0012909777699742207),0.018180761020273772
(-0.35438829590440296, -0.0002265327908270165), (-0.6227131492442859, -0.3809561655544802),2.2570707856118664
(-0.052161440934794134, 0.17872842441167153), (-0.03313353527039237, 1.6459814358636198),2.467344493621528
(-0.24575308856908926, 2.1967378929818095), (0, 0),0
(-1.9463906188707256, 6.345242689706498), (-0.02557144379710104, -0.002632732982870115),0.026270027211755864
(-0.972983031928532, 6.370297222022437), (0.0013618482225259514, -4.953913348137561e-05),0.05110571945934694
(0.0018074161582646501, 6.397297396706632), (-0.004131312093258264, 0.005980632765795007),0.05404157697230649
(0.9721908828796109, 6.369063697569175), (0.0029502012041794333, -0.0008738463616713155),0.055283887137850485
(1.945835491903231, 6.345820791063508), (0.02539070646365392, -0.0024245142877722),0.02607800241313507
(0.32976189356437013, -0.10601363905263628), (0.667000548355141, -1.5904038421325137),1.8553815399777267
(-2.999999999999893, 7.624999999999169), (1.1596255306748874e-27, -3.5527136788004694e-14),8.881784197001252e-15
(-1.999999999999892, 7.624999999999169), (1.1675141397270975e-27, -3.5527136788004694e-14),8.881784197001252e-15
(-0.9999999999998918, 7.624999999999169), (1.1606116068064136e-27, -3.5527136788004694e-14),8.881784197001252e-15
(1.0835776720341533e-13, 7.624999999999169), (1.1585428190824723e-27, -3.5527136788004694e-14),8.881784197001252e-15
(1.0000000000001088, 7.624999999999169), (1.1606116068064136e-27, -3.5527136788004694e-14),8.881784197001252e-15
(2.00000000000011, 7.624999999999169), (1.16948629199015e-27, -3.5527136788004694e-14),8.881784197001252e-15
(3.00000000000011, 7.624999999999169), (1.1635698352009924e-27, -3.5527136788004694e-14),8.881784197001252e-15
(-3.0000000000000235, 8.62499999999916), (-1.1596255306748874e-27, 3.5527136788004694e-14),8.881784197001252e-15
(-2.0000000000000235, 8.62499999999916), (-1.1675141397270975e-27, 3.5527136788004694e-14),8.881784197001252e-15
(-1.0000000000000224, 8.62499999999916), (-1.1606116068064136e-27, 3.5527136788004694e-14),8.881784197001252e-15
(-2.2082558004399328e-14, 8.62499999999916), (-1.1585428190824723e-27, 3.5527136788004694e-14),8.881784197001252e-15
(0.9999999999999781, 8.62499999999916), (-1.1606116068064136e-27, 3.5527136788004694e-14),8.881784197001252e-15
(1.9999999999999785, 8.62499999999916), (-1.16948629199015e-27, 3.5527136788004694e-14),8.881784197001252e-15
(2.999999999999979, 8.62499999999916), (-1.1635698352009924e-27, 3.5527136788004694e-14),8.881784197001252e-15
(-3.0, 9.62499999999916), (0, 0),0
(-2.0, 9.62499999999916), (0, 0),0
(-1.0, 9.62499999999916), (0, 0),0
(0.0, 9.62499999999916), (0, 0),0
(1.0, 9.62499999999916), (0, 0),0
(2.0, 9.62499999999916), (0, 0),0
(3.0, 9.62499999999916), (0, 0),0
(-3.0, 10.62499999999916), (0, 0),0
(-2.0, 10.62499999999916), (0, 0),0
(-1.0, 10.62499999999916), (0, 0),0
(0.0, 10.62499999999916), (0, 0),0
(1.0, 10.62499999999916), (0, 0),0
(2.0, 10.62499999999916), (0, 0),0
(3.0, 10.62499999999916), (0, 0),0
(-3.0, 11.624999999999515), (0, 0),0
(-2.0, 11.624999999999515), (0, 0),0
(-1.0, 11.624999999999515), (0, 0),0
(0.0, 11.624999999999515), (0, 0),0
(1.0, 11.624999999999515), (0, 0),0
(2.0, 11.624999999999515), (0, 0),0
(3.0, 11.624999999999515), (0, 0),0
(-3.0, 12.62499999999987), (0, 0),0
(-2.0, 12.62499999999987), (0, 0),0
(-1.0, 12.62499999999987), (0, 0),0
(0.0, 12.62499999999987), (0, 0),0
(1.0, 12.62499999999987), (0, 0),0
(2.0, 12.62499999999987), (0, 0),0
(3.0, 12.62499999999987), (0, 0),0
(-3.0, 13.625000000000226), (0, 0),0
(-2.0, 13.625000000000226), (0, 0),0
(-1.0, 13.625000000000226), (0, 0),0
(0.0, 13.625000000000226), (0, 0),0
(1.0, 13.625000000000226), (0, 0),0
(2.0, 13.625000000000226), (0, 0),0
(3.0, 13.625000000000226), (0, 0),0
