(-3.0, 9.554999999999774), (0, 0),0
(-2.0, 9.554999999999774), (0, 0),0
(-1.0, 9.554999999999774), (0, 0),0
(0.0, 9.554999999999774), (0, 0),0
(1.0, 9.554999999999774), (0, 0),0
(2.0, 9.554999999999774), (0, 0),0
(3.0, 9.554999999999774), (0, 0),0
(-3.0, 10.554999999999774), (0, 0),0
(-2.0, 10.554999999999774), (0, 0),0
(-1.0, 10.554999999999774), (0, 0),0
(0.0, 10.554999999999774), (0, 0),0
(1.0, 10.554999999999774), (0, 0),0
(2.0, 10.554999999999774), (0, 0),0
(3.0, 10.554999999999774), (0, 0),0
(-3.0, 11.554999999999774), (0, 0),0
(-2.0, 11.554999999999774), (0, 0),0
(-1.0, 11.554999999999774), (0, 0),0
(0.0, 11.554999999999774), (0, 0),0
(1.0, 11.554999999999774), (0, 0),0
(2.0, 11.554999999999774), (0, 0),0
(3.0, 11.554999999999774), (0, 0),0
(-3.0, 12.554999999999774), (0, 0),0
(-2.0, 12.554999999999774), (0, 0),0
(-1.0, 12.554999999999774), (0, 0),0
(0.0, 12.554999999999774), (0, 0),0
(1.0, 12.554999999999774), (0, 0),0
(2.0, 12.554999999999774), (0, 0),0
(3.0, 12.554999999999774), (0, 0),0
(-3.0, 13.554999999999774), (0, 0),0
(-2.0, 13.554999999999774), (0, 0),0
(-1.0, 13.554999999999774), (0, 0),0
(0.0, 13.554999999999774), (0, 0),0
(1.0, 13.554999999999774), (0, 0),0
(2.0, 13.554999999999774), (0, 0),0
(3.0, 13.554999999999774), (0, 0),0
(-3.0, 14.554999999999774), (0, 0),0
(-2.0, 14.554999999999774), (0, 0),0
(-1.0, 14.554999999999774), (0, 0),0
(0.0, 14.554999999999774), (0, 0),0
(1.0, 14.554999999999774), (0, 0),0
(2.0, 14.554999999999774), (0, 0),0
(3.0, 14.554999999999774), (0, 0),0
(-3.0, 15.55500000000013), (0, 0),0
(-2.0, 15.55500000000013), (0, 0),0
(-1.0, 15.55500000000013), (0, 0),0
(0.0, 15.55500000000013), (0, 0),0
(1.0, 15.55500000000013), (0, 0),0
(2.0, 15.55500000000013), (0, 0),0
(3.0, 15.55500000000013), (0, 0),0
(-3.0, 16.555000000000287), (0, 0),0
(-2.0, 16.555000000000287), (0, 0),0
(-1.0, 16.555000000000287), (0, 0),0
(0.0, 16.555000000000287), (0, 0),0
(1.0, 16.555000000000287), (0, 0),0
(2.0, 16.555000000000287), (0, 0),0
(3.0, 16.555000000000287), (0, 0),0
(-3.0, 17.555000000000287), (0, 0),0
(-2.0, 17.555000000000287), (0, 0),0
(-1.0, 17.555000000000287), (0, 0),0
(0.0, 17.555000000000287), (0, 0),0
(1.0, 17.555000000000287), (0, 0),0
(2.0, 17.555000000000287), (0, 0),0
(3.0, 17.555000000000287), (0, 0),0
