(-1.2240178900833303, -2.7750526195443523), (-0.0024769931262565415, -0.04310900298695652),0.014607516292351241
(0.5698916726375294, -2.049612076008127), (-0.000297320320695741, 0.001204622237568276),0.01395512793747733
(-1.0014591088704814, 4.485517748034214), (-3.0874385622855096e-05, -5.043459004035018e-07),3.087559638359494e-05
(-0.0014983230357658028, 4.489601441626214), (-3.897114882149834e-06, 6.897150862851115e-07),6.56483369138039e-05
(0.9984660161222896, 4.488268722497271), (3.477150050500493e-05, -1.8536918588160977e-07),3.4772740530208956e-05
(-1.654554454228302, -1.8808607137044797), (-0.0032540443357874827, 0.0270336166414472),0.007558113774261854
(-0.4110358753185786, -2.2049551430469307), (-0.000986637008226562, 0.011820050025290905),0.013897690635053528
(-0.02549673762297955, -0.33233369394802414), (0, 0),0
(-1.9965504924695958, 5.69605664997874), (-0.001263829762339606, 0.00013934352866690647),0.0012659123088555324
(-0.9981955878694573, 5.668538249278283), (8.440753211441773e-05, -0.0002490985575070294),0.0024470487547242348
(0.0003530847673833842, 5.691769059999605), (-0.00019966522965347302, 0.00025470582537252156),0.002562608389688137
(0.9986270388991042, 5.6655378366329465), (0.00014237812799010492, -0.00029453340652746754),0.00262028118026314
(1.9969319396914351, 5.695724609058151), (0.0012367093318885565, 0.0001495826099950689),0.0012388092364437053
(1.5569682028722815, -1.9422959495828294), (0.007014994790966327, 0.003050714082650135),0.007106839820513189
(-2.9999999999998397, 7.024999999999075), (2.1062586169401015e-27, -3.5527136788004694e-14),8.881784197001252e-15
(-1.9999999999998388, 7.024999999999075), (2.1141472259923116e-27, -3.5527136788004694e-14),8.881784197001252e-15
(-0.9999999999998385, 7.024999999999075), (2.1072446930716278e-27, -3.5527136788004694e-14),8.881784197001252e-15
(1.6164847238542284e-13, 7.024999999999075), (2.1051759053476868e-27, -3.5527136788004694e-14),8.881784197001252e-15
(1.000000000000162, 7.024999999999075), (2.1072446930716278e-27, -3.5527136788004694e-14),8.881784197001252e-15
(2.0000000000001634, 7.024999999999075), (2.116119378255364e-27, -3.5527136788004694e-14),8.881784197001252e-15
(3.0000000000001634, 7.024999999999075), (2.1102029214662066e-27, -3.5527136788004694e-14),8.881784197001252e-15
(-3.000000000000077, 8.024999999999066), (-2.1062586169401015e-27, 3.5527136788004694e-14),8.881784197001252e-15
(-2.000000000000077, 8.024999999999066), (-2.1141472259923116e-27, 3.5527136788004694e-14),8.881784197001252e-15
(-1.0000000000000757, 8.024999999999066), (-2.1072446930716278e-27, 3.5527136788004694e-14),8.881784197001252e-15
(-7.537326318640685e-14, 8.024999999999066), (-2.1051759053476868e-27, 3.5527136788004694e-14),8.881784197001252e-15
(0.9999999999999248, 8.024999999999066), (-2.1072446930716278e-27, 3.5527136788004694e-14),8.881784197001252e-15
(1.9999999999999252, 8.024999999999066), (-2.116119378255364e-27, 3.5527136788004694e-14),8.881784197001252e-15
(2.999999999999926, 8.024999999999066), (-2.1102029214662066e-27, 3.5527136788004694e-14),8.881784197001252e-15
(-3.0, 9.024999999999066), (0, 0),0
(-2.0, 9.024999999999066), (0, 0),0
(-1.0, 9.024999999999066), (0, 0),0
(0.0, 9.024999999999066), (0, 0),0
(1.0, 9.024999999999066), (0, 0),0
(2.0, 9.024999999999066), (0, 0),0
(3.0, 9.024999999999066), (0, 0),0
(-3.0, 10.024999999999066), (0, 0),0
(-2.0, 10.024999999999066), (0, 0),0
(-1.0, 10.024999999999066), (0, 0),0
(0.0, 10.024999999999066), (0, 0),0
(1.0, 10.024999999999066), (0, 0),0
(2.0, 10.024999999999066), (0, 0),0
(3.0, 10.024999999999066), (0, 0),0
(-3.0, 11.024999999999421), (0, 0),0
(-2.0, 11.024999999999421), (0, 0),0
(-1.0, 11.024999999999421), (0, 0),0
(0.0, 11.024999999999421), (0, 0),0
(1.0, 11.024999999999421), (0, 0),0
(2.0, 11.024999999999421), (0, 0),0
(3.0, 11.024999999999421), (0, 0),0
(-3.0, 12.024999999999777), (0, 0),0
(-2.0, 12.024999999999777), (0, 0),0
(-1.0, 12.024999999999777), (0, 0),0
(0.0, 12.024999999999777), (0, 0),0
(1.0, 12.024999999999777), (0, 0),0
(2.0, 12.024999999999777), (0, 0),0
(3.0, 12.024999999999777), (0, 0),0
(-3.0, 13.025000000000132), (0, 0),0
(-2.0, 13.025000000000132), (0, 0),0
(-1.0, 13.025000000000132), (0, 0),0
(0.0, 13.025000000000132), (0, 0),0
(1.0, 13.025000000000132), (0, 0),0
(2.0, 13.025000000000132), (0, 0),0
(3.0, 13.025000000000132), (0, 0),0
