(-1.2355891865266744, -3.2734275640029318), (1.0450199610281995e-06, -0.0006637057335151342),0.00020965398280281544
(0.5700693953377904, -2.542558023715354), (2.4133976031817143e-05, 2.495806402095645e-05),0.000138922178319123
(-0.08559532586270874, 1.9598099769961075), (0, 0),0
(-0.01038841635051687, 3.345701435618399), (0, 0),0
(0.022706467930543383, -0.08608829260735855), (-0.04979725517735966, 1.0052130048984016),0.45824950049426827
(-1.6649969664258406, -2.370470009979624), (-5.9394251141851755e-05, 0.0004995763024758057),0.0001383166629067567
(-0.4176550215504646, -2.6982397405801026), (-2.2489105717340638e-05, 0.00011316359133093967),0.00015318032743538712
(-0.02659217539096146, -1.2320502896032317), (-0.1070789055818746, -1.0784044659944247),0.4887056610446422
(-0.7626956676117913, -0.6435402628465179), (-0.09820482468801378, 0.052186202055810295),0.12207339109230364
(-0.9904236067177529, 4.995912994461814), (-0.00843540251400878, -0.00014879196078014092),0.0085078683544072
(0.0010588848559582417, 5.000285181318204), (-0.001115859586569106, 0.000510690458195982),0.018152579408522995
(0.9913697450762828, 4.990904431200724), (0.009551262100577886, -0.00036189849741584103),0.009644711054115795
(0.2096167756482819, -0.6336942980251112), (0.0018498875201279352, 0.2834073309426405),1.0997221286408054
(1.563502903422665, -2.4286470500093436), (5.670436086634705e-05, 2.6007775687432313e-05),5.707917077979463e-05
(0.8492018664178912, -0.9326321391786886), (0.03114486460223484, -0.30141236573974955),1.0348717894842627
(-1.9643004308542416, 6.251434892621842), (-0.01724267635868306, -0.00028253989975635986),0.01755085349529628
(-0.9818595277207166, 6.255459481793988), (-0.00176209129497841, -0.0019311380627387263),0.03693960075928582
(-0.0016637783564049276, 6.284002815877858), (0.002632981141673381, 0.004010376405095389),0.036044094978015195
(0.9813109870518982, 6.257034023729987), (-0.0011880281294416525, -0.0014572158334821737),0.034535051252648996
(1.9634198124861355, 6.25228726424954), (0.017559814641429743, -0.00033948260911812904),0.017879703538623337
(1.182448332053457, -0.9179981360371309), (0.22208623332488522, 0.03901029383732175),0.6664323743128788
(-3.0000000000001172, 7.544999999999), (-1.2897875800363543e-27, -3.5527136788004694e-14),8.881784197001252e-15
(-2.0000000000001172, 7.544999999999), (-1.2957040368255119e-27, -3.5527136788004694e-14),8.881784197001252e-15
(-1.000000000000116, 7.544999999999), (-1.2868293516417755e-27, -3.5527136788004694e-14),8.881784197001252e-15
(-1.1546319456101633e-13, 7.544999999999), (-1.2847605639178343e-27, -3.5527136788004694e-14),8.881784197001252e-15
(0.9999999999998846, 7.544999999999), (-1.2868293516417755e-27, -3.5527136788004694e-14),8.881784197001252e-15
(1.999999999999885, 7.544999999999), (-1.2937318845624594e-27, -3.5527136788004694e-14),8.881784197001252e-15
(2.999999999999886, 7.544999999999), (-1.2858432755102492e-27, -3.5527136788004694e-14),8.881784197001252e-15
(-2.999999999999972, 8.544999999998991), (1.2897875800363543e-27, 3.5527136788004694e-14),8.881784197001252e-15
(-1.9999999999999714, 8.544999999998991), (1.2957040368255119e-27, 3.5527136788004694e-14),8.881784197001252e-15
(-0.999999999999971, 8.544999999998991), (1.2868293516417755e-27, 3.5527136788004694e-14),8.881784197001252e-15
(2.9187985362000333e-14, 8.544999999998991), (1.2847605639178343e-27, 3.5527136788004694e-14),8.881784197001252e-15
(1.0000000000000295, 8.544999999998991), (1.2868293516417755e-27, 3.5527136788004694e-14),8.881784197001252e-15
(2.0000000000000306, 8.544999999998991), (1.2937318845624594e-27, 3.5527136788004694e-14),8.881784197001252e-15
(3.0000000000000306, 8.544999999998991), (1.2858432755102492e-27, 3.5527136788004694e-14),8.881784197001252e-15
(-3.0, 9.544999999998991), (0, 0),0
(-2.0, 9.544999999998991), (0, 0),0
(-1.0, 9.544999999998991), (0, 0),0
(0.0, 9.544999999998991), (0, 0),0
(1.0, 9.544999999998991), (0, 0),0
(2.0, 9.544999999998991), (0, 0),0
(3.0, 9.544999999998991), (0, 0),0
(-3.0, 10.544999999999346), (0, 0),0
(-2.0, 10.544999999999346), (0, 0),0
(-1.0, 10.544999999999346), (0, 0),0
(0.0, 10.544999999999346), (0, 0),0
(1.0, 10.544999999999346), (0, 0),0
(2.0, 10.544999999999346), (0, 0),0
(3.0, 10.544999999999346), (0, 0),0
(-3.0, 11.544999999999702), (0, 0),0
(-2.0, 11.544999999999702), (0, 0),0
(-1.0, 11.544999999999702), (0, 0),0
(0.0, 11.544999999999702), (0, 0),0
(1.0, 11.544999999999702), (0, 0),0
(2.0, 11.544999999999702), (0, 0),0
(3.0, 11.544999999999702), (0, 0),0
(-3.0, 12.545000000000057), (0, 0),0
(-2.0, 12.545000000000057), (0, 0),0
(-1.0, 12.545000000000057), (0, 0),0
(0.0, 12.545000000000057), (0, 0),0
(1.0, 12.545000000000057), (0, 0),0
(2.0, 12.545000000000057), (0, 0),0
(3.0, 12.545000000000057), (0, 0),0
