(-0.7652237340229376, -1.914997042620345), (-0.045900770496300744, -0.9600943563513231),0.41118531358384425
(0.43806107135443423, -1.2841679475869276), (0.03209860939327703, 0.040174923214955506),0.16437069857227593
(-0.9997772968174201, 4.867167265454804), (-0.0016136032083309414, -3.734517485855311e-05),0.0016162424576426915
(-0.001410250647626644, 4.872943808244217), (-0.00023056710741248027, 5.9370979449459846e-05),0.003463834590829551
(0.9967377077778427, 4.869963469105064), (0.0018441703157434217, -2.202580459090674e-05),0.0018475921331868594
(-1.5052508683173238, -1.3620805372246017), (-0.056409941859886695, 0.168588347520447),0.07622685607828883
(-0.45978074530696955, -1.324247659304842), (0.011391615347516176, 0.7752714733920578),0.43622250571702215
(-0.02549673762297955, 1.3337140306718678), (3.75, 2.1650635094610964),4.330127018922194
(-1.9817097546667408, 6.090585013979124), (-0.007902898847500377, 0.0003806330119621003),0.007966943919085145
(-0.9897486052266583, 6.078640879069053), (-0.0012237040484563647, -0.0012765682457637705),0.017181197357344025
(0.000738899497468419, 6.102949284514079), (-0.0011853841367442455, 0.0020184050868388777),0.01963872761173635
(0.9899482218187151, 6.076030184462657), (0.0024816233017192213, -0.0015757849975376644),0.01831796516481543
(1.9819508401246755, 6.0903874297232745), (0.007830363730981766, 0.0004533151445004568),0.00789349099133796
(1.3701417202098394, -1.379008933597353), (0.05882048761539423, -0.023940387776137235),0.0631066503608092
(-2.9999999999998734, 7.404999999999134), (1.5067243289721325e-27, -3.5527136788004694e-14),8.881784197001252e-15
(-1.9999999999998725, 7.404999999999134), (1.5146129380243427e-27, -3.5527136788004694e-14),8.881784197001252e-15
(-0.9999999999998722, 7.404999999999134), (1.5077104051036588e-27, -3.5527136788004694e-14),8.881784197001252e-15
(1.2789769243681808e-13, 7.404999999999134), (1.5056416173797176e-27, -3.5527136788004694e-14),8.881784197001252e-15
(1.0000000000001283, 7.404999999999134), (1.5077104051036588e-27, -3.5527136788004694e-14),8.881784197001252e-15
(2.0000000000001297, 7.404999999999134), (1.5165850902873952e-27, -3.5527136788004694e-14),8.881784197001252e-15
(3.0000000000001297, 7.404999999999134), (1.5106686334982376e-27, -3.5527136788004694e-14),8.881784197001252e-15
(-3.000000000000043, 8.404999999999125), (-1.5067243289721325e-27, 3.5527136788004694e-14),8.881784197001252e-15
(-2.000000000000043, 8.404999999999125), (-1.5146129380243427e-27, 3.5527136788004694e-14),8.881784197001252e-15
(-1.000000000000042, 8.404999999999125), (-1.5077104051036588e-27, 3.5527136788004694e-14),8.881784197001252e-15
(-4.1622483237802086e-14, 8.404999999999125), (-1.5056416173797176e-27, 3.5527136788004694e-14),8.881784197001252e-15
(0.9999999999999586, 8.404999999999125), (-1.5077104051036588e-27, 3.5527136788004694e-14),8.881784197001252e-15
(1.999999999999959, 8.404999999999125), (-1.5165850902873952e-27, 3.5527136788004694e-14),8.881784197001252e-15
(2.9999999999999596, 8.404999999999125), (-1.5106686334982376e-27, 3.5527136788004694e-14),8.881784197001252e-15
(-3.0, 9.404999999999125), (0, 0),0
(-2.0, 9.404999999999125), (0, 0),0
(-1.0, 9.404999999999125), (0, 0),0
(0.0, 9.404999999999125), (0, 0),0
(1.0, 9.404999999999125), (0, 0),0
(2.0, 9.404999999999125), (0, 0),0
(3.0, 9.404999999999125), (0, 0),0
(-3.0, 10.404999999999125), (0, 0),0
(-2.0, 10.404999999999125), (0, 0),0
(-1.0, 10.404999999999125), (0, 0),0
(0.0, 10.404999999999125), (0, 0),0
(1.0, 10.404999999999125), (0, 0),0
(2.0, 10.404999999999125), (0, 0),0
(3.0, 10.404999999999125), (0, 0),0
(-3.0, 11.40499999999948), (0, 0),0
(-2.0, 11.40499999999948), (0, 0),0
(-1.0, 11.40499999999948), (0, 0),0
(0.0, 11.40499999999948), (0, 0),0
(1.0, 11.40499999999948), (0, 0),0
(2.0, 11.40499999999948), (0, 0),0
(3.0, 11.40499999999948), (0, 0),0
(-3.0, 12.404999999999836), (0, 0),0
(-2.0, 12.404999999999836), (0, 0),0
(-1.0, 12.404999999999836), (0, 0),0
(0.0, 12.404999999999836), (0, 0),0
(1.0, 12.404999999999836), (0, 0),0
(2.0, 12.404999999999836), (0, 0),0
(3.0, 12.404999999999836), (0, 0),0
(-3.0, 13.405000000000191), (0, 0),0
(-2.0, 13.405000000000191), (0, 0),0
(-1.0, 13.405000000000191), (0, 0),0
(0.0, 13.405000000000191), (0, 0),0
(1.0, 13.405000000000191), (0, 0),0
(2.0, 13.405000000000191), (0, 0),0
(3.0, 13.405000000000191), (0, 0),0
