(-3.0, 10.814999999999971), (0, 0),0
(-2.0, 10.814999999999971), (0, 0),0
(-1.0, 10.814999999999971), (0, 0),0
(0.0, 10.814999999999971), (0, 0),0
(1.0, 10.814999999999971), (0, 0),0
(2.0, 10.814999999999971), (0, 0),0
(3.0, 10.814999999999971), (0, 0),0
(-3.0, 11.814999999999971), (0, 0),0
(-2.0, 11.814999999999971), (0, 0),0
(-1.0, 11.814999999999971), (0, 0),0
(0.0, 11.814999999999971), (0, 0),0
(1.0, 11.814999999999971), (0, 0),0
(2.0, 11.814999999999971), (0, 0),0
(3.0, 11.814999999999971), (0, 0),0
(-3.0, 12.814999999999971), (0, 0),0
(-2.0, 12.814999999999971), (0, 0),0
(-1.0, 12.814999999999971), (0, 0),0
(0.0, 12.814999999999971), (0, 0),0
(1.0, 12.814999999999971), (0, 0),0
(2.0, 12.814999999999971), (0, 0),0
(3.0, 12.814999999999971), (0, 0),0
(-3.0, 13.814999999999971), (0, 0),0
(-2.0, 13.814999999999971), (0, 0),0
(-1.0, 13.814999999999971), (0, 0),0
(0.0, 13.814999999999971), (0, 0),0
(1.0, 13.814999999999971), (0, 0),0
(2.0, 13.814999999999971), (0, 0),0
(3.0, 13.814999999999971), (0, 0),0
(-3.0, 14.814999999999971), (0, 0),0
(-2.0, 14.814999999999971), (0, 0),0
(-1.0, 14.814999999999971), (0, 0),0
(0.0, 14.814999999999971), (0, 0),0
(1.0, 14.814999999999971), (0, 0),0
(2.0, 14.814999999999971), (0, 0),0
(3.0, 14.814999999999971), (0, 0),0
(-3.0, 15.814999999999971), (0, 0),0
(-2.0, 15.814999999999971), (0, 0),0
(-1.0, 15.814999999999971), (0, 0),0
(0.0, 15.814999999999971), (0, 0),0
(1.0, 15.814999999999971), (0, 0),0
(2.0, 15.814999999999971), (0, 0),0
(3.0, 15.814999999999971), (0, 0),0
(-3.0, 16.815000000000037), (0, 0),0
(-2.0, 16.815000000000037), (0, 0),0
(-1.0, 16.815000000000037), (0, 0),0
(0.0, 16.815000000000037), (0, 0),0
(1.0, 16.815000000000037), (0, 0),0
(2.0, 16.815000000000037), (0, 0),0
(3.0, 16.815000000000037), (0, 0),0
(-3.0, 17.815000000000037), (0, 0),0
(-2.0, 17.815000000000037), (0, 0),0
(-1.0, 17.815000000000037), (0, 0),0
(0.0, 17.815000000000037), (0, 0),0
(1.0, 17.815000000000037), (0, 0),0
(2.0, 17.815000000000037), (0, 0),0
(3.0, 17.815000000000037), (0, 0),0
(-3.0, 18.815000000000037), (0, 0),0
(-2.0, 18.815000000000037), (0, 0),0
(-1.0, 18.815000000000037), (0, 0),0
(0.0, 18.815000000000037), (0, 0),0
(1.0, 18.815000000000037), (0, 0),0
(2.0, 18.815000000000037), (0, 0),0
(3.0, 18.815000000000037), (0, 0),0
