(-2.2515728196700637, 5.779336779191708), (-0.0418139777346029, -0.31411635453009473),0.098711523550159
(-1.827975085274285, 6.574878027145602), (-0.024024827475805192, 0.2795394953777586),0.17023030538309325
(-0.9073944556404416, 6.695744386534618), (-0.014054161828218989, 0.022822989664783473),0.15914393689798856
(0.004363897075890483, 6.729278904901023), (-0.007760941787726905, 0.024716211188228136),0.18477752998903896
(0.9065951487044525, 6.695923205385655), (0.022998066892046393, 0.02070646607053485),0.167270339302936
(1.8286961039586038, 6.575879761207613), (0.023133517929573626, 0.2791878461300629),0.1683127581420062
(2.2515527790785477, 5.779359289215483), (0.04152232400473397, -0.3128566539012732),0.09819479376305484
(-3.0000000000001017, 7.804999999999353), (-9.466330862652142e-28, -3.5527136788004694e-14),8.881784197001252e-15
(-2.0000000000001013, 7.804999999999353), (-9.486052385282667e-28, -3.5527136788004694e-14),8.881784197001252e-15
(-1.0000000000001004, 7.804999999999353), (-9.436748578706354e-28, -3.5527136788004694e-14),8.881784197001252e-15
(-9.975942294460084e-14, 7.804999999999353), (-9.40179217984375e-28, -3.5527136788004694e-14),8.881784197001252e-15
(0.9999999999999005, 7.804999999999353), (-9.407166294760566e-28, -3.5527136788004694e-14),8.881784197001252e-15
(1.9999999999999012, 7.804999999999353), (-9.446609340021616e-28, -3.5527136788004694e-14),8.881784197001252e-15
(2.999999999999902, 7.804999999999353), (-9.38744477213004e-28, -3.5527136788004694e-14),8.881784197001252e-15
(-2.999999999999995, 8.804999999999344), (9.466330862652142e-28, 3.5527136788004694e-14),8.881784197001252e-15
(-1.9999999999999944, 8.804999999999344), (9.486052385282667e-28, 3.5527136788004694e-14),8.881784197001252e-15
(-0.9999999999999941, 8.804999999999344), (9.436748578706354e-28, 3.5527136788004694e-14),8.881784197001252e-15
(6.095346449797046e-15, 8.804999999999344), (9.40179217984375e-28, 3.5527136788004694e-14),8.881784197001252e-15
(1.0000000000000064, 8.804999999999344), (9.407166294760566e-28, 3.5527136788004694e-14),8.881784197001252e-15
(2.0000000000000075, 8.804999999999344), (9.446609340021616e-28, 3.5527136788004694e-14),8.881784197001252e-15
(3.0000000000000075, 8.804999999999344), (9.38744477213004e-28, 3.5527136788004694e-14),8.881784197001252e-15
(-3.0, 9.804999999999344), (0, 0),0
(-2.0, 9.804999999999344), (0, 0),0
(-1.0, 9.804999999999344), (0, 0),0
(0.0, 9.804999999999344), (0, 0),0
(1.0, 9.804999999999344), (0, 0),0
(2.0, 9.804999999999344), (0, 0),0
(3.0, 9.804999999999344), (0, 0),0
(-3.0, 10.804999999999344), (0, 0),0
(-2.0, 10.804999999999344), (0, 0),0
(-1.0, 10.804999999999344), (0, 0),0
(0.0, 10.804999999999344), (0, 0),0
(1.0, 10.804999999999344), (0, 0),0
(2.0, 10.804999999999344), (0, 0),0
(3.0, 10.804999999999344), (0, 0),0
(-3.0, 11.804999999999344), (0, 0),0
(-2.0, 11.804999999999344), (0, 0),0
(-1.0, 11.804999999999344), (0, 0),0
(0.0, 11.804999999999344), (0, 0),0
(1.0, 11.804999999999344), (0, 0),0
(2.0, 11.804999999999344), (0, 0),0
(3.0, 11.804999999999344), (0, 0),0
(-3.0, 12.8049999999997), (0, 0),0
(-2.0, 12.8049999999997), (0, 0),0
(-1.0, 12.8049999999997), (0, 0),0
(0.0, 12.8049999999997), (0, 0),0
(1.0, 12.8049999999997), (0, 0),0
(2.0, 12.8049999999997), (0, 0),0
(3.0, 12.8049999999997), (0, 0),0
(-3.0, 13.805000000000055), (0, 0),0
(-2.0, 13.805000000000055), (0, 0),0
(-1.0, 13.805000000000055), (0, 0),0
(0.0, 13.805000000000055), (0, 0),0
(1.0, 13.805000000000055), (0, 0),0
(2.0, 13.805000000000055), (0, 0),0
(3.0, 13.805000000000055), (0, 0),0
(-3.0, 14.80500000000041), (0, 0),0
(-2.0, 14.80500000000041), (0, 0),0
(-1.0, 14.80500000000041), (0, 0),0
(0.0, 14.80500000000041), (0, 0),0
(1.0, 14.80500000000041), (0, 0),0
(2.0, 14.80500000000041), (0, 0),0
(3.0, 14.80500000000041), (0, 0),0
