(-3.0, 10.214999999999877), (0, 0),0
(-2.0, 10.214999999999877), (0, 0),0
(-1.0, 10.214999999999877), (0, 0),0
(0.0, 10.214999999999877), (0, 0),0
(1.0, 10.214999999999877), (0, 0),0
(2.0, 10.214999999999877), (0, 0),0
(3.0, 10.214999999999877), (0, 0),0
(-3.0, 11.214999999999877), (0, 0),0
(-2.0, 11.214999999999877), (0, 0),0
(-1.0, 11.214999999999877), (0, 0),0
(0.0, 11.214999999999877), (0, 0),0
(1.0, 11.214999999999877), (0, 0),0
(2.0, 11.214999999999877), (0, 0),0
(3.0, 11.214999999999877), (0, 0),0
(-3.0, 12.214999999999877), (0, 0),0
(-2.0, 12.214999999999877), (0, 0),0
(-1.0, 12.214999999999877), (0, 0),0
(0.0, 12.214999999999877), (0, 0),0
(1.0, 12.214999999999877), (0, 0),0
(2.0, 12.214999999999877), (0, 0),0
(3.0, 12.214999999999877), (0, 0),0
(-3.0, 13.214999999999877), (0, 0),0
(-2.0, 13.214999999999877), (0, 0),0
(-1.0, 13.214999999999877), (0, 0),0
(0.0, 13.214999999999877), (0, 0),0
(1.0, 13.214999999999877), (0, 0),0
(2.0, 13.214999999999877), (0, 0),0
(3.0, 13.214999999999877), (0, 0),0
(-3.0, 14.214999999999877), (0, 0),0
(-2.0, 14.214999999999877), (0, 0),0
(-1.0, 14.214999999999877), (0, 0),0
(0.0, 14.214999999999877), (0, 0),0
(1.0, 14.214999999999877), (0, 0),0
(2.0, 14.214999999999877), (0, 0),0
(3.0, 14.214999999999877), (0, 0),0
(-3.0, 15.214999999999877), (0, 0),0
(-2.0, 15.214999999999877), (0, 0),0
(-1.0, 15.214999999999877), (0, 0),0
(0.0, 15.214999999999877), (0, 0),0
(1.0, 15.214999999999877), (0, 0),0
(2.0, 15.214999999999877), (0, 0),0
(3.0, 15.214999999999877), (0, 0),0
(-3.0, 16.215000000000156), (0, 0),0
(-2.0, 16.215000000000156), (0, 0),0
(-1.0, 16.215000000000156), (0, 0),0
(0.0, 16.215000000000156), (0, 0),0
(1.0, 16.215000000000156), (0, 0),0
(2.0, 16.215000000000156), (0, 0),0
(3.0, 16.215000000000156), (0, 0),0
(-3.0, 17.215000000000156), (0, 0),0
(-2.0, 17.215000000000156), (0, 0),0
(-1.0, 17.215000000000156), (0, 0),0
(0.0, 17.215000000000156), (0, 0),0
(1.0, 17.215000000000156), (0, 0),0
(2.0, 17.215000000000156), (0, 0),0
(3.0, 17.215000000000156), (0, 0),0
(-3.0, 18.215000000000156), (0, 0),0
(-2.0, 18.215000000000156), (0, 0),0
(-1.0, 18.215000000000156), (0, 0),0
(0.0, 18.215000000000156), (0, 0),0
(1.0, 18.215000000000156), (0, 0),0
(2.0, 18.215000000000156), (0, 0),0
(3.0, 18.215000000000156), (0, 0),0
