(-3.0, 8.814999999999658), (0, 0),0
(-2.0, 8.814999999999658), (0, 0),0
(-1.0, 8.814999999999658), (0, 0),0
(0.0, 8.814999999999658), (0, 0),0
(1.0, 8.814999999999658), (0, 0),0
(2.0, 8.814999999999658), (0, 0),0
(3.0, 8.814999999999658), (0, 0),0
(-3.0, 9.814999999999658), (0, 0),0
(-2.0, 9.814999999999658), (0, 0),0
(-1.0, 9.814999999999658), (0, 0),0
(0.0, 9.814999999999658), (0, 0),0
(1.0, 9.814999999999658), (0, 0),0
(2.0, 9.814999999999658), (0, 0),0
(3.0, 9.814999999999658), (0, 0),0
(-3.0, 10.814999999999658), (0, 0),0
(-2.0, 10.814999999999658), (0, 0),0
(-1.0, 10.814999999999658), (0, 0),0
(0.0, 10.814999999999658), (0, 0),0
(1.0, 10.814999999999658), (0, 0),0
(2.0, 10.814999999999658), (0, 0),0
(3.0, 10.814999999999658), (0, 0),0
(-3.0, 11.814999999999658), (0, 0),0
(-2.0, 11.814999999999658), (0, 0),0
(-1.0, 11.814999999999658), (0, 0),0
(0.0, 11.814999999999658), (0, 0),0
(1.0, 11.814999999999658), (0, 0),0
(2.0, 11.814999999999658), (0, 0),0
(3.0, 11.814999999999658), (0, 0),0
(-3.0, 12.814999999999658), (0, 0),0
(-2.0, 12.814999999999658), (0, 0),0
(-1.0, 12.814999999999658), (0, 0),0
(0.0, 12.814999999999658), (0, 0),0
(1.0, 12.814999999999658), (0, 0),0
(2.0, 12.814999999999658), (0, 0),0
(3.0, 12.814999999999658), (0, 0),0
(-3.0, 13.814999999999658), (0, 0),0
(-2.0, 13.814999999999658), (0, 0),0
(-1.0, 13.814999999999658), (0, 0),0
(0.0, 13.814999999999658), (0, 0),0
(1.0, 13.814999999999658), (0, 0),0
(2.0, 13.814999999999658), (0, 0),0
(3.0, 13.814999999999658), (0, 0),0
(-3.0, 14.815000000000014), (0, 0),0
(-2.0, 14.815000000000014), (0, 0),0
(-1.0, 14.815000000000014), (0, 0),0
(0.0, 14.815000000000014), (0, 0),0
(1.0, 14.815000000000014), (0, 0),0
(2.0, 14.815000000000014), (0, 0),0
(3.0, 14.815000000000014), (0, 0),0
(-3.0, 15.815000000000369), (0, 0),0
(-2.0, 15.815000000000369), (0, 0),0
(-1.0, 15.815000000000369), (0, 0),0
(0.0, 15.815000000000369), (0, 0),0
(1.0, 15.815000000000369), (0, 0),0
(2.0, 15.815000000000369), (0, 0),0
(3.0, 15.815000000000369), (0, 0),0
(-3.0, 16.815000000000435), (0, 0),0
(-2.0, 16.815000000000435), (0, 0),0
(-1.0, 16.815000000000435), (0, 0),0
(0.0, 16.815000000000435), (0, 0),0
(1.0, 16.815000000000435), (0, 0),0
(2.0, 16.815000000000435), (0, 0),0
(3.0, 16.815000000000435), (0, 0),0
