(-3.0, 10.314999999999893), (0, 0),0
(-2.0, 10.314999999999893), (0, 0),0
(-1.0, 10.314999999999893), (0, 0),0
(0.0, 10.314999999999893), (0, 0),0
(1.0, 10.314999999999893), (0, 0),0
(2.0, 10.314999999999893), (0, 0),0
(3.0, 10.314999999999893), (0, 0),0
(-3.0, 11.314999999999893), (0, 0),0
(-2.0, 11.314999999999893), (0, 0),0
(-1.0, 11.314999999999893), (0, 0),0
(0.0, 11.314999999999893), (0, 0),0
(1.0, 11.314999999999893), (0, 0),0
(2.0, 11.314999999999893), (0, 0),0
(3.0, 11.314999999999893), (0, 0),0
(-3.0, 12.314999999999893), (0, 0),0
(-2.0, 12.314999999999893), (0, 0),0
(-1.0, 12.314999999999893), (0, 0),0
(0.0, 12.314999999999893), (0, 0),0
(1.0, 12.314999999999893), (0, 0),0
(2.0, 12.314999999999893), (0, 0),0
(3.0, 12.314999999999893), (0, 0),0
(-3.0, 13.314999999999893), (0, 0),0
(-2.0, 13.314999999999893), (0, 0),0
(-1.0, 13.314999999999893), (0, 0),0
(0.0, 13.314999999999893), (0, 0),0
(1.0, 13.314999999999893), (0, 0),0
(2.0, 13.314999999999893), (0, 0),0
(3.0, 13.314999999999893), (0, 0),0
(-3.0, 14.314999999999893), (0, 0),0
(-2.0, 14.314999999999893), (0, 0),0
(-1.0, 14.314999999999893), (0, 0),0
(0.0, 14.314999999999893), (0, 0),0
(1.0, 14.314999999999893), (0, 0),0
(2.0, 14.314999999999893), (0, 0),0
(3.0, 14.314999999999893), (0, 0),0
(-3.0, 15.314999999999893), (0, 0),0
(-2.0, 15.314999999999893), (0, 0),0
(-1.0, 15.314999999999893), (0, 0),0
(0.0, 15.314999999999893), (0, 0),0
(1.0, 15.314999999999893), (0, 0),0
(2.0, 15.314999999999893), (0, 0),0
(3.0, 15.314999999999893), (0, 0),0
(-3.0, 16.315000000000136), (0, 0),0
(-2.0, 16.315000000000136), (0, 0),0
(-1.0, 16.315000000000136), (0, 0),0
(0.0, 16.315000000000136), (0, 0),0
(1.0, 16.315000000000136), (0, 0),0
(2.0, 16.315000000000136), (0, 0),0
(3.0, 16.315000000000136), (0, 0),0
(-3.0, 17.315000000000136), (0, 0),0
(-2.0, 17.315000000000136), (0, 0),0
(-1.0, 17.315000000000136), (0, 0),0
(0.0, 17.315000000000136), (0, 0),0
(1.0, 17.315000000000136), (0, 0),0
(2.0, 17.315000000000136), (0, 0),0
(3.0, 17.315000000000136), (0, 0),0
(-3.0, 18.315000000000136), (0, 0),0
(-2.0, 18.315000000000136), (0, 0),0
(-1.0, 18.315000000000136), (0, 0),0
(0.0, 18.315000000000136), (0, 0),0
(1.0, 18.315000000000136), (0, 0),0
(2.0, 18.315000000000136), (0, 0),0
(3.0, 18.315000000000136), (0, 0),0
