(-1.4278817359547742, 4.289838477842401), (0, 0),0
(-1.9913374866926705, 5.828468470808295), (-0.004206306796819056, -0.0009866564839181673),0.004231438034070667
(-0.9972766584468731, 5.886761684366772), (6.526528907123408e-05, 0.0005737055026716968),0.008391068747795605
(-0.001745614288500906, 5.911580653264895), (-0.00017927409481724617, 0.0007978596950557269),0.008499855376295495
(0.9936672821504364, 5.889409640026304), (0.0006772581073486803, 0.00043568078410197625),0.008002465711462348
(1.9884290814369123, 5.833392744431764), (0.0036430574952163878, -0.0008205894979112327),0.00366224104889179
(1.4254960910340317, 4.291882209880135), (0, 0),0
(-3.000000000000151, 7.249999999999266), (-1.8222686910605373e-27, -3.5527136788004694e-14),8.881784197001252e-15
(-2.0000000000001505, 7.249999999999266), (-1.8242408433235898e-27, -3.5527136788004694e-14),8.881784197001252e-15
(-1.0000000000001497, 7.249999999999266), (-1.8193104626659585e-27, -3.5527136788004694e-14),8.881784197001252e-15
(-1.490533252379578e-13, 7.249999999999266), (-1.815814822779698e-27, -3.5527136788004694e-14),8.881784197001252e-15
(0.9999999999998512, 7.249999999999266), (-1.8163522342713797e-27, -3.5527136788004694e-14),8.881784197001252e-15
(1.999999999999852, 7.249999999999266), (-1.8202965387974847e-27, -3.5527136788004694e-14),8.881784197001252e-15
(2.9999999999998526, 7.249999999999266), (-1.814380082008327e-27, -3.5527136788004694e-14),8.881784197001252e-15
(-2.999999999999946, 8.249999999999257), (1.8222686910605373e-27, 3.5527136788004694e-14),8.881784197001252e-15
(-1.9999999999999452, 8.249999999999257), (1.8242408433235898e-27, 3.5527136788004694e-14),8.881784197001252e-15
(-0.9999999999999448, 8.249999999999257), (1.8193104626659585e-27, 3.5527136788004694e-14),8.881784197001252e-15
(5.538924874315403e-14, 8.249999999999257), (1.815814822779698e-27, 3.5527136788004694e-14),8.881784197001252e-15
(1.0000000000000557, 8.249999999999257), (1.8163522342713797e-27, 3.5527136788004694e-14),8.881784197001252e-15
(2.000000000000057, 8.249999999999257), (1.8202965387974847e-27, 3.5527136788004694e-14),8.881784197001252e-15
(3.000000000000057, 8.249999999999257), (1.814380082008327e-27, 3.5527136788004694e-14),8.881784197001252e-15
(-3.0, 9.249999999999257), (0, 0),0
(-2.0, 9.249999999999257), (0, 0),0
(-1.0, 9.249999999999257), (0, 0),0
(0.0, 9.249999999999257), (0, 0),0
(1.0, 9.249999999999257), (0, 0),0
(2.0, 9.249999999999257), (0, 0),0
(3.0, 9.249999999999257), (0, 0),0
(-3.0, 10.249999999999257), (0, 0),0
(-2.0, 10.249999999999257), (0, 0),0
(-1.0, 10.249999999999257), (0, 0),0
(0.0, 10.249999999999257), (0, 0),0
(1.0, 10.249999999999257), (0, 0),0
(2.0, 10.249999999999257), (0, 0),0
(3.0, 10.249999999999257), (0, 0),0
(-3.0, 11.249999999999257), (0, 0),0
(-2.0, 11.249999999999257), (0, 0),0
(-1.0, 11.249999999999257), (0, 0),0
(0.0, 11.249999999999257), (0, 0),0
(1.0, 11.249999999999257), (0, 0),0
(2.0, 11.249999999999257), (0, 0),0
(3.0, 11.249999999999257), (0, 0),0
(-3.0, 12.249999999999613), (0, 0),0
(-2.0, 12.249999999999613), (0, 0),0
(-1.0, 12.249999999999613), (0, 0),0
(0.0, 12.249999999999613), (0, 0),0
(1.0, 12.249999999999613), (0, 0),0
(2.0, 12.249999999999613), (0, 0),0
(3.0, 12.249999999999613), (0, 0),0
(-3.0, 13.249999999999968), (0, 0),0
(-2.0, 13.249999999999968), (0, 0),0
(-1.0, 13.249999999999968), (0, 0),0
(0.0, 13.249999999999968), (0, 0),0
(1.0, 13.249999999999968), (0, 0),0
(2.0, 13.249999999999968), (0, 0),0
(3.0, 13.249999999999968), (0, 0),0
(-3.0, 14.250000000000323), (0, 0),0
(-2.0, 14.250000000000323), (0, 0),0
(-1.0, 14.250000000000323), (0, 0),0
(0.0, 14.250000000000323), (0, 0),0
(1.0, 14.250000000000323), (0, 0),0
(2.0, 14.250000000000323), (0, 0),0
(3.0, 14.250000000000323), (0, 0),0
