(-3.0, 9.354999999999743), (0, 0),0
(-2.0, 9.354999999999743), (0, 0),0
(-1.0, 9.354999999999743), (0, 0),0
(0.0, 9.354999999999743), (0, 0),0
(1.0, 9.354999999999743), (0, 0),0
(2.0, 9.354999999999743), (0, 0),0
(3.0, 9.354999999999743), (0, 0),0
(-3.0, 10.354999999999743), (0, 0),0
(-2.0, 10.354999999999743), (0, 0),0
(-1.0, 10.354999999999743), (0, 0),0
(0.0, 10.354999999999743), (0, 0),0
(1.0, 10.354999999999743), (0, 0),0
(2.0, 10.354999999999743), (0, 0),0
(3.0, 10.354999999999743), (0, 0),0
(-3.0, 11.354999999999743), (0, 0),0
(-2.0, 11.354999999999743), (0, 0),0
(-1.0, 11.354999999999743), (0, 0),0
(0.0, 11.354999999999743), (0, 0),0
(1.0, 11.354999999999743), (0, 0),0
(2.0, 11.354999999999743), (0, 0),0
(3.0, 11.354999999999743), (0, 0),0
(-3.0, 12.354999999999743), (0, 0),0
(-2.0, 12.354999999999743), (0, 0),0
(-1.0, 12.354999999999743), (0, 0),0
(0.0, 12.354999999999743), (0, 0),0
(1.0, 12.354999999999743), (0, 0),0
(2.0, 12.354999999999743), (0, 0),0
(3.0, 12.354999999999743), (0, 0),0
(-3.0, 13.354999999999743), (0, 0),0
(-2.0, 13.354999999999743), (0, 0),0
(-1.0, 13.354999999999743), (0, 0),0
(0.0, 13.354999999999743), (0, 0),0
(1.0, 13.354999999999743), (0, 0),0
(2.0, 13.354999999999743), (0, 0),0
(3.0, 13.354999999999743), (0, 0),0
(-3.0, 14.354999999999743), (0, 0),0
(-2.0, 14.354999999999743), (0, 0),0
(-1.0, 14.354999999999743), (0, 0),0
(0.0, 14.354999999999743), (0, 0),0
(1.0, 14.354999999999743), (0, 0),0
(2.0, 14.354999999999743), (0, 0),0
(3.0, 14.354999999999743), (0, 0),0
(-3.0, 15.355000000000098), (0, 0),0
(-2.0, 15.355000000000098), (0, 0),0
(-1.0, 15.355000000000098), (0, 0),0
(0.0, 15.355000000000098), (0, 0),0
(1.0, 15.355000000000098), (0, 0),0
(2.0, 15.355000000000098), (0, 0),0
(3.0, 15.355000000000098), (0, 0),0
(-3.0, 16.355000000000327), (0, 0),0
(-2.0, 16.355000000000327), (0, 0),0
(-1.0, 16.355000000000327), (0, 0),0
(0.0, 16.355000000000327), (0, 0),0
(1.0, 16.355000000000327), (0, 0),0
(2.0, 16.355000000000327), (0, 0),0
(3.0, 16.355000000000327), (0, 0),0
(-3.0, 17.355000000000327), (0, 0),0
(-2.0, 17.355000000000327), (0, 0),0
(-1.0, 17.355000000000327), (0, 0),0
(0.0, 17.355000000000327), (0, 0),0
(1.0, 17.355000000000327), (0, 0),0
(2.0, 17.355000000000327), (0, 0),0
(3.0, 17.355000000000327), (0, 0),0
