(-2.070893667927344, 5.4414175672186005), (-0.0016688779350467874, -0.03536839123583049),0.00908067216439512
(-1.8871101434443902, 6.415144803361654), (-0.04882517291426067, 0.0091830895864837),0.06289308079673417
(-0.9487754334280353, 6.536795656365893), (0.004302049996608992, 0.020707285160352515),0.10238389599386644
(0.002235197744983474, 6.564991295343449), (-0.005066706588738534, 0.011269698852503932),0.10279032276900446
(0.9476392636236863, 6.538286173774613), (0.0010651985482124024, 0.019955092002366743),0.10768164649817358
(1.8864883040917282, 6.417890454579271), (0.048952854447549266, 0.0006670712156526502),0.06022757044438121
(2.0698879463864026, 5.4417343121164325), (0.0012406544456753273, -0.02641384558152905),0.006764759353684702
(-3.000000000000108, 7.734999999999342), (-1.0570736129961558e-27, -3.5527136788004694e-14),8.881784197001252e-15
(-2.0000000000001075, 7.734999999999342), (-1.0590457652592083e-27, -3.5527136788004694e-14),8.881784197001252e-15
(-1.0000000000001066, 7.734999999999342), (-1.054115384601577e-27, -3.5527136788004694e-14),8.881784197001252e-15
(-1.0597667188250172e-13, 7.734999999999342), (-1.0506197447153167e-27, -3.5527136788004694e-14),8.881784197001252e-15
(0.9999999999998943, 7.734999999999342), (-1.0511571562069982e-27, -3.5527136788004694e-14),8.881784197001252e-15
(1.999999999999895, 7.734999999999342), (-1.0551014607331033e-27, -3.5527136788004694e-14),8.881784197001252e-15
(2.9999999999998956, 7.734999999999342), (-1.0491850039439457e-27, -3.5527136788004694e-14),8.881784197001252e-15
(-2.999999999999989, 8.734999999999333), (1.0570736129961558e-27, 3.5527136788004694e-14),8.881784197001252e-15
(-1.9999999999999882, 8.734999999999333), (1.0590457652592083e-27, 3.5527136788004694e-14),8.881784197001252e-15
(-0.9999999999999879, 8.734999999999333), (1.054115384601577e-27, 3.5527136788004694e-14),8.881784197001252e-15
(1.2312595387697943e-14, 8.734999999999333), (1.0506197447153167e-27, 3.5527136788004694e-14),8.881784197001252e-15
(1.0000000000000127, 8.734999999999333), (1.0511571562069982e-27, 3.5527136788004694e-14),8.881784197001252e-15
(2.0000000000000138, 8.734999999999333), (1.0551014607331033e-27, 3.5527136788004694e-14),8.881784197001252e-15
(3.0000000000000138, 8.734999999999333), (1.0491850039439457e-27, 3.5527136788004694e-14),8.881784197001252e-15
(-3.0, 9.734999999999333), (0, 0),0
(-2.0, 9.734999999999333), (0, 0),0
(-1.0, 9.734999999999333), (0, 0),0
(0.0, 9.734999999999333), (0, 0),0
(1.0, 9.734999999999333), (0, 0),0
(2.0, 9.734999999999333), (0, 0),0
(3.0, 9.734999999999333), (0, 0),0
(-3.0, 10.734999999999333), (0, 0),0
(-2.0, 10.734999999999333), (0, 0),0
(-1.0, 10.734999999999333), (0, 0),0
(0.0, 10.734999999999333), (0, 0),0
(1.0, 10.734999999999333), (0, 0),0
(2.0, 10.734999999999333), (0, 0),0
(3.0, 10.734999999999333), (0, 0),0
(-3.0, 11.734999999999333), (0, 0),0
(-2.0, 11.734999999999333), (0, 0),0
(-1.0, 11.734999999999333), (0, 0),0
(0.0, 11.734999999999333), (0, 0),0
(1.0, 11.734999999999333), (0, 0),0
(2.0, 11.734999999999333), (0, 0),0
(3.0, 11.734999999999333), (0, 0),0
(-3.0, 12.734999999999689), (0, 0),0
(-2.0, 12.734999999999689), (0, 0),0
(-1.0, 12.734999999999689), (0, 0),0
(0.0, 12.734999999999689), (0, 0),0
(1.0, 12.734999999999689), (0, 0),0
(2.0, 12.734999999999689), (0, 0),0
(3.0, 12.734999999999689), (0, 0),0
(-3.0, 13.735000000000044), (0, 0),0
(-2.0, 13.735000000000044), (0, 0),0
(-1.0, 13.735000000000044), (0, 0),0
(0.0, 13.735000000000044), (0, 0),0
(1.0, 13.735000000000044), (0, 0),0
(2.0, 13.735000000000044), (0, 0),0
(3.0, 13.735000000000044), (0, 0),0
(-3.0, 14.7350000000004), (0, 0),0
(-2.0, 14.7350000000004), (0, 0),0
(-1.0, 14.7350000000004), (0, 0),0
(0.0, 14.7350000000004), (0, 0),0
(1.0, 14.7350000000004), (0, 0),0
(2.0, 14.7350000000004), (0, 0),0
(3.0, 14.7350000000004), (0, 0),0
