(-1.2354003352912792, -3.1378189294154923), (-3.079859168485233e-05, -0.0022997958164102),0.0007381314315362264
(0.5700459175413647, -2.40718790567046), (-4.367037436239619e-05, 1.3193935150286587e-05),0.00043254910300760674
(-0.2270043405015825, 3.245697360066903), (0.018211403700956114, 0.46057879346817654),1.6157030770081295
(-0.06507927308433367, 3.66796171561308), (-0.010746840013771472, 1.4548161125593941),0.8449927713854688
(0.6361793135231084, 3.2869551039229528), (0.2386551594087195, 1.1892304540845409),1.5018135083822628
(-1.6646294160663218, -2.235131909157568), (-0.00019717725933866967, 0.0016586886645579481),0.0004593753502969422
(-0.41756759058488646, -2.562847480360426), (3.554264815129393e-05, 0.0005197881529975304),0.0004736027508006613
(-0.02549673762297955, -0.6773336939480245), (0, 0),0
(-0.776136254781791, 3.0817208228611928), (-0.4433384761847039, 0.32230468626831454),0.9765934773448416
(-0.962746461371778, 5.158100566836608), (-0.036530762811912185, -0.00481903322771756),0.037994181253880766
(-0.001263370900368092, 5.1898095882490995), (0.0030709947826674452, 0.009867228924486618),0.07268091129819299
(0.9633639660235784, 5.153425388222749), (0.03345976802924474, -0.005048195696769057),0.03468673004431222
(0.741407699395378, 3.105734428601179), (0.2536989294025437, 0.21588589288331672),1.3257625040732819
(1.5633196245521637, -2.2934689776216084), (0.00023610357723462426, 0.00010812506370443483),0.00023770243344622966
(-0.45117633295309373, 2.664613763131523), (-0.0058637872254155565, -1.6691077922841966),0.9294551194343318
(-1.929966496308357, 6.420174344332115), (-0.03127012107467113, -0.005131573059460126),0.03234246088437909
(-0.9631222853357121, 6.459840258111875), (-0.002437909999535734, 0.0008763960933419164),0.06728849958218741
(0.0014514497789603355, 6.49028131183841), (-0.0031115055501360275, 0.008740618266646821),0.07324982743525876
(0.962701964100632, 6.461005870371812), (0.005617436577650358, 0.0007383499197076418),0.07057461279690347
(1.9295846191331911, 6.4205374955124315), (0.031202100046692532, -0.005223791220236254),0.03227082405945303
(0.4675947684125331, 2.6836858228816145), (-0.050616389088328315, -1.9737081469795463),1.0580695474921875
(-3.0000000000001052, 7.679999999999021), (-1.0767951356266811e-27, -3.5527136788004694e-14),8.881784197001252e-15
(-2.0000000000001052, 7.679999999999021), (-1.0827115924158387e-27, -3.5527136788004694e-14),8.881784197001252e-15
(-1.000000000000104, 7.679999999999021), (-1.0738369072321023e-27, -3.5527136788004694e-14),8.881784197001252e-15
(-1.0347278589506464e-13, 7.679999999999021), (-1.071768119508161e-27, -3.5527136788004694e-14),8.881784197001252e-15
(0.9999999999998966, 7.679999999999021), (-1.0738369072321023e-27, -3.5527136788004694e-14),8.881784197001252e-15
(1.999999999999897, 7.679999999999021), (-1.0807394401527862e-27, -3.5527136788004694e-14),8.881784197001252e-15
(2.999999999999898, 7.679999999999021), (-1.072850831100576e-27, -3.5527136788004694e-14),8.881784197001252e-15
(-2.999999999999984, 8.679999999999012), (1.0767951356266811e-27, 3.5527136788004694e-14),8.881784197001252e-15
(-1.9999999999999833, 8.679999999999012), (1.0827115924158387e-27, 3.5527136788004694e-14),8.881784197001252e-15
(-0.999999999999983, 8.679999999999012), (1.0738369072321023e-27, 3.5527136788004694e-14),8.881784197001252e-15
(1.719757669604864e-14, 8.679999999999012), (1.071768119508161e-27, 3.5527136788004694e-14),8.881784197001252e-15
(1.0000000000000175, 8.679999999999012), (1.0738369072321023e-27, 3.5527136788004694e-14),8.881784197001252e-15
(2.0000000000000187, 8.679999999999012), (1.0807394401527862e-27, 3.5527136788004694e-14),8.881784197001252e-15
(3.0000000000000187, 8.679999999999012), (1.072850831100576e-27, 3.5527136788004694e-14),8.881784197001252e-15
(-3.0, 9.679999999999012), (0, 0),0
(-2.0, 9.679999999999012), (0, 0),0
(-1.0, 9.679999999999012), (0, 0),0
(0.0, 9.679999999999012), (0, 0),0
(1.0, 9.679999999999012), (0, 0),0
(2.0, 9.679999999999012), (0, 0),0
(3.0, 9.679999999999012), (0, 0),0
(-3.0, 10.679999999999367), (0, 0),0
(-2.0, 10.679999999999367), (0, 0),0
(-1.0, 10.679999999999367), (0, 0),0
(0.0, 10.679999999999367), (0, 0),0
(1.0, 10.679999999999367), (0, 0),0
(2.0, 10.679999999999367), (0, 0),0
(3.0, 10.679999999999367), (0, 0),0
(-3.0, 11.679999999999723), (0, 0),0
(-2.0, 11.679999999999723), (0, 0),0
(-1.0, 11.679999999999723), (0, 0),0
(0.0, 11.679999999999723), (0, 0),0
(1.0, 11.679999999999723), (0, 0),0
(2.0, 11.679999999999723), (0, 0),0
(3.0, 11.679999999999723), (0, 0),0
(-3.0, 12.680000000000078), (0, 0),0
(-2.0, 12.680000000000078), (0, 0),0
(-1.0, 12.680000000000078), (0, 0),0
(0.0, 12.680000000000078), (0, 0),0
(1.0, 12.680000000000078), (0, 0),0
(2.0, 12.680000000000078), (0, 0),0
(3.0, 12.680000000000078), (0, 0),0
