(-2.634485684726901, 6.352018476499792), (-0.11419872177925475, -0.2553338535041198),0.1547875399264741
(-1.8967084590309538, 6.7644125452106945), (0.04408628626442525, 0.23186114590660256),0.23094509320692902
(-0.9760849293248969, 6.841465662683749), (0.04793216489334562, 0.021995637304232537),0.09885612260860122
(0.0010810894153363694, 6.857733981976599), (-0.0020207726153714106, 0.003088105214912739),0.04751901842299244
(0.9761256240398336, 6.841507090639221), (-0.04594081619385773, 0.021884462307417356),0.10101315446689918
(1.8967105945853286, 6.764414745924869), (-0.04405708976772027, 0.2318410001344135),0.23098099992026533
(2.634485692707257, 6.352018417590221), (0.11419894919843329, -0.25533649736345887),0.1547882945482123
(-3.0000000000000964, 7.8649999999993625), (-8.598583866909029e-28, -3.5527136788004694e-14),8.881784197001252e-15
(-2.000000000000096, 7.8649999999993625), (-8.539419299017453e-28, -3.5527136788004694e-14),8.881784197001252e-15
(-1.000000000000095, 7.864999999999362), (-7.641103943197026e-28, -3.1974423109204256e-14),7.993605777301127e-15
(-9.45635791893551e-14, 7.864999999999361), (-6.783059936588131e-28, -2.8421709430403805e-14),7.105427357601002e-15
(0.9999999999999059, 7.864999999999362), (-7.6144798876458165e-28, -3.1974423109204256e-14),7.993605777301127e-15
(1.9999999999999065, 7.8649999999993625), (-2.2204460492588126e-16, -3.5527136788004694e-14),9.103828801926284e-15
(2.9999999999999063, 7.8649999999993625), (2.220446049241793e-16, -3.5527136788004694e-14),9.103828801926284e-15
(-2.9999999999999996, 8.864999999999354), (-2.220446049241714e-16, 3.5527136788004694e-14),9.103828801926284e-15
(-1.9999999999999998, 8.864999999999354), (2.220446049258852e-16, 3.5527136788004694e-14),9.103828801926284e-15
(-0.9999999999999994, 8.864999999999354), (7.641103943197026e-28, 3.1974423109204256e-14),7.993605777301127e-15
(8.995026945513042e-16, 8.864999999999354), (6.783059936588131e-28, 2.8421709430403805e-14),7.105427357601002e-15
(1.000000000000001, 8.864999999999354), (7.6144798876458165e-28, 3.1974423109204256e-14),7.993605777301127e-15
(2.000000000000002, 8.864999999999354), (8.499976253756402e-28, 3.5527136788004694e-14),8.881784197001252e-15
(3.000000000000002, 8.864999999999354), (8.519697776386927e-28, 3.5527136788004694e-14),8.881784197001252e-15
(-3.0, 9.864999999999354), (0, 0),0
(-2.0, 9.864999999999354), (0, 0),0
(-1.0, 9.864999999999354), (0, 0),0
(0.0, 9.864999999999354), (0, 0),0
(1.0, 9.864999999999354), (0, 0),0
(2.0, 9.864999999999354), (0, 0),0
(3.0, 9.864999999999354), (0, 0),0
(-3.0, 10.864999999999354), (0, 0),0
(-2.0, 10.864999999999354), (0, 0),0
(-1.0, 10.864999999999354), (0, 0),0
(0.0, 10.864999999999354), (0, 0),0
(1.0, 10.864999999999354), (0, 0),0
(2.0, 10.864999999999354), (0, 0),0
(3.0, 10.864999999999354), (0, 0),0
(-3.0, 11.864999999999354), (0, 0),0
(-2.0, 11.864999999999354), (0, 0),0
(-1.0, 11.864999999999354), (0, 0),0
(0.0, 11.864999999999354), (0, 0),0
(1.0, 11.864999999999354), (0, 0),0
(2.0, 11.864999999999354), (0, 0),0
(3.0, 11.864999999999354), (0, 0),0
(-3.0, 12.864999999999709), (0, 0),0
(-2.0, 12.864999999999709), (0, 0),0
(-1.0, 12.864999999999709), (0, 0),0
(0.0, 12.864999999999709), (0, 0),0
(1.0, 12.864999999999709), (0, 0),0
(2.0, 12.864999999999709), (0, 0),0
(3.0, 12.864999999999709), (0, 0),0
(-3.0, 13.865000000000064), (0, 0),0
(-2.0, 13.865000000000064), (0, 0),0
(-1.0, 13.865000000000064), (0, 0),0
(0.0, 13.865000000000064), (0, 0),0
(1.0, 13.865000000000064), (0, 0),0
(2.0, 13.865000000000064), (0, 0),0
(3.0, 13.865000000000064), (0, 0),0
(-3.0, 14.86500000000042), (0, 0),0
(-2.0, 14.86500000000042), (0, 0),0
(-1.0, 14.86500000000042), (0, 0),0
(0.0, 14.86500000000042), (0, 0),0
(1.0, 14.86500000000042), (0, 0),0
(2.0, 14.86500000000042), (0, 0),0
(3.0, 14.86500000000042), (0, 0),0
