(-1.6481380869008837, 4.719179765279045), (0, 0),0
(-1.9756790075968307, 6.0589047122639945), (-0.012208299482804367, -0.0036845337261199812),0.012396678204738887
(-0.9908749107914872, 6.133209571704314), (0.0026639561350917315, 0.002724198645050289),0.022036976017826948
(-0.0008283860093537571, 6.158113757749425), (-0.002239443000621528, 0.00209332132622961),0.021569800909021608
(0.986956792767367, 6.1343703914908145), (0.0011323537260449386, 0.0019480136222753241),0.02272529861472805
(1.9735846520803786, 6.063023174371161), (0.010651432622289224, -0.003080999867435242),0.010795795518794504
(1.6457524419801413, 4.721223497316779), (0, 0),0
(-3.000000000000132, 7.4649999999993), (-1.4830585018155022e-27, -3.5527136788004694e-14),8.881784197001252e-15
(-2.0000000000001315, 7.4649999999993), (-1.4850306540785547e-27, -3.5527136788004694e-14),8.881784197001252e-15
(-1.0000000000001306, 7.4649999999993), (-1.4801002734209234e-27, -3.5527136788004694e-14),8.881784197001252e-15
(-1.299574892144051e-13, 7.4649999999993), (-1.476604633534663e-27, -3.5527136788004694e-14),8.881784197001252e-15
(0.9999999999998703, 7.4649999999993), (-1.4771420450263446e-27, -3.5527136788004694e-14),8.881784197001252e-15
(1.999999999999871, 7.4649999999993), (-1.4810863495524497e-27, -3.5527136788004694e-14),8.881784197001252e-15
(2.9999999999998717, 7.4649999999993), (-1.475169892763292e-27, -3.5527136788004694e-14),8.881784197001252e-15
(-2.999999999999965, 8.464999999999291), (1.4830585018155022e-27, 3.5527136788004694e-14),8.881784197001252e-15
(-1.9999999999999643, 8.464999999999291), (1.4850306540785547e-27, 3.5527136788004694e-14),8.881784197001252e-15
(-0.9999999999999639, 8.464999999999291), (1.4801002734209234e-27, 3.5527136788004694e-14),8.881784197001252e-15
(3.6293412719601335e-14, 8.464999999999291), (1.476604633534663e-27, 3.5527136788004694e-14),8.881784197001252e-15
(1.0000000000000366, 8.464999999999291), (1.4771420450263446e-27, 3.5527136788004694e-14),8.881784197001252e-15
(2.0000000000000377, 8.464999999999291), (1.4810863495524497e-27, 3.5527136788004694e-14),8.881784197001252e-15
(3.0000000000000377, 8.464999999999291), (1.475169892763292e-27, 3.5527136788004694e-14),8.881784197001252e-15
(-3.0, 9.464999999999291), (0, 0),0
(-2.0, 9.464999999999291), (0, 0),0
(-1.0, 9.464999999999291), (0, 0),0
(0.0, 9.464999999999291), (0, 0),0
(1.0, 9.464999999999291), (0, 0),0
(2.0, 9.464999999999291), (0, 0),0
(3.0, 9.464999999999291), (0, 0),0
(-3.0, 10.464999999999291), (0, 0),0
(-2.0, 10.464999999999291), (0, 0),0
(-1.0, 10.464999999999291), (0, 0),0
(0.0, 10.464999999999291), (0, 0),0
(1.0, 10.464999999999291), (0, 0),0
(2.0, 10.464999999999291), (0, 0),0
(3.0, 10.464999999999291), (0, 0),0
(-3.0, 11.464999999999291), (0, 0),0
(-2.0, 11.464999999999291), (0, 0),0
(-1.0, 11.464999999999291), (0, 0),0
(0.0, 11.464999999999291), (0, 0),0
(1.0, 11.464999999999291), (0, 0),0
(2.0, 11.464999999999291), (0, 0),0
(3.0, 11.464999999999291), (0, 0),0
(-3.0, 12.464999999999646), (0, 0),0
(-2.0, 12.464999999999646), (0, 0),0
(-1.0, 12.464999999999646), (0, 0),0
(0.0, 12.464999999999646), (0, 0),0
(1.0, 12.464999999999646), (0, 0),0
(2.0, 12.464999999999646), (0, 0),0
(3.0, 12.464999999999646), (0, 0),0
(-3.0, 13.465000000000002), (0, 0),0
(-2.0, 13.465000000000002), (0, 0),0
(-1.0, 13.465000000000002), (0, 0),0
(0.0, 13.465000000000002), (0, 0),0
(1.0, 13.465000000000002), (0, 0),0
(2.0, 13.465000000000002), (0, 0),0
(3.0, 13.465000000000002), (0, 0),0
(-3.0, 14.465000000000357), (0, 0),0
(-2.0, 14.465000000000357), (0, 0),0
(-1.0, 14.465000000000357), (0, 0),0
(0.0, 14.465000000000357), (0, 0),0
(1.0, 14.465000000000357), (0, 0),0
(2.0, 14.465000000000357), (0, 0),0
(3.0, 14.465000000000357), (0, 0),0
