(-3.0, 9.46499999999976), (0, 0),0
(-2.0, 9.46499999999976), (0, 0),0
(-1.0, 9.46499999999976), (0, 0),0
(0.0, 9.46499999999976), (0, 0),0
(1.0, 9.46499999999976), (0, 0),0
(2.0, 9.46499999999976), (0, 0),0
(3.0, 9.46499999999976), (0, 0),0
(-3.0, 10.46499999999976), (0, 0),0
(-2.0, 10.46499999999976), (0, 0),0
(-1.0, 10.46499999999976), (0, 0),0
(0.0, 10.46499999999976), (0, 0),0
(1.0, 10.46499999999976), (0, 0),0
(2.0, 10.46499999999976), (0, 0),0
(3.0, 10.46499999999976), (0, 0),0
(-3.0, 11.46499999999976), (0, 0),0
(-2.0, 11.46499999999976), (0, 0),0
(-1.0, 11.46499999999976), (0, 0),0
(0.0, 11.46499999999976), (0, 0),0
(1.0, 11.46499999999976), (0, 0),0
(2.0, 11.46499999999976), (0, 0),0
(3.0, 11.46499999999976), (0, 0),0
(-3.0, 12.46499999999976), (0, 0),0
(-2.0, 12.46499999999976), (0, 0),0
(-1.0, 12.46499999999976), (0, 0),0
(0.0, 12.46499999999976), (0, 0),0
(1.0, 12.46499999999976), (0, 0),0
(2.0, 12.46499999999976), (0, 0),0
(3.0, 12.46499999999976), (0, 0),0
(-3.0, 13.46499999999976), (0, 0),0
(-2.0, 13.46499999999976), (0, 0),0
(-1.0, 13.46499999999976), (0, 0),0
(0.0, 13.46499999999976), (0, 0),0
(1.0, 13.46499999999976), (0, 0),0
(2.0, 13.46499999999976), (0, 0),0
(3.0, 13.46499999999976), (0, 0),0
(-3.0, 14.46499999999976), (0, 0),0
(-2.0, 14.46499999999976), (0, 0),0
(-1.0, 14.46499999999976), (0, 0),0
(0.0, 14.46499999999976), (0, 0),0
(1.0, 14.46499999999976), (0, 0),0
(2.0, 14.46499999999976), (0, 0),0
(3.0, 14.46499999999976), (0, 0),0
(-3.0, 15.465000000000115), (0, 0),0
(-2.0, 15.465000000000115), (0, 0),0
(-1.0, 15.465000000000115), (0, 0),0
(0.0, 15.465000000000115), (0, 0),0
(1.0, 15.465000000000115), (0, 0),0
(2.0, 15.465000000000115), (0, 0),0
(3.0, 15.465000000000115), (0, 0),0
(-3.0, 16.465000000000305), (0, 0),0
(-2.0, 16.465000000000305), (0, 0),0
(-1.0, 16.465000000000305), (0, 0),0
(0.0, 16.465000000000305), (0, 0),0
(1.0, 16.465000000000305), (0, 0),0
(2.0, 16.465000000000305), (0, 0),0
(3.0, 16.465000000000305), (0, 0),0
(-3.0, 17.465000000000305), (0, 0),0
(-2.0, 17.465000000000305), (0, 0),0
(-1.0, 17.465000000000305), (0, 0),0
(0.0, 17.465000000000305), (0, 0),0
(1.0, 17.465000000000305), (0, 0),0
(2.0, 17.465000000000305), (0, 0),0
(3.0, 17.465000000000305), (0, 0),0
