(-3.0, 10.569999999999933), (0, 0),0
(-2.0, 10.569999999999933), (0, 0),0
(-1.0, 10.569999999999933), (0, 0),0
(0.0, 10.569999999999933), (0, 0),0
(1.0, 10.569999999999933), (0, 0),0
(2.0, 10.569999999999933), (0, 0),0
(3.0, 10.569999999999933), (0, 0),0
(-3.0, 11.569999999999933), (0, 0),0
(-2.0, 11.569999999999933), (0, 0),0
(-1.0, 11.569999999999933), (0, 0),0
(0.0, 11.569999999999933), (0, 0),0
(1.0, 11.569999999999933), (0, 0),0
(2.0, 11.569999999999933), (0, 0),0
(3.0, 11.569999999999933), (0, 0),0
(-3.0, 12.569999999999933), (0, 0),0
(-2.0, 12.569999999999933), (0, 0),0
(-1.0, 12.569999999999933), (0, 0),0
(0.0, 12.569999999999933), (0, 0),0
(1.0, 12.569999999999933), (0, 0),0
(2.0, 12.569999999999933), (0, 0),0
(3.0, 12.569999999999933), (0, 0),0
(-3.0, 13.569999999999933), (0, 0),0
(-2.0, 13.569999999999933), (0, 0),0
(-1.0, 13.569999999999933), (0, 0),0
(0.0, 13.569999999999933), (0, 0),0
(1.0, 13.569999999999933), (0, 0),0
(2.0, 13.569999999999933), (0, 0),0
(3.0, 13.569999999999933), (0, 0),0
(-3.0, 14.569999999999933), (0, 0),0
(-2.0, 14.569999999999933), (0, 0),0
(-1.0, 14.569999999999933), (0, 0),0
(0.0, 14.569999999999933), (0, 0),0
(1.0, 14.569999999999933), (0, 0),0
(2.0, 14.569999999999933), (0, 0),0
(3.0, 14.569999999999933), (0, 0),0
(-3.0, 15.569999999999933), (0, 0),0
(-2.0, 15.569999999999933), (0, 0),0
(-1.0, 15.569999999999933), (0, 0),0
(0.0, 15.569999999999933), (0, 0),0
(1.0, 15.569999999999933), (0, 0),0
(2.0, 15.569999999999933), (0, 0),0
(3.0, 15.569999999999933), (0, 0),0
(-3.0, 16.570000000000086), (0, 0),0
(-2.0, 16.570000000000086), (0, 0),0
(-1.0, 16.570000000000086), (0, 0),0
(0.0, 16.570000000000086), (0, 0),0
(1.0, 16.570000000000086), (0, 0),0
(2.0, 16.570000000000086), (0, 0),0
(3.0, 16.570000000000086), (0, 0),0
(-3.0, 17.570000000000086), (0, 0),0
(-2.0, 17.570000000000086), (0, 0),0
(-1.0, 17.570000000000086), (0, 0),0
(0.0, 17.570000000000086), (0, 0),0
(1.0, 17.570000000000086), (0, 0),0
(2.0, 17.570000000000086), (0, 0),0
(3.0, 17.570000000000086), (0, 0),0
(-3.0, 18.570000000000086), (0, 0),0
(-2.0, 18.570000000000086), (0, 0),0
(-1.0, 18.570000000000086), (0, 0),0
(0.0, 18.570000000000086), (0, 0),0
(1.0, 18.570000000000086), (0, 0),0
(2.0, 18.570000000000086), (0, 0),0
(3.0, 18.570000000000086), (0, 0),0
