(-3.0, 8.534999999999615), (0, 0),0
(-2.0, 8.534999999999615), (0, 0),0
(-1.0, 8.534999999999615), (0, 0),0
(0.0, 8.534999999999615), (0, 0),0
(1.0, 8.534999999999615), (0, 0),0
(2.0, 8.534999999999615), (0, 0),0
(3.0, 8.534999999999615), (0, 0),0
(-3.0, 9.534999999999615), (0, 0),0
(-2.0, 9.534999999999615), (0, 0),0
(-1.0, 9.534999999999615), (0, 0),0
(0.0, 9.534999999999615), (0, 0),0
(1.0, 9.534999999999615), (0, 0),0
(2.0, 9.534999999999615), (0, 0),0
(3.0, 9.534999999999615), (0, 0),0
(-3.0, 10.534999999999615), (0, 0),0
(-2.0, 10.534999999999615), (0, 0),0
(-1.0, 10.534999999999615), (0, 0),0
(0.0, 10.534999999999615), (0, 0),0
(1.0, 10.534999999999615), (0, 0),0
(2.0, 10.534999999999615), (0, 0),0
(3.0, 10.534999999999615), (0, 0),0
(-3.0, 11.534999999999615), (0, 0),0
(-2.0, 11.534999999999615), (0, 0),0
(-1.0, 11.534999999999615), (0, 0),0
(0.0, 11.534999999999615), (0, 0),0
(1.0, 11.534999999999615), (0, 0),0
(2.0, 11.534999999999615), (0, 0),0
(3.0, 11.534999999999615), (0, 0),0
(-3.0, 12.534999999999615), (0, 0),0
(-2.0, 12.534999999999615), (0, 0),0
(-1.0, 12.534999999999615), (0, 0),0
(0.0, 12.534999999999615), (0, 0),0
(1.0, 12.534999999999615), (0, 0),0
(2.0, 12.534999999999615), (0, 0),0
(3.0, 12.534999999999615), (0, 0),0
(-3.0, 13.534999999999615), (0, 0),0
(-2.0, 13.534999999999615), (0, 0),0
(-1.0, 13.534999999999615), (0, 0),0
(0.0, 13.534999999999615), (0, 0),0
(1.0, 13.534999999999615), (0, 0),0
(2.0, 13.534999999999615), (0, 0),0
(3.0, 13.534999999999615), (0, 0),0
(-3.0, 14.53499999999997), (0, 0),0
(-2.0, 14.53499999999997), (0, 0),0
(-1.0, 14.53499999999997), (0, 0),0
(0.0, 14.53499999999997), (0, 0),0
(1.0, 14.53499999999997), (0, 0),0
(2.0, 14.53499999999997), (0, 0),0
(3.0, 14.53499999999997), (0, 0),0
(-3.0, 15.535000000000325), (0, 0),0
(-2.0, 15.535000000000325), (0, 0),0
(-1.0, 15.535000000000325), (0, 0),0
(0.0, 15.535000000000325), (0, 0),0
(1.0, 15.535000000000325), (0, 0),0
(2.0, 15.535000000000325), (0, 0),0
(3.0, 15.535000000000325), (0, 0),0
(-3.0, 16.53500000000049), (0, 0),0
(-2.0, 16.53500000000049), (0, 0),0
(-1.0, 16.53500000000049), (0, 0),0
(0.0, 16.53500000000049), (0, 0),0
(1.0, 16.53500000000049), (0, 0),0
(2.0, 16.53500000000049), (0, 0),0
(3.0, 16.53500000000049), (0, 0),0
