(-3.0, 9.564999999999776), (0, 0),0
(-2.0, 9.564999999999776), (0, 0),0
(-1.0, 9.564999999999776), (0, 0),0
(0.0, 9.564999999999776), (0, 0),0
(1.0, 9.564999999999776), (0, 0),0
(2.0, 9.564999999999776), (0, 0),0
(3.0, 9.564999999999776), (0, 0),0
(-3.0, 10.564999999999776), (0, 0),0
(-2.0, 10.564999999999776), (0, 0),0
(-1.0, 10.564999999999776), (0, 0),0
(0.0, 10.564999999999776), (0, 0),0
(1.0, 10.564999999999776), (0, 0),0
(2.0, 10.564999999999776), (0, 0),0
(3.0, 10.564999999999776), (0, 0),0
(-3.0, 11.564999999999776), (0, 0),0
(-2.0, 11.564999999999776), (0, 0),0
(-1.0, 11.564999999999776), (0, 0),0
(0.0, 11.564999999999776), (0, 0),0
(1.0, 11.564999999999776), (0, 0),0
(2.0, 11.564999999999776), (0, 0),0
(3.0, 11.564999999999776), (0, 0),0
(-3.0, 12.564999999999776), (0, 0),0
(-2.0, 12.564999999999776), (0, 0),0
(-1.0, 12.564999999999776), (0, 0),0
(0.0, 12.564999999999776), (0, 0),0
(1.0, 12.564999999999776), (0, 0),0
(2.0, 12.564999999999776), (0, 0),0
(3.0, 12.564999999999776), (0, 0),0
(-3.0, 13.564999999999776), (0, 0),0
(-2.0, 13.564999999999776), (0, 0),0
(-1.0, 13.564999999999776), (0, 0),0
(0.0, 13.564999999999776), (0, 0),0
(1.0, 13.564999999999776), (0, 0),0
(2.0, 13.564999999999776), (0, 0),0
(3.0, 13.564999999999776), (0, 0),0
(-3.0, 14.564999999999776), (0, 0),0
(-2.0, 14.564999999999776), (0, 0),0
(-1.0, 14.564999999999776), (0, 0),0
(0.0, 14.564999999999776), (0, 0),0
(1.0, 14.564999999999776), (0, 0),0
(2.0, 14.564999999999776), (0, 0),0
(3.0, 14.564999999999776), (0, 0),0
(-3.0, 15.565000000000131), (0, 0),0
(-2.0, 15.565000000000131), (0, 0),0
(-1.0, 15.565000000000131), (0, 0),0
(0.0, 15.565000000000131), (0, 0),0
(1.0, 15.565000000000131), (0, 0),0
(2.0, 15.565000000000131), (0, 0),0
(3.0, 15.565000000000131), (0, 0),0
(-3.0, 16.565000000000285), (0, 0),0
(-2.0, 16.565000000000285), (0, 0),0
(-1.0, 16.565000000000285), (0, 0),0
(0.0, 16.565000000000285), (0, 0),0
(1.0, 16.565000000000285), (0, 0),0
(2.0, 16.565000000000285), (0, 0),0
(3.0, 16.565000000000285), (0, 0),0
(-3.0, 17.565000000000285), (0, 0),0
(-2.0, 17.565000000000285), (0, 0),0
(-1.0, 17.565000000000285), (0, 0),0
(0.0, 17.565000000000285), (0, 0),0
(1.0, 17.565000000000285), (0, 0),0
(2.0, 17.565000000000285), (0, 0),0
(3.0, 17.565000000000285), (0, 0),0
