(-1.6481380869008837, 4.724179765279045), (0, 0),0
(-1.975078923774733, 6.064496724291897), (-0.011597744670133376, -0.00352595047451344),0.01176972154855016
(-0.9896907289654828, 6.139391241973748), (-0.00016725529006548188, 0.0023443012790047577),0.023680291414284738
(-0.0019126383431783672, 6.164193774699495), (0.0021306081696878983, 0.002104775585023674),0.02164243451309844
(0.988071515733676, 6.140479758347936), (-0.002685304514190313, 0.0026708046732922645),0.022240753235896027
(1.9729468879546472, 6.068652212731651), (0.012319696304701273, -0.0035939310628072562),0.012508888588532163
(1.6457524419801413, 4.726223497316779), (0, 0),0
(-3.0000000000001315, 7.469999999999301), (-1.475169892763292e-27, -3.5527136788004694e-14),8.881784197001252e-15
(-2.000000000000131, 7.469999999999301), (-1.4771420450263446e-27, -3.5527136788004694e-14),8.881784197001252e-15
(-1.0000000000001301, 7.469999999999301), (-1.4722116643687133e-27, -3.5527136788004694e-14),8.881784197001252e-15
(-1.2951340000455504e-13, 7.469999999999301), (-1.468716024482453e-27, -3.5527136788004694e-14),8.881784197001252e-15
(0.9999999999998708, 7.469999999999301), (-1.4692534359741345e-27, -3.5527136788004694e-14),8.881784197001252e-15
(1.9999999999998714, 7.469999999999301), (-1.4731977405002395e-27, -3.5527136788004694e-14),8.881784197001252e-15
(2.999999999999872, 7.469999999999301), (-1.467281283711082e-27, -3.5527136788004694e-14),8.881784197001252e-15
(-2.9999999999999654, 8.469999999999292), (1.475169892763292e-27, 3.5527136788004694e-14),8.881784197001252e-15
(-1.9999999999999647, 8.469999999999292), (1.4771420450263446e-27, 3.5527136788004694e-14),8.881784197001252e-15
(-0.9999999999999644, 8.469999999999292), (1.4722116643687133e-27, 3.5527136788004694e-14),8.881784197001252e-15
(3.584932350975127e-14, 8.469999999999292), (1.468716024482453e-27, 3.5527136788004694e-14),8.881784197001252e-15
(1.0000000000000362, 8.469999999999292), (1.4692534359741345e-27, 3.5527136788004694e-14),8.881784197001252e-15
(2.0000000000000373, 8.469999999999292), (1.4731977405002395e-27, 3.5527136788004694e-14),8.881784197001252e-15
(3.0000000000000373, 8.469999999999292), (1.467281283711082e-27, 3.5527136788004694e-14),8.881784197001252e-15
(-3.0, 9.469999999999292), (0, 0),0
(-2.0, 9.469999999999292), (0, 0),0
(-1.0, 9.469999999999292), (0, 0),0
(0.0, 9.469999999999292), (0, 0),0
(1.0, 9.469999999999292), (0, 0),0
(2.0, 9.469999999999292), (0, 0),0
(3.0, 9.469999999999292), (0, 0),0
(-3.0, 10.469999999999292), (0, 0),0
(-2.0, 10.469999999999292), (0, 0),0
(-1.0, 10.469999999999292), (0, 0),0
(0.0, 10.469999999999292), (0, 0),0
(1.0, 10.469999999999292), (0, 0),0
(2.0, 10.469999999999292), (0, 0),0
(3.0, 10.469999999999292), (0, 0),0
(-3.0, 11.469999999999292), (0, 0),0
(-2.0, 11.469999999999292), (0, 0),0
(-1.0, 11.469999999999292), (0, 0),0
(0.0, 11.469999999999292), (0, 0),0
(1.0, 11.469999999999292), (0, 0),0
(2.0, 11.469999999999292), (0, 0),0
(3.0, 11.469999999999292), (0, 0),0
(-3.0, 12.469999999999647), (0, 0),0
(-2.0, 12.469999999999647), (0, 0),0
(-1.0, 12.469999999999647), (0, 0),0
(0.0, 12.469999999999647), (0, 0),0
(1.0, 12.469999999999647), (0, 0),0
(2.0, 12.469999999999647), (0, 0),0
(3.0, 12.469999999999647), (0, 0),0
(-3.0, 13.470000000000002), (0, 0),0
(-2.0, 13.470000000000002), (0, 0),0
(-1.0, 13.470000000000002), (0, 0),0
(0.0, 13.470000000000002), (0, 0),0
(1.0, 13.470000000000002), (0, 0),0
(2.0, 13.470000000000002), (0, 0),0
(3.0, 13.470000000000002), (0, 0),0
(-3.0, 14.470000000000358), (0, 0),0
(-2.0, 14.470000000000358), (0, 0),0
(-1.0, 14.470000000000358), (0, 0),0
(0.0, 14.470000000000358), (0, 0),0
(1.0, 14.470000000000358), (0, 0),0
(2.0, 14.470000000000358), (0, 0),0
(3.0, 14.470000000000358), (0, 0),0
