(-3.000000000000046, 7.454999999999455), (0.0, -3.5527136788004694e-14),8.881784197001252e-15
(-2.000000000000046, 7.454999999999455), (0.0, -3.5527136788004694e-14),8.881784197001252e-15
(-1.0000000000000455, 7.454999999999455), (0.0, -3.5527136788004694e-14),8.881784197001252e-15
(-4.509204121205812e-14, 7.454999999999455), (0.0, -3.5527136788004694e-14),8.881784197001252e-15
(0.9999999999999551, 7.454999999999455), (0.0, -3.5527136788004694e-14),8.881784197001252e-15
(1.9999999999999556, 7.454999999999455), (0.0, -3.5527136788004694e-14),8.881784197001252e-15
(2.9999999999999556, 7.454999999999455), (0.0, -3.5527136788004694e-14),8.881784197001252e-15
(-3.000000000000046, 8.454999999999446), (0.0, 3.5527136788004694e-14),8.881784197001252e-15
(-2.000000000000046, 8.454999999999446), (0.0, 3.5527136788004694e-14),8.881784197001252e-15
(-1.0000000000000455, 8.454999999999446), (0.0, 3.5527136788004694e-14),8.881784197001252e-15
(-4.509204121205812e-14, 8.454999999999446), (0.0, 3.5527136788004694e-14),8.881784197001252e-15
(0.9999999999999551, 8.454999999999446), (0.0, 3.5527136788004694e-14),8.881784197001252e-15
(1.9999999999999556, 8.454999999999446), (0.0, 3.5527136788004694e-14),8.881784197001252e-15
(2.9999999999999556, 8.454999999999446), (0.0, 3.5527136788004694e-14),8.881784197001252e-15
(-3.0, 9.454999999999446), (0, 0),0
(-2.0, 9.454999999999446), (0, 0),0
(-1.0, 9.454999999999446), (0, 0),0
(0.0, 9.454999999999446), (0, 0),0
(1.0, 9.454999999999446), (0, 0),0
(2.0, 9.454999999999446), (0, 0),0
(3.0, 9.454999999999446), (0, 0),0
(-3.0, 10.454999999999446), (0, 0),0
(-2.0, 10.454999999999446), (0, 0),0
(-1.0, 10.454999999999446), (0, 0),0
(0.0, 10.454999999999446), (0, 0),0
(1.0, 10.454999999999446), (0, 0),0
(2.0, 10.454999999999446), (0, 0),0
(3.0, 10.454999999999446), (0, 0),0
(-3.0, 11.454999999999446), (0, 0),0
(-2.0, 11.454999999999446), (0, 0),0
(-1.0, 11.454999999999446), (0, 0),0
(0.0, 11.454999999999446), (0, 0),0
(1.0, 11.454999999999446), (0, 0),0
(2.0, 11.454999999999446), (0, 0),0
(3.0, 11.454999999999446), (0, 0),0
(-3.0, 12.454999999999446), (0, 0),0
(-2.0, 12.454999999999446), (0, 0),0
(-1.0, 12.454999999999446), (0, 0),0
(0.0, 12.454999999999446), (0, 0),0
(1.0, 12.454999999999446), (0, 0),0
(2.0, 12.454999999999446), (0, 0),0
(3.0, 12.454999999999446), (0, 0),0
(-3.0, 13.454999999999801), (0, 0),0
(-2.0, 13.454999999999801), (0, 0),0
(-1.0, 13.454999999999801), (0, 0),0
(0.0, 13.454999999999801), (0, 0),0
(1.0, 13.454999999999801), (0, 0),0
(2.0, 13.454999999999801), (0, 0),0
(3.0, 13.454999999999801), (0, 0),0
(-3.0, 14.455000000000156), (0, 0),0
(-2.0, 14.455000000000156), (0, 0),0
(-1.0, 14.455000000000156), (0, 0),0
(0.0, 14.455000000000156), (0, 0),0
(1.0, 14.455000000000156), (0, 0),0
(2.0, 14.455000000000156), (0, 0),0
(3.0, 14.455000000000156), (0, 0),0
(-3.0, 15.455000000000512), (0, 0),0
(-2.0, 15.455000000000512), (0, 0),0
(-1.0, 15.455000000000512), (0, 0),0
(0.0, 15.455000000000512), (0, 0),0
(1.0, 15.455000000000512), (0, 0),0
(2.0, 15.455000000000512), (0, 0),0
(3.0, 15.455000000000512), (0, 0),0
