(-3.0000000000000737, 7.144999999999406), (0.0, -3.5527136788004694e-14),8.881784197001252e-15
(-2.0000000000000737, 7.144999999999406), (0.0, -3.5527136788004694e-14),8.881784197001252e-15
(-1.000000000000073, 7.144999999999406), (0.0, -3.5527136788004694e-14),8.881784197001252e-15
(-7.2625572222762e-14, 7.144999999999406), (0.0, -3.5527136788004694e-14),8.881784197001252e-15
(0.9999999999999276, 7.144999999999406), (0.0, -3.5527136788004694e-14),8.881784197001252e-15
(1.999999999999928, 7.144999999999406), (0.0, -3.5527136788004694e-14),8.881784197001252e-15
(2.999999999999928, 7.144999999999406), (0.0, -3.5527136788004694e-14),8.881784197001252e-15
(-3.0000000000000737, 8.144999999999397), (0.0, 3.5527136788004694e-14),8.881784197001252e-15
(-2.0000000000000737, 8.144999999999397), (0.0, 3.5527136788004694e-14),8.881784197001252e-15
(-1.000000000000073, 8.144999999999397), (0.0, 3.5527136788004694e-14),8.881784197001252e-15
(-7.2625572222762e-14, 8.144999999999397), (0.0, 3.5527136788004694e-14),8.881784197001252e-15
(0.9999999999999276, 8.144999999999397), (0.0, 3.5527136788004694e-14),8.881784197001252e-15
(1.999999999999928, 8.144999999999397), (0.0, 3.5527136788004694e-14),8.881784197001252e-15
(2.999999999999928, 8.144999999999397), (0.0, 3.5527136788004694e-14),8.881784197001252e-15
(-3.0, 9.144999999999397), (0, 0),0
(-2.0, 9.144999999999397), (0, 0),0
(-1.0, 9.144999999999397), (0, 0),0
(0.0, 9.144999999999397), (0, 0),0
(1.0, 9.144999999999397), (0, 0),0
(2.0, 9.144999999999397), (0, 0),0
(3.0, 9.144999999999397), (0, 0),0
(-3.0, 10.144999999999397), (0, 0),0
(-2.0, 10.144999999999397), (0, 0),0
(-1.0, 10.144999999999397), (0, 0),0
(0.0, 10.144999999999397), (0, 0),0
(1.0, 10.144999999999397), (0, 0),0
(2.0, 10.144999999999397), (0, 0),0
(3.0, 10.144999999999397), (0, 0),0
(-3.0, 11.144999999999397), (0, 0),0
(-2.0, 11.144999999999397), (0, 0),0
(-1.0, 11.144999999999397), (0, 0),0
(0.0, 11.144999999999397), (0, 0),0
(1.0, 11.144999999999397), (0, 0),0
(2.0, 11.144999999999397), (0, 0),0
(3.0, 11.144999999999397), (0, 0),0
(-3.0, 12.144999999999397), (0, 0),0
(-2.0, 12.144999999999397), (0, 0),0
(-1.0, 12.144999999999397), (0, 0),0
(0.0, 12.144999999999397), (0, 0),0
(1.0, 12.144999999999397), (0, 0),0
(2.0, 12.144999999999397), (0, 0),0
(3.0, 12.144999999999397), (0, 0),0
(-3.0, 13.144999999999753), (0, 0),0
(-2.0, 13.144999999999753), (0, 0),0
(-1.0, 13.144999999999753), (0, 0),0
(0.0, 13.144999999999753), (0, 0),0
(1.0, 13.144999999999753), (0, 0),0
(2.0, 13.144999999999753), (0, 0),0
(3.0, 13.144999999999753), (0, 0),0
(-3.0, 14.145000000000108), (0, 0),0
(-2.0, 14.145000000000108), (0, 0),0
(-1.0, 14.145000000000108), (0, 0),0
(0.0, 14.145000000000108), (0, 0),0
(1.0, 14.145000000000108), (0, 0),0
(2.0, 14.145000000000108), (0, 0),0
(3.0, 14.145000000000108), (0, 0),0
(-3.0, 15.145000000000463), (0, 0),0
(-2.0, 15.145000000000463), (0, 0),0
(-1.0, 15.145000000000463), (0, 0),0
(0.0, 15.145000000000463), (0, 0),0
(1.0, 15.145000000000463), (0, 0),0
(2.0, 15.145000000000463), (0, 0),0
(3.0, 15.145000000000463), (0, 0),0
