(-3.0, 8.254999999999571), (0, 0),0
(-2.0, 8.254999999999571), (0, 0),0
(-1.0, 8.254999999999571), (0, 0),0
(0.0, 8.254999999999571), (0, 0),0
(1.0, 8.254999999999571), (0, 0),0
(2.0, 8.254999999999571), (0, 0),0
(3.0, 8.254999999999571), (0, 0),0
(-3.0, 9.254999999999571), (0, 0),0
(-2.0, 9.254999999999571), (0, 0),0
(-1.0, 9.254999999999571), (0, 0),0
(0.0, 9.254999999999571), (0, 0),0
(1.0, 9.254999999999571), (0, 0),0
(2.0, 9.254999999999571), (0, 0),0
(3.0, 9.254999999999571), (0, 0),0
(-3.0, 10.254999999999571), (0, 0),0
(-2.0, 10.254999999999571), (0, 0),0
(-1.0, 10.254999999999571), (0, 0),0
(0.0, 10.254999999999571), (0, 0),0
(1.0, 10.254999999999571), (0, 0),0
(2.0, 10.254999999999571), (0, 0),0
(3.0, 10.254999999999571), (0, 0),0
(-3.0, 11.254999999999571), (0, 0),0
(-2.0, 11.254999999999571), (0, 0),0
(-1.0, 11.254999999999571), (0, 0),0
(0.0, 11.254999999999571), (0, 0),0
(1.0, 11.254999999999571), (0, 0),0
(2.0, 11.254999999999571), (0, 0),0
(3.0, 11.254999999999571), (0, 0),0
(-3.0, 12.254999999999571), (0, 0),0
(-2.0, 12.254999999999571), (0, 0),0
(-1.0, 12.254999999999571), (0, 0),0
(0.0, 12.254999999999571), (0, 0),0
(1.0, 12.254999999999571), (0, 0),0
(2.0, 12.254999999999571), (0, 0),0
(3.0, 12.254999999999571), (0, 0),0
(-3.0, 13.254999999999571), (0, 0),0
(-2.0, 13.254999999999571), (0, 0),0
(-1.0, 13.254999999999571), (0, 0),0
(0.0, 13.254999999999571), (0, 0),0
(1.0, 13.254999999999571), (0, 0),0
(2.0, 13.254999999999571), (0, 0),0
(3.0, 13.254999999999571), (0, 0),0
(-3.0, 14.254999999999926), (0, 0),0
(-2.0, 14.254999999999926), (0, 0),0
(-1.0, 14.254999999999926), (0, 0),0
(0.0, 14.254999999999926), (0, 0),0
(1.0, 14.254999999999926), (0, 0),0
(2.0, 14.254999999999926), (0, 0),0
(3.0, 14.254999999999926), (0, 0),0
(-3.0, 15.255000000000281), (0, 0),0
(-2.0, 15.255000000000281), (0, 0),0
(-1.0, 15.255000000000281), (0, 0),0
(0.0, 15.255000000000281), (0, 0),0
(1.0, 15.255000000000281), (0, 0),0
(2.0, 15.255000000000281), (0, 0),0
(3.0, 15.255000000000281), (0, 0),0
(-3.0, 16.255000000000546), (0, 0),0
(-2.0, 16.255000000000546), (0, 0),0
(-1.0, 16.255000000000546), (0, 0),0
(0.0, 16.255000000000546), (0, 0),0
(1.0, 16.255000000000546), (0, 0),0
(2.0, 16.255000000000546), (0, 0),0
(3.0, 16.255000000000546), (0, 0),0
