(-1.4278817359547742, 4.299838477842401), (0, 0),0
(-1.9908989645003914, 5.8389004631969845), (-0.004602019405070173, -0.0010884196034433096),0.004631507661317591
(-0.9972658450938758, 5.8976512892257205), (0.0004470640861308113, 0.0006746782131541607),0.008805169719111938
(-0.0017479374616684422, 5.922434164825129), (-0.00019240048416267492, 0.0008018701810026277),0.008541175772693643
(0.9936366421611745, 5.900217360480049), (0.0003384266070576439, 0.0005215397163661497),0.008399142177360153
(1.9880063449679137, 5.843809105382283), (0.004008929196044393, -0.0009096685070796286),0.004031628462460857
(1.4254960910340317, 4.301882209880135), (0, 0),0
(-3.00000000000015, 7.259999999999268), (-1.806491472956117e-27, -3.5527136788004694e-14),8.881784197001252e-15
(-2.0000000000001497, 7.259999999999268), (-1.8084636252191696e-27, -3.5527136788004694e-14),8.881784197001252e-15
(-1.0000000000001488, 7.259999999999268), (-1.8035332445615382e-27, -3.5527136788004694e-14),8.881784197001252e-15
(-1.4816514681825767e-13, 7.259999999999268), (-1.800037604675278e-27, -3.5527136788004694e-14),8.881784197001252e-15
(0.9999999999998521, 7.259999999999268), (-1.8005750161669594e-27, -3.5527136788004694e-14),8.881784197001252e-15
(1.9999999999998528, 7.259999999999268), (-1.8045193206930645e-27, -3.5527136788004694e-14),8.881784197001252e-15
(2.9999999999998535, 7.259999999999268), (-1.798602863903907e-27, -3.5527136788004694e-14),8.881784197001252e-15
(-2.9999999999999467, 8.259999999999259), (1.806491472956117e-27, 3.5527136788004694e-14),8.881784197001252e-15
(-1.999999999999946, 8.259999999999259), (1.8084636252191696e-27, 3.5527136788004694e-14),8.881784197001252e-15
(-0.9999999999999457, 8.259999999999259), (1.8035332445615382e-27, 3.5527136788004694e-14),8.881784197001252e-15
(5.45010703234539e-14, 8.259999999999259), (1.800037604675278e-27, 3.5527136788004694e-14),8.881784197001252e-15
(1.0000000000000548, 8.259999999999259), (1.8005750161669594e-27, 3.5527136788004694e-14),8.881784197001252e-15
(2.000000000000056, 8.259999999999259), (1.8045193206930645e-27, 3.5527136788004694e-14),8.881784197001252e-15
(3.000000000000056, 8.259999999999259), (1.798602863903907e-27, 3.5527136788004694e-14),8.881784197001252e-15
(-3.0, 9.259999999999259), (0, 0),0
(-2.0, 9.259999999999259), (0, 0),0
(-1.0, 9.259999999999259), (0, 0),0
(0.0, 9.259999999999259), (0, 0),0
(1.0, 9.259999999999259), (0, 0),0
(2.0, 9.259999999999259), (0, 0),0
(3.0, 9.259999999999259), (0, 0),0
(-3.0, 10.259999999999259), (0, 0),0
(-2.0, 10.259999999999259), (0, 0),0
(-1.0, 10.259999999999259), (0, 0),0
(0.0, 10.259999999999259), (0, 0),0
(1.0, 10.259999999999259), (0, 0),0
(2.0, 10.259999999999259), (0, 0),0
(3.0, 10.259999999999259), (0, 0),0
(-3.0, 11.259999999999259), (0, 0),0
(-2.0, 11.259999999999259), (0, 0),0
(-1.0, 11.259999999999259), (0, 0),0
(0.0, 11.259999999999259), (0, 0),0
(1.0, 11.259999999999259), (0, 0),0
(2.0, 11.259999999999259), (0, 0),0
(3.0, 11.259999999999259), (0, 0),0
(-3.0, 12.259999999999614), (0, 0),0
(-2.0, 12.259999999999614), (0, 0),0
(-1.0, 12.259999999999614), (0, 0),0
(0.0, 12.259999999999614), (0, 0),0
(1.0, 12.259999999999614), (0, 0),0
(2.0, 12.259999999999614), (0, 0),0
(3.0, 12.259999999999614), (0, 0),0
(-3.0, 13.25999999999997), (0, 0),0
(-2.0, 13.25999999999997), (0, 0),0
(-1.0, 13.25999999999997), (0, 0),0
(0.0, 13.25999999999997), (0, 0),0
(1.0, 13.25999999999997), (0, 0),0
(2.0, 13.25999999999997), (0, 0),0
(3.0, 13.25999999999997), (0, 0),0
(-3.0, 14.260000000000325), (0, 0),0
(-2.0, 14.260000000000325), (0, 0),0
(-1.0, 14.260000000000325), (0, 0),0
(0.0, 14.260000000000325), (0, 0),0
(1.0, 14.260000000000325), (0, 0),0
(2.0, 14.260000000000325), (0, 0),0
(3.0, 14.260000000000325), (0, 0),0
