(-2.26715136960862, 5.747908536339033), (-0.04601461256907281, -0.3506056012246041),0.11140704819201397
(-1.8541199383318032, 6.534675637062147), (-0.017003540258627534, 0.3170214016059497),0.1796374392978347
(-0.930511678048443, 6.657730038020246), (-0.004673475111607803, 0.02443671687323832),0.14129977185936593
(-0.004109575810511093, 6.689027288151151), (0.006592367380706961, 0.0173506870363953),0.1384818389543374
(0.9299519506811077, 6.657675445869829), (-0.001221573569977881, 0.02461661595563082),0.13281406742174473
(1.854571330676652, 6.5359431140087985), (0.01668153810177732, 0.3159094042032164),0.17805060010974816
(2.2670404879658506, 5.748025344382897), (0.04563929602680175, -0.3487292244498264),0.11064899088879565
(-3.000000000000103, 7.789999999999351), (-9.702989134218445e-28, -3.5527136788004694e-14),8.881784197001252e-15
(-2.0000000000001026, 7.789999999999351), (-9.72271065684897e-28, -3.5527136788004694e-14),8.881784197001252e-15
(-1.0000000000001017, 7.789999999999351), (-9.673406850272657e-28, -3.5527136788004694e-14),8.881784197001252e-15
(-1.0109169057415103e-13, 7.789999999999351), (-9.638450451410054e-28, -3.5527136788004694e-14),8.881784197001252e-15
(0.9999999999998992, 7.789999999999351), (-9.64382456632687e-28, -3.5527136788004694e-14),8.881784197001252e-15
(1.9999999999998999, 7.789999999999351), (-9.68326761158792e-28, -3.5527136788004694e-14),8.881784197001252e-15
(2.9999999999999005, 7.789999999999351), (-9.624103043696344e-28, -3.5527136788004694e-14),8.881784197001252e-15
(-2.999999999999994, 8.789999999999342), (9.702989134218445e-28, 3.5527136788004694e-14),8.881784197001252e-15
(-1.9999999999999931, 8.789999999999342), (9.72271065684897e-28, 3.5527136788004694e-14),8.881784197001252e-15
(-0.9999999999999928, 8.789999999999342), (9.673406850272657e-28, 3.5527136788004694e-14),8.881784197001252e-15
(7.427614079347237e-15, 8.789999999999342), (9.638450451410054e-28, 3.5527136788004694e-14),8.881784197001252e-15
(1.0000000000000078, 8.789999999999342), (9.64382456632687e-28, 3.5527136788004694e-14),8.881784197001252e-15
(2.000000000000009, 8.789999999999342), (9.68326761158792e-28, 3.5527136788004694e-14),8.881784197001252e-15
(3.000000000000009, 8.789999999999342), (9.624103043696344e-28, 3.5527136788004694e-14),8.881784197001252e-15
(-3.0, 9.789999999999342), (0, 0),0
(-2.0, 9.789999999999342), (0, 0),0
(-1.0, 9.789999999999342), (0, 0),0
(0.0, 9.789999999999342), (0, 0),0
(1.0, 9.789999999999342), (0, 0),0
(2.0, 9.789999999999342), (0, 0),0
(3.0, 9.789999999999342), (0, 0),0
(-3.0, 10.789999999999342), (0, 0),0
(-2.0, 10.789999999999342), (0, 0),0
(-1.0, 10.789999999999342), (0, 0),0
(0.0, 10.789999999999342), (0, 0),0
(1.0, 10.789999999999342), (0, 0),0
(2.0, 10.789999999999342), (0, 0),0
(3.0, 10.789999999999342), (0, 0),0
(-3.0, 11.789999999999342), (0, 0),0
(-2.0, 11.789999999999342), (0, 0),0
(-1.0, 11.789999999999342), (0, 0),0
(0.0, 11.789999999999342), (0, 0),0
(1.0, 11.789999999999342), (0, 0),0
(2.0, 11.789999999999342), (0, 0),0
(3.0, 11.789999999999342), (0, 0),0
(-3.0, 12.789999999999697), (0, 0),0
(-2.0, 12.789999999999697), (0, 0),0
(-1.0, 12.789999999999697), (0, 0),0
(0.0, 12.789999999999697), (0, 0),0
(1.0, 12.789999999999697), (0, 0),0
(2.0, 12.789999999999697), (0, 0),0
(3.0, 12.789999999999697), (0, 0),0
(-3.0, 13.790000000000052), (0, 0),0
(-2.0, 13.790000000000052), (0, 0),0
(-1.0, 13.790000000000052), (0, 0),0
(0.0, 13.790000000000052), (0, 0),0
(1.0, 13.790000000000052), (0, 0),0
(2.0, 13.790000000000052), (0, 0),0
(3.0, 13.790000000000052), (0, 0),0
(-3.0, 14.790000000000408), (0, 0),0
(-2.0, 14.790000000000408), (0, 0),0
(-1.0, 14.790000000000408), (0, 0),0
(0.0, 14.790000000000408), (0, 0),0
(1.0, 14.790000000000408), (0, 0),0
(2.0, 14.790000000000408), (0, 0),0
(3.0, 14.790000000000408), (0, 0),0
