(-3.000000000000043, 7.48999999999946), (0.0, -3.5527136788004694e-14),8.881784197001252e-15
(-2.000000000000043, 7.48999999999946), (0.0, -3.5527136788004694e-14),8.881784197001252e-15
(-1.0000000000000424, 7.48999999999946), (0.0, -3.5527136788004694e-14),8.881784197001252e-15
(-4.1983416743107684e-14, 7.48999999999946), (0.0, -3.5527136788004694e-14),8.881784197001252e-15
(0.9999999999999583, 7.48999999999946), (0.0, -3.5527136788004694e-14),8.881784197001252e-15
(1.9999999999999587, 7.48999999999946), (0.0, -3.5527136788004694e-14),8.881784197001252e-15
(2.9999999999999587, 7.48999999999946), (0.0, -3.5527136788004694e-14),8.881784197001252e-15
(-3.000000000000043, 8.489999999999451), (0.0, 3.5527136788004694e-14),8.881784197001252e-15
(-2.000000000000043, 8.489999999999451), (0.0, 3.5527136788004694e-14),8.881784197001252e-15
(-1.0000000000000424, 8.489999999999451), (0.0, 3.5527136788004694e-14),8.881784197001252e-15
(-4.1983416743107684e-14, 8.489999999999451), (0.0, 3.5527136788004694e-14),8.881784197001252e-15
(0.9999999999999583, 8.489999999999451), (0.0, 3.5527136788004694e-14),8.881784197001252e-15
(1.9999999999999587, 8.489999999999451), (0.0, 3.5527136788004694e-14),8.881784197001252e-15
(2.9999999999999587, 8.489999999999451), (0.0, 3.5527136788004694e-14),8.881784197001252e-15
(-3.0, 9.489999999999451), (0, 0),0
(-2.0, 9.489999999999451), (0, 0),0
(-1.0, 9.489999999999451), (0, 0),0
(0.0, 9.489999999999451), (0, 0),0
(1.0, 9.489999999999451), (0, 0),0
(2.0, 9.489999999999451), (0, 0),0
(3.0, 9.489999999999451), (0, 0),0
(-3.0, 10.489999999999451), (0, 0),0
(-2.0, 10.489999999999451), (0, 0),0
(-1.0, 10.489999999999451), (0, 0),0
(0.0, 10.489999999999451), (0, 0),0
(1.0, 10.489999999999451), (0, 0),0
(2.0, 10.489999999999451), (0, 0),0
(3.0, 10.489999999999451), (0, 0),0
(-3.0, 11.489999999999451), (0, 0),0
(-2.0, 11.489999999999451), (0, 0),0
(-1.0, 11.489999999999451), (0, 0),0
(0.0, 11.489999999999451), (0, 0),0
(1.0, 11.489999999999451), (0, 0),0
(2.0, 11.489999999999451), (0, 0),0
(3.0, 11.489999999999451), (0, 0),0
(-3.0, 12.489999999999451), (0, 0),0
(-2.0, 12.489999999999451), (0, 0),0
(-1.0, 12.489999999999451), (0, 0),0
(0.0, 12.489999999999451), (0, 0),0
(1.0, 12.489999999999451), (0, 0),0
(2.0, 12.489999999999451), (0, 0),0
(3.0, 12.489999999999451), (0, 0),0
(-3.0, 13.489999999999807), (0, 0),0
(-2.0, 13.489999999999807), (0, 0),0
(-1.0, 13.489999999999807), (0, 0),0
(0.0, 13.489999999999807), (0, 0),0
(1.0, 13.489999999999807), (0, 0),0
(2.0, 13.489999999999807), (0, 0),0
(3.0, 13.489999999999807), (0, 0),0
(-3.0, 14.490000000000162), (0, 0),0
(-2.0, 14.490000000000162), (0, 0),0
(-1.0, 14.490000000000162), (0, 0),0
(0.0, 14.490000000000162), (0, 0),0
(1.0, 14.490000000000162), (0, 0),0
(2.0, 14.490000000000162), (0, 0),0
(3.0, 14.490000000000162), (0, 0),0
(-3.0, 15.490000000000517), (0, 0),0
(-2.0, 15.490000000000517), (0, 0),0
(-1.0, 15.490000000000517), (0, 0),0
(0.0, 15.490000000000517), (0, 0),0
(1.0, 15.490000000000517), (0, 0),0
(2.0, 15.490000000000517), (0, 0),0
(3.0, 15.490000000000517), (0, 0),0
