(-0.6417620321476943, -1.2831978219308449), (0.053772855877585485, -0.7330002612363603),0.4881534454475508
(0.5747592588544053, -0.9069083064932051), (-0.05288049128187797, 0.1062273453446074),0.516429087533189
(-0.9961088862801667, 4.980766223839635), (-0.00503752184299937, -0.00019223859579288206),0.0050633889985232106
(-0.0012175507599025866, 4.9902578210608315), (-0.0007466056208681304, 0.0003451838304737348),0.010881493178927504
(0.9929426231587377, 4.98368586781204), (0.0057841274638675, -0.00015294523468085272),0.005818104180404293
(-1.4086877042482187, -1.1589465904267258), (-0.1710815003759455, 0.1108690861843904),0.22307442115918774
(-0.1992198701894279, -0.696456588140132), (-0.03587668157048432, 0.7887409136762699),0.4629982191613412
(-0.02549673762297955, 1.872396605545163), (0, 0),0
(-1.968671419042028, 6.213365750555361), (-0.015974076071312265, -0.00010155336539389715),0.01623776113335884
(-0.9849104226756547, 6.214929287618134), (0.002359379836281773, -0.001285141661549629),0.030047581503750198
(0.0009602019865446675, 6.240032710214359), (-0.0018392114161470564, 0.0031000836295029554),0.02951635863001334
(0.9848757787821082, 6.212760809585495), (-0.0004903242167586738, -0.0017551372248820294),0.03191343711413952
(1.968668669146936, 6.213404804200032), (0.015944231867936223, 4.1748622322599954e-05),0.016206898854517537
(1.2217276014375826, -1.1210594916339225), (0.2060658173507223, -0.2728370839689073),0.3185098926602108
(-2.999999999999883, 7.5149999999991515), (1.33317492982351e-27, -3.5527136788004694e-14),8.881784197001252e-15
(-1.9999999999998823, 7.5149999999991515), (1.34106353887572e-27, -3.5527136788004694e-14),8.881784197001252e-15
(-0.999999999999882, 7.5149999999991515), (1.3341610059550362e-27, -3.5527136788004694e-14),8.881784197001252e-15
(1.181277298201167e-13, 7.5149999999991515), (1.332092218231095e-27, -3.5527136788004694e-14),8.881784197001252e-15
(1.0000000000001186, 7.5149999999991515), (1.3341610059550362e-27, -3.5527136788004694e-14),8.881784197001252e-15
(2.00000000000012, 7.5149999999991515), (1.3430356911387726e-27, -3.5527136788004694e-14),8.881784197001252e-15
(3.00000000000012, 7.5149999999991515), (1.337119234349615e-27, -3.5527136788004694e-14),8.881784197001252e-15
(-3.0000000000000333, 8.514999999999143), (-1.33317492982351e-27, 3.5527136788004694e-14),8.881784197001252e-15
(-2.0000000000000333, 8.514999999999143), (-1.34106353887572e-27, 3.5527136788004694e-14),8.881784197001252e-15
(-1.0000000000000322, 8.514999999999143), (-1.3341610059550362e-27, 3.5527136788004694e-14),8.881784197001252e-15
(-3.185252062110071e-14, 8.514999999999143), (-1.332092218231095e-27, 3.5527136788004694e-14),8.881784197001252e-15
(0.9999999999999684, 8.514999999999143), (-1.3341610059550362e-27, 3.5527136788004694e-14),8.881784197001252e-15
(1.9999999999999687, 8.514999999999143), (-1.3430356911387726e-27, 3.5527136788004694e-14),8.881784197001252e-15
(2.9999999999999694, 8.514999999999143), (-1.337119234349615e-27, 3.5527136788004694e-14),8.881784197001252e-15
(-3.0, 9.514999999999143), (0, 0),0
(-2.0, 9.514999999999143), (0, 0),0
(-1.0, 9.514999999999143), (0, 0),0
(0.0, 9.514999999999143), (0, 0),0
(1.0, 9.514999999999143), (0, 0),0
(2.0, 9.514999999999143), (0, 0),0
(3.0, 9.514999999999143), (0, 0),0
(-3.0, 10.514999999999143), (0, 0),0
(-2.0, 10.514999999999143), (0, 0),0
(-1.0, 10.514999999999143), (0, 0),0
(0.0, 10.514999999999143), (0, 0),0
(1.0, 10.514999999999143), (0, 0),0
(2.0, 10.514999999999143), (0, 0),0
(3.0, 10.514999999999143), (0, 0),0
(-3.0, 11.514999999999498), (0, 0),0
(-2.0, 11.514999999999498), (0, 0),0
(-1.0, 11.514999999999498), (0, 0),0
(0.0, 11.514999999999498), (0, 0),0
(1.0, 11.514999999999498), (0, 0),0
(2.0, 11.514999999999498), (0, 0),0
(3.0, 11.514999999999498), (0, 0),0
(-3.0, 12.514999999999853), (0, 0),0
(-2.0, 12.514999999999853), (0, 0),0
(-1.0, 12.514999999999853), (0, 0),0
(0.0, 12.514999999999853), (0, 0),0
(1.0, 12.514999999999853), (0, 0),0
(2.0, 12.514999999999853), (0, 0),0
(3.0, 12.514999999999853), (0, 0),0
(-3.0, 13.515000000000208), (0, 0),0
(-2.0, 13.515000000000208), (0, 0),0
(-1.0, 13.515000000000208), (0, 0),0
(0.0, 13.515000000000208), (0, 0),0
(1.0, 13.515000000000208), (0, 0),0
(2.0, 13.515000000000208), (0, 0),0
(3.0, 13.515000000000208), (0, 0),0
