(-3.0000000000000173, 7.7799999999995055), (0.0, -3.5527136788004694e-14),8.881784197001252e-15
(-2.0000000000000173, 7.7799999999995055), (0.0, -3.5527136788004694e-14),8.881784197001252e-15
(-1.0000000000000167, 7.7799999999995055), (0.0, -3.5527136788004694e-14),8.881784197001252e-15
(-1.622624257180405e-14, 7.7799999999995055), (0.0, -3.5527136788004694e-14),8.881784197001252e-15
(0.999999999999984, 7.7799999999995055), (0.0, -3.5527136788004694e-14),8.881784197001252e-15
(1.9999999999999845, 7.7799999999995055), (0.0, -3.5527136788004694e-14),8.881784197001252e-15
(2.9999999999999845, 7.7799999999995055), (0.0, -3.5527136788004694e-14),8.881784197001252e-15
(-3.0000000000000173, 8.779999999999497), (0.0, 3.5527136788004694e-14),8.881784197001252e-15
(-2.0000000000000173, 8.779999999999497), (0.0, 3.5527136788004694e-14),8.881784197001252e-15
(-1.0000000000000167, 8.779999999999497), (0.0, 3.5527136788004694e-14),8.881784197001252e-15
(-1.622624257180405e-14, 8.779999999999497), (0.0, 3.5527136788004694e-14),8.881784197001252e-15
(0.999999999999984, 8.779999999999497), (0.0, 3.5527136788004694e-14),8.881784197001252e-15
(1.9999999999999845, 8.779999999999497), (0.0, 3.5527136788004694e-14),8.881784197001252e-15
(2.9999999999999845, 8.779999999999497), (0.0, 3.5527136788004694e-14),8.881784197001252e-15
(-3.0, 9.779999999999497), (0, 0),0
(-2.0, 9.779999999999497), (0, 0),0
(-1.0, 9.779999999999497), (0, 0),0
(0.0, 9.779999999999497), (0, 0),0
(1.0, 9.779999999999497), (0, 0),0
(2.0, 9.779999999999497), (0, 0),0
(3.0, 9.779999999999497), (0, 0),0
(-3.0, 10.779999999999497), (0, 0),0
(-2.0, 10.779999999999497), (0, 0),0
(-1.0, 10.779999999999497), (0, 0),0
(0.0, 10.779999999999497), (0, 0),0
(1.0, 10.779999999999497), (0, 0),0
(2.0, 10.779999999999497), (0, 0),0
(3.0, 10.779999999999497), (0, 0),0
(-3.0, 11.779999999999497), (0, 0),0
(-2.0, 11.779999999999497), (0, 0),0
(-1.0, 11.779999999999497), (0, 0),0
(0.0, 11.779999999999497), (0, 0),0
(1.0, 11.779999999999497), (0, 0),0
(2.0, 11.779999999999497), (0, 0),0
(3.0, 11.779999999999497), (0, 0),0
(-3.0, 12.779999999999497), (0, 0),0
(-2.0, 12.779999999999497), (0, 0),0
(-1.0, 12.779999999999497), (0, 0),0
(0.0, 12.779999999999497), (0, 0),0
(1.0, 12.779999999999497), (0, 0),0
(2.0, 12.779999999999497), (0, 0),0
(3.0, 12.779999999999497), (0, 0),0
(-3.0, 13.779999999999852), (0, 0),0
(-2.0, 13.779999999999852), (0, 0),0
(-1.0, 13.779999999999852), (0, 0),0
(0.0, 13.779999999999852), (0, 0),0
(1.0, 13.779999999999852), (0, 0),0
(2.0, 13.779999999999852), (0, 0),0
(3.0, 13.779999999999852), (0, 0),0
(-3.0, 14.780000000000207), (0, 0),0
(-2.0, 14.780000000000207), (0, 0),0
(-1.0, 14.780000000000207), (0, 0),0
(0.0, 14.780000000000207), (0, 0),0
(1.0, 14.780000000000207), (0, 0),0
(2.0, 14.780000000000207), (0, 0),0
(3.0, 14.780000000000207), (0, 0),0
(-3.0, 15.780000000000562), (0, 0),0
(-2.0, 15.780000000000562), (0, 0),0
(-1.0, 15.780000000000562), (0, 0),0
(0.0, 15.780000000000562), (0, 0),0
(1.0, 15.780000000000562), (0, 0),0
(2.0, 15.780000000000562), (0, 0),0
(3.0, 15.780000000000562), (0, 0),0
