(-0.6324943877781688, -1.7463237229391904), (-0.014314955691177862, -1.0143558521351865),0.4447893582512187
(0.4215539077134959, -1.214089260115748), (0.008747224130650141, 0.013960620529613887),0.1367852225761913
(-0.9991489274417841, 4.897783641789513), (-0.0022028091720150814, -5.662078396729537e-05),0.0022077287181039296
(-0.0013772565152370031, 4.904195297295802), (-0.0003179212265739732, 9.296874008090503e-05),0.004734861897604525
(0.9960891291254255, 4.900599527550814), (0.0025207303985890547, -3.634795611360966e-05),0.002527133179500596
(-1.4845367893068366, -1.312378903949127), (-0.04477027391861337, 0.07147714099127567),0.051398598568295095
(-0.5036832576252952, -1.1613085166218606), (-0.008696351521099766, 0.9583452850399983),0.4818109172060261
(-0.02549673762297955, 1.7923966055451648), (0, 0),0
(-1.9788165301040355, 6.1234197270828785), (-0.010751264634862675, 0.0003908017481777247),0.01086986245419752
(-0.9897272311211442, 6.1144315326640335), (0.0016009346716947103, -0.001293642817741802),0.02010832496990944
(0.0007330264818857167, 6.1388631160586895), (-0.0012244540553108998, 0.0020333037047478913),0.019727106793522964
(0.9898774519847076, 6.1119181981731785), (-0.00032445473639779523, -0.0016221810093858106),0.021305595650119358
(1.9789952160034123, 6.1232827305002075), (0.01069923875487666, 0.0004917183742019965),0.010816951372308314
(1.3508392426486273, -1.3298958074284313), (0.05903435700024086, -0.02942719442570113),0.06352662070618142
(-2.999999999999876, 7.434999999999139), (1.4593926746588718e-27, -3.5527136788004694e-14),8.881784197001252e-15
(-1.9999999999998752, 7.434999999999139), (1.467281283711082e-27, -3.5527136788004694e-14),8.881784197001252e-15
(-0.9999999999998749, 7.434999999999139), (1.4603787507903981e-27, -3.5527136788004694e-14),8.881784197001252e-15
(1.252331571777177e-13, 7.434999999999139), (1.458309963066457e-27, -3.5527136788004694e-14),8.881784197001252e-15
(1.0000000000001257, 7.434999999999139), (1.4603787507903981e-27, -3.5527136788004694e-14),8.881784197001252e-15
(2.000000000000127, 7.434999999999139), (1.4692534359741345e-27, -3.5527136788004694e-14),8.881784197001252e-15
(3.000000000000127, 7.434999999999139), (1.4633369791849769e-27, -3.5527136788004694e-14),8.881784197001252e-15
(-3.0000000000000404, 8.43499999999913), (-1.4593926746588718e-27, 3.5527136788004694e-14),8.881784197001252e-15
(-2.0000000000000404, 8.43499999999913), (-1.467281283711082e-27, 3.5527136788004694e-14),8.881784197001252e-15
(-1.0000000000000393, 8.43499999999913), (-1.4603787507903981e-27, 3.5527136788004694e-14),8.881784197001252e-15
(-3.895794797870171e-14, 8.43499999999913), (-1.458309963066457e-27, 3.5527136788004694e-14),8.881784197001252e-15
(0.9999999999999613, 8.43499999999913), (-1.4603787507903981e-27, 3.5527136788004694e-14),8.881784197001252e-15
(1.9999999999999616, 8.43499999999913), (-1.4692534359741345e-27, 3.5527136788004694e-14),8.881784197001252e-15
(2.9999999999999623, 8.43499999999913), (-1.4633369791849769e-27, 3.5527136788004694e-14),8.881784197001252e-15
(-3.0, 9.43499999999913), (0, 0),0
(-2.0, 9.43499999999913), (0, 0),0
(-1.0, 9.43499999999913), (0, 0),0
(0.0, 9.43499999999913), (0, 0),0
(1.0, 9.43499999999913), (0, 0),0
(2.0, 9.43499999999913), (0, 0),0
(3.0, 9.43499999999913), (0, 0),0
(-3.0, 10.43499999999913), (0, 0),0
(-2.0, 10.43499999999913), (0, 0),0
(-1.0, 10.43499999999913), (0, 0),0
(0.0, 10.43499999999913), (0, 0),0
(1.0, 10.43499999999913), (0, 0),0
(2.0, 10.43499999999913), (0, 0),0
(3.0, 10.43499999999913), (0, 0),0
(-3.0, 11.434999999999485), (0, 0),0
(-2.0, 11.434999999999485), (0, 0),0
(-1.0, 11.434999999999485), (0, 0),0
(0.0, 11.434999999999485), (0, 0),0
(1.0, 11.434999999999485), (0, 0),0
(2.0, 11.434999999999485), (0, 0),0
(3.0, 11.434999999999485), (0, 0),0
(-3.0, 12.43499999999984), (0, 0),0
(-2.0, 12.43499999999984), (0, 0),0
(-1.0, 12.43499999999984), (0, 0),0
(0.0, 12.43499999999984), (0, 0),0
(1.0, 12.43499999999984), (0, 0),0
(2.0, 12.43499999999984), (0, 0),0
(3.0, 12.43499999999984), (0, 0),0
(-3.0, 13.435000000000196), (0, 0),0
(-2.0, 13.435000000000196), (0, 0),0
(-1.0, 13.435000000000196), (0, 0),0
(0.0, 13.435000000000196), (0, 0),0
(1.0, 13.435000000000196), (0, 0),0
(2.0, 13.435000000000196), (0, 0),0
(3.0, 13.435000000000196), (0, 0),0
