(-3.0, 9.389999999999748), (0, 0),0
(-2.0, 9.389999999999748), (0, 0),0
(-1.0, 9.389999999999748), (0, 0),0
(0.0, 9.389999999999748), (0, 0),0
(1.0, 9.389999999999748), (0, 0),0
(2.0, 9.389999999999748), (0, 0),0
(3.0, 9.389999999999748), (0, 0),0
(-3.0, 10.389999999999748), (0, 0),0
(-2.0, 10.389999999999748), (0, 0),0
(-1.0, 10.389999999999748), (0, 0),0
(0.0, 10.389999999999748), (0, 0),0
(1.0, 10.389999999999748), (0, 0),0
(2.0, 10.389999999999748), (0, 0),0
(3.0, 10.389999999999748), (0, 0),0
(-3.0, 11.389999999999748), (0, 0),0
(-2.0, 11.389999999999748), (0, 0),0
(-1.0, 11.389999999999748), (0, 0),0
(0.0, 11.389999999999748), (0, 0),0
(1.0, 11.389999999999748), (0, 0),0
(2.0, 11.389999999999748), (0, 0),0
(3.0, 11.389999999999748), (0, 0),0
(-3.0, 12.389999999999748), (0, 0),0
(-2.0, 12.389999999999748), (0, 0),0
(-1.0, 12.389999999999748), (0, 0),0
(0.0, 12.389999999999748), (0, 0),0
(1.0, 12.389999999999748), (0, 0),0
(2.0, 12.389999999999748), (0, 0),0
(3.0, 12.389999999999748), (0, 0),0
(-3.0, 13.389999999999748), (0, 0),0
(-2.0, 13.389999999999748), (0, 0),0
(-1.0, 13.389999999999748), (0, 0),0
(0.0, 13.389999999999748), (0, 0),0
(1.0, 13.389999999999748), (0, 0),0
(2.0, 13.389999999999748), (0, 0),0
(3.0, 13.389999999999748), (0, 0),0
(-3.0, 14.389999999999748), (0, 0),0
(-2.0, 14.389999999999748), (0, 0),0
(-1.0, 14.389999999999748), (0, 0),0
(0.0, 14.389999999999748), (0, 0),0
(1.0, 14.389999999999748), (0, 0),0
(2.0, 14.389999999999748), (0, 0),0
(3.0, 14.389999999999748), (0, 0),0
(-3.0, 15.390000000000104), (0, 0),0
(-2.0, 15.390000000000104), (0, 0),0
(-1.0, 15.390000000000104), (0, 0),0
(0.0, 15.390000000000104), (0, 0),0
(1.0, 15.390000000000104), (0, 0),0
(2.0, 15.390000000000104), (0, 0),0
(3.0, 15.390000000000104), (0, 0),0
(-3.0, 16.39000000000032), (0, 0),0
(-2.0, 16.39000000000032), (0, 0),0
(-1.0, 16.39000000000032), (0, 0),0
(0.0, 16.39000000000032), (0, 0),0
(1.0, 16.39000000000032), (0, 0),0
(2.0, 16.39000000000032), (0, 0),0
(3.0, 16.39000000000032), (0, 0),0
(-3.0, 17.39000000000032), (0, 0),0
(-2.0, 17.39000000000032), (0, 0),0
(-1.0, 17.39000000000032), (0, 0),0
(0.0, 17.39000000000032), (0, 0),0
(1.0, 17.39000000000032), (0, 0),0
(2.0, 17.39000000000032), (0, 0),0
(3.0, 17.39000000000032), (0, 0),0
