(-1.2166593827003473, -2.7273005104444934), (-0.005313388527050915, -0.0624873187278977),0.02185002487695975
(0.5699158933108133, -2.0027581843419653), (-0.00230278288434687, 0.0008320069829360942),0.019763557452470937
(-1.0014421926172963, 4.525534338043107), (-4.6841663807605496e-05, -7.683482746145977e-07),4.6844252042710366e-05
(-0.001497444542388545, 4.529634885288018), (-5.98812228159291e-06, 1.0534953911952054e-06),9.967687751422094e-05
(0.9984488124855969, 4.528285590633267), (5.2829786089198406e-05, -2.8514711658060763e-07),5.2832625471510575e-05
(-1.6510001938464385, -1.837588323370478), (-0.004312760524510796, 0.03533737102404921),0.00992943885040587
(-0.40913624330780096, -2.157908459513226), (0.0010782738601254303, 0.021731624660659823),0.020651352113187804
(-0.02549673762297955, -0.2923336939480241), (0, 0),0
(-1.9959779121192511, 5.736616801433868), (-0.0015500226083514132, 0.00016736423300013953),0.0015529990368846613
(-0.9978944802964078, 5.709674699567554), (8.747469125514355e-05, -0.0003036353392127247),0.003018090170108567
(0.0003696439823051772, 5.732927708053231), (-0.0002456826022619882, 0.0003158983631022877),0.0031768419076932952
(0.9983131208227215, 5.706693273173921), (0.00019273581438240448, -0.00035938141337115684),0.003230217348729192
(1.99635596922365, 5.7362879576287105), (0.0015154947049758533, 0.00017975415648145427),0.0015184665742598025
(1.553407533457491, -1.898833531274246), (0.01085065807578315, 0.004586316060252565),0.011032791365837014
(-2.9999999999998432, 7.064999999999081), (2.0431497445224206e-27, -3.5527136788004694e-14),8.881784197001252e-15
(-1.9999999999998423, 7.064999999999081), (2.0510383535746307e-27, -3.5527136788004694e-14),8.881784197001252e-15
(-0.999999999999842, 7.064999999999081), (2.044135820653947e-27, -3.5527136788004694e-14),8.881784197001252e-15
(1.5809575870662234e-13, 7.064999999999081), (2.042067032930006e-27, -3.5527136788004694e-14),8.881784197001252e-15
(1.0000000000001585, 7.064999999999081), (2.044135820653947e-27, -3.5527136788004694e-14),8.881784197001252e-15
(2.00000000000016, 7.064999999999081), (2.0530105058376832e-27, -3.5527136788004694e-14),8.881784197001252e-15
(3.00000000000016, 7.064999999999081), (2.0470940490485256e-27, -3.5527136788004694e-14),8.881784197001252e-15
(-3.0000000000000733, 8.064999999999072), (-2.0431497445224206e-27, 3.5527136788004694e-14),8.881784197001252e-15
(-2.0000000000000733, 8.064999999999072), (-2.0510383535746307e-27, 3.5527136788004694e-14),8.881784197001252e-15
(-1.0000000000000722, 8.064999999999072), (-2.044135820653947e-27, 3.5527136788004694e-14),8.881784197001252e-15
(-7.182054950760634e-14, 8.064999999999072), (-2.042067032930006e-27, 3.5527136788004694e-14),8.881784197001252e-15
(0.9999999999999284, 8.064999999999072), (-2.044135820653947e-27, 3.5527136788004694e-14),8.881784197001252e-15
(1.9999999999999287, 8.064999999999072), (-2.0530105058376832e-27, 3.5527136788004694e-14),8.881784197001252e-15
(2.9999999999999294, 8.064999999999072), (-2.0470940490485256e-27, 3.5527136788004694e-14),8.881784197001252e-15
(-3.0, 9.064999999999072), (0, 0),0
(-2.0, 9.064999999999072), (0, 0),0
(-1.0, 9.064999999999072), (0, 0),0
(0.0, 9.064999999999072), (0, 0),0
(1.0, 9.064999999999072), (0, 0),0
(2.0, 9.064999999999072), (0, 0),0
(3.0, 9.064999999999072), (0, 0),0
(-3.0, 10.064999999999072), (0, 0),0
(-2.0, 10.064999999999072), (0, 0),0
(-1.0, 10.064999999999072), (0, 0),0
(0.0, 10.064999999999072), (0, 0),0
(1.0, 10.064999999999072), (0, 0),0
(2.0, 10.064999999999072), (0, 0),0
(3.0, 10.064999999999072), (0, 0),0
(-3.0, 11.064999999999428), (0, 0),0
(-2.0, 11.064999999999428), (0, 0),0
(-1.0, 11.064999999999428), (0, 0),0
(0.0, 11.064999999999428), (0, 0),0
(1.0, 11.064999999999428), (0, 0),0
(2.0, 11.064999999999428), (0, 0),0
(3.0, 11.064999999999428), (0, 0),0
(-3.0, 12.064999999999783), (0, 0),0
(-2.0, 12.064999999999783), (0, 0),0
(-1.0, 12.064999999999783), (0, 0),0
(0.0, 12.064999999999783), (0, 0),0
(1.0, 12.064999999999783), (0, 0),0
(2.0, 12.064999999999783), (0, 0),0
(3.0, 12.064999999999783), (0, 0),0
(-3.0, 13.065000000000138), (0, 0),0
(-2.0, 13.065000000000138), (0, 0),0
(-1.0, 13.065000000000138), (0, 0),0
(0.0, 13.065000000000138), (0, 0),0
(1.0, 13.065000000000138), (0, 0),0
(2.0, 13.065000000000138), (0, 0),0
(3.0, 13.065000000000138), (0, 0),0
