(-1.6481380869008837, 4.589179765279048), (0, 0),0
(-1.9868405549908363, 5.917899271313354), (-0.0055449499544875, -0.0014079226142695328),0.005587328423042659
(-0.9944253012857537, 5.980895506171463), (-0.0019500383820767056, 0.0006642377655090334),0.01314169078302685
(-0.002284869120954729, 6.005506612090205), (0.0022743708748100677, 0.0012246617387342072),0.01280392228409677
(0.9922018187582519, 5.982601030625916), (-0.0007560045225769559, 0.0009694244070042184),0.011273458600996933
(1.9843536302197102, 5.922407401268255), (0.005976621984331094, -0.001450401296977926),0.006023898676884354
(1.6457524419801413, 4.591223497316782), (0, 0),0
(-3.0000000000001434, 7.33499999999928), (-1.6881623371729653e-27, -3.5527136788004694e-14),8.881784197001252e-15
(-2.000000000000143, 7.33499999999928), (-1.6901344894360178e-27, -3.5527136788004694e-14),8.881784197001252e-15
(-1.000000000000142, 7.33499999999928), (-1.6852041087783865e-27, -3.5527136788004694e-14),8.881784197001252e-15
(-1.4150380867050673e-13, 7.33499999999928), (-1.681708468892126e-27, -3.5527136788004694e-14),8.881784197001252e-15
(0.9999999999998588, 7.33499999999928), (-1.6822458803838077e-27, -3.5527136788004694e-14),8.881784197001252e-15
(1.9999999999998594, 7.33499999999928), (-1.6861901849099127e-27, -3.5527136788004694e-14),8.881784197001252e-15
(2.99999999999986, 7.33499999999928), (-1.680273728120755e-27, -3.5527136788004694e-14),8.881784197001252e-15
(-2.9999999999999534, 8.33499999999927), (1.6881623371729653e-27, 3.5527136788004694e-14),8.881784197001252e-15
(-1.9999999999999527, 8.33499999999927), (1.6901344894360178e-27, 3.5527136788004694e-14),8.881784197001252e-15
(-0.9999999999999524, 8.33499999999927), (1.6852041087783865e-27, 3.5527136788004694e-14),8.881784197001252e-15
(4.783973217570296e-14, 8.33499999999927), (1.681708468892126e-27, 3.5527136788004694e-14),8.881784197001252e-15
(1.0000000000000482, 8.33499999999927), (1.6822458803838077e-27, 3.5527136788004694e-14),8.881784197001252e-15
(2.0000000000000493, 8.33499999999927), (1.6861901849099127e-27, 3.5527136788004694e-14),8.881784197001252e-15
(3.0000000000000493, 8.33499999999927), (1.680273728120755e-27, 3.5527136788004694e-14),8.881784197001252e-15
(-3.0, 9.33499999999927), (0, 0),0
(-2.0, 9.33499999999927), (0, 0),0
(-1.0, 9.33499999999927), (0, 0),0
(0.0, 9.33499999999927), (0, 0),0
(1.0, 9.33499999999927), (0, 0),0
(2.0, 9.33499999999927), (0, 0),0
(3.0, 9.33499999999927), (0, 0),0
(-3.0, 10.33499999999927), (0, 0),0
(-2.0, 10.33499999999927), (0, 0),0
(-1.0, 10.33499999999927), (0, 0),0
(0.0, 10.33499999999927), (0, 0),0
(1.0, 10.33499999999927), (0, 0),0
(2.0, 10.33499999999927), (0, 0),0
(3.0, 10.33499999999927), (0, 0),0
(-3.0, 11.33499999999927), (0, 0),0
(-2.0, 11.33499999999927), (0, 0),0
(-1.0, 11.33499999999927), (0, 0),0
(0.0, 11.33499999999927), (0, 0),0
(1.0, 11.33499999999927), (0, 0),0
(2.0, 11.33499999999927), (0, 0),0
(3.0, 11.33499999999927), (0, 0),0
(-3.0, 12.334999999999626), (0, 0),0
(-2.0, 12.334999999999626), (0, 0),0
(-1.0, 12.334999999999626), (0, 0),0
(0.0, 12.334999999999626), (0, 0),0
(1.0, 12.334999999999626), (0, 0),0
(2.0, 12.334999999999626), (0, 0),0
(3.0, 12.334999999999626), (0, 0),0
(-3.0, 13.334999999999981), (0, 0),0
(-2.0, 13.334999999999981), (0, 0),0
(-1.0, 13.334999999999981), (0, 0),0
(0.0, 13.334999999999981), (0, 0),0
(1.0, 13.334999999999981), (0, 0),0
(2.0, 13.334999999999981), (0, 0),0
(3.0, 13.334999999999981), (0, 0),0
(-3.0, 14.335000000000337), (0, 0),0
(-2.0, 14.335000000000337), (0, 0),0
(-1.0, 14.335000000000337), (0, 0),0
(0.0, 14.335000000000337), (0, 0),0
(1.0, 14.335000000000337), (0, 0),0
(2.0, 14.335000000000337), (0, 0),0
(3.0, 14.335000000000337), (0, 0),0
