(-3.0, 9.764999999999807), (0, 0),0
(-2.0, 9.764999999999807), (0, 0),0
(-1.0, 9.764999999999807), (0, 0),0
(0.0, 9.764999999999807), (0, 0),0
(1.0, 9.764999999999807), (0, 0),0
(2.0, 9.764999999999807), (0, 0),0
(3.0, 9.764999999999807), (0, 0),0
(-3.0, 10.764999999999807), (0, 0),0
(-2.0, 10.764999999999807), (0, 0),0
(-1.0, 10.764999999999807), (0, 0),0
(0.0, 10.764999999999807), (0, 0),0
(1.0, 10.764999999999807), (0, 0),0
(2.0, 10.764999999999807), (0, 0),0
(3.0, 10.764999999999807), (0, 0),0
(-3.0, 11.764999999999807), (0, 0),0
(-2.0, 11.764999999999807), (0, 0),0
(-1.0, 11.764999999999807), (0, 0),0
(0.0, 11.764999999999807), (0, 0),0
(1.0, 11.764999999999807), (0, 0),0
(2.0, 11.764999999999807), (0, 0),0
(3.0, 11.764999999999807), (0, 0),0
(-3.0, 12.764999999999807), (0, 0),0
(-2.0, 12.764999999999807), (0, 0),0
(-1.0, 12.764999999999807), (0, 0),0
(0.0, 12.764999999999807), (0, 0),0
(1.0, 12.764999999999807), (0, 0),0
(2.0, 12.764999999999807), (0, 0),0
(3.0, 12.764999999999807), (0, 0),0
(-3.0, 13.764999999999807), (0, 0),0
(-2.0, 13.764999999999807), (0, 0),0
(-1.0, 13.764999999999807), (0, 0),0
(0.0, 13.764999999999807), (0, 0),0
(1.0, 13.764999999999807), (0, 0),0
(2.0, 13.764999999999807), (0, 0),0
(3.0, 13.764999999999807), (0, 0),0
(-3.0, 14.764999999999807), (0, 0),0
(-2.0, 14.764999999999807), (0, 0),0
(-1.0, 14.764999999999807), (0, 0),0
(0.0, 14.764999999999807), (0, 0),0
(1.0, 14.764999999999807), (0, 0),0
(2.0, 14.764999999999807), (0, 0),0
(3.0, 14.764999999999807), (0, 0),0
(-3.0, 15.765000000000162), (0, 0),0
(-2.0, 15.765000000000162), (0, 0),0
(-1.0, 15.765000000000162), (0, 0),0
(0.0, 15.765000000000162), (0, 0),0
(1.0, 15.765000000000162), (0, 0),0
(2.0, 15.765000000000162), (0, 0),0
(3.0, 15.765000000000162), (0, 0),0
(-3.0, 16.765000000000246), (0, 0),0
(-2.0, 16.765000000000246), (0, 0),0
(-1.0, 16.765000000000246), (0, 0),0
(0.0, 16.765000000000246), (0, 0),0
(1.0, 16.765000000000246), (0, 0),0
(2.0, 16.765000000000246), (0, 0),0
(3.0, 16.765000000000246), (0, 0),0
(-3.0, 17.765000000000246), (0, 0),0
(-2.0, 17.765000000000246), (0, 0),0
(-1.0, 17.765000000000246), (0, 0),0
(0.0, 17.765000000000246), (0, 0),0
(1.0, 17.765000000000246), (0, 0),0
(2.0, 17.765000000000246), (0, 0),0
(3.0, 17.765000000000246), (0, 0),0
