(-3.000000000000042, 7.499999999999462), (0.0, -3.5527136788004694e-14),8.881784197001252e-15
(-2.000000000000042, 7.499999999999462), (0.0, -3.5527136788004694e-14),8.881784197001252e-15
(-1.0000000000000415, 7.499999999999462), (0.0, -3.5527136788004694e-14),8.881784197001252e-15
(-4.109523832340756e-14, 7.499999999999462), (0.0, -3.5527136788004694e-14),8.881784197001252e-15
(0.9999999999999591, 7.499999999999462), (0.0, -3.5527136788004694e-14),8.881784197001252e-15
(1.9999999999999596, 7.499999999999462), (0.0, -3.5527136788004694e-14),8.881784197001252e-15
(2.9999999999999596, 7.499999999999462), (0.0, -3.5527136788004694e-14),8.881784197001252e-15
(-3.000000000000042, 8.499999999999453), (0.0, 3.5527136788004694e-14),8.881784197001252e-15
(-2.000000000000042, 8.499999999999453), (0.0, 3.5527136788004694e-14),8.881784197001252e-15
(-1.0000000000000415, 8.499999999999453), (0.0, 3.5527136788004694e-14),8.881784197001252e-15
(-4.109523832340756e-14, 8.499999999999453), (0.0, 3.5527136788004694e-14),8.881784197001252e-15
(0.9999999999999591, 8.499999999999453), (0.0, 3.5527136788004694e-14),8.881784197001252e-15
(1.9999999999999596, 8.499999999999453), (0.0, 3.5527136788004694e-14),8.881784197001252e-15
(2.9999999999999596, 8.499999999999453), (0.0, 3.5527136788004694e-14),8.881784197001252e-15
(-3.0, 9.499999999999453), (0, 0),0
(-2.0, 9.499999999999453), (0, 0),0
(-1.0, 9.499999999999453), (0, 0),0
(0.0, 9.499999999999453), (0, 0),0
(1.0, 9.499999999999453), (0, 0),0
(2.0, 9.499999999999453), (0, 0),0
(3.0, 9.499999999999453), (0, 0),0
(-3.0, 10.499999999999453), (0, 0),0
(-2.0, 10.499999999999453), (0, 0),0
(-1.0, 10.499999999999453), (0, 0),0
(0.0, 10.499999999999453), (0, 0),0
(1.0, 10.499999999999453), (0, 0),0
(2.0, 10.499999999999453), (0, 0),0
(3.0, 10.499999999999453), (0, 0),0
(-3.0, 11.499999999999453), (0, 0),0
(-2.0, 11.499999999999453), (0, 0),0
(-1.0, 11.499999999999453), (0, 0),0
(0.0, 11.499999999999453), (0, 0),0
(1.0, 11.499999999999453), (0, 0),0
(2.0, 11.499999999999453), (0, 0),0
(3.0, 11.499999999999453), (0, 0),0
(-3.0, 12.499999999999453), (0, 0),0
(-2.0, 12.499999999999453), (0, 0),0
(-1.0, 12.499999999999453), (0, 0),0
(0.0, 12.499999999999453), (0, 0),0
(1.0, 12.499999999999453), (0, 0),0
(2.0, 12.499999999999453), (0, 0),0
(3.0, 12.499999999999453), (0, 0),0
(-3.0, 13.499999999999808), (0, 0),0
(-2.0, 13.499999999999808), (0, 0),0
(-1.0, 13.499999999999808), (0, 0),0
(0.0, 13.499999999999808), (0, 0),0
(1.0, 13.499999999999808), (0, 0),0
(2.0, 13.499999999999808), (0, 0),0
(3.0, 13.499999999999808), (0, 0),0
(-3.0, 14.500000000000163), (0, 0),0
(-2.0, 14.500000000000163), (0, 0),0
(-1.0, 14.500000000000163), (0, 0),0
(0.0, 14.500000000000163), (0, 0),0
(1.0, 14.500000000000163), (0, 0),0
(2.0, 14.500000000000163), (0, 0),0
(3.0, 14.500000000000163), (0, 0),0
(-3.0, 15.500000000000519), (0, 0),0
(-2.0, 15.500000000000519), (0, 0),0
(-1.0, 15.500000000000519), (0, 0),0
(0.0, 15.500000000000519), (0, 0),0
(1.0, 15.500000000000519), (0, 0),0
(2.0, 15.500000000000519), (0, 0),0
(3.0, 15.500000000000519), (0, 0),0
