(-3.0, 8.199999999999562), (0, 0),0
(-2.0, 8.199999999999562), (0, 0),0
(-1.0, 8.199999999999562), (0, 0),0
(0.0, 8.199999999999562), (0, 0),0
(1.0, 8.199999999999562), (0, 0),0
(2.0, 8.199999999999562), (0, 0),0
(3.0, 8.199999999999562), (0, 0),0
(-3.0, 9.199999999999562), (0, 0),0
(-2.0, 9.199999999999562), (0, 0),0
(-1.0, 9.199999999999562), (0, 0),0
(0.0, 9.199999999999562), (0, 0),0
(1.0, 9.199999999999562), (0, 0),0
(2.0, 9.199999999999562), (0, 0),0
(3.0, 9.199999999999562), (0, 0),0
(-3.0, 10.199999999999562), (0, 0),0
(-2.0, 10.199999999999562), (0, 0),0
(-1.0, 10.199999999999562), (0, 0),0
(0.0, 10.199999999999562), (0, 0),0
(1.0, 10.199999999999562), (0, 0),0
(2.0, 10.199999999999562), (0, 0),0
(3.0, 10.199999999999562), (0, 0),0
(-3.0, 11.199999999999562), (0, 0),0
(-2.0, 11.199999999999562), (0, 0),0
(-1.0, 11.199999999999562), (0, 0),0
(0.0, 11.199999999999562), (0, 0),0
(1.0, 11.199999999999562), (0, 0),0
(2.0, 11.199999999999562), (0, 0),0
(3.0, 11.199999999999562), (0, 0),0
(-3.0, 12.199999999999562), (0, 0),0
(-2.0, 12.199999999999562), (0, 0),0
(-1.0, 12.199999999999562), (0, 0),0
(0.0, 12.199999999999562), (0, 0),0
(1.0, 12.199999999999562), (0, 0),0
(2.0, 12.199999999999562), (0, 0),0
(3.0, 12.199999999999562), (0, 0),0
(-3.0, 13.199999999999562), (0, 0),0
(-2.0, 13.199999999999562), (0, 0),0
(-1.0, 13.199999999999562), (0, 0),0
(0.0, 13.199999999999562), (0, 0),0
(1.0, 13.199999999999562), (0, 0),0
(2.0, 13.199999999999562), (0, 0),0
(3.0, 13.199999999999562), (0, 0),0
(-3.0, 14.199999999999918), (0, 0),0
(-2.0, 14.199999999999918), (0, 0),0
(-1.0, 14.199999999999918), (0, 0),0
(0.0, 14.199999999999918), (0, 0),0
(1.0, 14.199999999999918), (0, 0),0
(2.0, 14.199999999999918), (0, 0),0
(3.0, 14.199999999999918), (0, 0),0
(-3.0, 15.200000000000273), (0, 0),0
(-2.0, 15.200000000000273), (0, 0),0
(-1.0, 15.200000000000273), (0, 0),0
(0.0, 15.200000000000273), (0, 0),0
(1.0, 15.200000000000273), (0, 0),0
(2.0, 15.200000000000273), (0, 0),0
(3.0, 15.200000000000273), (0, 0),0
(-3.0, 16.200000000000557), (0, 0),0
(-2.0, 16.200000000000557), (0, 0),0
(-1.0, 16.200000000000557), (0, 0),0
(0.0, 16.200000000000557), (0, 0),0
(1.0, 16.200000000000557), (0, 0),0
(2.0, 16.200000000000557), (0, 0),0
(3.0, 16.200000000000557), (0, 0),0
