(-1.4278817359547742, 4.3398384778424), (0, 0),0
(-1.9888909096557537, 5.880878840136533), (-0.005478399666576751, -0.001342227008335139),0.005519127384822964
(-0.9962702860329341, 5.941677718054541), (0.0003810576419124535, 0.0008363518823708203),0.010644305510393859
(-0.0017015315866673567, 5.966353695823995), (-0.0002070505444078611, 0.000986154092923824),0.010459383208285433
(0.9927095356332665, 5.9438442984764945), (0.0005364005908174065, 0.0006381196435767532),0.010133420490629264
(1.9862035910139688, 5.8855848479477775), (0.0047679919782547524, -0.0011183986105362585),0.004799215407914725
(1.4254960910340317, 4.341882209880134), (0, 0),0
(-3.0000000000001465, 7.299999999999274), (-1.743382600538436e-27, -3.5527136788004694e-14),8.881784197001252e-15
(-2.000000000000146, 7.299999999999274), (-1.7453547528014886e-27, -3.5527136788004694e-14),8.881784197001252e-15
(-1.0000000000001452, 7.299999999999274), (-1.7404243721438573e-27, -3.5527136788004694e-14),8.881784197001252e-15
(-1.4461243313945717e-13, 7.299999999999274), (-1.736928732257597e-27, -3.5527136788004694e-14),8.881784197001252e-15
(0.9999999999998557, 7.299999999999274), (-1.7374661437492785e-27, -3.5527136788004694e-14),8.881784197001252e-15
(1.9999999999998563, 7.299999999999274), (-1.7414104482753836e-27, -3.5527136788004694e-14),8.881784197001252e-15
(2.999999999999857, 7.299999999999274), (-1.735493991486226e-27, -3.5527136788004694e-14),8.881784197001252e-15
(-2.9999999999999503, 8.299999999999265), (1.743382600538436e-27, 3.5527136788004694e-14),8.881784197001252e-15
(-1.9999999999999496, 8.299999999999265), (1.7453547528014886e-27, 3.5527136788004694e-14),8.881784197001252e-15
(-0.9999999999999493, 8.299999999999265), (1.7404243721438573e-27, 3.5527136788004694e-14),8.881784197001252e-15
(5.09483566446534e-14, 8.299999999999265), (1.736928732257597e-27, 3.5527136788004694e-14),8.881784197001252e-15
(1.0000000000000513, 8.299999999999265), (1.7374661437492785e-27, 3.5527136788004694e-14),8.881784197001252e-15
(2.0000000000000524, 8.299999999999265), (1.7414104482753836e-27, 3.5527136788004694e-14),8.881784197001252e-15
(3.0000000000000524, 8.299999999999265), (1.735493991486226e-27, 3.5527136788004694e-14),8.881784197001252e-15
(-3.0, 9.299999999999265), (0, 0),0
(-2.0, 9.299999999999265), (0, 0),0
(-1.0, 9.299999999999265), (0, 0),0
(0.0, 9.299999999999265), (0, 0),0
(1.0, 9.299999999999265), (0, 0),0
(2.0, 9.299999999999265), (0, 0),0
(3.0, 9.299999999999265), (0, 0),0
(-3.0, 10.299999999999265), (0, 0),0
(-2.0, 10.299999999999265), (0, 0),0
(-1.0, 10.299999999999265), (0, 0),0
(0.0, 10.299999999999265), (0, 0),0
(1.0, 10.299999999999265), (0, 0),0
(2.0, 10.299999999999265), (0, 0),0
(3.0, 10.299999999999265), (0, 0),0
(-3.0, 11.299999999999265), (0, 0),0
(-2.0, 11.299999999999265), (0, 0),0
(-1.0, 11.299999999999265), (0, 0),0
(0.0, 11.299999999999265), (0, 0),0
(1.0, 11.299999999999265), (0, 0),0
(2.0, 11.299999999999265), (0, 0),0
(3.0, 11.299999999999265), (0, 0),0
(-3.0, 12.29999999999962), (0, 0),0
(-2.0, 12.29999999999962), (0, 0),0
(-1.0, 12.29999999999962), (0, 0),0
(0.0, 12.29999999999962), (0, 0),0
(1.0, 12.29999999999962), (0, 0),0
(2.0, 12.29999999999962), (0, 0),0
(3.0, 12.29999999999962), (0, 0),0
(-3.0, 13.299999999999976), (0, 0),0
(-2.0, 13.299999999999976), (0, 0),0
(-1.0, 13.299999999999976), (0, 0),0
(0.0, 13.299999999999976), (0, 0),0
(1.0, 13.299999999999976), (0, 0),0
(2.0, 13.299999999999976), (0, 0),0
(3.0, 13.299999999999976), (0, 0),0
(-3.0, 14.300000000000331), (0, 0),0
(-2.0, 14.300000000000331), (0, 0),0
(-1.0, 14.300000000000331), (0, 0),0
(0.0, 14.300000000000331), (0, 0),0
(1.0, 14.300000000000331), (0, 0),0
(2.0, 14.300000000000331), (0, 0),0
(3.0, 14.300000000000331), (0, 0),0
