(-0.5697539245427974, -1.428976117431921), (-0.002871578179136622, -0.9403246278365937),0.4657692856165674
(0.5007967845232613, -1.0434736801268505), (-0.03266391322055777, 0.01380239834709207),0.3466935056839927
(-0.9973288247526891, 4.954569231794437), (-0.004331294837958507, -0.00014323938892574315),0.004350368574705388
(-0.0017132203319011195, 4.962800683133905), (0.00030565679926619106, 0.00023019022509006835),0.00839240334790392
(0.9942302251290486, 4.957422770705932), (0.004025638038692316, -8.695083616432518e-05),0.004042034773198533
(-1.4473033620135463, -1.2214908182400657), (-0.08622404838638247, 0.08154627745438178),0.0982554881863924
(-0.3273259471756439, -0.8447950904968891), (-0.03377936884822967, 0.9766962862394186),0.5158915568012636
(-0.02549673762297955, 1.8473966055451636), (0, 0),0
(-1.9722824602888929, 6.184824482843458), (-0.013849290135728104, 0.00012141764954636662),0.014046631250057784
(-0.9863314597120726, 6.182663508311827), (0.0003214692592796043, -0.0014853031867111531),0.02776699700609142
(-0.000364968950006903, 6.2075149875182944), (0.0007656885698389872, 0.0027727664270340018),0.02665465337074635
(0.9863250356925855, 6.1802834744300394), (-0.0009661547823279423, -0.0016578079609991688),0.02685654500534762
(1.9723926469818345, 6.184753422516501), (0.013728287088937455, 0.0002489270711299537),0.013922257390634907
(1.285096122957518, -1.2095224390545323), (0.15553890863430653, -0.13172033420429882),0.19831574631290405
(-2.999999999999881, 7.489999999999148), (1.3726179750845605e-27, -3.5527136788004694e-14),8.881784197001252e-15
(-1.99999999999988, 7.489999999999148), (1.3805065841367707e-27, -3.5527136788004694e-14),8.881784197001252e-15
(-0.9999999999998798, 7.489999999999148), (1.3736040512160868e-27, -3.5527136788004694e-14),8.881784197001252e-15
(1.2034817586936702e-13, 7.489999999999148), (1.3715352634921456e-27, -3.5527136788004694e-14),8.881784197001252e-15
(1.0000000000001208, 7.489999999999148), (1.3736040512160868e-27, -3.5527136788004694e-14),8.881784197001252e-15
(2.000000000000122, 7.489999999999148), (1.3824787363998232e-27, -3.5527136788004694e-14),8.881784197001252e-15
(3.000000000000122, 7.489999999999148), (1.3765622796106656e-27, -3.5527136788004694e-14),8.881784197001252e-15
(-3.0000000000000355, 8.489999999999139), (-1.3726179750845605e-27, 3.5527136788004694e-14),8.881784197001252e-15
(-2.0000000000000355, 8.489999999999139), (-1.3805065841367707e-27, 3.5527136788004694e-14),8.881784197001252e-15
(-1.0000000000000344, 8.489999999999139), (-1.3736040512160868e-27, 3.5527136788004694e-14),8.881784197001252e-15
(-3.407296667035102e-14, 8.489999999999139), (-1.3715352634921456e-27, 3.5527136788004694e-14),8.881784197001252e-15
(0.9999999999999661, 8.489999999999139), (-1.3736040512160868e-27, 3.5527136788004694e-14),8.881784197001252e-15
(1.9999999999999665, 8.489999999999139), (-1.3824787363998232e-27, 3.5527136788004694e-14),8.881784197001252e-15
(2.999999999999967, 8.489999999999139), (-1.3765622796106656e-27, 3.5527136788004694e-14),8.881784197001252e-15
(-3.0, 9.489999999999139), (0, 0),0
(-2.0, 9.489999999999139), (0, 0),0
(-1.0, 9.489999999999139), (0, 0),0
(0.0, 9.489999999999139), (0, 0),0
(1.0, 9.489999999999139), (0, 0),0
(2.0, 9.489999999999139), (0, 0),0
(3.0, 9.489999999999139), (0, 0),0
(-3.0, 10.489999999999139), (0, 0),0
(-2.0, 10.489999999999139), (0, 0),0
(-1.0, 10.489999999999139), (0, 0),0
(0.0, 10.489999999999139), (0, 0),0
(1.0, 10.489999999999139), (0, 0),0
(2.0, 10.489999999999139), (0, 0),0
(3.0, 10.489999999999139), (0, 0),0
(-3.0, 11.489999999999494), (0, 0),0
(-2.0, 11.489999999999494), (0, 0),0
(-1.0, 11.489999999999494), (0, 0),0
(0.0, 11.489999999999494), (0, 0),0
(1.0, 11.489999999999494), (0, 0),0
(2.0, 11.489999999999494), (0, 0),0
(3.0, 11.489999999999494), (0, 0),0
(-3.0, 12.48999999999985), (0, 0),0
(-2.0, 12.48999999999985), (0, 0),0
(-1.0, 12.48999999999985), (0, 0),0
(0.0, 12.48999999999985), (0, 0),0
(1.0, 12.48999999999985), (0, 0),0
(2.0, 12.48999999999985), (0, 0),0
(3.0, 12.48999999999985), (0, 0),0
(-3.0, 13.490000000000204), (0, 0),0
(-2.0, 13.490000000000204), (0, 0),0
(-1.0, 13.490000000000204), (0, 0),0
(0.0, 13.490000000000204), (0, 0),0
(1.0, 13.490000000000204), (0, 0),0
(2.0, 13.490000000000204), (0, 0),0
(3.0, 13.490000000000204), (0, 0),0
