(-0.7671126831164453, 3.1618146155324642), (0, 0),0
(-1.802900615556866, 4.84172444327993), (3.5817612427054955, 2.911656929595356),4.87784187390794
(-0.9265698707761341, 5.2991180920729555), (-0.05345490445840331, 0.001446372069186564),0.07986628460805734
(0.0022979045887107953, 5.370641644298814), (-0.007709661574287416, 0.040490821887658096),0.14579527190403285
(0.9224065970520314, 5.303059182098506), (0.06000086161600169, 0.0024536175840778676),0.09023470382779242
(1.7980239763036152, 4.847192395169958), (0.16673489563277666, 0.7531160415873022),0.5484529892537228
(0.7647270381957029, 3.1638583475701982), (0, 0),0
(-1.5079247440299157, 4.483854698945639), (0.15817525956858633, -0.7676036607170199),0.536231179688657
(-1.8934757938969402, 6.537381881986176), (-0.049696596423705545, -0.01670045810456563),0.05264294806414649
(-0.9494443851097795, 6.6166919259649815), (0.004174262659037635, 0.010846184347272341),0.10047688892119544
(0.0022299479900324735, 6.647288786961594), (-0.004522663994181712, 0.012246523763753651),0.10069918078240814
(0.948882187334988, 6.617059802777064), (-0.00014241533929359312, 0.010333679457509244),0.10605578037483077
(1.892422385912568, 6.538446531871035), (0.050187413098143216, -0.01672592946396961),0.05319054044947158
(1.5076977842392723, 4.484770929692049), (-0.155507693490169, -0.7764966125454641),0.5356309480189955
(-2.9999999999999054, 7.7649999999991905), (9.38744477213004e-28, -3.5527136788004694e-14),8.881784197001252e-15
(-1.9999999999999045, 7.7649999999991905), (9.466330862652142e-28, -3.5527136788004694e-14),8.881784197001252e-15
(-0.9999999999999042, 7.7649999999991905), (9.397305533445303e-28, -3.5527136788004694e-14),8.881784197001252e-15
(9.592326932761358e-14, 7.7649999999991905), (9.376617656205888e-28, -3.5527136788004694e-14),8.881784197001252e-15
(1.0000000000000964, 7.7649999999991905), (9.397305533445303e-28, -3.5527136788004694e-14),8.881784197001252e-15
(2.0000000000000977, 7.7649999999991905), (9.486052385282667e-28, -3.5527136788004694e-14),8.881784197001252e-15
(3.0000000000000977, 7.7649999999991905), (9.426887817391091e-28, -3.5527136788004694e-14),8.881784197001252e-15
(-3.000000000000011, 8.764999999999182), (-9.38744477213004e-28, 3.5527136788004694e-14),8.881784197001252e-15
(-2.000000000000011, 8.764999999999182), (-9.466330862652142e-28, 3.5527136788004694e-14),8.881784197001252e-15
(-1.00000000000001, 8.764999999999182), (-9.397305533445303e-28, 3.5527136788004694e-14),8.881784197001252e-15
(-9.648060128597558e-15, 8.764999999999182), (-9.376617656205888e-28, 3.5527136788004694e-14),8.881784197001252e-15
(0.9999999999999906, 8.764999999999182), (-9.397305533445303e-28, 3.5527136788004694e-14),8.881784197001252e-15
(1.999999999999991, 8.764999999999182), (-9.486052385282667e-28, 3.5527136788004694e-14),8.881784197001252e-15
(2.9999999999999916, 8.764999999999182), (-9.426887817391091e-28, 3.5527136788004694e-14),8.881784197001252e-15
(-3.0, 9.764999999999182), (0, 0),0
(-2.0, 9.764999999999182), (0, 0),0
(-1.0, 9.764999999999182), (0, 0),0
(0.0, 9.764999999999182), (0, 0),0
(1.0, 9.764999999999182), (0, 0),0
(2.0, 9.764999999999182), (0, 0),0
(3.0, 9.764999999999182), (0, 0),0
(-3.0, 10.764999999999182), (0, 0),0
(-2.0, 10.764999999999182), (0, 0),0
(-1.0, 10.764999999999182), (0, 0),0
(0.0, 10.764999999999182), (0, 0),0
(1.0, 10.764999999999182), (0, 0),0
(2.0, 10.764999999999182), (0, 0),0
(3.0, 10.764999999999182), (0, 0),0
(-3.0, 11.764999999999537), (0, 0),0
(-2.0, 11.764999999999537), (0, 0),0
(-1.0, 11.764999999999537), (0, 0),0
(0.0, 11.764999999999537), (0, 0),0
(1.0, 11.764999999999537), (0, 0),0
(2.0, 11.764999999999537), (0, 0),0
(3.0, 11.764999999999537), (0, 0),0
(-3.0, 12.764999999999892), (0, 0),0
(-2.0, 12.764999999999892), (0, 0),0
(-1.0, 12.764999999999892), (0, 0),0
(0.0, 12.764999999999892), (0, 0),0
(1.0, 12.764999999999892), (0, 0),0
(2.0, 12.764999999999892), (0, 0),0
(3.0, 12.764999999999892), (0, 0),0
(-3.0, 13.765000000000247), (0, 0),0
(-2.0, 13.765000000000247), (0, 0),0
(-1.0, 13.765000000000247), (0, 0),0
(0.0, 13.765000000000247), (0, 0),0
(1.0, 13.765000000000247), (0, 0),0
(2.0, 13.765000000000247), (0, 0),0
(3.0, 13.765000000000247), (0, 0),0
