(-3.0, 9.424999999999754), (0, 0),0
(-2.0, 9.424999999999754), (0, 0),0
(-1.0, 9.424999999999754), (0, 0),0
(0.0, 9.424999999999754), (0, 0),0
(1.0, 9.424999999999754), (0, 0),0
(2.0, 9.424999999999754), (0, 0),0
(3.0, 9.424999999999754), (0, 0),0
(-3.0, 10.424999999999754), (0, 0),0
(-2.0, 10.424999999999754), (0, 0),0
(-1.0, 10.424999999999754), (0, 0),0
(0.0, 10.424999999999754), (0, 0),0
(1.0, 10.424999999999754), (0, 0),0
(2.0, 10.424999999999754), (0, 0),0
(3.0, 10.424999999999754), (0, 0),0
(-3.0, 11.424999999999754), (0, 0),0
(-2.0, 11.424999999999754), (0, 0),0
(-1.0, 11.424999999999754), (0, 0),0
(0.0, 11.424999999999754), (0, 0),0
(1.0, 11.424999999999754), (0, 0),0
(2.0, 11.424999999999754), (0, 0),0
(3.0, 11.424999999999754), (0, 0),0
(-3.0, 12.424999999999754), (0, 0),0
(-2.0, 12.424999999999754), (0, 0),0
(-1.0, 12.424999999999754), (0, 0),0
(0.0, 12.424999999999754), (0, 0),0
(1.0, 12.424999999999754), (0, 0),0
(2.0, 12.424999999999754), (0, 0),0
(3.0, 12.424999999999754), (0, 0),0
(-3.0, 13.424999999999754), (0, 0),0
(-2.0, 13.424999999999754), (0, 0),0
(-1.0, 13.424999999999754), (0, 0),0
(0.0, 13.424999999999754), (0, 0),0
(1.0, 13.424999999999754), (0, 0),0
(2.0, 13.424999999999754), (0, 0),0
(3.0, 13.424999999999754), (0, 0),0
(-3.0, 14.424999999999754), (0, 0),0
(-2.0, 14.424999999999754), (0, 0),0
(-1.0, 14.424999999999754), (0, 0),0
(0.0, 14.424999999999754), (0, 0),0
(1.0, 14.424999999999754), (0, 0),0
(2.0, 14.424999999999754), (0, 0),0
(3.0, 14.424999999999754), (0, 0),0
(-3.0, 15.425000000000109), (0, 0),0
(-2.0, 15.425000000000109), (0, 0),0
(-1.0, 15.425000000000109), (0, 0),0
(0.0, 15.425000000000109), (0, 0),0
(1.0, 15.425000000000109), (0, 0),0
(2.0, 15.425000000000109), (0, 0),0
(3.0, 15.425000000000109), (0, 0),0
(-3.0, 16.425000000000313), (0, 0),0
(-2.0, 16.425000000000313), (0, 0),0
(-1.0, 16.425000000000313), (0, 0),0
(0.0, 16.425000000000313), (0, 0),0
(1.0, 16.425000000000313), (0, 0),0
(2.0, 16.425000000000313), (0, 0),0
(3.0, 16.425000000000313), (0, 0),0
(-3.0, 17.425000000000313), (0, 0),0
(-2.0, 17.425000000000313), (0, 0),0
(-1.0, 17.425000000000313), (0, 0),0
(0.0, 17.425000000000313), (0, 0),0
(1.0, 17.425000000000313), (0, 0),0
(2.0, 17.425000000000313), (0, 0),0
(3.0, 17.425000000000313), (0, 0),0
