(-3.0, 10.444999999999913), (0, 0),0
(-2.0, 10.444999999999913), (0, 0),0
(-1.0, 10.444999999999913), (0, 0),0
(0.0, 10.444999999999913), (0, 0),0
(1.0, 10.444999999999913), (0, 0),0
(2.0, 10.444999999999913), (0, 0),0
(3.0, 10.444999999999913), (0, 0),0
(-3.0, 11.444999999999913), (0, 0),0
(-2.0, 11.444999999999913), (0, 0),0
(-1.0, 11.444999999999913), (0, 0),0
(0.0, 11.444999999999913), (0, 0),0
(1.0, 11.444999999999913), (0, 0),0
(2.0, 11.444999999999913), (0, 0),0
(3.0, 11.444999999999913), (0, 0),0
(-3.0, 12.444999999999913), (0, 0),0
(-2.0, 12.444999999999913), (0, 0),0
(-1.0, 12.444999999999913), (0, 0),0
(0.0, 12.444999999999913), (0, 0),0
(1.0, 12.444999999999913), (0, 0),0
(2.0, 12.444999999999913), (0, 0),0
(3.0, 12.444999999999913), (0, 0),0
(-3.0, 13.444999999999913), (0, 0),0
(-2.0, 13.444999999999913), (0, 0),0
(-1.0, 13.444999999999913), (0, 0),0
(0.0, 13.444999999999913), (0, 0),0
(1.0, 13.444999999999913), (0, 0),0
(2.0, 13.444999999999913), (0, 0),0
(3.0, 13.444999999999913), (0, 0),0
(-3.0, 14.444999999999913), (0, 0),0
(-2.0, 14.444999999999913), (0, 0),0
(-1.0, 14.444999999999913), (0, 0),0
(0.0, 14.444999999999913), (0, 0),0
(1.0, 14.444999999999913), (0, 0),0
(2.0, 14.444999999999913), (0, 0),0
(3.0, 14.444999999999913), (0, 0),0
(-3.0, 15.444999999999913), (0, 0),0
(-2.0, 15.444999999999913), (0, 0),0
(-1.0, 15.444999999999913), (0, 0),0
(0.0, 15.444999999999913), (0, 0),0
(1.0, 15.444999999999913), (0, 0),0
(2.0, 15.444999999999913), (0, 0),0
(3.0, 15.444999999999913), (0, 0),0
(-3.0, 16.44500000000011), (0, 0),0
(-2.0, 16.44500000000011), (0, 0),0
(-1.0, 16.44500000000011), (0, 0),0
(0.0, 16.44500000000011), (0, 0),0
(1.0, 16.44500000000011), (0, 0),0
(2.0, 16.44500000000011), (0, 0),0
(3.0, 16.44500000000011), (0, 0),0
(-3.0, 17.44500000000011), (0, 0),0
(-2.0, 17.44500000000011), (0, 0),0
(-1.0, 17.44500000000011), (0, 0),0
(0.0, 17.44500000000011), (0, 0),0
(1.0, 17.44500000000011), (0, 0),0
(2.0, 17.44500000000011), (0, 0),0
(3.0, 17.44500000000011), (0, 0),0
(-3.0, 18.44500000000011), (0, 0),0
(-2.0, 18.44500000000011), (0, 0),0
(-1.0, 18.44500000000011), (0, 0),0
(0.0, 18.44500000000011), (0, 0),0
(1.0, 18.44500000000011), (0, 0),0
(2.0, 18.44500000000011), (0, 0),0
(3.0, 18.44500000000011), (0, 0),0
