(-3.0, 10.159999999999869), (0, 0),0
(-2.0, 10.159999999999869), (0, 0),0
(-1.0, 10.159999999999869), (0, 0),0
(0.0, 10.159999999999869), (0, 0),0
(1.0, 10.159999999999869), (0, 0),0
(2.0, 10.159999999999869), (0, 0),0
(3.0, 10.159999999999869), (0, 0),0
(-3.0, 11.159999999999869), (0, 0),0
(-2.0, 11.159999999999869), (0, 0),0
(-1.0, 11.159999999999869), (0, 0),0
(0.0, 11.159999999999869), (0, 0),0
(1.0, 11.159999999999869), (0, 0),0
(2.0, 11.159999999999869), (0, 0),0
(3.0, 11.159999999999869), (0, 0),0
(-3.0, 12.159999999999869), (0, 0),0
(-2.0, 12.159999999999869), (0, 0),0
(-1.0, 12.159999999999869), (0, 0),0
(0.0, 12.159999999999869), (0, 0),0
(1.0, 12.159999999999869), (0, 0),0
(2.0, 12.159999999999869), (0, 0),0
(3.0, 12.159999999999869), (0, 0),0
(-3.0, 13.159999999999869), (0, 0),0
(-2.0, 13.159999999999869), (0, 0),0
(-1.0, 13.159999999999869), (0, 0),0
(0.0, 13.159999999999869), (0, 0),0
(1.0, 13.159999999999869), (0, 0),0
(2.0, 13.159999999999869), (0, 0),0
(3.0, 13.159999999999869), (0, 0),0
(-3.0, 14.159999999999869), (0, 0),0
(-2.0, 14.159999999999869), (0, 0),0
(-1.0, 14.159999999999869), (0, 0),0
(0.0, 14.159999999999869), (0, 0),0
(1.0, 14.159999999999869), (0, 0),0
(2.0, 14.159999999999869), (0, 0),0
(3.0, 14.159999999999869), (0, 0),0
(-3.0, 15.159999999999869), (0, 0),0
(-2.0, 15.159999999999869), (0, 0),0
(-1.0, 15.159999999999869), (0, 0),0
(0.0, 15.159999999999869), (0, 0),0
(1.0, 15.159999999999869), (0, 0),0
(2.0, 15.159999999999869), (0, 0),0
(3.0, 15.159999999999869), (0, 0),0
(-3.0, 16.160000000000167), (0, 0),0
(-2.0, 16.160000000000167), (0, 0),0
(-1.0, 16.160000000000167), (0, 0),0
(0.0, 16.160000000000167), (0, 0),0
(1.0, 16.160000000000167), (0, 0),0
(2.0, 16.160000000000167), (0, 0),0
(3.0, 16.160000000000167), (0, 0),0
(-3.0, 17.160000000000167), (0, 0),0
(-2.0, 17.160000000000167), (0, 0),0
(-1.0, 17.160000000000167), (0, 0),0
(0.0, 17.160000000000167), (0, 0),0
(1.0, 17.160000000000167), (0, 0),0
(2.0, 17.160000000000167), (0, 0),0
(3.0, 17.160000000000167), (0, 0),0
(-3.0, 18.160000000000167), (0, 0),0
(-2.0, 18.160000000000167), (0, 0),0
(-1.0, 18.160000000000167), (0, 0),0
(0.0, 18.160000000000167), (0, 0),0
(1.0, 18.160000000000167), (0, 0),0
(2.0, 18.160000000000167), (0, 0),0
(3.0, 18.160000000000167), (0, 0),0
