(-1.2355647097623466, -3.2533768939249876), (-2.6408239581422364e-06, -0.0007839505789453021),0.00024893259829206205
(0.5700668550689362, -2.52252738802861), (2.957261023432483e-05, 3.081462023257208e-05),0.00017290452625084995
(-0.08559532586270874, 1.979809976996107), (0, 0),0
(-0.01038841635051687, 3.3657014356183987), (0, 0),0
(0.06473040058772245, 0.43309006750672097), (-3.741286328734227, 2.6793691154908945),4.482091571955776
(-1.664965949874582, -2.350441478948629), (-6.918455472156467e-05, 0.0005819189959595142),0.0001611186653850405
(-0.4176378011047366, -2.6782073954818952), (-2.8553949482846075e-05, 0.0001387452373810578),0.00018944282321864403
(0.06511080115466523, -1.1161001363691818), (-0.03702206736785761, -1.1371944194802814),0.4674253111869654
(-0.71390270044813, -0.5755114214416004), (-0.22833539792868002, -0.0574219100337314),0.3124194267590896
(-0.9883354288627365, 5.017961566464199), (-0.01036628814001112, -0.0002707766505618996),0.010476261215668026
(0.0011672120706116339, 5.024423238357148), (-0.0013580991834636364, 0.0008129990113166907),0.022342233446539628
(0.9892352013898109, 5.0129993459401385), (0.011724387323474757, -0.000542222360754791),0.011865972230871602
(0.007390244006289633, -0.4130046232665693), (0.06857911816238652, 0.6163162564847937),0.8190682687127953
(1.563487916770874, -2.4086324892168873), (7.080671792822815e-05, 3.247172537215795e-05),7.127563593922748e-05
(0.8444209183497967, -0.7097118059614891), (0.04074267505785098, 0.16545034200514905),1.050065183484821
(-1.9606228439350637, 6.275043519774075), (-0.017125044299412945, -0.0005610935132805254),0.017429402872661703
(-0.9780852077046309, 6.283091608360067), (-0.005491449583903837, -0.0021120468264369746),0.04059228724917252
(-0.001674260100373246, 6.311943156987019), (0.002482663112312475, 0.0049204528242006666),0.04372745396155642
(0.9773800637812935, 6.284622958584746), (0.002809852334205821, -0.0016342088046152885),0.03820024305044334
(1.9597059426760906, 6.27593171578828), (0.017323978436798487, -0.0006131036798678777),0.01763567346539774
(1.024734111763435, -0.740755765302609), (0.1473220008105271, -0.10145587500572809),0.8170339508799591
(-3.0000000000001155, 7.564999999999003), (-1.2582331438275138e-27, -3.5527136788004694e-14),8.881784197001252e-15
(-2.0000000000001155, 7.564999999999003), (-1.2641496006166714e-27, -3.5527136788004694e-14),8.881784197001252e-15
(-1.0000000000001141, 7.564999999999003), (-1.255274915432935e-27, -3.5527136788004694e-14),8.881784197001252e-15
(-1.1368683772161608e-13, 7.564999999999003), (-1.2532061277089937e-27, -3.5527136788004694e-14),8.881784197001252e-15
(0.9999999999998864, 7.564999999999003), (-1.255274915432935e-27, -3.5527136788004694e-14),8.881784197001252e-15
(1.9999999999998868, 7.564999999999003), (-1.2621774483536189e-27, -3.5527136788004694e-14),8.881784197001252e-15
(2.9999999999998876, 7.564999999999003), (-1.2542888393014088e-27, -3.5527136788004694e-14),8.881784197001252e-15
(-2.999999999999974, 8.564999999998994), (1.2582331438275138e-27, 3.5527136788004694e-14),8.881784197001252e-15
(-1.9999999999999731, 8.564999999998994), (1.2641496006166714e-27, 3.5527136788004694e-14),8.881784197001252e-15
(-0.9999999999999728, 8.564999999998994), (1.255274915432935e-27, 3.5527136788004694e-14),8.881784197001252e-15
(2.741162852260008e-14, 8.564999999998994), (1.2532061277089937e-27, 3.5527136788004694e-14),8.881784197001252e-15
(1.0000000000000278, 8.564999999998994), (1.255274915432935e-27, 3.5527136788004694e-14),8.881784197001252e-15
(2.000000000000029, 8.564999999998994), (1.2621774483536189e-27, 3.5527136788004694e-14),8.881784197001252e-15
(3.000000000000029, 8.564999999998994), (1.2542888393014088e-27, 3.5527136788004694e-14),8.881784197001252e-15
(-3.0, 9.564999999998994), (0, 0),0
(-2.0, 9.564999999998994), (0, 0),0
(-1.0, 9.564999999998994), (0, 0),0
(0.0, 9.564999999998994), (0, 0),0
(1.0, 9.564999999998994), (0, 0),0
(2.0, 9.564999999998994), (0, 0),0
(3.0, 9.564999999998994), (0, 0),0
(-3.0, 10.56499999999935), (0, 0),0
(-2.0, 10.56499999999935), (0, 0),0
(-1.0, 10.56499999999935), (0, 0),0
(0.0, 10.56499999999935), (0, 0),0
(1.0, 10.56499999999935), (0, 0),0
(2.0, 10.56499999999935), (0, 0),0
(3.0, 10.56499999999935), (0, 0),0
(-3.0, 11.564999999999705), (0, 0),0
(-2.0, 11.564999999999705), (0, 0),0
(-1.0, 11.564999999999705), (0, 0),0
(0.0, 11.564999999999705), (0, 0),0
(1.0, 11.564999999999705), (0, 0),0
(2.0, 11.564999999999705), (0, 0),0
(3.0, 11.564999999999705), (0, 0),0
(-3.0, 12.56500000000006), (0, 0),0
(-2.0, 12.56500000000006), (0, 0),0
(-1.0, 12.56500000000006), (0, 0),0
(0.0, 12.56500000000006), (0, 0),0
(1.0, 12.56500000000006), (0, 0),0
(2.0, 12.56500000000006), (0, 0),0
(3.0, 12.56500000000006), (0, 0),0
