(-1.2061107089103684, -2.6762063358403574), (-0.006889806752967889, -0.08353944374671406),0.02931210891958025
(0.5673381045911654, -1.9526531239777198), (0.0029485016704062054, 0.005082938171739384),0.031111092762685644
(-1.001416526750118, 4.565559508976778), (-7.106436549872513e-05, -1.1729836985783064e-06),7.107002148132313e-05
(-0.0014961099904226692, 4.56968566397902), (-9.201643017643128e-06, 1.614303893838918e-06),0.00015134254950377457
(0.9984226728579091, 4.568311220548208), (8.026600851636825e-05, -4.4132019526061145e-07),8.027252802245144e-05
(-1.646248557395672, -1.793211771397114), (-0.0058931258390814015, 0.04729062134871281),0.013389273063796003
(-0.403305686750596, -2.1070736963043974), (-0.0038631342288278237, 0.025655872900370774),0.03307234731339792
(-0.02549673762297955, -0.2523336939480241), (0, 0),0
(-1.9952922673123163, 5.777287602347267), (-0.0019089588962038636, 0.00020062097581944845),0.0019132782960659123
(-0.9975498583125019, 5.751073306153142), (0.0001241264658020094, -0.00036736458121634113),0.0037017962570218277
(0.00038947993597092823, 5.774380816762061), (-0.0003003413317903467, 0.00038641295949633025),0.0038787839903735577
(0.9979532985342859, 5.748107922426138), (0.00021669371865421926, -0.0004358436795659799),0.003963034745647853
(1.9956632812699746, 5.776965506866903), (0.0018684800435379817, 0.00021617432546654238),0.001872768716230211
(1.548427914632586, -1.853989312094724), (0.013697565150470908, 0.0055100113258910914),0.013961581305071968
(-2.999999999999847, 7.104999999999087), (1.9800408721047396e-27, -3.5527136788004694e-14),8.881784197001252e-15
(-1.999999999999846, 7.104999999999087), (1.9879294811569497e-27, -3.5527136788004694e-14),8.881784197001252e-15
(-0.9999999999998456, 7.104999999999087), (1.981026948236266e-27, -3.5527136788004694e-14),8.881784197001252e-15
(1.5454304502782184e-13, 7.104999999999087), (1.978958160512325e-27, -3.5527136788004694e-14),8.881784197001252e-15
(1.000000000000155, 7.104999999999087), (1.981026948236266e-27, -3.5527136788004694e-14),8.881784197001252e-15
(2.0000000000001563, 7.104999999999087), (1.9899016334200023e-27, -3.5527136788004694e-14),8.881784197001252e-15
(3.0000000000001563, 7.104999999999087), (1.9839851766308447e-27, -3.5527136788004694e-14),8.881784197001252e-15
(-3.0000000000000697, 8.104999999999078), (-1.9800408721047396e-27, 3.5527136788004694e-14),8.881784197001252e-15
(-2.0000000000000697, 8.104999999999078), (-1.9879294811569497e-27, 3.5527136788004694e-14),8.881784197001252e-15
(-1.0000000000000686, 8.104999999999078), (-1.981026948236266e-27, 3.5527136788004694e-14),8.881784197001252e-15
(-6.826783582880584e-14, 8.104999999999078), (-1.978958160512325e-27, 3.5527136788004694e-14),8.881784197001252e-15
(0.9999999999999319, 8.104999999999078), (-1.981026948236266e-27, 3.5527136788004694e-14),8.881784197001252e-15
(1.9999999999999323, 8.104999999999078), (-1.9899016334200023e-27, 3.5527136788004694e-14),8.881784197001252e-15
(2.999999999999933, 8.104999999999078), (-1.9839851766308447e-27, 3.5527136788004694e-14),8.881784197001252e-15
(-3.0, 9.104999999999078), (0, 0),0
(-2.0, 9.104999999999078), (0, 0),0
(-1.0, 9.104999999999078), (0, 0),0
(0.0, 9.104999999999078), (0, 0),0
(1.0, 9.104999999999078), (0, 0),0
(2.0, 9.104999999999078), (0, 0),0
(3.0, 9.104999999999078), (0, 0),0
(-3.0, 10.104999999999078), (0, 0),0
(-2.0, 10.104999999999078), (0, 0),0
(-1.0, 10.104999999999078), (0, 0),0
(0.0, 10.104999999999078), (0, 0),0
(1.0, 10.104999999999078), (0, 0),0
(2.0, 10.104999999999078), (0, 0),0
(3.0, 10.104999999999078), (0, 0),0
(-3.0, 11.104999999999434), (0, 0),0
(-2.0, 11.104999999999434), (0, 0),0
(-1.0, 11.104999999999434), (0, 0),0
(0.0, 11.104999999999434), (0, 0),0
(1.0, 11.104999999999434), (0, 0),0
(2.0, 11.104999999999434), (0, 0),0
(3.0, 11.104999999999434), (0, 0),0
(-3.0, 12.104999999999789), (0, 0),0
(-2.0, 12.104999999999789), (0, 0),0
(-1.0, 12.104999999999789), (0, 0),0
(0.0, 12.104999999999789), (0, 0),0
(1.0, 12.104999999999789), (0, 0),0
(2.0, 12.104999999999789), (0, 0),0
(3.0, 12.104999999999789), (0, 0),0
(-3.0, 13.105000000000144), (0, 0),0
(-2.0, 13.105000000000144), (0, 0),0
(-1.0, 13.105000000000144), (0, 0),0
(0.0, 13.105000000000144), (0, 0),0
(1.0, 13.105000000000144), (0, 0),0
(2.0, 13.105000000000144), (0, 0),0
(3.0, 13.105000000000144), (0, 0),0
