(-3.0, 8.169999999999558), (0, 0),0
(-2.0, 8.169999999999558), (0, 0),0
(-1.0, 8.169999999999558), (0, 0),0
(0.0, 8.169999999999558), (0, 0),0
(1.0, 8.169999999999558), (0, 0),0
(2.0, 8.169999999999558), (0, 0),0
(3.0, 8.169999999999558), (0, 0),0
(-3.0, 9.169999999999558), (0, 0),0
(-2.0, 9.169999999999558), (0, 0),0
(-1.0, 9.169999999999558), (0, 0),0
(0.0, 9.169999999999558), (0, 0),0
(1.0, 9.169999999999558), (0, 0),0
(2.0, 9.169999999999558), (0, 0),0
(3.0, 9.169999999999558), (0, 0),0
(-3.0, 10.169999999999558), (0, 0),0
(-2.0, 10.169999999999558), (0, 0),0
(-1.0, 10.169999999999558), (0, 0),0
(0.0, 10.169999999999558), (0, 0),0
(1.0, 10.169999999999558), (0, 0),0
(2.0, 10.169999999999558), (0, 0),0
(3.0, 10.169999999999558), (0, 0),0
(-3.0, 11.169999999999558), (0, 0),0
(-2.0, 11.169999999999558), (0, 0),0
(-1.0, 11.169999999999558), (0, 0),0
(0.0, 11.169999999999558), (0, 0),0
(1.0, 11.169999999999558), (0, 0),0
(2.0, 11.169999999999558), (0, 0),0
(3.0, 11.169999999999558), (0, 0),0
(-3.0, 12.169999999999558), (0, 0),0
(-2.0, 12.169999999999558), (0, 0),0
(-1.0, 12.169999999999558), (0, 0),0
(0.0, 12.169999999999558), (0, 0),0
(1.0, 12.169999999999558), (0, 0),0
(2.0, 12.169999999999558), (0, 0),0
(3.0, 12.169999999999558), (0, 0),0
(-3.0, 13.169999999999558), (0, 0),0
(-2.0, 13.169999999999558), (0, 0),0
(-1.0, 13.169999999999558), (0, 0),0
(0.0, 13.169999999999558), (0, 0),0
(1.0, 13.169999999999558), (0, 0),0
(2.0, 13.169999999999558), (0, 0),0
(3.0, 13.169999999999558), (0, 0),0
(-3.0, 14.169999999999913), (0, 0),0
(-2.0, 14.169999999999913), (0, 0),0
(-1.0, 14.169999999999913), (0, 0),0
(0.0, 14.169999999999913), (0, 0),0
(1.0, 14.169999999999913), (0, 0),0
(2.0, 14.169999999999913), (0, 0),0
(3.0, 14.169999999999913), (0, 0),0
(-3.0, 15.170000000000268), (0, 0),0
(-2.0, 15.170000000000268), (0, 0),0
(-1.0, 15.170000000000268), (0, 0),0
(0.0, 15.170000000000268), (0, 0),0
(1.0, 15.170000000000268), (0, 0),0
(2.0, 15.170000000000268), (0, 0),0
(3.0, 15.170000000000268), (0, 0),0
(-3.0, 16.170000000000563), (0, 0),0
(-2.0, 16.170000000000563), (0, 0),0
(-1.0, 16.170000000000563), (0, 0),0
(0.0, 16.170000000000563), (0, 0),0
(1.0, 16.170000000000563), (0, 0),0
(2.0, 16.170000000000563), (0, 0),0
(3.0, 16.170000000000563), (0, 0),0
