(-1.1525900787651946, -2.5150192134352154), (-0.02123604946349153, -0.20877058100261436),0.0767880194159869
(0.5630041771934551, -1.7932492358311392), (-0.0031155013447274546, 0.010892459995023961),0.07622330556964263
(-1.001266306922856, 4.670706833329413), (-0.0002360664326761743, -4.037956956580114e-06),0.00023612434580888575
(-0.0015115723253416472, 4.674982077526223), (1.9327553973434806e-05, 5.357433556550392e-06),0.00045291047176065913
(0.9982704836119263, 4.67346044348002), (0.0002167388787027395, -1.3194765999702779e-06),0.00021678612595177338
(-1.6238292921059938, -1.6675319480149673), (-0.014282685864551975, 0.10274522190454226),0.030308780466923424
(-0.3884051193907858, -1.944735784234357), (0.0006913600764338404, 0.08384403761739492),0.08308532990975437
(-0.02549673762297955, -0.147333693948024), (0, 0),0
(-1.9925855362199894, 5.884936156057272), (-0.0033488276757845307, 0.00031543453050907896),0.0033610527091225695
(-0.9962227994217409, 5.861473675860745), (-2.1590709581404636e-05, -0.0006324214287385886),0.006743845897026146
(0.00011903945215433631, 5.8849000930714555), (0.00020624915529192335, 0.0006514365235609382),0.006558149833829963
(0.9965958396671077, 5.858568434723685), (-0.00012366440666883262, -0.0006782405561517461),0.006475202459237939
(1.992955616078402, 5.884614419162826), (0.0032878336367428446, 0.0003437909308203175),0.0032998458133115527
(1.5207412864490792, -1.7220121385422347), (0.03794287659633712, 0.011288861485653211),0.039617214608951734
(-2.999999999999856, 7.209999999999104), (1.814380082008327e-27, -3.5527136788004694e-14),8.881784197001252e-15
(-1.9999999999998552, 7.209999999999104), (1.8222686910605373e-27, -3.5527136788004694e-14),8.881784197001252e-15
(-0.9999999999998549, 7.209999999999104), (1.8153661581398534e-27, -3.5527136788004694e-14),8.881784197001252e-15
(1.4521717162097053e-13, 7.209999999999104), (1.8132973704159124e-27, -3.5527136788004694e-14),8.881784197001252e-15
(1.0000000000001457, 7.209999999999104), (1.8153661581398534e-27, -3.5527136788004694e-14),8.881784197001252e-15
(2.000000000000147, 7.209999999999104), (1.8242408433235898e-27, -3.5527136788004694e-14),8.881784197001252e-15
(3.000000000000147, 7.209999999999104), (1.8183243865344322e-27, -3.5527136788004694e-14),8.881784197001252e-15
(-3.0000000000000604, 8.209999999999095), (-1.814380082008327e-27, 3.5527136788004694e-14),8.881784197001252e-15
(-2.0000000000000604, 8.209999999999095), (-1.8222686910605373e-27, 3.5527136788004694e-14),8.881784197001252e-15
(-1.0000000000000593, 8.209999999999095), (-1.8153661581398534e-27, 3.5527136788004694e-14),8.881784197001252e-15
(-5.894196242195453e-14, 8.209999999999095), (-1.8132973704159124e-27, 3.5527136788004694e-14),8.881784197001252e-15
(0.9999999999999413, 8.209999999999095), (-1.8153661581398534e-27, 3.5527136788004694e-14),8.881784197001252e-15
(1.9999999999999416, 8.209999999999095), (-1.8242408433235898e-27, 3.5527136788004694e-14),8.881784197001252e-15
(2.9999999999999423, 8.209999999999095), (-1.8183243865344322e-27, 3.5527136788004694e-14),8.881784197001252e-15
(-3.0, 9.209999999999095), (0, 0),0
(-2.0, 9.209999999999095), (0, 0),0
(-1.0, 9.209999999999095), (0, 0),0
(0.0, 9.209999999999095), (0, 0),0
(1.0, 9.209999999999095), (0, 0),0
(2.0, 9.209999999999095), (0, 0),0
(3.0, 9.209999999999095), (0, 0),0
(-3.0, 10.209999999999095), (0, 0),0
(-2.0, 10.209999999999095), (0, 0),0
(-1.0, 10.209999999999095), (0, 0),0
(0.0, 10.209999999999095), (0, 0),0
(1.0, 10.209999999999095), (0, 0),0
(2.0, 10.209999999999095), (0, 0),0
(3.0, 10.209999999999095), (0, 0),0
(-3.0, 11.20999999999945), (0, 0),0
(-2.0, 11.20999999999945), (0, 0),0
(-1.0, 11.20999999999945), (0, 0),0
(0.0, 11.20999999999945), (0, 0),0
(1.0, 11.20999999999945), (0, 0),0
(2.0, 11.20999999999945), (0, 0),0
(3.0, 11.20999999999945), (0, 0),0
(-3.0, 12.209999999999805), (0, 0),0
(-2.0, 12.209999999999805), (0, 0),0
(-1.0, 12.209999999999805), (0, 0),0
(0.0, 12.209999999999805), (0, 0),0
(1.0, 12.209999999999805), (0, 0),0
(2.0, 12.209999999999805), (0, 0),0
(3.0, 12.209999999999805), (0, 0),0
(-3.0, 13.21000000000016), (0, 0),0
(-2.0, 13.21000000000016), (0, 0),0
(-1.0, 13.21000000000016), (0, 0),0
(0.0, 13.21000000000016), (0, 0),0
(1.0, 13.21000000000016), (0, 0),0
(2.0, 13.21000000000016), (0, 0),0
(3.0, 13.21000000000016), (0, 0),0
