(-3.0, 8.82999999999966), (0, 0),0
(-2.0, 8.82999999999966), (0, 0),0
(-1.0, 8.82999999999966), (0, 0),0
(0.0, 8.82999999999966), (0, 0),0
(1.0, 8.82999999999966), (0, 0),0
(2.0, 8.82999999999966), (0, 0),0
(3.0, 8.82999999999966), (0, 0),0
(-3.0, 9.82999999999966), (0, 0),0
(-2.0, 9.82999999999966), (0, 0),0
(-1.0, 9.82999999999966), (0, 0),0
(0.0, 9.82999999999966), (0, 0),0
(1.0, 9.82999999999966), (0, 0),0
(2.0, 9.82999999999966), (0, 0),0
(3.0, 9.82999999999966), (0, 0),0
(-3.0, 10.82999999999966), (0, 0),0
(-2.0, 10.82999999999966), (0, 0),0
(-1.0, 10.82999999999966), (0, 0),0
(0.0, 10.82999999999966), (0, 0),0
(1.0, 10.82999999999966), (0, 0),0
(2.0, 10.82999999999966), (0, 0),0
(3.0, 10.82999999999966), (0, 0),0
(-3.0, 11.82999999999966), (0, 0),0
(-2.0, 11.82999999999966), (0, 0),0
(-1.0, 11.82999999999966), (0, 0),0
(0.0, 11.82999999999966), (0, 0),0
(1.0, 11.82999999999966), (0, 0),0
(2.0, 11.82999999999966), (0, 0),0
(3.0, 11.82999999999966), (0, 0),0
(-3.0, 12.82999999999966), (0, 0),0
(-2.0, 12.82999999999966), (0, 0),0
(-1.0, 12.82999999999966), (0, 0),0
(0.0, 12.82999999999966), (0, 0),0
(1.0, 12.82999999999966), (0, 0),0
(2.0, 12.82999999999966), (0, 0),0
(3.0, 12.82999999999966), (0, 0),0
(-3.0, 13.82999999999966), (0, 0),0
(-2.0, 13.82999999999966), (0, 0),0
(-1.0, 13.82999999999966), (0, 0),0
(0.0, 13.82999999999966), (0, 0),0
(1.0, 13.82999999999966), (0, 0),0
(2.0, 13.82999999999966), (0, 0),0
(3.0, 13.82999999999966), (0, 0),0
(-3.0, 14.830000000000016), (0, 0),0
(-2.0, 14.830000000000016), (0, 0),0
(-1.0, 14.830000000000016), (0, 0),0
(0.0, 14.830000000000016), (0, 0),0
(1.0, 14.830000000000016), (0, 0),0
(2.0, 14.830000000000016), (0, 0),0
(3.0, 14.830000000000016), (0, 0),0
(-3.0, 15.830000000000371), (0, 0),0
(-2.0, 15.830000000000371), (0, 0),0
(-1.0, 15.830000000000371), (0, 0),0
(0.0, 15.830000000000371), (0, 0),0
(1.0, 15.830000000000371), (0, 0),0
(2.0, 15.830000000000371), (0, 0),0
(3.0, 15.830000000000371), (0, 0),0
(-3.0, 16.83000000000043), (0, 0),0
(-2.0, 16.83000000000043), (0, 0),0
(-1.0, 16.83000000000043), (0, 0),0
(0.0, 16.83000000000043), (0, 0),0
(1.0, 16.83000000000043), (0, 0),0
(2.0, 16.83000000000043), (0, 0),0
(3.0, 16.83000000000043), (0, 0),0
