(-0.987369034062555, 3.5361559029691096), (0, 0),0
(-1.9984893193828326, 5.496425623237173), (-0.0009211145528567807, -0.000188202938526704),0.000923167689561688
(-1.0007133321251787, 5.547392240855707), (-3.1280364470554606e-05, 9.259604081848948e-05),0.0018767718446913717
(-0.001981403154277691, 5.57245685943825), (0.0001227283117301056, 0.00016600405763130221),0.0017841472038219175
(0.9969633317437097, 5.551266759769746), (2.1308280207903477e-05, 8.927622281384866e-05),0.0016405424967844695
(1.9949372529522058, 5.501984817938486), (0.0008083583253893262, -0.00015967338273693634),0.0008099994480922357
(0.9849833891418126, 3.5381996350068436), (0, 0),0
(-3.00000000000018, 6.924999999999216), (3.75, 2.165063509461061),4.3301270189222025
(-2.0000000000001794, 6.924999999999216), (-2.3370004317172475e-27, -3.5527136788004694e-14),8.881784197001252e-15
(-1.0000000000001785, 6.924999999999216), (-2.332070051059616e-27, -3.5527136788004694e-14),8.881784197001252e-15
(-1.7791912387821186e-13, 6.924999999999216), (-2.328574411173356e-27, -3.5527136788004694e-14),8.881784197001252e-15
(0.9999999999998224, 6.924999999999216), (-2.3291118226650374e-27, -3.5527136788004694e-14),8.881784197001252e-15
(1.999999999999823, 6.924999999999216), (-2.3330561271911424e-27, -3.5527136788004694e-14),8.881784197001252e-15
(2.9999999999998237, 6.924999999999216), (-3.75, 2.165063509461061),4.3301270189222025
(-2.999999999999917, 7.924999999999207), (2.335028279454195e-27, 3.5527136788004694e-14),8.881784197001252e-15
(-1.9999999999999163, 7.924999999999207), (2.3370004317172475e-27, 3.5527136788004694e-14),8.881784197001252e-15
(-0.999999999999916, 7.924999999999207), (2.332070051059616e-27, 3.5527136788004694e-14),8.881784197001252e-15
(8.42550473834081e-14, 7.924999999999207), (2.328574411173356e-27, 3.5527136788004694e-14),8.881784197001252e-15
(1.0000000000000846, 7.924999999999207), (2.3291118226650374e-27, 3.5527136788004694e-14),8.881784197001252e-15
(2.0000000000000857, 7.924999999999207), (2.3330561271911424e-27, 3.5527136788004694e-14),8.881784197001252e-15
(3.0000000000000857, 7.924999999999207), (2.327139670401985e-27, 3.5527136788004694e-14),8.881784197001252e-15
(-3.0, 8.924999999999207), (0, 0),0
(-2.0, 8.924999999999207), (0, 0),0
(-1.0, 8.924999999999207), (0, 0),0
(0.0, 8.924999999999207), (0, 0),0
(1.0, 8.924999999999207), (0, 0),0
(2.0, 8.924999999999207), (0, 0),0
(3.0, 8.924999999999207), (0, 0),0
(-3.0, 9.924999999999207), (0, 0),0
(-2.0, 9.924999999999207), (0, 0),0
(-1.0, 9.924999999999207), (0, 0),0
(0.0, 9.924999999999207), (0, 0),0
(1.0, 9.924999999999207), (0, 0),0
(2.0, 9.924999999999207), (0, 0),0
(3.0, 9.924999999999207), (0, 0),0
(-3.0, 10.924999999999207), (0, 0),0
(-2.0, 10.924999999999207), (0, 0),0
(-1.0, 10.924999999999207), (0, 0),0
(0.0, 10.924999999999207), (0, 0),0
(1.0, 10.924999999999207), (0, 0),0
(2.0, 10.924999999999207), (0, 0),0
(3.0, 10.924999999999207), (0, 0),0
(-3.0, 11.924999999999562), (0, 0),0
(-2.0, 11.924999999999562), (0, 0),0
(-1.0, 11.924999999999562), (0, 0),0
(0.0, 11.924999999999562), (0, 0),0
(1.0, 11.924999999999562), (0, 0),0
(2.0, 11.924999999999562), (0, 0),0
(3.0, 11.924999999999562), (0, 0),0
(-3.0, 12.924999999999917), (0, 0),0
(-2.0, 12.924999999999917), (0, 0),0
(-1.0, 12.924999999999917), (0, 0),0
(0.0, 12.924999999999917), (0, 0),0
(1.0, 12.924999999999917), (0, 0),0
(2.0, 12.924999999999917), (0, 0),0
(3.0, 12.924999999999917), (0, 0),0
(-3.0, 13.925000000000272), (0, 0),0
(-2.0, 13.925000000000272), (0, 0),0
(-1.0, 13.925000000000272), (0, 0),0
(0.0, 13.925000000000272), (0, 0),0
(1.0, 13.925000000000272), (0, 0),0
(2.0, 13.925000000000272), (0, 0),0
(3.0, 13.925000000000272), (0, 0),0
