(-0.987369034062555, 3.4511559029691115), (0, 0),0
(-1.9889879374585142, 5.4002812917654275), (0.07731139586959364, -0.5097656885923121),0.20018490004773115
(-1.0009506795035463, 5.461133633931914), (0.009351606934623365, 0.0023941117906512988),0.010709448781016317
(-0.0018837748492468304, 5.4861934601553575), (6.103010336541313e-05, 0.00010921364288037295),0.0011765363874989276
(0.9973347296482337, 5.465043362782673), (-0.009591838011643409, 0.002390440965305108),0.010830578760306242
(1.9852824408694134, 5.405721702035452), (-0.07896885069287897, -0.5118278499303023),0.20275536083317802
(0.9849833891418126, 3.4531996350068455), (0, 0),0
(-2.4481351973560233, 6.0674626973796), (-0.16873664188888565, 0.17644933551452235),0.3241563742353085
(-1.8405407962049287, 6.684453413831575), (-0.007456829706445817, 0.2903277916799433),0.23342227029666818
(-0.9456936547531409, 6.786436943307038), (0.03574514229804524, 0.034010793929201213),0.1557297727471808
(-0.002506601859616028, 6.815360447690279), (0.004359803060307102, 0.012504013701298264),0.10784995775735473
(0.9455679998035879, 6.7863086478559), (-0.04001793957644787, 0.03445324304530511),0.15072930024976805
(1.8405418887090808, 6.68445454941079), (0.007469294917259894, 0.2900180339105006),0.2331167242680532
(2.4482749294833583, 6.067327722098375), (0.17047382669310707, 0.1789365603430067),0.32635027481690426
(-2.999999999999912, 7.839999999999202), (8.204153414298523e-28, -3.5527136788004694e-14),8.881784197001252e-15
(-1.9999999999999112, 7.839999999999202), (8.283039504820624e-28, -3.5527136788004694e-14),8.881784197001252e-15
(-0.9999999999999108, 7.839999999999202), (8.214014175613785e-28, -3.5527136788004694e-14),8.881784197001252e-15
(8.926193117986264e-14, 7.839999999999202), (8.193326298374368e-28, -3.5527136788004694e-14),8.881784197001252e-15
(1.0000000000000897, 7.839999999999202), (8.214014175613785e-28, -3.5527136788004694e-14),8.881784197001252e-15
(2.000000000000091, 7.839999999999202), (8.30276102745115e-28, -3.5527136788004694e-14),8.881784197001252e-15
(3.000000000000091, 7.839999999999202), (8.243596459559573e-28, -3.5527136788004694e-14),8.881784197001252e-15
(-3.0000000000000044, 8.839999999999193), (-8.204153414298523e-28, 3.5527136788004694e-14),8.881784197001252e-15
(-2.0000000000000044, 8.839999999999193), (-8.283039504820624e-28, 3.5527136788004694e-14),8.881784197001252e-15
(-1.0000000000000033, 8.839999999999193), (-8.214014175613785e-28, 3.5527136788004694e-14),8.881784197001252e-15
(-2.9867219808466018e-15, 8.839999999999193), (-8.193326298374368e-28, 3.5527136788004694e-14),8.881784197001252e-15
(0.9999999999999972, 8.839999999999193), (-8.214014175613785e-28, 3.5527136788004694e-14),8.881784197001252e-15
(1.9999999999999976, 8.839999999999193), (-8.30276102745115e-28, 3.5527136788004694e-14),8.881784197001252e-15
(2.9999999999999982, 8.839999999999193), (-8.243596459559573e-28, 3.5527136788004694e-14),8.881784197001252e-15
(-3.0, 9.839999999999193), (0, 0),0
(-2.0, 9.839999999999193), (0, 0),0
(-1.0, 9.839999999999193), (0, 0),0
(0.0, 9.839999999999193), (0, 0),0
(1.0, 9.839999999999193), (0, 0),0
(2.0, 9.839999999999193), (0, 0),0
(3.0, 9.839999999999193), (0, 0),0
(-3.0, 10.839999999999193), (0, 0),0
(-2.0, 10.839999999999193), (0, 0),0
(-1.0, 10.839999999999193), (0, 0),0
(0.0, 10.839999999999193), (0, 0),0
(1.0, 10.839999999999193), (0, 0),0
(2.0, 10.839999999999193), (0, 0),0
(3.0, 10.839999999999193), (0, 0),0
(-3.0, 11.839999999999549), (0, 0),0
(-2.0, 11.839999999999549), (0, 0),0
(-1.0, 11.839999999999549), (0, 0),0
(0.0, 11.839999999999549), (0, 0),0
(1.0, 11.839999999999549), (0, 0),0
(2.0, 11.839999999999549), (0, 0),0
(3.0, 11.839999999999549), (0, 0),0
(-3.0, 12.839999999999904), (0, 0),0
(-2.0, 12.839999999999904), (0, 0),0
(-1.0, 12.839999999999904), (0, 0),0
(0.0, 12.839999999999904), (0, 0),0
(1.0, 12.839999999999904), (0, 0),0
(2.0, 12.839999999999904), (0, 0),0
(3.0, 12.839999999999904), (0, 0),0
(-3.0, 13.84000000000026), (0, 0),0
(-2.0, 13.84000000000026), (0, 0),0
(-1.0, 13.84000000000026), (0, 0),0
(0.0, 13.84000000000026), (0, 0),0
(1.0, 13.84000000000026), (0, 0),0
(2.0, 13.84000000000026), (0, 0),0
(3.0, 13.84000000000026), (0, 0),0
