(-3.0, 10.914999999999987), (0, 0),0
(-2.0, 10.914999999999987), (0, 0),0
(-1.0, 10.914999999999987), (0, 0),0
(0.0, 10.914999999999987), (0, 0),0
(1.0, 10.914999999999987), (0, 0),0
(2.0, 10.914999999999987), (0, 0),0
(3.0, 10.914999999999987), (0, 0),0
(-3.0, 11.914999999999987), (0, 0),0
(-2.0, 11.914999999999987), (0, 0),0
(-1.0, 11.914999999999987), (0, 0),0
(0.0, 11.914999999999987), (0, 0),0
(1.0, 11.914999999999987), (0, 0),0
(2.0, 11.914999999999987), (0, 0),0
(3.0, 11.914999999999987), (0, 0),0
(-3.0, 12.914999999999987), (0, 0),0
(-2.0, 12.914999999999987), (0, 0),0
(-1.0, 12.914999999999987), (0, 0),0
(0.0, 12.914999999999987), (0, 0),0
(1.0, 12.914999999999987), (0, 0),0
(2.0, 12.914999999999987), (0, 0),0
(3.0, 12.914999999999987), (0, 0),0
(-3.0, 13.914999999999987), (0, 0),0
(-2.0, 13.914999999999987), (0, 0),0
(-1.0, 13.914999999999987), (0, 0),0
(0.0, 13.914999999999987), (0, 0),0
(1.0, 13.914999999999987), (0, 0),0
(2.0, 13.914999999999987), (0, 0),0
(3.0, 13.914999999999987), (0, 0),0
(-3.0, 14.914999999999987), (0, 0),0
(-2.0, 14.914999999999987), (0, 0),0
(-1.0, 14.914999999999987), (0, 0),0
(0.0, 14.914999999999987), (0, 0),0
(1.0, 14.914999999999987), (0, 0),0
(2.0, 14.914999999999987), (0, 0),0
(3.0, 14.914999999999987), (0, 0),0
(-3.0, 15.914999999999987), (0, 0),0
(-2.0, 15.914999999999987), (0, 0),0
(-1.0, 15.914999999999987), (0, 0),0
(0.0, 15.914999999999987), (0, 0),0
(1.0, 15.914999999999987), (0, 0),0
(2.0, 15.914999999999987), (0, 0),0
(3.0, 15.914999999999987), (0, 0),0
(-3.0, 16.915000000000017), (0, 0),0
(-2.0, 16.915000000000017), (0, 0),0
(-1.0, 16.915000000000017), (0, 0),0
(0.0, 16.915000000000017), (0, 0),0
(1.0, 16.915000000000017), (0, 0),0
(2.0, 16.915000000000017), (0, 0),0
(3.0, 16.915000000000017), (0, 0),0
(-3.0, 17.915000000000017), (0, 0),0
(-2.0, 17.915000000000017), (0, 0),0
(-1.0, 17.915000000000017), (0, 0),0
(0.0, 17.915000000000017), (0, 0),0
(1.0, 17.915000000000017), (0, 0),0
(2.0, 17.915000000000017), (0, 0),0
(3.0, 17.915000000000017), (0, 0),0
(-3.0, 18.915000000000017), (0, 0),0
(-2.0, 18.915000000000017), (0, 0),0
(-1.0, 18.915000000000017), (0, 0),0
(0.0, 18.915000000000017), (0, 0),0
(1.0, 18.915000000000017), (0, 0),0
(2.0, 18.915000000000017), (0, 0),0
(3.0, 18.915000000000017), (0, 0),0
