(-1.224750742891074, -2.7808261043619567), (-0.0025113107064457054, -0.04211979081280398),0.014296990665629061
(0.5691936189203348, -2.0553086277827632), (0.0007777984123311914, 0.0016671331278333042),0.012867959397408701
(-1.0014606835246862, 4.4805162037500486), (-3.259300182254569e-05, -5.321945973231536e-07),3.2594335772628824e-05
(-0.0015016093497263751, 4.484598159899083), (2.878833471383075e-06, 6.904186168800133e-07),6.230941343843277e-05
(0.9984677895308165, 4.483266983674875), (2.9714168351162618e-05, -1.582240195568597e-07),2.9715077665803946e-05
(-1.6549356139613507, -1.8862115857765513), (-0.0031531616588992314, 0.026229320361545364),0.007329782777005467
(-0.41173174648733946, -2.210638207528658), (-0.001057371005428416, 0.011632853540858813),0.013819761210027148
(-0.02549673762297955, -0.33733369394802415), (0, 0),0
(-1.996615051914801, 5.690993493706825), (-0.0010757767481905944, 0.00011884370772099353),0.0010773476278072014
(-0.998073151024189, 5.6634156477419895), (-0.00035374413284291095, -0.0002518756985645861),0.002509305836736142
(0.00022475468266932387, 5.686641184285946), (0.0003091815592674882, 0.00025077153080539844),0.00255394298795919
(0.9987581953362453, 5.660406528040527), (-0.00018201423632263104, -0.00027563547134480096),0.002426638544087645
(1.9969951168625892, 5.690662818178939), (0.0013023535580886482, 0.00015789593138299505),0.0013046537650573953
(1.5573305598580982, -1.9476482408597724), (0.0059440449584421615, 0.002590483782566497),0.0060154060760051475
(-2.9999999999998392, 7.019999999999074), (2.1141472259923116e-27, -3.5527136788004694e-14),8.881784197001252e-15
(-1.9999999999998384, 7.019999999999074), (2.1220358350445218e-27, -3.5527136788004694e-14),8.881784197001252e-15
(-0.999999999999838, 7.019999999999074), (2.115133302123838e-27, -3.5527136788004694e-14),8.881784197001252e-15
(1.620925615952729e-13, 7.019999999999074), (2.113064514399897e-27, -3.5527136788004694e-14),8.881784197001252e-15
(1.0000000000001625, 7.019999999999074), (2.115133302123838e-27, -3.5527136788004694e-14),8.881784197001252e-15
(2.000000000000164, 7.019999999999074), (2.1240079873075743e-27, -3.5527136788004694e-14),8.881784197001252e-15
(3.000000000000164, 7.019999999999074), (2.1180915305184167e-27, -3.5527136788004694e-14),8.881784197001252e-15
(-3.0000000000000773, 8.019999999999065), (-2.1141472259923116e-27, 3.5527136788004694e-14),8.881784197001252e-15
(-2.0000000000000773, 8.019999999999065), (-2.1220358350445218e-27, 3.5527136788004694e-14),8.881784197001252e-15
(-1.0000000000000762, 8.019999999999065), (-2.115133302123838e-27, 3.5527136788004694e-14),8.881784197001252e-15
(-7.581735239625691e-14, 8.019999999999065), (-2.113064514399897e-27, 3.5527136788004694e-14),8.881784197001252e-15
(0.9999999999999244, 8.019999999999065), (-2.115133302123838e-27, 3.5527136788004694e-14),8.881784197001252e-15
(1.9999999999999247, 8.019999999999065), (-2.1240079873075743e-27, 3.5527136788004694e-14),8.881784197001252e-15
(2.9999999999999254, 8.019999999999065), (-2.1180915305184167e-27, 3.5527136788004694e-14),8.881784197001252e-15
(-3.0, 9.019999999999065), (0, 0),0
(-2.0, 9.019999999999065), (0, 0),0
(-1.0, 9.019999999999065), (0, 0),0
(0.0, 9.019999999999065), (0, 0),0
(1.0, 9.019999999999065), (0, 0),0
(2.0, 9.019999999999065), (0, 0),0
(3.0, 9.019999999999065), (0, 0),0
(-3.0, 10.019999999999065), (0, 0),0
(-2.0, 10.019999999999065), (0, 0),0
(-1.0, 10.019999999999065), (0, 0),0
(0.0, 10.019999999999065), (0, 0),0
(1.0, 10.019999999999065), (0, 0),0
(2.0, 10.019999999999065), (0, 0),0
(3.0, 10.019999999999065), (0, 0),0
(-3.0, 11.01999999999942), (0, 0),0
(-2.0, 11.01999999999942), (0, 0),0
(-1.0, 11.01999999999942), (0, 0),0
(0.0, 11.01999999999942), (0, 0),0
(1.0, 11.01999999999942), (0, 0),0
(2.0, 11.01999999999942), (0, 0),0
(3.0, 11.01999999999942), (0, 0),0
(-3.0, 12.019999999999776), (0, 0),0
(-2.0, 12.019999999999776), (0, 0),0
(-1.0, 12.019999999999776), (0, 0),0
(0.0, 12.019999999999776), (0, 0),0
(1.0, 12.019999999999776), (0, 0),0
(2.0, 12.019999999999776), (0, 0),0
(3.0, 12.019999999999776), (0, 0),0
(-3.0, 13.020000000000131), (0, 0),0
(-2.0, 13.020000000000131), (0, 0),0
(-1.0, 13.020000000000131), (0, 0),0
(0.0, 13.020000000000131), (0, 0),0
(1.0, 13.020000000000131), (0, 0),0
(2.0, 13.020000000000131), (0, 0),0
(3.0, 13.020000000000131), (0, 0),0
