(-3.0, 10.529999999999927), (0, 0),0
(-2.0, 10.529999999999927), (0, 0),0
(-1.0, 10.529999999999927), (0, 0),0
(0.0, 10.529999999999927), (0, 0),0
(1.0, 10.529999999999927), (0, 0),0
(2.0, 10.529999999999927), (0, 0),0
(3.0, 10.529999999999927), (0, 0),0
(-3.0, 11.529999999999927), (0, 0),0
(-2.0, 11.529999999999927), (0, 0),0
(-1.0, 11.529999999999927), (0, 0),0
(0.0, 11.529999999999927), (0, 0),0
(1.0, 11.529999999999927), (0, 0),0
(2.0, 11.529999999999927), (0, 0),0
(3.0, 11.529999999999927), (0, 0),0
(-3.0, 12.529999999999927), (0, 0),0
(-2.0, 12.529999999999927), (0, 0),0
(-1.0, 12.529999999999927), (0, 0),0
(0.0, 12.529999999999927), (0, 0),0
(1.0, 12.529999999999927), (0, 0),0
(2.0, 12.529999999999927), (0, 0),0
(3.0, 12.529999999999927), (0, 0),0
(-3.0, 13.529999999999927), (0, 0),0
(-2.0, 13.529999999999927), (0, 0),0
(-1.0, 13.529999999999927), (0, 0),0
(0.0, 13.529999999999927), (0, 0),0
(1.0, 13.529999999999927), (0, 0),0
(2.0, 13.529999999999927), (0, 0),0
(3.0, 13.529999999999927), (0, 0),0
(-3.0, 14.529999999999927), (0, 0),0
(-2.0, 14.529999999999927), (0, 0),0
(-1.0, 14.529999999999927), (0, 0),0
(0.0, 14.529999999999927), (0, 0),0
(1.0, 14.529999999999927), (0, 0),0
(2.0, 14.529999999999927), (0, 0),0
(3.0, 14.529999999999927), (0, 0),0
(-3.0, 15.529999999999927), (0, 0),0
(-2.0, 15.529999999999927), (0, 0),0
(-1.0, 15.529999999999927), (0, 0),0
(0.0, 15.529999999999927), (0, 0),0
(1.0, 15.529999999999927), (0, 0),0
(2.0, 15.529999999999927), (0, 0),0
(3.0, 15.529999999999927), (0, 0),0
(-3.0, 16.530000000000094), (0, 0),0
(-2.0, 16.530000000000094), (0, 0),0
(-1.0, 16.530000000000094), (0, 0),0
(0.0, 16.530000000000094), (0, 0),0
(1.0, 16.530000000000094), (0, 0),0
(2.0, 16.530000000000094), (0, 0),0
(3.0, 16.530000000000094), (0, 0),0
(-3.0, 17.530000000000094), (0, 0),0
(-2.0, 17.530000000000094), (0, 0),0
(-1.0, 17.530000000000094), (0, 0),0
(0.0, 17.530000000000094), (0, 0),0
(1.0, 17.530000000000094), (0, 0),0
(2.0, 17.530000000000094), (0, 0),0
(3.0, 17.530000000000094), (0, 0),0
(-3.0, 18.530000000000094), (0, 0),0
(-2.0, 18.530000000000094), (0, 0),0
(-1.0, 18.530000000000094), (0, 0),0
(0.0, 18.530000000000094), (0, 0),0
(1.0, 18.530000000000094), (0, 0),0
(2.0, 18.530000000000094), (0, 0),0
(3.0, 18.530000000000094), (0, 0),0
