(-3.0, 10.834999999999974), (0, 0),0
(-2.0, 10.834999999999974), (0, 0),0
(-1.0, 10.834999999999974), (0, 0),0
(0.0, 10.834999999999974), (0, 0),0
(1.0, 10.834999999999974), (0, 0),0
(2.0, 10.834999999999974), (0, 0),0
(3.0, 10.834999999999974), (0, 0),0
(-3.0, 11.834999999999974), (0, 0),0
(-2.0, 11.834999999999974), (0, 0),0
(-1.0, 11.834999999999974), (0, 0),0
(0.0, 11.834999999999974), (0, 0),0
(1.0, 11.834999999999974), (0, 0),0
(2.0, 11.834999999999974), (0, 0),0
(3.0, 11.834999999999974), (0, 0),0
(-3.0, 12.834999999999974), (0, 0),0
(-2.0, 12.834999999999974), (0, 0),0
(-1.0, 12.834999999999974), (0, 0),0
(0.0, 12.834999999999974), (0, 0),0
(1.0, 12.834999999999974), (0, 0),0
(2.0, 12.834999999999974), (0, 0),0
(3.0, 12.834999999999974), (0, 0),0
(-3.0, 13.834999999999974), (0, 0),0
(-2.0, 13.834999999999974), (0, 0),0
(-1.0, 13.834999999999974), (0, 0),0
(0.0, 13.834999999999974), (0, 0),0
(1.0, 13.834999999999974), (0, 0),0
(2.0, 13.834999999999974), (0, 0),0
(3.0, 13.834999999999974), (0, 0),0
(-3.0, 14.834999999999974), (0, 0),0
(-2.0, 14.834999999999974), (0, 0),0
(-1.0, 14.834999999999974), (0, 0),0
(0.0, 14.834999999999974), (0, 0),0
(1.0, 14.834999999999974), (0, 0),0
(2.0, 14.834999999999974), (0, 0),0
(3.0, 14.834999999999974), (0, 0),0
(-3.0, 15.834999999999974), (0, 0),0
(-2.0, 15.834999999999974), (0, 0),0
(-1.0, 15.834999999999974), (0, 0),0
(0.0, 15.834999999999974), (0, 0),0
(1.0, 15.834999999999974), (0, 0),0
(2.0, 15.834999999999974), (0, 0),0
(3.0, 15.834999999999974), (0, 0),0
(-3.0, 16.835000000000033), (0, 0),0
(-2.0, 16.835000000000033), (0, 0),0
(-1.0, 16.835000000000033), (0, 0),0
(0.0, 16.835000000000033), (0, 0),0
(1.0, 16.835000000000033), (0, 0),0
(2.0, 16.835000000000033), (0, 0),0
(3.0, 16.835000000000033), (0, 0),0
(-3.0, 17.835000000000033), (0, 0),0
(-2.0, 17.835000000000033), (0, 0),0
(-1.0, 17.835000000000033), (0, 0),0
(0.0, 17.835000000000033), (0, 0),0
(1.0, 17.835000000000033), (0, 0),0
(2.0, 17.835000000000033), (0, 0),0
(3.0, 17.835000000000033), (0, 0),0
(-3.0, 18.835000000000033), (0, 0),0
(-2.0, 18.835000000000033), (0, 0),0
(-1.0, 18.835000000000033), (0, 0),0
(0.0, 18.835000000000033), (0, 0),0
(1.0, 18.835000000000033), (0, 0),0
(2.0, 18.835000000000033), (0, 0),0
(3.0, 18.835000000000033), (0, 0),0
