(-3.0, 10.929999999999989), (0, 0),0
(-2.0, 10.929999999999989), (0, 0),0
(-1.0, 10.929999999999989), (0, 0),0
(0.0, 10.929999999999989), (0, 0),0
(1.0, 10.929999999999989), (0, 0),0
(2.0, 10.929999999999989), (0, 0),0
(3.0, 10.929999999999989), (0, 0),0
(-3.0, 11.929999999999989), (0, 0),0
(-2.0, 11.929999999999989), (0, 0),0
(-1.0, 11.929999999999989), (0, 0),0
(0.0, 11.929999999999989), (0, 0),0
(1.0, 11.929999999999989), (0, 0),0
(2.0, 11.929999999999989), (0, 0),0
(3.0, 11.929999999999989), (0, 0),0
(-3.0, 12.929999999999989), (0, 0),0
(-2.0, 12.929999999999989), (0, 0),0
(-1.0, 12.929999999999989), (0, 0),0
(0.0, 12.929999999999989), (0, 0),0
(1.0, 12.929999999999989), (0, 0),0
(2.0, 12.929999999999989), (0, 0),0
(3.0, 12.929999999999989), (0, 0),0
(-3.0, 13.929999999999989), (0, 0),0
(-2.0, 13.929999999999989), (0, 0),0
(-1.0, 13.929999999999989), (0, 0),0
(0.0, 13.929999999999989), (0, 0),0
(1.0, 13.929999999999989), (0, 0),0
(2.0, 13.929999999999989), (0, 0),0
(3.0, 13.929999999999989), (0, 0),0
(-3.0, 14.929999999999989), (0, 0),0
(-2.0, 14.929999999999989), (0, 0),0
(-1.0, 14.929999999999989), (0, 0),0
(0.0, 14.929999999999989), (0, 0),0
(1.0, 14.929999999999989), (0, 0),0
(2.0, 14.929999999999989), (0, 0),0
(3.0, 14.929999999999989), (0, 0),0
(-3.0, 15.929999999999989), (0, 0),0
(-2.0, 15.929999999999989), (0, 0),0
(-1.0, 15.929999999999989), (0, 0),0
(0.0, 15.929999999999989), (0, 0),0
(1.0, 15.929999999999989), (0, 0),0
(2.0, 15.929999999999989), (0, 0),0
(3.0, 15.929999999999989), (0, 0),0
(-3.0, 16.930000000000014), (0, 0),0
(-2.0, 16.930000000000014), (0, 0),0
(-1.0, 16.930000000000014), (0, 0),0
(0.0, 16.930000000000014), (0, 0),0
(1.0, 16.930000000000014), (0, 0),0
(2.0, 16.930000000000014), (0, 0),0
(3.0, 16.930000000000014), (0, 0),0
(-3.0, 17.930000000000014), (0, 0),0
(-2.0, 17.930000000000014), (0, 0),0
(-1.0, 17.930000000000014), (0, 0),0
(0.0, 17.930000000000014), (0, 0),0
(1.0, 17.930000000000014), (0, 0),0
(2.0, 17.930000000000014), (0, 0),0
(3.0, 17.930000000000014), (0, 0),0
(-3.0, 18.930000000000014), (0, 0),0
(-2.0, 18.930000000000014), (0, 0),0
(-1.0, 18.930000000000014), (0, 0),0
(0.0, 18.930000000000014), (0, 0),0
(1.0, 18.930000000000014), (0, 0),0
(2.0, 18.930000000000014), (0, 0),0
(3.0, 18.930000000000014), (0, 0),0
