(-0.5473865092132622, -1.4007071408042477), (-0.013833548689489661, -0.9153948468274962),0.4470716356169151
(0.4818521100637406, -1.0195033927154569), (0.0013700965265339704, -0.026983048399457726),0.37886608725988347
(-0.9971189425075295, 4.959775154847699), (-0.004098586263286468, -0.00013939436536393235),0.0041156731779278255
(-0.001270611967824542, 4.968242443146457), (-0.0006034447623625974, 0.0002449067614419397),0.0088400983862843
(0.9939893018376051, 4.962659097478746), (0.004702031025649065, -0.00010551239607800734),0.004724425208356475
(-1.442987462723168, -1.2123147670590526), (-0.07594612200858376, 0.06390198735660926),0.08479906336739262
(-0.2995629708741911, -0.8131020302492564), (-0.06008423092608163, 1.0098318228940062),0.5540578414105343
(-0.02549673762297955, 1.8523966055451635), (0, 0),0
(-1.9716001920695738, 6.190493469606521), (-0.01320224492493301, 7.921133219765515e-05),0.013381319487885568
(-0.9849826214417055, 6.1890135831822155), (-0.00020017369302596962, -0.00143677371396037),0.026972761933481193
(0.0011098166204592658, 6.213984486513426), (-0.002200311975446909, 0.0030862633596858728),0.029451705169814435
(0.9848722463297941, 6.186735552999806), (0.0026326847351564493, -0.001921891709409205),0.02900313356112405
(1.971722533394131, 6.190410372867615), (0.01297004585824944, 0.00019319073148604726),0.01314287083690524
(1.275593588247477, -1.195037042234565), (0.14849380509762108, -0.1313559150236615),0.18708081809887167
(-2.9999999999998814, 7.494999999999148), (1.3647293660323504e-27, -3.5527136788004694e-14),8.881784197001252e-15
(-1.9999999999998805, 7.494999999999148), (1.3726179750845605e-27, -3.5527136788004694e-14),8.881784197001252e-15
(-0.9999999999998802, 7.494999999999148), (1.3657154421638767e-27, -3.5527136788004694e-14),8.881784197001252e-15
(1.1990408665951696e-13, 7.494999999999148), (1.3636466544399355e-27, -3.5527136788004694e-14),8.881784197001252e-15
(1.0000000000001203, 7.494999999999148), (1.3657154421638767e-27, -3.5527136788004694e-14),8.881784197001252e-15
(2.0000000000001217, 7.494999999999148), (1.374590127347613e-27, -3.5527136788004694e-14),8.881784197001252e-15
(3.0000000000001217, 7.494999999999148), (1.3686736705584555e-27, -3.5527136788004694e-14),8.881784197001252e-15
(-3.000000000000035, 8.49499999999914), (-1.3647293660323504e-27, 3.5527136788004694e-14),8.881784197001252e-15
(-2.000000000000035, 8.49499999999914), (-1.3726179750845605e-27, 3.5527136788004694e-14),8.881784197001252e-15
(-1.000000000000034, 8.49499999999914), (-1.3657154421638767e-27, 3.5527136788004694e-14),8.881784197001252e-15
(-3.362887746050096e-14, 8.49499999999914), (-1.3636466544399355e-27, 3.5527136788004694e-14),8.881784197001252e-15
(0.9999999999999666, 8.49499999999914), (-1.3657154421638767e-27, 3.5527136788004694e-14),8.881784197001252e-15
(1.999999999999967, 8.49499999999914), (-1.374590127347613e-27, 3.5527136788004694e-14),8.881784197001252e-15
(2.9999999999999676, 8.49499999999914), (-1.3686736705584555e-27, 3.5527136788004694e-14),8.881784197001252e-15
(-3.0, 9.49499999999914), (0, 0),0
(-2.0, 9.49499999999914), (0, 0),0
(-1.0, 9.49499999999914), (0, 0),0
(0.0, 9.49499999999914), (0, 0),0
(1.0, 9.49499999999914), (0, 0),0
(2.0, 9.49499999999914), (0, 0),0
(3.0, 9.49499999999914), (0, 0),0
(-3.0, 10.49499999999914), (0, 0),0
(-2.0, 10.49499999999914), (0, 0),0
(-1.0, 10.49499999999914), (0, 0),0
(0.0, 10.49499999999914), (0, 0),0
(1.0, 10.49499999999914), (0, 0),0
(2.0, 10.49499999999914), (0, 0),0
(3.0, 10.49499999999914), (0, 0),0
(-3.0, 11.494999999999495), (0, 0),0
(-2.0, 11.494999999999495), (0, 0),0
(-1.0, 11.494999999999495), (0, 0),0
(0.0, 11.494999999999495), (0, 0),0
(1.0, 11.494999999999495), (0, 0),0
(2.0, 11.494999999999495), (0, 0),0
(3.0, 11.494999999999495), (0, 0),0
(-3.0, 12.49499999999985), (0, 0),0
(-2.0, 12.49499999999985), (0, 0),0
(-1.0, 12.49499999999985), (0, 0),0
(0.0, 12.49499999999985), (0, 0),0
(1.0, 12.49499999999985), (0, 0),0
(2.0, 12.49499999999985), (0, 0),0
(3.0, 12.49499999999985), (0, 0),0
(-3.0, 13.495000000000205), (0, 0),0
(-2.0, 13.495000000000205), (0, 0),0
(-1.0, 13.495000000000205), (0, 0),0
(0.0, 13.495000000000205), (0, 0),0
(1.0, 13.495000000000205), (0, 0),0
(2.0, 13.495000000000205), (0, 0),0
(3.0, 13.495000000000205), (0, 0),0
