(-0.7671126831164453, 3.176814615532464), (0, 0),0
(-1.7517076103596763, 4.995317132299574), (0.081231975442499, -0.3412606167350752),0.878008877543662
(-0.9405007776437222, 5.342126277157179), (0.037391516961101524, 0.14742394662244881),0.17990891100304351
(-0.004838910622983797, 5.406288158639558), (0.004780865042663465, 0.029691881355901926),0.11882648308048549
(0.9365260266591205, 5.345674975512314), (-0.04299576292672282, 0.15050155148509992),0.17555805888122966
(1.7471237315842492, 5.000251686689142), (-0.08304910712259703, -0.3264502537206892),0.8759081802166228
(0.7647270381957029, 3.178858347570198), (0, 0),0
(-1.9842211483089511, 5.053814517169062), (3.5732337293570007, 2.3429518966397134),5.090367786844975
(-1.885260243632263, 6.560500213500621), (-0.05113101313022013, -0.01900928182451033),0.054299863179412156
(-0.9436185867964405, 6.648020147766854), (-0.004549167181723726, 0.011677236843957236),0.11351685968590586
(-0.00334495596752805, 6.678974288525027), (0.005892446803881922, 0.013831240163583666),0.11179576178179251
(0.9435721739303837, 6.648072102304976), (-0.0018778609464288054, 0.012596937932574815),0.10747843062489892
(1.8846634196690442, 6.56111286041342), (0.05166559445449074, -0.019096133115605384),0.05489966534960011
(1.9841095947721028, 5.053817549480467), (-3.5705932167539447, 2.3272686132747933),5.08716282195591
(-2.9999999999999067, 7.779999999999193), (9.150786500563737e-28, -3.5527136788004694e-14),8.881784197001252e-15
(-1.9999999999999059, 7.779999999999193), (9.229672591085838e-28, -3.5527136788004694e-14),8.881784197001252e-15
(-0.9999999999999055, 7.779999999999193), (9.160647261879e-28, -3.5527136788004694e-14),8.881784197001252e-15
(9.459100169806339e-14, 7.779999999999193), (9.139959384639584e-28, -3.5527136788004694e-14),8.881784197001252e-15
(1.000000000000095, 7.779999999999193), (9.160647261879e-28, -3.5527136788004694e-14),8.881784197001252e-15
(2.0000000000000964, 7.779999999999193), (9.249394113716363e-28, -3.5527136788004694e-14),8.881784197001252e-15
(3.0000000000000964, 7.779999999999193), (9.190229545824788e-28, -3.5527136788004694e-14),8.881784197001252e-15
(-3.0000000000000098, 8.779999999999184), (-9.150786500563737e-28, 3.5527136788004694e-14),8.881784197001252e-15
(-2.0000000000000098, 8.779999999999184), (-9.229672591085838e-28, 3.5527136788004694e-14),8.881784197001252e-15
(-1.0000000000000087, 8.779999999999184), (-9.160647261879e-28, 3.5527136788004694e-14),8.881784197001252e-15
(-8.315792499047365e-15, 8.779999999999184), (-9.139959384639584e-28, 3.5527136788004694e-14),8.881784197001252e-15
(0.9999999999999919, 8.779999999999184), (-9.160647261879e-28, 3.5527136788004694e-14),8.881784197001252e-15
(1.9999999999999922, 8.779999999999184), (-9.249394113716363e-28, 3.5527136788004694e-14),8.881784197001252e-15
(2.999999999999993, 8.779999999999184), (-9.190229545824788e-28, 3.5527136788004694e-14),8.881784197001252e-15
(-3.0, 9.779999999999184), (0, 0),0
(-2.0, 9.779999999999184), (0, 0),0
(-1.0, 9.779999999999184), (0, 0),0
(0.0, 9.779999999999184), (0, 0),0
(1.0, 9.779999999999184), (0, 0),0
(2.0, 9.779999999999184), (0, 0),0
(3.0, 9.779999999999184), (0, 0),0
(-3.0, 10.779999999999184), (0, 0),0
(-2.0, 10.779999999999184), (0, 0),0
(-1.0, 10.779999999999184), (0, 0),0
(0.0, 10.779999999999184), (0, 0),0
(1.0, 10.779999999999184), (0, 0),0
(2.0, 10.779999999999184), (0, 0),0
(3.0, 10.779999999999184), (0, 0),0
(-3.0, 11.77999999999954), (0, 0),0
(-2.0, 11.77999999999954), (0, 0),0
(-1.0, 11.77999999999954), (0, 0),0
(0.0, 11.77999999999954), (0, 0),0
(1.0, 11.77999999999954), (0, 0),0
(2.0, 11.77999999999954), (0, 0),0
(3.0, 11.77999999999954), (0, 0),0
(-3.0, 12.779999999999895), (0, 0),0
(-2.0, 12.779999999999895), (0, 0),0
(-1.0, 12.779999999999895), (0, 0),0
(0.0, 12.779999999999895), (0, 0),0
(1.0, 12.779999999999895), (0, 0),0
(2.0, 12.779999999999895), (0, 0),0
(3.0, 12.779999999999895), (0, 0),0
(-3.0, 13.78000000000025), (0, 0),0
(-2.0, 13.78000000000025), (0, 0),0
(-1.0, 13.78000000000025), (0, 0),0
(0.0, 13.78000000000025), (0, 0),0
(1.0, 13.78000000000025), (0, 0),0
(2.0, 13.78000000000025), (0, 0),0
(3.0, 13.78000000000025), (0, 0),0
