(-3.0, 10.579999999999934), (0, 0),0
(-2.0, 10.579999999999934), (0, 0),0
(-1.0, 10.579999999999934), (0, 0),0
(0.0, 10.579999999999934), (0, 0),0
(1.0, 10.579999999999934), (0, 0),0
(2.0, 10.579999999999934), (0, 0),0
(3.0, 10.579999999999934), (0, 0),0
(-3.0, 11.579999999999934), (0, 0),0
(-2.0, 11.579999999999934), (0, 0),0
(-1.0, 11.579999999999934), (0, 0),0
(0.0, 11.579999999999934), (0, 0),0
(1.0, 11.579999999999934), (0, 0),0
(2.0, 11.579999999999934), (0, 0),0
(3.0, 11.579999999999934), (0, 0),0
(-3.0, 12.579999999999934), (0, 0),0
(-2.0, 12.579999999999934), (0, 0),0
(-1.0, 12.579999999999934), (0, 0),0
(0.0, 12.579999999999934), (0, 0),0
(1.0, 12.579999999999934), (0, 0),0
(2.0, 12.579999999999934), (0, 0),0
(3.0, 12.579999999999934), (0, 0),0
(-3.0, 13.579999999999934), (0, 0),0
(-2.0, 13.579999999999934), (0, 0),0
(-1.0, 13.579999999999934), (0, 0),0
(0.0, 13.579999999999934), (0, 0),0
(1.0, 13.579999999999934), (0, 0),0
(2.0, 13.579999999999934), (0, 0),0
(3.0, 13.579999999999934), (0, 0),0
(-3.0, 14.579999999999934), (0, 0),0
(-2.0, 14.579999999999934), (0, 0),0
(-1.0, 14.579999999999934), (0, 0),0
(0.0, 14.579999999999934), (0, 0),0
(1.0, 14.579999999999934), (0, 0),0
(2.0, 14.579999999999934), (0, 0),0
(3.0, 14.579999999999934), (0, 0),0
(-3.0, 15.579999999999934), (0, 0),0
(-2.0, 15.579999999999934), (0, 0),0
(-1.0, 15.579999999999934), (0, 0),0
(0.0, 15.579999999999934), (0, 0),0
(1.0, 15.579999999999934), (0, 0),0
(2.0, 15.579999999999934), (0, 0),0
(3.0, 15.579999999999934), (0, 0),0
(-3.0, 16.580000000000084), (0, 0),0
(-2.0, 16.580000000000084), (0, 0),0
(-1.0, 16.580000000000084), (0, 0),0
(0.0, 16.580000000000084), (0, 0),0
(1.0, 16.580000000000084), (0, 0),0
(2.0, 16.580000000000084), (0, 0),0
(3.0, 16.580000000000084), (0, 0),0
(-3.0, 17.580000000000084), (0, 0),0
(-2.0, 17.580000000000084), (0, 0),0
(-1.0, 17.580000000000084), (0, 0),0
(0.0, 17.580000000000084), (0, 0),0
(1.0, 17.580000000000084), (0, 0),0
(2.0, 17.580000000000084), (0, 0),0
(3.0, 17.580000000000084), (0, 0),0
(-3.0, 18.580000000000084), (0, 0),0
(-2.0, 18.580000000000084), (0, 0),0
(-1.0, 18.580000000000084), (0, 0),0
(0.0, 18.580000000000084), (0, 0),0
(1.0, 18.580000000000084), (0, 0),0
(2.0, 18.580000000000084), (0, 0),0
(3.0, 18.580000000000084), (0, 0),0
