(-1.4278817359547742, 4.259838477842401), (0, 0),0
(-1.9925516703442636, 5.797272461785775), (-0.00390236981053294, -0.0008955407993834491),0.003924186097030713
(-0.9981111127250112, 5.854325107687372), (0.0005541607002392548, 0.0005616410464647477),0.007284728859365486
(-0.0017812496384063247, 5.8791648267843195), (-0.00018455711770105085, 0.0006453962315679093),0.006906742724793635
(0.9944305447876441, 5.857204948467614), (0.00011557942564121215, 0.0004419978015005963),0.006980368417500493
(1.9894856351507344, 5.802352202452519), (0.003417186802353524, -0.0007534942801498042),0.0034341684550416307
(1.4254960910340317, 4.261882209880135), (0, 0),0
(-3.0000000000001537, 7.219999999999262), (-1.869600345373798e-27, -3.5527136788004694e-14),8.881784197001252e-15
(-2.000000000000153, 7.219999999999262), (-1.8715724976368505e-27, -3.5527136788004694e-14),8.881784197001252e-15
(-1.0000000000001523, 7.219999999999262), (-1.8666421169792192e-27, -3.5527136788004694e-14),8.881784197001252e-15
(-1.5171786049705817e-13, 7.219999999999262), (-1.863146477092959e-27, -3.5527136788004694e-14),8.881784197001252e-15
(0.9999999999998486, 7.219999999999262), (-1.8636838885846404e-27, -3.5527136788004694e-14),8.881784197001252e-15
(1.9999999999998492, 7.219999999999262), (-1.8676281931107454e-27, -3.5527136788004694e-14),8.881784197001252e-15
(2.99999999999985, 7.219999999999262), (-1.861711736321588e-27, -3.5527136788004694e-14),8.881784197001252e-15
(-2.999999999999943, 8.219999999999253), (1.869600345373798e-27, 3.5527136788004694e-14),8.881784197001252e-15
(-1.9999999999999425, 8.219999999999253), (1.8715724976368505e-27, 3.5527136788004694e-14),8.881784197001252e-15
(-0.9999999999999422, 8.219999999999253), (1.8666421169792192e-27, 3.5527136788004694e-14),8.881784197001252e-15
(5.80537840022544e-14, 8.219999999999253), (1.863146477092959e-27, 3.5527136788004694e-14),8.881784197001252e-15
(1.0000000000000584, 8.219999999999253), (1.8636838885846404e-27, 3.5527136788004694e-14),8.881784197001252e-15
(2.0000000000000595, 8.219999999999253), (1.8676281931107454e-27, 3.5527136788004694e-14),8.881784197001252e-15
(3.0000000000000595, 8.219999999999253), (1.861711736321588e-27, 3.5527136788004694e-14),8.881784197001252e-15
(-3.0, 9.219999999999253), (0, 0),0
(-2.0, 9.219999999999253), (0, 0),0
(-1.0, 9.219999999999253), (0, 0),0
(0.0, 9.219999999999253), (0, 0),0
(1.0, 9.219999999999253), (0, 0),0
(2.0, 9.219999999999253), (0, 0),0
(3.0, 9.219999999999253), (0, 0),0
(-3.0, 10.219999999999253), (0, 0),0
(-2.0, 10.219999999999253), (0, 0),0
(-1.0, 10.219999999999253), (0, 0),0
(0.0, 10.219999999999253), (0, 0),0
(1.0, 10.219999999999253), (0, 0),0
(2.0, 10.219999999999253), (0, 0),0
(3.0, 10.219999999999253), (0, 0),0
(-3.0, 11.219999999999253), (0, 0),0
(-2.0, 11.219999999999253), (0, 0),0
(-1.0, 11.219999999999253), (0, 0),0
(0.0, 11.219999999999253), (0, 0),0
(1.0, 11.219999999999253), (0, 0),0
(2.0, 11.219999999999253), (0, 0),0
(3.0, 11.219999999999253), (0, 0),0
(-3.0, 12.219999999999608), (0, 0),0
(-2.0, 12.219999999999608), (0, 0),0
(-1.0, 12.219999999999608), (0, 0),0
(0.0, 12.219999999999608), (0, 0),0
(1.0, 12.219999999999608), (0, 0),0
(2.0, 12.219999999999608), (0, 0),0
(3.0, 12.219999999999608), (0, 0),0
(-3.0, 13.219999999999963), (0, 0),0
(-2.0, 13.219999999999963), (0, 0),0
(-1.0, 13.219999999999963), (0, 0),0
(0.0, 13.219999999999963), (0, 0),0
(1.0, 13.219999999999963), (0, 0),0
(2.0, 13.219999999999963), (0, 0),0
(3.0, 13.219999999999963), (0, 0),0
(-3.0, 14.220000000000319), (0, 0),0
(-2.0, 14.220000000000319), (0, 0),0
(-1.0, 14.220000000000319), (0, 0),0
(0.0, 14.220000000000319), (0, 0),0
(1.0, 14.220000000000319), (0, 0),0
(2.0, 14.220000000000319), (0, 0),0
(3.0, 14.220000000000319), (0, 0),0
