(-1.2343007780614943, -2.9335023834611462), (7.879911558672905e-05, -0.013396161977858732),0.004221904949044064
(0.5695319581571804, -2.2044993006695432), (0.00029126176777023835, 0.00040022854215576937),0.0027522879673107514
(-1.0014845764242564, 4.340492771697568), (-7.573742100106434e-06, -1.229494800445593e-07),7.57386183569686e-06
(-0.0015003854782137136, 4.344551120090758), (7.019418404560198e-07, 1.5889654126678306e-07),1.4445715194044695e-05
(0.9984918875382999, 4.343243355673079), (6.871800259650414e-06, -3.5947061222223766e-08),6.871853358347835e-06
(-1.662013018675301, -2.0327248797550763), (-0.0012125996468804578, 0.010215115483665502),0.002835082870530581
(-0.4167477920944444, -2.3600606739083694), (-0.0003728636091626142, 0.0022304896460402035),0.0029144455951394255
(-0.02549673762297955, -0.4773336939480243), (0, 0),0
(-1.9978360389851075, 5.549799118766059), (-0.0005783845082889441, 6.687360223986516e-05),0.0005789612795243926
(-0.9988322562725958, 5.520922575288575), (-7.73694745512016e-05, -0.0001276286541820019),0.0012353219513654423
(0.00024342113019209431, 5.544063454438038), (5.814706849050053e-05, 0.00012336607962627885),0.0012545303496114268
(0.9993026121229057, 5.517895700533527), (2.6473226869248162e-05, -0.0001347811442404263),0.0011699151754154258
(1.9982325378203154, 5.549452624398055), (0.000571133687480397, 7.217011655628416e-05),0.0005717454976450487
(1.561969006531104, -2.0921566288279783), (0.0012154023726861046, 0.0005503283059972558),0.0012246644506848092
(-2.6056334676497985, 6.396427268630743), (-0.13990945898310037, -0.3499185341977775),0.20846458164381165
(-1.9344908789190494, 6.816065141211489), (0.0909000311331174, 0.3391895522955062),0.26022666659052895
(-0.9876699017417941, 6.867883870660445), (0.037395396654932994, 0.010279823548294547),0.06351478491840046
(0.0005312114520001473, 6.8774382359352115), (-0.0010104104445518534, 0.000936507909362584),0.024541277226831082
(0.9876966629114241, 6.867911187975486), (-0.03640754052487444, 0.010252546758149414),0.06457595054132581
(1.9344908147121866, 6.816065073604197), (-0.09087748415169253, 0.33917853039583323),0.26025194116027495
(2.6056334829505015, 6.396427302209992), (0.1399094663161688, -0.34991842670936846),0.20846456787409706
(-3.0000000000000875, 7.87999999999905), (-6.216223933141573e-28, -2.8421709430403805e-14),7.105427357601002e-15
(-2.0000000000000875, 7.8799999999990495), (-5.466806073181612e-28, -2.4868995751603352e-14),6.217248937900877e-15
(-1.0000000000000866, 7.879999999999049), (-4.626669209121234e-28, -2.1316282072802892e-14),5.329070518200751e-15
(-8.637535131583723e-14, 7.879999999999048), (-3.8395290067497383e-28, -1.7763568394002426e-14),4.440892098500626e-15
(0.999999999999914, 7.879999999999049), (-4.597086925175446e-28, -2.1316282072802892e-14),5.329070518200751e-15
(1.9999999999999145, 7.8799999999990495), (-5.370170612292038e-28, -2.4868995751603352e-14),6.217248937900877e-15
(2.9999999999999156, 7.87999999999905), (-6.058451752097371e-28, -2.8421709430403805e-14),7.105427357601002e-15
(-3.0, 8.879999999999043), (6.216223933141573e-28, 2.8421709430403805e-14),7.105427357601002e-15
(-1.9999999999999996, 8.879999999999043), (-2.2204460492448458e-16, 2.4868995751603352e-14),6.439293542825908e-15
(-0.9999999999999998, 8.879999999999043), (1.1102230246297827e-16, 2.1316282072802892e-14),5.662137425588298e-15
(8.315570454442498e-17, 8.879999999999043), (1.1102230246289958e-16, 1.7763568394002426e-14),4.551914400963142e-15
(1.0000000000000002, 8.879999999999043), (4.597086925175446e-28, 2.1316282072802892e-14),5.329070518200751e-15
(2.000000000000001, 8.879999999999043), (5.370170612292038e-28, 2.4868995751603352e-14),6.217248937900877e-15
(3.000000000000001, 8.879999999999043), (6.058451752097371e-28, 2.8421709430403805e-14),7.105427357601002e-15
(-3.0, 9.879999999999043), (0, 0),0
(-2.0, 9.879999999999043), (0, 0),0
(-1.0, 9.879999999999043), (0, 0),0
(0.0, 9.879999999999043), (0, 0),0
(1.0, 9.879999999999043), (0, 0),0
(2.0, 9.879999999999043), (0, 0),0
(3.0, 9.879999999999043), (0, 0),0
(-3.0, 10.879999999999399), (0, 0),0
(-2.0, 10.879999999999399), (0, 0),0
(-1.0, 10.879999999999399), (0, 0),0
(0.0, 10.879999999999399), (0, 0),0
(1.0, 10.879999999999399), (0, 0),0
(2.0, 10.879999999999399), (0, 0),0
(3.0, 10.879999999999399), (0, 0),0
(-3.0, 11.879999999999754), (0, 0),0
(-2.0, 11.879999999999754), (0, 0),0
(-1.0, 11.879999999999754), (0, 0),0
(0.0, 11.879999999999754), (0, 0),0
(1.0, 11.879999999999754), (0, 0),0
(2.0, 11.879999999999754), (0, 0),0
(3.0, 11.879999999999754), (0, 0),0
(-3.0, 12.88000000000011), (0, 0),0
(-2.0, 12.88000000000011), (0, 0),0
(-1.0, 12.88000000000011), (0, 0),0
(0.0, 12.88000000000011), (0, 0),0
(1.0, 12.88000000000011), (0, 0),0
(2.0, 12.88000000000011), (0, 0),0
(3.0, 12.88000000000011), (0, 0),0
