(-3.0, 8.794999999999655), (0, 0),0
(-2.0, 8.794999999999655), (0, 0),0
(-1.0, 8.794999999999655), (0, 0),0
(0.0, 8.794999999999655), (0, 0),0
(1.0, 8.794999999999655), (0, 0),0
(2.0, 8.794999999999655), (0, 0),0
(3.0, 8.794999999999655), (0, 0),0
(-3.0, 9.794999999999655), (0, 0),0
(-2.0, 9.794999999999655), (0, 0),0
(-1.0, 9.794999999999655), (0, 0),0
(0.0, 9.794999999999655), (0, 0),0
(1.0, 9.794999999999655), (0, 0),0
(2.0, 9.794999999999655), (0, 0),0
(3.0, 9.794999999999655), (0, 0),0
(-3.0, 10.794999999999655), (0, 0),0
(-2.0, 10.794999999999655), (0, 0),0
(-1.0, 10.794999999999655), (0, 0),0
(0.0, 10.794999999999655), (0, 0),0
(1.0, 10.794999999999655), (0, 0),0
(2.0, 10.794999999999655), (0, 0),0
(3.0, 10.794999999999655), (0, 0),0
(-3.0, 11.794999999999655), (0, 0),0
(-2.0, 11.794999999999655), (0, 0),0
(-1.0, 11.794999999999655), (0, 0),0
(0.0, 11.794999999999655), (0, 0),0
(1.0, 11.794999999999655), (0, 0),0
(2.0, 11.794999999999655), (0, 0),0
(3.0, 11.794999999999655), (0, 0),0
(-3.0, 12.794999999999655), (0, 0),0
(-2.0, 12.794999999999655), (0, 0),0
(-1.0, 12.794999999999655), (0, 0),0
(0.0, 12.794999999999655), (0, 0),0
(1.0, 12.794999999999655), (0, 0),0
(2.0, 12.794999999999655), (0, 0),0
(3.0, 12.794999999999655), (0, 0),0
(-3.0, 13.794999999999655), (0, 0),0
(-2.0, 13.794999999999655), (0, 0),0
(-1.0, 13.794999999999655), (0, 0),0
(0.0, 13.794999999999655), (0, 0),0
(1.0, 13.794999999999655), (0, 0),0
(2.0, 13.794999999999655), (0, 0),0
(3.0, 13.794999999999655), (0, 0),0
(-3.0, 14.79500000000001), (0, 0),0
(-2.0, 14.79500000000001), (0, 0),0
(-1.0, 14.79500000000001), (0, 0),0
(0.0, 14.79500000000001), (0, 0),0
(1.0, 14.79500000000001), (0, 0),0
(2.0, 14.79500000000001), (0, 0),0
(3.0, 14.79500000000001), (0, 0),0
(-3.0, 15.795000000000366), (0, 0),0
(-2.0, 15.795000000000366), (0, 0),0
(-1.0, 15.795000000000366), (0, 0),0
(0.0, 15.795000000000366), (0, 0),0
(1.0, 15.795000000000366), (0, 0),0
(2.0, 15.795000000000366), (0, 0),0
(3.0, 15.795000000000366), (0, 0),0
(-3.0, 16.79500000000044), (0, 0),0
(-2.0, 16.79500000000044), (0, 0),0
(-1.0, 16.79500000000044), (0, 0),0
(0.0, 16.79500000000044), (0, 0),0
(1.0, 16.79500000000044), (0, 0),0
(2.0, 16.79500000000044), (0, 0),0
(3.0, 16.79500000000044), (0, 0),0
