(-1.2344769484372913, -2.9699022513543882), (-9.585005535576118e-06, -0.00958281126000858),0.003040286795121916
(0.5696976771883537, -2.2403549580018662), (0.0003123203331048774, 0.00035774039713660024),0.0021572241797747083
(-1.00148680141435, 4.30549058962605), (-4.7295821531487334e-06, -7.673723027704807e-08),4.729643430567698e-06
(-0.0014997574478997737, 4.309546774378853), (-5.645309368872643e-07, 1.0438504214380778e-07),1.0023789060675803e-05
(0.9984940961265236, 4.308241190163832), (5.294113090035998e-06, -2.7647811866759712e-08),5.294145630108105e-06
(-1.6628615997229905, -2.0685056077977673), (-0.0008513354468566467, 0.007165437996288689),0.001987315475243001
(-0.4168664056437578, -2.3959613428788673), (-0.00036217258226987285, 0.0016457210667509604),0.0022927215357503306
(-0.02549673762297955, -0.5123336939480243), (0, 0),0
(-1.9980276415993705, 5.514611704792396), (0.12052884729551891, -0.6453368963157474),0.2808405173846654
(-0.9990013633448676, 5.485530489298375), (0.00012031072563479703, -0.00010383834705989244),0.0009805346202271803
(0.0003008084350539135, 5.50866847727602), (-0.00015429222954159677, 0.00010096525484505885),0.0010145219072019707
(0.9993738100184842, 5.482506993207218), (0.0001469095805490004, -0.0001167306607298114),0.0010220165596670494
(1.9984319217384245, 5.5142576406787), (-0.1205108143729697, -0.6456484897554366),0.2806866487644062
(1.5623936417500461, -2.1275692506910593), (0.0009107727015572183, 0.00041391179983233045),0.0009174739639032925
(-2.4300047437552363, 6.090266376312493), (-0.21301122144120904, 0.25551287690014546),0.43968227868103926
(-1.8532368045180665, 6.701789103810732), (0.006958788396137117, 0.3534026204842637),0.2537591404116547
(-0.952776615832284, 6.7984476363637665), (0.03835825716383398, 0.0312692635021876),0.14340515543051602
(-0.002186815080582865, 6.825039989636503), (0.003882405621837122, 0.009992588188752958),0.09379069069139356
(0.952688084908013, 6.798357543564309), (-0.04218171249974207, 0.03164818495164311),0.13904496884759543
(1.853232085454007, 6.701784222815236), (-0.00701876936818685, 0.3534614959011117),0.25368540959434993
(2.4300046366327237, 6.090266549632519), (0.21288129112813836, 0.2558179598960242),0.43964197461462684
(-3.0000000000000906, 7.844999999999047), (-8.164710369037472e-28, -3.5527136788004694e-14),8.881784197001252e-15
(-2.0000000000000906, 7.844999999999047), (-8.223874936929048e-28, -3.5527136788004694e-14),8.881784197001252e-15
(-1.0000000000000893, 7.844999999999047), (-8.135128085091684e-28, -3.5527136788004694e-14),8.881784197001252e-15
(-8.881784197001257e-14, 7.844999999999047), (-8.114440207852267e-28, -3.5527136788004694e-14),8.881784197001252e-15
(0.9999999999999113, 7.844999999999047), (-8.135128085091684e-28, -3.5527136788004694e-14),8.881784197001252e-15
(1.9999999999999116, 7.844999999999047), (-8.204153414298523e-28, -3.5527136788004694e-14),8.881784197001252e-15
(2.9999999999999125, 7.844999999999047), (-8.125267323776422e-28, -3.5527136788004694e-14),8.881784197001252e-15
(-2.9999999999999987, 8.844999999999038), (8.164710369037472e-28, 3.5527136788004694e-14),8.881784197001252e-15
(-1.999999999999998, 8.844999999999038), (8.223874936929048e-28, 3.5527136788004694e-14),8.881784197001252e-15
(-0.9999999999999977, 8.844999999999038), (8.135128085091684e-28, 3.5527136788004694e-14),8.881784197001252e-15
(2.5426327709965384e-15, 8.844999999999038), (8.114440207852267e-28, 3.5527136788004694e-14),8.881784197001252e-15
(1.0000000000000029, 8.844999999999038), (8.135128085091684e-28, 3.5527136788004694e-14),8.881784197001252e-15
(2.000000000000004, 8.844999999999038), (8.204153414298523e-28, 3.5527136788004694e-14),8.881784197001252e-15
(3.000000000000004, 8.844999999999038), (8.125267323776422e-28, 3.5527136788004694e-14),8.881784197001252e-15
(-3.0, 9.844999999999038), (0, 0),0
(-2.0, 9.844999999999038), (0, 0),0
(-1.0, 9.844999999999038), (0, 0),0
(0.0, 9.844999999999038), (0, 0),0
(1.0, 9.844999999999038), (0, 0),0
(2.0, 9.844999999999038), (0, 0),0
(3.0, 9.844999999999038), (0, 0),0
(-3.0, 10.844999999999393), (0, 0),0
(-2.0, 10.844999999999393), (0, 0),0
(-1.0, 10.844999999999393), (0, 0),0
(0.0, 10.844999999999393), (0, 0),0
(1.0, 10.844999999999393), (0, 0),0
(2.0, 10.844999999999393), (0, 0),0
(3.0, 10.844999999999393), (0, 0),0
(-3.0, 11.844999999999748), (0, 0),0
(-2.0, 11.844999999999748), (0, 0),0
(-1.0, 11.844999999999748), (0, 0),0
(0.0, 11.844999999999748), (0, 0),0
(1.0, 11.844999999999748), (0, 0),0
(2.0, 11.844999999999748), (0, 0),0
(3.0, 11.844999999999748), (0, 0),0
(-3.0, 12.845000000000104), (0, 0),0
(-2.0, 12.845000000000104), (0, 0),0
(-1.0, 12.845000000000104), (0, 0),0
(0.0, 12.845000000000104), (0, 0),0
(1.0, 12.845000000000104), (0, 0),0
(2.0, 12.845000000000104), (0, 0),0
(3.0, 12.845000000000104), (0, 0),0
