(-1.8683944378469934, 5.10352105271569), (0, 0),0
(-1.9467625400970794, 6.257469716502812), (-0.024746214899690307, -0.010604097881489454),0.02554010698458553
(-0.977846673197006, 6.361268203798592), (0.003642463782581623, 0.008318102654551558),0.04711716430488355
(0.0002177034154578119, 6.387754614723443), (-0.006402546442788117, 0.005119277306265734),0.0498943420387824
(0.9715784053100783, 6.362740898653074), (0.006181229865671312, 0.006016411112959197),0.05023729900189078
(1.9444366990370452, 6.261809244619136), (0.02132506769422549, -0.008849693192287036),0.021920014283406397
(1.8660087929262508, 5.105564784753424), (0, 0),0
(-3.000000000000117, 7.6349999999993265), (-1.2148457940403582e-27, -3.5527136788004694e-14),8.881784197001252e-15
(-2.0000000000001164, 7.6349999999993265), (-1.2168179463034107e-27, -3.5527136788004694e-14),8.881784197001252e-15
(-1.0000000000001155, 7.6349999999993265), (-1.2118875656457794e-27, -3.5527136788004694e-14),8.881784197001252e-15
(-1.1485845607950297e-13, 7.6349999999993265), (-1.208391925759519e-27, -3.5527136788004694e-14),8.881784197001252e-15
(0.9999999999998854, 7.6349999999993265), (-1.2089293372512006e-27, -3.5527136788004694e-14),8.881784197001252e-15
(1.999999999999886, 7.6349999999993265), (-1.2128736417773057e-27, -3.5527136788004694e-14),8.881784197001252e-15
(2.9999999999998868, 7.6349999999993265), (-1.206957184988148e-27, -3.5527136788004694e-14),8.881784197001252e-15
(-2.99999999999998, 8.634999999999318), (1.2148457940403582e-27, 3.5527136788004694e-14),8.881784197001252e-15
(-1.9999999999999793, 8.634999999999318), (1.2168179463034107e-27, 3.5527136788004694e-14),8.881784197001252e-15
(-0.999999999999979, 8.634999999999318), (1.2118875656457794e-27, 3.5527136788004694e-14),8.881784197001252e-15
(2.1194379584699203e-14, 8.634999999999318), (1.208391925759519e-27, 3.5527136788004694e-14),8.881784197001252e-15
(1.0000000000000215, 8.634999999999318), (1.2089293372512006e-27, 3.5527136788004694e-14),8.881784197001252e-15
(2.0000000000000226, 8.634999999999318), (1.2128736417773057e-27, 3.5527136788004694e-14),8.881784197001252e-15
(3.0000000000000226, 8.634999999999318), (1.206957184988148e-27, 3.5527136788004694e-14),8.881784197001252e-15
(-3.0, 9.634999999999318), (0, 0),0
(-2.0, 9.634999999999318), (0, 0),0
(-1.0, 9.634999999999318), (0, 0),0
(0.0, 9.634999999999318), (0, 0),0
(1.0, 9.634999999999318), (0, 0),0
(2.0, 9.634999999999318), (0, 0),0
(3.0, 9.634999999999318), (0, 0),0
(-3.0, 10.634999999999318), (0, 0),0
(-2.0, 10.634999999999318), (0, 0),0
(-1.0, 10.634999999999318), (0, 0),0
(0.0, 10.634999999999318), (0, 0),0
(1.0, 10.634999999999318), (0, 0),0
(2.0, 10.634999999999318), (0, 0),0
(3.0, 10.634999999999318), (0, 0),0
(-3.0, 11.634999999999318), (0, 0),0
(-2.0, 11.634999999999318), (0, 0),0
(-1.0, 11.634999999999318), (0, 0),0
(0.0, 11.634999999999318), (0, 0),0
(1.0, 11.634999999999318), (0, 0),0
(2.0, 11.634999999999318), (0, 0),0
(3.0, 11.634999999999318), (0, 0),0
(-3.0, 12.634999999999673), (0, 0),0
(-2.0, 12.634999999999673), (0, 0),0
(-1.0, 12.634999999999673), (0, 0),0
(0.0, 12.634999999999673), (0, 0),0
(1.0, 12.634999999999673), (0, 0),0
(2.0, 12.634999999999673), (0, 0),0
(3.0, 12.634999999999673), (0, 0),0
(-3.0, 13.635000000000028), (0, 0),0
(-2.0, 13.635000000000028), (0, 0),0
(-1.0, 13.635000000000028), (0, 0),0
(0.0, 13.635000000000028), (0, 0),0
(1.0, 13.635000000000028), (0, 0),0
(2.0, 13.635000000000028), (0, 0),0
(3.0, 13.635000000000028), (0, 0),0
(-3.0, 14.635000000000383), (0, 0),0
(-2.0, 14.635000000000383), (0, 0),0
(-1.0, 14.635000000000383), (0, 0),0
(0.0, 14.635000000000383), (0, 0),0
(1.0, 14.635000000000383), (0, 0),0
(2.0, 14.635000000000383), (0, 0),0
(3.0, 14.635000000000383), (0, 0),0
