(-1.8683944378469934, 4.963521052715693), (3.75, 2.1650635094610964),4.330127018922194
(-1.9721064269334256, 6.092429705876166), (-0.013042233981869308, -0.0041419422568994176),0.013259078658567458
(-0.9884608571530573, 6.1705260495882355), (0.0012615890237307678, 0.0029421025839318103),0.025185788202691906
(-0.0007077040680024769, 6.195676315647131), (-0.0026395258251718703, 0.002609680194413924),0.02656548075027365
(0.9843593196759736, 6.171599149237595), (0.003103958530534405, 0.0020373367263060863),0.026119559807586956
(1.9700243855198707, 6.096535114713854), (0.011316212252776006, -0.003447177247752403),0.011480788601437752
(1.8660087929262508, 4.965564784753427), (0, 0),0
(-3.0000000000001292, 7.494999999999305), (-1.4357268475022415e-27, -3.5527136788004694e-14),8.881784197001252e-15
(-2.000000000000129, 7.494999999999305), (-1.437698999765294e-27, -3.5527136788004694e-14),8.881784197001252e-15
(-1.000000000000128, 7.494999999999305), (-1.4327686191076627e-27, -3.5527136788004694e-14),8.881784197001252e-15
(-1.2729295395530472e-13, 7.494999999999305), (-1.4292729792214024e-27, -3.5527136788004694e-14),8.881784197001252e-15
(0.999999999999873, 7.494999999999305), (-1.4298103907130839e-27, -3.5527136788004694e-14),8.881784197001252e-15
(1.9999999999998737, 7.494999999999305), (-1.433754695239189e-27, -3.5527136788004694e-14),8.881784197001252e-15
(2.9999999999998743, 7.494999999999305), (-1.4278382384500314e-27, -3.5527136788004694e-14),8.881784197001252e-15
(-2.9999999999999676, 8.494999999999296), (1.4357268475022415e-27, 3.5527136788004694e-14),8.881784197001252e-15
(-1.999999999999967, 8.494999999999296), (1.437698999765294e-27, 3.5527136788004694e-14),8.881784197001252e-15
(-0.9999999999999666, 8.494999999999296), (1.4327686191076627e-27, 3.5527136788004694e-14),8.881784197001252e-15
(3.362887746050096e-14, 8.494999999999296), (1.4292729792214024e-27, 3.5527136788004694e-14),8.881784197001252e-15
(1.000000000000034, 8.494999999999296), (1.4298103907130839e-27, 3.5527136788004694e-14),8.881784197001252e-15
(2.000000000000035, 8.494999999999296), (1.433754695239189e-27, 3.5527136788004694e-14),8.881784197001252e-15
(3.000000000000035, 8.494999999999296), (1.4278382384500314e-27, 3.5527136788004694e-14),8.881784197001252e-15
(-3.0, 9.494999999999296), (0, 0),0
(-2.0, 9.494999999999296), (0, 0),0
(-1.0, 9.494999999999296), (0, 0),0
(0.0, 9.494999999999296), (0, 0),0
(1.0, 9.494999999999296), (0, 0),0
(2.0, 9.494999999999296), (0, 0),0
(3.0, 9.494999999999296), (0, 0),0
(-3.0, 10.494999999999296), (0, 0),0
(-2.0, 10.494999999999296), (0, 0),0
(-1.0, 10.494999999999296), (0, 0),0
(0.0, 10.494999999999296), (0, 0),0
(1.0, 10.494999999999296), (0, 0),0
(2.0, 10.494999999999296), (0, 0),0
(3.0, 10.494999999999296), (0, 0),0
(-3.0, 11.494999999999296), (0, 0),0
(-2.0, 11.494999999999296), (0, 0),0
(-1.0, 11.494999999999296), (0, 0),0
(0.0, 11.494999999999296), (0, 0),0
(1.0, 11.494999999999296), (0, 0),0
(2.0, 11.494999999999296), (0, 0),0
(3.0, 11.494999999999296), (0, 0),0
(-3.0, 12.494999999999651), (0, 0),0
(-2.0, 12.494999999999651), (0, 0),0
(-1.0, 12.494999999999651), (0, 0),0
(0.0, 12.494999999999651), (0, 0),0
(1.0, 12.494999999999651), (0, 0),0
(2.0, 12.494999999999651), (0, 0),0
(3.0, 12.494999999999651), (0, 0),0
(-3.0, 13.495000000000006), (0, 0),0
(-2.0, 13.495000000000006), (0, 0),0
(-1.0, 13.495000000000006), (0, 0),0
(0.0, 13.495000000000006), (0, 0),0
(1.0, 13.495000000000006), (0, 0),0
(2.0, 13.495000000000006), (0, 0),0
(3.0, 13.495000000000006), (0, 0),0
(-3.0, 14.495000000000362), (0, 0),0
(-2.0, 14.495000000000362), (0, 0),0
(-1.0, 14.495000000000362), (0, 0),0
(0.0, 14.495000000000362), (0, 0),0
(1.0, 14.495000000000362), (0, 0),0
(2.0, 14.495000000000362), (0, 0),0
(3.0, 14.495000000000362), (0, 0),0
