(-3.0, 10.289999999999889), (0, 0),0
(-2.0, 10.289999999999889), (0, 0),0
(-1.0, 10.289999999999889), (0, 0),0
(0.0, 10.289999999999889), (0, 0),0
(1.0, 10.289999999999889), (0, 0),0
(2.0, 10.289999999999889), (0, 0),0
(3.0, 10.289999999999889), (0, 0),0
(-3.0, 11.289999999999889), (0, 0),0
(-2.0, 11.289999999999889), (0, 0),0
(-1.0, 11.289999999999889), (0, 0),0
(0.0, 11.289999999999889), (0, 0),0
(1.0, 11.289999999999889), (0, 0),0
(2.0, 11.289999999999889), (0, 0),0
(3.0, 11.289999999999889), (0, 0),0
(-3.0, 12.289999999999889), (0, 0),0
(-2.0, 12.289999999999889), (0, 0),0
(-1.0, 12.289999999999889), (0, 0),0
(0.0, 12.289999999999889), (0, 0),0
(1.0, 12.289999999999889), (0, 0),0
(2.0, 12.289999999999889), (0, 0),0
(3.0, 12.289999999999889), (0, 0),0
(-3.0, 13.289999999999889), (0, 0),0
(-2.0, 13.289999999999889), (0, 0),0
(-1.0, 13.289999999999889), (0, 0),0
(0.0, 13.289999999999889), (0, 0),0
(1.0, 13.289999999999889), (0, 0),0
(2.0, 13.289999999999889), (0, 0),0
(3.0, 13.289999999999889), (0, 0),0
(-3.0, 14.289999999999889), (0, 0),0
(-2.0, 14.289999999999889), (0, 0),0
(-1.0, 14.289999999999889), (0, 0),0
(0.0, 14.289999999999889), (0, 0),0
(1.0, 14.289999999999889), (0, 0),0
(2.0, 14.289999999999889), (0, 0),0
(3.0, 14.289999999999889), (0, 0),0
(-3.0, 15.289999999999889), (0, 0),0
(-2.0, 15.289999999999889), (0, 0),0
(-1.0, 15.289999999999889), (0, 0),0
(0.0, 15.289999999999889), (0, 0),0
(1.0, 15.289999999999889), (0, 0),0
(2.0, 15.289999999999889), (0, 0),0
(3.0, 15.289999999999889), (0, 0),0
(-3.0, 16.29000000000014), (0, 0),0
(-2.0, 16.29000000000014), (0, 0),0
(-1.0, 16.29000000000014), (0, 0),0
(0.0, 16.29000000000014), (0, 0),0
(1.0, 16.29000000000014), (0, 0),0
(2.0, 16.29000000000014), (0, 0),0
(3.0, 16.29000000000014), (0, 0),0
(-3.0, 17.29000000000014), (0, 0),0
(-2.0, 17.29000000000014), (0, 0),0
(-1.0, 17.29000000000014), (0, 0),0
(0.0, 17.29000000000014), (0, 0),0
(1.0, 17.29000000000014), (0, 0),0
(2.0, 17.29000000000014), (0, 0),0
(3.0, 17.29000000000014), (0, 0),0
(-3.0, 18.29000000000014), (0, 0),0
(-2.0, 18.29000000000014), (0, 0),0
(-1.0, 18.29000000000014), (0, 0),0
(0.0, 18.29000000000014), (0, 0),0
(1.0, 18.29000000000014), (0, 0),0
(2.0, 18.29000000000014), (0, 0),0
(3.0, 18.29000000000014), (0, 0),0
