(-3.0, 9.619999999999784), (0, 0),0
(-2.0, 9.619999999999784), (0, 0),0
(-1.0, 9.619999999999784), (0, 0),0
(0.0, 9.619999999999784), (0, 0),0
(1.0, 9.619999999999784), (0, 0),0
(2.0, 9.619999999999784), (0, 0),0
(3.0, 9.619999999999784), (0, 0),0
(-3.0, 10.619999999999784), (0, 0),0
(-2.0, 10.619999999999784), (0, 0),0
(-1.0, 10.619999999999784), (0, 0),0
(0.0, 10.619999999999784), (0, 0),0
(1.0, 10.619999999999784), (0, 0),0
(2.0, 10.619999999999784), (0, 0),0
(3.0, 10.619999999999784), (0, 0),0
(-3.0, 11.619999999999784), (0, 0),0
(-2.0, 11.619999999999784), (0, 0),0
(-1.0, 11.619999999999784), (0, 0),0
(0.0, 11.619999999999784), (0, 0),0
(1.0, 11.619999999999784), (0, 0),0
(2.0, 11.619999999999784), (0, 0),0
(3.0, 11.619999999999784), (0, 0),0
(-3.0, 12.619999999999784), (0, 0),0
(-2.0, 12.619999999999784), (0, 0),0
(-1.0, 12.619999999999784), (0, 0),0
(0.0, 12.619999999999784), (0, 0),0
(1.0, 12.619999999999784), (0, 0),0
(2.0, 12.619999999999784), (0, 0),0
(3.0, 12.619999999999784), (0, 0),0
(-3.0, 13.619999999999784), (0, 0),0
(-2.0, 13.619999999999784), (0, 0),0
(-1.0, 13.619999999999784), (0, 0),0
(0.0, 13.619999999999784), (0, 0),0
(1.0, 13.619999999999784), (0, 0),0
(2.0, 13.619999999999784), (0, 0),0
(3.0, 13.619999999999784), (0, 0),0
(-3.0, 14.619999999999784), (0, 0),0
(-2.0, 14.619999999999784), (0, 0),0
(-1.0, 14.619999999999784), (0, 0),0
(0.0, 14.619999999999784), (0, 0),0
(1.0, 14.619999999999784), (0, 0),0
(2.0, 14.619999999999784), (0, 0),0
(3.0, 14.619999999999784), (0, 0),0
(-3.0, 15.62000000000014), (0, 0),0
(-2.0, 15.62000000000014), (0, 0),0
(-1.0, 15.62000000000014), (0, 0),0
(0.0, 15.62000000000014), (0, 0),0
(1.0, 15.62000000000014), (0, 0),0
(2.0, 15.62000000000014), (0, 0),0
(3.0, 15.62000000000014), (0, 0),0
(-3.0, 16.620000000000275), (0, 0),0
(-2.0, 16.620000000000275), (0, 0),0
(-1.0, 16.620000000000275), (0, 0),0
(0.0, 16.620000000000275), (0, 0),0
(1.0, 16.620000000000275), (0, 0),0
(2.0, 16.620000000000275), (0, 0),0
(3.0, 16.620000000000275), (0, 0),0
(-3.0, 17.620000000000275), (0, 0),0
(-2.0, 17.620000000000275), (0, 0),0
(-1.0, 17.620000000000275), (0, 0),0
(0.0, 17.620000000000275), (0, 0),0
(1.0, 17.620000000000275), (0, 0),0
(2.0, 17.620000000000275), (0, 0),0
(3.0, 17.620000000000275), (0, 0),0
