(-1.0024297783279228, -2.242767830054459), (-0.04473762511665522, -0.4926975182112312),0.19361718878013434
(0.5416411932776529, -1.5291663055050784), (0.00170822282920223, 0.05461674930388059),0.19451521138564565
(-1.000746525599842, 4.786216613360843), (-0.000702535893859033, -1.349519463964831e-05),0.0007030382576259653
(-0.001461086666018718, 4.791015496811801), (-9.774827032395543e-05, 2.0001585667411094e-05),0.0015039655594004664
(0.99773592211357, 4.788984603679133), (0.0008002841641829885, -6.506391027762783e-06),0.0008009273017745011
(-1.56794851214082, -1.5007390044496374), (-0.0379112076359056, 0.19897631818251196),0.06703793414640191
(-0.34948840186214986, -1.6626546020246649), (-0.0055086719352292896, 0.24089837744321477),0.22550707070964193
(-0.02549673762297955, -0.03233369394802395), (0, 0),0
(-1.9875078649486908, 6.004906509250174), (-0.005257871991828046, 0.0003814347154145978),0.005286685696223925
(-0.992958104673829, 5.98686899305704), (-0.0008710357533785965, -0.0009708135309390068),0.011455417591380801
(0.0005860871265149344, 6.01075472944263), (-0.0007896371294791342, 0.0013324865962369252),0.01313834608602582
(0.9932586634292212, 5.98409945985518), (0.0017238252601498843, -0.001172187284386121),0.0121927220938024
(1.9878235299942755, 6.004637016787166), (0.005194719614535892, 0.000429079503673605),0.005223107902933455
(1.4460416278586181, -1.5338581550752104), (0.08644928185858788, -0.0017939267183761012),0.09558739530973615
(-2.9999999999998663, 7.324999999999122), (1.6329420738074944e-27, -3.5527136788004694e-14),8.881784197001252e-15
(-1.9999999999998654, 7.324999999999122), (1.6408306828597046e-27, -3.5527136788004694e-14),8.881784197001252e-15
(-0.9999999999998651, 7.324999999999122), (1.6339281499390207e-27, -3.5527136788004694e-14),8.881784197001252e-15
(1.3500311979441909e-13, 7.324999999999122), (1.6318593622150797e-27, -3.5527136788004694e-14),8.881784197001252e-15
(1.0000000000001354, 7.324999999999122), (1.6339281499390207e-27, -3.5527136788004694e-14),8.881784197001252e-15
(2.000000000000137, 7.324999999999122), (1.642802835122757e-27, -3.5527136788004694e-14),8.881784197001252e-15
(3.000000000000137, 7.324999999999122), (1.6368863783335995e-27, -3.5527136788004694e-14),8.881784197001252e-15
(-3.00000000000005, 8.324999999999113), (-1.6329420738074944e-27, 3.5527136788004694e-14),8.881784197001252e-15
(-2.00000000000005, 8.324999999999113), (-1.6408306828597046e-27, 3.5527136788004694e-14),8.881784197001252e-15
(-1.000000000000049, 8.324999999999113), (-1.6339281499390207e-27, 3.5527136788004694e-14),8.881784197001252e-15
(-4.872791059540309e-14, 8.324999999999113), (-1.6318593622150797e-27, 3.5527136788004694e-14),8.881784197001252e-15
(0.9999999999999515, 8.324999999999113), (-1.6339281499390207e-27, 3.5527136788004694e-14),8.881784197001252e-15
(1.9999999999999518, 8.324999999999113), (-1.642802835122757e-27, 3.5527136788004694e-14),8.881784197001252e-15
(2.9999999999999525, 8.324999999999113), (-1.6368863783335995e-27, 3.5527136788004694e-14),8.881784197001252e-15
(-3.0, 9.324999999999113), (0, 0),0
(-2.0, 9.324999999999113), (0, 0),0
(-1.0, 9.324999999999113), (0, 0),0
(0.0, 9.324999999999113), (0, 0),0
(1.0, 9.324999999999113), (0, 0),0
(2.0, 9.324999999999113), (0, 0),0
(3.0, 9.324999999999113), (0, 0),0
(-3.0, 10.324999999999113), (0, 0),0
(-2.0, 10.324999999999113), (0, 0),0
(-1.0, 10.324999999999113), (0, 0),0
(0.0, 10.324999999999113), (0, 0),0
(1.0, 10.324999999999113), (0, 0),0
(2.0, 10.324999999999113), (0, 0),0
(3.0, 10.324999999999113), (0, 0),0
(-3.0, 11.324999999999468), (0, 0),0
(-2.0, 11.324999999999468), (0, 0),0
(-1.0, 11.324999999999468), (0, 0),0
(0.0, 11.324999999999468), (0, 0),0
(1.0, 11.324999999999468), (0, 0),0
(2.0, 11.324999999999468), (0, 0),0
(3.0, 11.324999999999468), (0, 0),0
(-3.0, 12.324999999999823), (0, 0),0
(-2.0, 12.324999999999823), (0, 0),0
(-1.0, 12.324999999999823), (0, 0),0
(0.0, 12.324999999999823), (0, 0),0
(1.0, 12.324999999999823), (0, 0),0
(2.0, 12.324999999999823), (0, 0),0
(3.0, 12.324999999999823), (0, 0),0
(-3.0, 13.325000000000179), (0, 0),0
(-2.0, 13.325000000000179), (0, 0),0
(-1.0, 13.325000000000179), (0, 0),0
(0.0, 13.325000000000179), (0, 0),0
(1.0, 13.325000000000179), (0, 0),0
(2.0, 13.325000000000179), (0, 0),0
(3.0, 13.325000000000179), (0, 0),0
