(-1.1044411140067685, -2.4145451275726), (-0.03251438923024112, -0.31558320168286924),0.11914470396122179
(0.5518388349571758, -1.6940533755409644), (0.002345556970066512, 0.02416788986429251),0.11294805586480283
(-1.0011121212221654, 4.720858049466191), (-0.0003973815628586746, -7.0430470047561836e-06),0.0003975435045655562
(-0.001519477159369277, 4.725287154032025), (3.181173027828421e-05, 9.489907481924767e-06),0.0007632475884199463
(0.9981134192726727, 4.723614448841411), (0.00036556983258039037, -2.446860477168584e-06),0.00036570408385439013
(-1.6048952691787595, -1.6000250302534162), (-0.022030099236849603, 0.14342139745594254),0.0440202144575631
(-0.37838641696374475, -1.8416234166751764), (0.00045905739608565616, 0.13784156073137252),0.13326678456533148
(-0.02549673762297955, -0.09733369394802396), (0, 0),0
(-1.990753358834733, 5.936729329766203), (-0.003677988013303929, 0.000316995596560357),0.003692476074171225
(-0.9946770297201423, 5.9152670650017996), (-0.0012559759391500276, -0.0007852209354537107),0.008652429527065242
(8.3102469224207e-05, 5.938867353963189), (0.0010679740306576433, 0.0008792042245108491),0.008842381683394462
(0.995849074760742, 5.912403317719786), (-0.0005940992365822372, -0.0008420839103157314),0.00836390299983436
(1.99107707178045, 5.936452600985209), (0.00446008915837855, 0.00043110502469823596),0.004481474769333915
(1.4958978780711911, -1.6477427620101608), (0.051739874100938554, 0.010152353631261673),0.054805760803130044
(-2.9999999999998606, 7.259999999999112), (1.735493991486226e-27, -3.5527136788004694e-14),8.881784197001252e-15
(-1.9999999999998597, 7.259999999999112), (1.743382600538436e-27, -3.5527136788004694e-14),8.881784197001252e-15
(-0.9999999999998593, 7.259999999999112), (1.7364800676177522e-27, -3.5527136788004694e-14),8.881784197001252e-15
(1.407762795224699e-13, 7.259999999999112), (1.7344112798938113e-27, -3.5527136788004694e-14),8.881784197001252e-15
(1.0000000000001412, 7.259999999999112), (1.7364800676177522e-27, -3.5527136788004694e-14),8.881784197001252e-15
(2.0000000000001426, 7.259999999999112), (1.7453547528014886e-27, -3.5527136788004694e-14),8.881784197001252e-15
(3.0000000000001426, 7.259999999999112), (1.739438296012331e-27, -3.5527136788004694e-14),8.881784197001252e-15
(-3.000000000000056, 8.259999999999103), (-1.735493991486226e-27, 3.5527136788004694e-14),8.881784197001252e-15
(-2.000000000000056, 8.259999999999103), (-1.743382600538436e-27, 3.5527136788004694e-14),8.881784197001252e-15
(-1.0000000000000548, 8.259999999999103), (-1.7364800676177522e-27, 3.5527136788004694e-14),8.881784197001252e-15
(-5.45010703234539e-14, 8.259999999999103), (-1.7344112798938113e-27, 3.5527136788004694e-14),8.881784197001252e-15
(0.9999999999999457, 8.259999999999103), (-1.7364800676177522e-27, 3.5527136788004694e-14),8.881784197001252e-15
(1.999999999999946, 8.259999999999103), (-1.7453547528014886e-27, 3.5527136788004694e-14),8.881784197001252e-15
(2.9999999999999467, 8.259999999999103), (-1.739438296012331e-27, 3.5527136788004694e-14),8.881784197001252e-15
(-3.0, 9.259999999999103), (0, 0),0
(-2.0, 9.259999999999103), (0, 0),0
(-1.0, 9.259999999999103), (0, 0),0
(0.0, 9.259999999999103), (0, 0),0
(1.0, 9.259999999999103), (0, 0),0
(2.0, 9.259999999999103), (0, 0),0
(3.0, 9.259999999999103), (0, 0),0
(-3.0, 10.259999999999103), (0, 0),0
(-2.0, 10.259999999999103), (0, 0),0
(-1.0, 10.259999999999103), (0, 0),0
(0.0, 10.259999999999103), (0, 0),0
(1.0, 10.259999999999103), (0, 0),0
(2.0, 10.259999999999103), (0, 0),0
(3.0, 10.259999999999103), (0, 0),0
(-3.0, 11.259999999999458), (0, 0),0
(-2.0, 11.259999999999458), (0, 0),0
(-1.0, 11.259999999999458), (0, 0),0
(0.0, 11.259999999999458), (0, 0),0
(1.0, 11.259999999999458), (0, 0),0
(2.0, 11.259999999999458), (0, 0),0
(3.0, 11.259999999999458), (0, 0),0
(-3.0, 12.259999999999813), (0, 0),0
(-2.0, 12.259999999999813), (0, 0),0
(-1.0, 12.259999999999813), (0, 0),0
(0.0, 12.259999999999813), (0, 0),0
(1.0, 12.259999999999813), (0, 0),0
(2.0, 12.259999999999813), (0, 0),0
(3.0, 12.259999999999813), (0, 0),0
(-3.0, 13.260000000000169), (0, 0),0
(-2.0, 13.260000000000169), (0, 0),0
(-1.0, 13.260000000000169), (0, 0),0
(0.0, 13.260000000000169), (0, 0),0
(1.0, 13.260000000000169), (0, 0),0
(2.0, 13.260000000000169), (0, 0),0
(3.0, 13.260000000000169), (0, 0),0
