(-1.0557900570732721, -2.328603205200101), (-0.03364252218137731, -0.3832726442710799),0.14632225421059109
(0.543866065901012, -1.611717817526732), (0.01798923916604675, 0.04620764631573017),0.16346673814373514
(-1.0009465634524863, 4.756020421293419), (-0.0005141538768980227, -9.460432345435173e-06),0.0005144239486173374
(-0.0014715617929419499, 4.760618006792142), (-7.083009048017633e-05, 1.3756530281956023e-05),0.0010997515102980637
(0.997941426207246, 4.758783094933479), (0.000584983967378199, -4.296097936520849e-06),0.0005853275616807263
(-1.586898096587334, -1.5483450836717112), (-0.029814496038353306, 0.17520354385511236),0.05613640506295503
(-0.3521650558178069, -1.7518245243358943), (-0.019946658236528955, 0.15590388355766124),0.183267076389241
(-0.02549673762297955, -0.06233369394802393), (0, 0),0
(-1.9891224550339055, 5.973325782602394), (-0.004807580851214463, 0.00038230263349157),0.004831877832248144
(-0.9941509308930263, 5.953545551874081), (-0.00015052319453472823, -0.0008556867926672854),0.009816237935915684
(0.0005813803019395001, 5.977289028936833), (-0.0008007089470635281, 0.0010887459945841933),0.010778803140833126
(0.9944323778655819, 5.950739374748262), (0.001070572836453309, -0.0010353515530939026),0.010506058119581385
(1.989471249749742, 5.973024181037557), (0.00468824015635941, 0.0004199897176854244),0.004711615082415799
(1.4732396891339306, -1.5905573170692586), (0.06541443729021282, 0.005957570542576073),0.07038551090213019
(-2.9999999999998637, 7.294999999999117), (1.680273728120755e-27, -3.5527136788004694e-14),8.881784197001252e-15
(-1.9999999999998628, 7.294999999999117), (1.6881623371729653e-27, -3.5527136788004694e-14),8.881784197001252e-15
(-0.9999999999998624, 7.294999999999117), (1.6812598042522814e-27, -3.5527136788004694e-14),8.881784197001252e-15
(1.3766765505351946e-13, 7.294999999999117), (1.6791910165283404e-27, -3.5527136788004694e-14),8.881784197001252e-15
(1.0000000000001381, 7.294999999999117), (1.6812598042522814e-27, -3.5527136788004694e-14),8.881784197001252e-15
(2.0000000000001394, 7.294999999999117), (1.6901344894360178e-27, -3.5527136788004694e-14),8.881784197001252e-15
(3.0000000000001394, 7.294999999999117), (1.6842180326468602e-27, -3.5527136788004694e-14),8.881784197001252e-15
(-3.000000000000053, 8.294999999999108), (-1.680273728120755e-27, 3.5527136788004694e-14),8.881784197001252e-15
(-2.000000000000053, 8.294999999999108), (-1.6881623371729653e-27, 3.5527136788004694e-14),8.881784197001252e-15
(-1.0000000000000517, 8.294999999999108), (-1.6812598042522814e-27, 3.5527136788004694e-14),8.881784197001252e-15
(-5.1392445854503464e-14, 8.294999999999108), (-1.6791910165283404e-27, 3.5527136788004694e-14),8.881784197001252e-15
(0.9999999999999488, 8.294999999999108), (-1.6812598042522814e-27, 3.5527136788004694e-14),8.881784197001252e-15
(1.9999999999999492, 8.294999999999108), (-1.6901344894360178e-27, 3.5527136788004694e-14),8.881784197001252e-15
(2.99999999999995, 8.294999999999108), (-1.6842180326468602e-27, 3.5527136788004694e-14),8.881784197001252e-15
(-3.0, 9.294999999999108), (0, 0),0
(-2.0, 9.294999999999108), (0, 0),0
(-1.0, 9.294999999999108), (0, 0),0
(0.0, 9.294999999999108), (0, 0),0
(1.0, 9.294999999999108), (0, 0),0
(2.0, 9.294999999999108), (0, 0),0
(3.0, 9.294999999999108), (0, 0),0
(-3.0, 10.294999999999108), (0, 0),0
(-2.0, 10.294999999999108), (0, 0),0
(-1.0, 10.294999999999108), (0, 0),0
(0.0, 10.294999999999108), (0, 0),0
(1.0, 10.294999999999108), (0, 0),0
(2.0, 10.294999999999108), (0, 0),0
(3.0, 10.294999999999108), (0, 0),0
(-3.0, 11.294999999999463), (0, 0),0
(-2.0, 11.294999999999463), (0, 0),0
(-1.0, 11.294999999999463), (0, 0),0
(0.0, 11.294999999999463), (0, 0),0
(1.0, 11.294999999999463), (0, 0),0
(2.0, 11.294999999999463), (0, 0),0
(3.0, 11.294999999999463), (0, 0),0
(-3.0, 12.294999999999819), (0, 0),0
(-2.0, 12.294999999999819), (0, 0),0
(-1.0, 12.294999999999819), (0, 0),0
(0.0, 12.294999999999819), (0, 0),0
(1.0, 12.294999999999819), (0, 0),0
(2.0, 12.294999999999819), (0, 0),0
(3.0, 12.294999999999819), (0, 0),0
(-3.0, 13.295000000000174), (0, 0),0
(-2.0, 13.295000000000174), (0, 0),0
(-1.0, 13.295000000000174), (0, 0),0
(0.0, 13.295000000000174), (0, 0),0
(1.0, 13.295000000000174), (0, 0),0
(2.0, 13.295000000000174), (0, 0),0
(3.0, 13.295000000000174), (0, 0),0
