(-3.0, 10.48499999999992), (0, 0),0
(-2.0, 10.48499999999992), (0, 0),0
(-1.0, 10.48499999999992), (0, 0),0
(0.0, 10.48499999999992), (0, 0),0
(1.0, 10.48499999999992), (0, 0),0
(2.0, 10.48499999999992), (0, 0),0
(3.0, 10.48499999999992), (0, 0),0
(-3.0, 11.48499999999992), (0, 0),0
(-2.0, 11.48499999999992), (0, 0),0
(-1.0, 11.48499999999992), (0, 0),0
(0.0, 11.48499999999992), (0, 0),0
(1.0, 11.48499999999992), (0, 0),0
(2.0, 11.48499999999992), (0, 0),0
(3.0, 11.48499999999992), (0, 0),0
(-3.0, 12.48499999999992), (0, 0),0
(-2.0, 12.48499999999992), (0, 0),0
(-1.0, 12.48499999999992), (0, 0),0
(0.0, 12.48499999999992), (0, 0),0
(1.0, 12.48499999999992), (0, 0),0
(2.0, 12.48499999999992), (0, 0),0
(3.0, 12.48499999999992), (0, 0),0
(-3.0, 13.48499999999992), (0, 0),0
(-2.0, 13.48499999999992), (0, 0),0
(-1.0, 13.48499999999992), (0, 0),0
(0.0, 13.48499999999992), (0, 0),0
(1.0, 13.48499999999992), (0, 0),0
(2.0, 13.48499999999992), (0, 0),0
(3.0, 13.48499999999992), (0, 0),0
(-3.0, 14.48499999999992), (0, 0),0
(-2.0, 14.48499999999992), (0, 0),0
(-1.0, 14.48499999999992), (0, 0),0
(0.0, 14.48499999999992), (0, 0),0
(1.0, 14.48499999999992), (0, 0),0
(2.0, 14.48499999999992), (0, 0),0
(3.0, 14.48499999999992), (0, 0),0
(-3.0, 15.48499999999992), (0, 0),0
(-2.0, 15.48499999999992), (0, 0),0
(-1.0, 15.48499999999992), (0, 0),0
(0.0, 15.48499999999992), (0, 0),0
(1.0, 15.48499999999992), (0, 0),0
(2.0, 15.48499999999992), (0, 0),0
(3.0, 15.48499999999992), (0, 0),0
(-3.0, 16.485000000000102), (0, 0),0
(-2.0, 16.485000000000102), (0, 0),0
(-1.0, 16.485000000000102), (0, 0),0
(0.0, 16.485000000000102), (0, 0),0
(1.0, 16.485000000000102), (0, 0),0
(2.0, 16.485000000000102), (0, 0),0
(3.0, 16.485000000000102), (0, 0),0
(-3.0, 17.485000000000102), (0, 0),0
(-2.0, 17.485000000000102), (0, 0),0
(-1.0, 17.485000000000102), (0, 0),0
(0.0, 17.485000000000102), (0, 0),0
(1.0, 17.485000000000102), (0, 0),0
(2.0, 17.485000000000102), (0, 0),0
(3.0, 17.485000000000102), (0, 0),0
(-3.0, 18.485000000000102), (0, 0),0
(-2.0, 18.485000000000102), (0, 0),0
(-1.0, 18.485000000000102), (0, 0),0
(0.0, 18.485000000000102), (0, 0),0
(1.0, 18.485000000000102), (0, 0),0
(2.0, 18.485000000000102), (0, 0),0
(3.0, 18.485000000000102), (0, 0),0
