(-3.0000000000000586, 7.314999999999433), (0.0, -3.5527136788004694e-14),8.881784197001252e-15
(-2.0000000000000586, 7.314999999999433), (0.0, -3.5527136788004694e-14),8.881784197001252e-15
(-1.000000000000058, 7.314999999999433), (0.0, -3.5527136788004694e-14),8.881784197001252e-15
(-5.752653908785988e-14, 7.314999999999433), (0.0, -3.5527136788004694e-14),8.881784197001252e-15
(0.9999999999999427, 7.314999999999433), (0.0, -3.5527136788004694e-14),8.881784197001252e-15
(1.9999999999999432, 7.314999999999433), (0.0, -3.5527136788004694e-14),8.881784197001252e-15
(2.999999999999943, 7.314999999999433), (0.0, -3.5527136788004694e-14),8.881784197001252e-15
(-3.0000000000000586, 8.314999999999424), (0.0, 3.5527136788004694e-14),8.881784197001252e-15
(-2.0000000000000586, 8.314999999999424), (0.0, 3.5527136788004694e-14),8.881784197001252e-15
(-1.000000000000058, 8.314999999999424), (0.0, 3.5527136788004694e-14),8.881784197001252e-15
(-5.752653908785988e-14, 8.314999999999424), (0.0, 3.5527136788004694e-14),8.881784197001252e-15
(0.9999999999999427, 8.314999999999424), (0.0, 3.5527136788004694e-14),8.881784197001252e-15
(1.9999999999999432, 8.314999999999424), (0.0, 3.5527136788004694e-14),8.881784197001252e-15
(2.999999999999943, 8.314999999999424), (0.0, 3.5527136788004694e-14),8.881784197001252e-15
(-3.0, 9.314999999999424), (0, 0),0
(-2.0, 9.314999999999424), (0, 0),0
(-1.0, 9.314999999999424), (0, 0),0
(0.0, 9.314999999999424), (0, 0),0
(1.0, 9.314999999999424), (0, 0),0
(2.0, 9.314999999999424), (0, 0),0
(3.0, 9.314999999999424), (0, 0),0
(-3.0, 10.314999999999424), (0, 0),0
(-2.0, 10.314999999999424), (0, 0),0
(-1.0, 10.314999999999424), (0, 0),0
(0.0, 10.314999999999424), (0, 0),0
(1.0, 10.314999999999424), (0, 0),0
(2.0, 10.314999999999424), (0, 0),0
(3.0, 10.314999999999424), (0, 0),0
(-3.0, 11.314999999999424), (0, 0),0
(-2.0, 11.314999999999424), (0, 0),0
(-1.0, 11.314999999999424), (0, 0),0
(0.0, 11.314999999999424), (0, 0),0
(1.0, 11.314999999999424), (0, 0),0
(2.0, 11.314999999999424), (0, 0),0
(3.0, 11.314999999999424), (0, 0),0
(-3.0, 12.314999999999424), (0, 0),0
(-2.0, 12.314999999999424), (0, 0),0
(-1.0, 12.314999999999424), (0, 0),0
(0.0, 12.314999999999424), (0, 0),0
(1.0, 12.314999999999424), (0, 0),0
(2.0, 12.314999999999424), (0, 0),0
(3.0, 12.314999999999424), (0, 0),0
(-3.0, 13.31499999999978), (0, 0),0
(-2.0, 13.31499999999978), (0, 0),0
(-1.0, 13.31499999999978), (0, 0),0
(0.0, 13.31499999999978), (0, 0),0
(1.0, 13.31499999999978), (0, 0),0
(2.0, 13.31499999999978), (0, 0),0
(3.0, 13.31499999999978), (0, 0),0
(-3.0, 14.315000000000135), (0, 0),0
(-2.0, 14.315000000000135), (0, 0),0
(-1.0, 14.315000000000135), (0, 0),0
(0.0, 14.315000000000135), (0, 0),0
(1.0, 14.315000000000135), (0, 0),0
(2.0, 14.315000000000135), (0, 0),0
(3.0, 14.315000000000135), (0, 0),0
(-3.0, 15.31500000000049), (0, 0),0
(-2.0, 15.31500000000049), (0, 0),0
(-1.0, 15.31500000000049), (0, 0),0
(0.0, 15.31500000000049), (0, 0),0
(1.0, 15.31500000000049), (0, 0),0
(2.0, 15.31500000000049), (0, 0),0
(3.0, 15.31500000000049), (0, 0),0
