(-3.0, 9.84499999999982), (0, 0),0
(-2.0, 9.84499999999982), (0, 0),0
(-1.0, 9.84499999999982), (0, 0),0
(0.0, 9.84499999999982), (0, 0),0
(1.0, 9.84499999999982), (0, 0),0
(2.0, 9.84499999999982), (0, 0),0
(3.0, 9.84499999999982), (0, 0),0
(-3.0, 10.84499999999982), (0, 0),0
(-2.0, 10.84499999999982), (0, 0),0
(-1.0, 10.84499999999982), (0, 0),0
(0.0, 10.84499999999982), (0, 0),0
(1.0, 10.84499999999982), (0, 0),0
(2.0, 10.84499999999982), (0, 0),0
(3.0, 10.84499999999982), (0, 0),0
(-3.0, 11.84499999999982), (0, 0),0
(-2.0, 11.84499999999982), (0, 0),0
(-1.0, 11.84499999999982), (0, 0),0
(0.0, 11.84499999999982), (0, 0),0
(1.0, 11.84499999999982), (0, 0),0
(2.0, 11.84499999999982), (0, 0),0
(3.0, 11.84499999999982), (0, 0),0
(-3.0, 12.84499999999982), (0, 0),0
(-2.0, 12.84499999999982), (0, 0),0
(-1.0, 12.84499999999982), (0, 0),0
(0.0, 12.84499999999982), (0, 0),0
(1.0, 12.84499999999982), (0, 0),0
(2.0, 12.84499999999982), (0, 0),0
(3.0, 12.84499999999982), (0, 0),0
(-3.0, 13.84499999999982), (0, 0),0
(-2.0, 13.84499999999982), (0, 0),0
(-1.0, 13.84499999999982), (0, 0),0
(0.0, 13.84499999999982), (0, 0),0
(1.0, 13.84499999999982), (0, 0),0
(2.0, 13.84499999999982), (0, 0),0
(3.0, 13.84499999999982), (0, 0),0
(-3.0, 14.84499999999982), (0, 0),0
(-2.0, 14.84499999999982), (0, 0),0
(-1.0, 14.84499999999982), (0, 0),0
(0.0, 14.84499999999982), (0, 0),0
(1.0, 14.84499999999982), (0, 0),0
(2.0, 14.84499999999982), (0, 0),0
(3.0, 14.84499999999982), (0, 0),0
(-3.0, 15.845000000000175), (0, 0),0
(-2.0, 15.845000000000175), (0, 0),0
(-1.0, 15.845000000000175), (0, 0),0
(0.0, 15.845000000000175), (0, 0),0
(1.0, 15.845000000000175), (0, 0),0
(2.0, 15.845000000000175), (0, 0),0
(3.0, 15.845000000000175), (0, 0),0
(-3.0, 16.84500000000023), (0, 0),0
(-2.0, 16.84500000000023), (0, 0),0
(-1.0, 16.84500000000023), (0, 0),0
(0.0, 16.84500000000023), (0, 0),0
(1.0, 16.84500000000023), (0, 0),0
(2.0, 16.84500000000023), (0, 0),0
(3.0, 16.84500000000023), (0, 0),0
(-3.0, 17.84500000000023), (0, 0),0
(-2.0, 17.84500000000023), (0, 0),0
(-1.0, 17.84500000000023), (0, 0),0
(0.0, 17.84500000000023), (0, 0),0
(1.0, 17.84500000000023), (0, 0),0
(2.0, 17.84500000000023), (0, 0),0
(3.0, 17.84500000000023), (0, 0),0
