(-1.1564507157854576, -2.5240673849870174), (-0.017271179077594383, -0.1904355457975216),0.06918902474899236
(0.5591898964136283, -1.8020495086496262), (0.009482354182065979, 0.01713287813707414),0.07809590625818863
(-1.001278349206579, 4.665695023074166), (-0.00020142135959034553, -3.4365000767947586e-06),0.00020146377945473581
(-0.0014889074741996407, 4.669959437360069), (-2.6939015120274764e-05, 4.815962230292497e-06),0.00042987658698057096
(0.9982815396571026, 4.6684496028542455), (0.0002283603747106203, -1.3794621534977385e-06),0.00022841280752583515
(-1.6253590138152045, -1.673944641816409), (-0.013660478753619924, 0.09906485954585913),0.02913251655178284
(-0.3842501615352217, -1.9538062066922273), (-0.010987746844772245, 0.06439896554109587),0.08448901275624243
(-0.02549673762297955, -0.152333693948024), (0, 0),0
(-1.9927569376831213, 5.8797684188563455), (-0.003509402388899928, 0.00033301122520881777),0.003522799863188486
(-0.9965600133073017, 5.856135851144465), (0.0008001341633941824, -0.0005877619762873431),0.006240200817301811
(0.0004471531930011264, 5.879572837016288), (-0.001101953440725975, 0.000657813810703632),0.006544601939617034
(0.9962719558797392, 5.853243996360167), (0.0010163842679709306, -0.0006969517510529117),0.00663086448377137
(1.9931238962027042, 5.879449770663092), (0.00279483739826079, 0.00029388869142780505),0.002803663498267661
(1.5227600900561233, -1.7289817104111966), (0.03243705049392057, 0.009838842573492467),0.033663401699155715
(-2.9999999999998557, 7.204999999999103), (1.8222686910605373e-27, -3.5527136788004694e-14),8.881784197001252e-15
(-1.9999999999998548, 7.204999999999103), (1.8301573001127474e-27, -3.5527136788004694e-14),8.881784197001252e-15
(-0.9999999999998544, 7.204999999999103), (1.8232547671920635e-27, -3.5527136788004694e-14),8.881784197001252e-15
(1.456612608308206e-13, 7.204999999999103), (1.8211859794681226e-27, -3.5527136788004694e-14),8.881784197001252e-15
(1.000000000000146, 7.204999999999103), (1.8232547671920635e-27, -3.5527136788004694e-14),8.881784197001252e-15
(2.0000000000001474, 7.204999999999103), (1.8321294523758e-27, -3.5527136788004694e-14),8.881784197001252e-15
(3.0000000000001474, 7.204999999999103), (1.8262129955866423e-27, -3.5527136788004694e-14),8.881784197001252e-15
(-3.000000000000061, 8.204999999999094), (-1.8222686910605373e-27, 3.5527136788004694e-14),8.881784197001252e-15
(-2.000000000000061, 8.204999999999094), (-1.8301573001127474e-27, 3.5527136788004694e-14),8.881784197001252e-15
(-1.0000000000000597, 8.204999999999094), (-1.8232547671920635e-27, 3.5527136788004694e-14),8.881784197001252e-15
(-5.938605163180459e-14, 8.204999999999094), (-1.8211859794681226e-27, 3.5527136788004694e-14),8.881784197001252e-15
(0.9999999999999408, 8.204999999999094), (-1.8232547671920635e-27, 3.5527136788004694e-14),8.881784197001252e-15
(1.9999999999999412, 8.204999999999094), (-1.8321294523758e-27, 3.5527136788004694e-14),8.881784197001252e-15
(2.999999999999942, 8.204999999999094), (-1.8262129955866423e-27, 3.5527136788004694e-14),8.881784197001252e-15
(-3.0, 9.204999999999094), (0, 0),0
(-2.0, 9.204999999999094), (0, 0),0
(-1.0, 9.204999999999094), (0, 0),0
(0.0, 9.204999999999094), (0, 0),0
(1.0, 9.204999999999094), (0, 0),0
(2.0, 9.204999999999094), (0, 0),0
(3.0, 9.204999999999094), (0, 0),0
(-3.0, 10.204999999999094), (0, 0),0
(-2.0, 10.204999999999094), (0, 0),0
(-1.0, 10.204999999999094), (0, 0),0
(0.0, 10.204999999999094), (0, 0),0
(1.0, 10.204999999999094), (0, 0),0
(2.0, 10.204999999999094), (0, 0),0
(3.0, 10.204999999999094), (0, 0),0
(-3.0, 11.20499999999945), (0, 0),0
(-2.0, 11.20499999999945), (0, 0),0
(-1.0, 11.20499999999945), (0, 0),0
(0.0, 11.20499999999945), (0, 0),0
(1.0, 11.20499999999945), (0, 0),0
(2.0, 11.20499999999945), (0, 0),0
(3.0, 11.20499999999945), (0, 0),0
(-3.0, 12.204999999999805), (0, 0),0
(-2.0, 12.204999999999805), (0, 0),0
(-1.0, 12.204999999999805), (0, 0),0
(0.0, 12.204999999999805), (0, 0),0
(1.0, 12.204999999999805), (0, 0),0
(2.0, 12.204999999999805), (0, 0),0
(3.0, 12.204999999999805), (0, 0),0
(-3.0, 13.20500000000016), (0, 0),0
(-2.0, 13.20500000000016), (0, 0),0
(-1.0, 13.20500000000016), (0, 0),0
(0.0, 13.20500000000016), (0, 0),0
(1.0, 13.20500000000016), (0, 0),0
(2.0, 13.20500000000016), (0, 0),0
(3.0, 13.20500000000016), (0, 0),0
