(-2.290345959536006, 5.70346282675609), (-0.049210284734819774, -0.3662023919600494),0.11781976856401921
(-1.8726716988020733, 6.480502190403006), (0.0026690146968615797, 0.3401673068549487),0.16725810828002396
(-0.9312713543465067, 6.6121565160471185), (-0.020027960734789345, 0.01744662280184967),0.12119057050919435
(-0.0035060425665975454, 6.642080541433888), (0.01563141227053532, 0.015003347364647132),0.12561666613873745
(0.9421609485647309, 6.612307254940473), (-0.0057515447291819136, 0.025138721050274208),0.1148149765138119
(1.872248887815242, 6.482884260874836), (0.008219190129988688, 0.3300202874525651),0.17698270075190958
(2.28997939697175, 5.703846158719236), (0.048470173101405445, -0.36157389356423547),0.11603215958364554
(-3.000000000000105, 7.769999999999348), (-1.001853349630685e-27, -3.5527136788004694e-14),8.881784197001252e-15
(-2.0000000000001044, 7.769999999999348), (-1.0038255018937375e-27, -3.5527136788004694e-14),8.881784197001252e-15
(-1.0000000000001035, 7.769999999999348), (-9.988951212361062e-28, -3.5527136788004694e-14),8.881784197001252e-15
(-1.0286804741355128e-13, 7.769999999999348), (-9.953994813498459e-28, -3.5527136788004694e-14),8.881784197001252e-15
(0.9999999999998974, 7.769999999999348), (-9.959368928415274e-28, -3.5527136788004694e-14),8.881784197001252e-15
(1.999999999999898, 7.769999999999348), (-9.998811973676325e-28, -3.5527136788004694e-14),8.881784197001252e-15
(2.9999999999998987, 7.769999999999348), (-9.939647405784749e-28, -3.5527136788004694e-14),8.881784197001252e-15
(-2.999999999999992, 8.769999999999339), (1.001853349630685e-27, 3.5527136788004694e-14),8.881784197001252e-15
(-1.9999999999999913, 8.769999999999339), (1.0038255018937375e-27, 3.5527136788004694e-14),8.881784197001252e-15
(-0.999999999999991, 8.769999999999339), (9.988951212361062e-28, 3.5527136788004694e-14),8.881784197001252e-15
(9.203970918747493e-15, 8.769999999999339), (9.953994813498459e-28, 3.5527136788004694e-14),8.881784197001252e-15
(1.0000000000000095, 8.769999999999339), (9.959368928415274e-28, 3.5527136788004694e-14),8.881784197001252e-15
(2.0000000000000107, 8.769999999999339), (9.998811973676325e-28, 3.5527136788004694e-14),8.881784197001252e-15
(3.0000000000000107, 8.769999999999339), (9.939647405784749e-28, 3.5527136788004694e-14),8.881784197001252e-15
(-3.0, 9.769999999999339), (0, 0),0
(-2.0, 9.769999999999339), (0, 0),0
(-1.0, 9.769999999999339), (0, 0),0
(0.0, 9.769999999999339), (0, 0),0
(1.0, 9.769999999999339), (0, 0),0
(2.0, 9.769999999999339), (0, 0),0
(3.0, 9.769999999999339), (0, 0),0
(-3.0, 10.769999999999339), (0, 0),0
(-2.0, 10.769999999999339), (0, 0),0
(-1.0, 10.769999999999339), (0, 0),0
(0.0, 10.769999999999339), (0, 0),0
(1.0, 10.769999999999339), (0, 0),0
(2.0, 10.769999999999339), (0, 0),0
(3.0, 10.769999999999339), (0, 0),0
(-3.0, 11.769999999999339), (0, 0),0
(-2.0, 11.769999999999339), (0, 0),0
(-1.0, 11.769999999999339), (0, 0),0
(0.0, 11.769999999999339), (0, 0),0
(1.0, 11.769999999999339), (0, 0),0
(2.0, 11.769999999999339), (0, 0),0
(3.0, 11.769999999999339), (0, 0),0
(-3.0, 12.769999999999694), (0, 0),0
(-2.0, 12.769999999999694), (0, 0),0
(-1.0, 12.769999999999694), (0, 0),0
(0.0, 12.769999999999694), (0, 0),0
(1.0, 12.769999999999694), (0, 0),0
(2.0, 12.769999999999694), (0, 0),0
(3.0, 12.769999999999694), (0, 0),0
(-3.0, 13.77000000000005), (0, 0),0
(-2.0, 13.77000000000005), (0, 0),0
(-1.0, 13.77000000000005), (0, 0),0
(0.0, 13.77000000000005), (0, 0),0
(1.0, 13.77000000000005), (0, 0),0
(2.0, 13.77000000000005), (0, 0),0
(3.0, 13.77000000000005), (0, 0),0
(-3.0, 14.770000000000405), (0, 0),0
(-2.0, 14.770000000000405), (0, 0),0
(-1.0, 14.770000000000405), (0, 0),0
(0.0, 14.770000000000405), (0, 0),0
(1.0, 14.770000000000405), (0, 0),0
(2.0, 14.770000000000405), (0, 0),0
(3.0, 14.770000000000405), (0, 0),0
