(-3.0, 8.75999999999965), (0, 0),0
(-2.0, 8.75999999999965), (0, 0),0
(-1.0, 8.75999999999965), (0, 0),0
(0.0, 8.75999999999965), (0, 0),0
(1.0, 8.75999999999965), (0, 0),0
(2.0, 8.75999999999965), (0, 0),0
(3.0, 8.75999999999965), (0, 0),0
(-3.0, 9.75999999999965), (0, 0),0
(-2.0, 9.75999999999965), (0, 0),0
(-1.0, 9.75999999999965), (0, 0),0
(0.0, 9.75999999999965), (0, 0),0
(1.0, 9.75999999999965), (0, 0),0
(2.0, 9.75999999999965), (0, 0),0
(3.0, 9.75999999999965), (0, 0),0
(-3.0, 10.75999999999965), (0, 0),0
(-2.0, 10.75999999999965), (0, 0),0
(-1.0, 10.75999999999965), (0, 0),0
(0.0, 10.75999999999965), (0, 0),0
(1.0, 10.75999999999965), (0, 0),0
(2.0, 10.75999999999965), (0, 0),0
(3.0, 10.75999999999965), (0, 0),0
(-3.0, 11.75999999999965), (0, 0),0
(-2.0, 11.75999999999965), (0, 0),0
(-1.0, 11.75999999999965), (0, 0),0
(0.0, 11.75999999999965), (0, 0),0
(1.0, 11.75999999999965), (0, 0),0
(2.0, 11.75999999999965), (0, 0),0
(3.0, 11.75999999999965), (0, 0),0
(-3.0, 12.75999999999965), (0, 0),0
(-2.0, 12.75999999999965), (0, 0),0
(-1.0, 12.75999999999965), (0, 0),0
(0.0, 12.75999999999965), (0, 0),0
(1.0, 12.75999999999965), (0, 0),0
(2.0, 12.75999999999965), (0, 0),0
(3.0, 12.75999999999965), (0, 0),0
(-3.0, 13.75999999999965), (0, 0),0
(-2.0, 13.75999999999965), (0, 0),0
(-1.0, 13.75999999999965), (0, 0),0
(0.0, 13.75999999999965), (0, 0),0
(1.0, 13.75999999999965), (0, 0),0
(2.0, 13.75999999999965), (0, 0),0
(3.0, 13.75999999999965), (0, 0),0
(-3.0, 14.760000000000005), (0, 0),0
(-2.0, 14.760000000000005), (0, 0),0
(-1.0, 14.760000000000005), (0, 0),0
(0.0, 14.760000000000005), (0, 0),0
(1.0, 14.760000000000005), (0, 0),0
(2.0, 14.760000000000005), (0, 0),0
(3.0, 14.760000000000005), (0, 0),0
(-3.0, 15.76000000000036), (0, 0),0
(-2.0, 15.76000000000036), (0, 0),0
(-1.0, 15.76000000000036), (0, 0),0
(0.0, 15.76000000000036), (0, 0),0
(1.0, 15.76000000000036), (0, 0),0
(2.0, 15.76000000000036), (0, 0),0
(3.0, 15.76000000000036), (0, 0),0
(-3.0, 16.760000000000446), (0, 0),0
(-2.0, 16.760000000000446), (0, 0),0
(-1.0, 16.760000000000446), (0, 0),0
(0.0, 16.760000000000446), (0, 0),0
(1.0, 16.760000000000446), (0, 0),0
(2.0, 16.760000000000446), (0, 0),0
(3.0, 16.760000000000446), (0, 0),0
