(-3.0, 10.899999999999984), (0, 0),0
(-2.0, 10.899999999999984), (0, 0),0
(-1.0, 10.899999999999984), (0, 0),0
(0.0, 10.899999999999984), (0, 0),0
(1.0, 10.899999999999984), (0, 0),0
(2.0, 10.899999999999984), (0, 0),0
(3.0, 10.899999999999984), (0, 0),0
(-3.0, 11.899999999999984), (0, 0),0
(-2.0, 11.899999999999984), (0, 0),0
(-1.0, 11.899999999999984), (0, 0),0
(0.0, 11.899999999999984), (0, 0),0
(1.0, 11.899999999999984), (0, 0),0
(2.0, 11.899999999999984), (0, 0),0
(3.0, 11.899999999999984), (0, 0),0
(-3.0, 12.899999999999984), (0, 0),0
(-2.0, 12.899999999999984), (0, 0),0
(-1.0, 12.899999999999984), (0, 0),0
(0.0, 12.899999999999984), (0, 0),0
(1.0, 12.899999999999984), (0, 0),0
(2.0, 12.899999999999984), (0, 0),0
(3.0, 12.899999999999984), (0, 0),0
(-3.0, 13.899999999999984), (0, 0),0
(-2.0, 13.899999999999984), (0, 0),0
(-1.0, 13.899999999999984), (0, 0),0
(0.0, 13.899999999999984), (0, 0),0
(1.0, 13.899999999999984), (0, 0),0
(2.0, 13.899999999999984), (0, 0),0
(3.0, 13.899999999999984), (0, 0),0
(-3.0, 14.899999999999984), (0, 0),0
(-2.0, 14.899999999999984), (0, 0),0
(-1.0, 14.899999999999984), (0, 0),0
(0.0, 14.899999999999984), (0, 0),0
(1.0, 14.899999999999984), (0, 0),0
(2.0, 14.899999999999984), (0, 0),0
(3.0, 14.899999999999984), (0, 0),0
(-3.0, 15.899999999999984), (0, 0),0
(-2.0, 15.899999999999984), (0, 0),0
(-1.0, 15.899999999999984), (0, 0),0
(0.0, 15.899999999999984), (0, 0),0
(1.0, 15.899999999999984), (0, 0),0
(2.0, 15.899999999999984), (0, 0),0
(3.0, 15.899999999999984), (0, 0),0
(-3.0, 16.90000000000002), (0, 0),0
(-2.0, 16.90000000000002), (0, 0),0
(-1.0, 16.90000000000002), (0, 0),0
(0.0, 16.90000000000002), (0, 0),0
(1.0, 16.90000000000002), (0, 0),0
(2.0, 16.90000000000002), (0, 0),0
(3.0, 16.90000000000002), (0, 0),0
(-3.0, 17.90000000000002), (0, 0),0
(-2.0, 17.90000000000002), (0, 0),0
(-1.0, 17.90000000000002), (0, 0),0
(0.0, 17.90000000000002), (0, 0),0
(1.0, 17.90000000000002), (0, 0),0
(2.0, 17.90000000000002), (0, 0),0
(3.0, 17.90000000000002), (0, 0),0
(-3.0, 18.90000000000002), (0, 0),0
(-2.0, 18.90000000000002), (0, 0),0
(-1.0, 18.90000000000002), (0, 0),0
(0.0, 18.90000000000002), (0, 0),0
(1.0, 18.90000000000002), (0, 0),0
(2.0, 18.90000000000002), (0, 0),0
(3.0, 18.90000000000002), (0, 0),0
