(-3.0, 10.449999999999914), (0, 0),0
(-2.0, 10.449999999999914), (0, 0),0
(-1.0, 10.449999999999914), (0, 0),0
(0.0, 10.449999999999914), (0, 0),0
(1.0, 10.449999999999914), (0, 0),0
(2.0, 10.449999999999914), (0, 0),0
(3.0, 10.449999999999914), (0, 0),0
(-3.0, 11.449999999999914), (0, 0),0
(-2.0, 11.449999999999914), (0, 0),0
(-1.0, 11.449999999999914), (0, 0),0
(0.0, 11.449999999999914), (0, 0),0
(1.0, 11.449999999999914), (0, 0),0
(2.0, 11.449999999999914), (0, 0),0
(3.0, 11.449999999999914), (0, 0),0
(-3.0, 12.449999999999914), (0, 0),0
(-2.0, 12.449999999999914), (0, 0),0
(-1.0, 12.449999999999914), (0, 0),0
(0.0, 12.449999999999914), (0, 0),0
(1.0, 12.449999999999914), (0, 0),0
(2.0, 12.449999999999914), (0, 0),0
(3.0, 12.449999999999914), (0, 0),0
(-3.0, 13.449999999999914), (0, 0),0
(-2.0, 13.449999999999914), (0, 0),0
(-1.0, 13.449999999999914), (0, 0),0
(0.0, 13.449999999999914), (0, 0),0
(1.0, 13.449999999999914), (0, 0),0
(2.0, 13.449999999999914), (0, 0),0
(3.0, 13.449999999999914), (0, 0),0
(-3.0, 14.449999999999914), (0, 0),0
(-2.0, 14.449999999999914), (0, 0),0
(-1.0, 14.449999999999914), (0, 0),0
(0.0, 14.449999999999914), (0, 0),0
(1.0, 14.449999999999914), (0, 0),0
(2.0, 14.449999999999914), (0, 0),0
(3.0, 14.449999999999914), (0, 0),0
(-3.0, 15.449999999999914), (0, 0),0
(-2.0, 15.449999999999914), (0, 0),0
(-1.0, 15.449999999999914), (0, 0),0
(0.0, 15.449999999999914), (0, 0),0
(1.0, 15.449999999999914), (0, 0),0
(2.0, 15.449999999999914), (0, 0),0
(3.0, 15.449999999999914), (0, 0),0
(-3.0, 16.45000000000011), (0, 0),0
(-2.0, 16.45000000000011), (0, 0),0
(-1.0, 16.45000000000011), (0, 0),0
(0.0, 16.45000000000011), (0, 0),0
(1.0, 16.45000000000011), (0, 0),0
(2.0, 16.45000000000011), (0, 0),0
(3.0, 16.45000000000011), (0, 0),0
(-3.0, 17.45000000000011), (0, 0),0
(-2.0, 17.45000000000011), (0, 0),0
(-1.0, 17.45000000000011), (0, 0),0
(0.0, 17.45000000000011), (0, 0),0
(1.0, 17.45000000000011), (0, 0),0
(2.0, 17.45000000000011), (0, 0),0
(3.0, 17.45000000000011), (0, 0),0
(-3.0, 18.45000000000011), (0, 0),0
(-2.0, 18.45000000000011), (0, 0),0
(-1.0, 18.45000000000011), (0, 0),0
(0.0, 18.45000000000011), (0, 0),0
(1.0, 18.45000000000011), (0, 0),0
(2.0, 18.45000000000011), (0, 0),0
(3.0, 18.45000000000011), (0, 0),0
