(-3.0000000000000364, 7.564999999999472), (0.0, -3.5527136788004694e-14),8.881784197001252e-15
(-2.0000000000000364, 7.564999999999472), (0.0, -3.5527136788004694e-14),8.881784197001252e-15
(-1.0000000000000357, 7.564999999999472), (0.0, -3.5527136788004694e-14),8.881784197001252e-15
(-3.5322078595356745e-14, 7.564999999999472), (0.0, -3.5527136788004694e-14),8.881784197001252e-15
(0.9999999999999649, 7.564999999999472), (0.0, -3.5527136788004694e-14),8.881784197001252e-15
(1.9999999999999654, 7.564999999999472), (0.0, -3.5527136788004694e-14),8.881784197001252e-15
(2.9999999999999654, 7.564999999999472), (0.0, -3.5527136788004694e-14),8.881784197001252e-15
(-3.0000000000000364, 8.564999999999463), (0.0, 3.5527136788004694e-14),8.881784197001252e-15
(-2.0000000000000364, 8.564999999999463), (0.0, 3.5527136788004694e-14),8.881784197001252e-15
(-1.0000000000000357, 8.564999999999463), (0.0, 3.5527136788004694e-14),8.881784197001252e-15
(-3.5322078595356745e-14, 8.564999999999463), (0.0, 3.5527136788004694e-14),8.881784197001252e-15
(0.9999999999999649, 8.564999999999463), (0.0, 3.5527136788004694e-14),8.881784197001252e-15
(1.9999999999999654, 8.564999999999463), (0.0, 3.5527136788004694e-14),8.881784197001252e-15
(2.9999999999999654, 8.564999999999463), (0.0, 3.5527136788004694e-14),8.881784197001252e-15
(-3.0, 9.564999999999463), (0, 0),0
(-2.0, 9.564999999999463), (0, 0),0
(-1.0, 9.564999999999463), (0, 0),0
(0.0, 9.564999999999463), (0, 0),0
(1.0, 9.564999999999463), (0, 0),0
(2.0, 9.564999999999463), (0, 0),0
(3.0, 9.564999999999463), (0, 0),0
(-3.0, 10.564999999999463), (0, 0),0
(-2.0, 10.564999999999463), (0, 0),0
(-1.0, 10.564999999999463), (0, 0),0
(0.0, 10.564999999999463), (0, 0),0
(1.0, 10.564999999999463), (0, 0),0
(2.0, 10.564999999999463), (0, 0),0
(3.0, 10.564999999999463), (0, 0),0
(-3.0, 11.564999999999463), (0, 0),0
(-2.0, 11.564999999999463), (0, 0),0
(-1.0, 11.564999999999463), (0, 0),0
(0.0, 11.564999999999463), (0, 0),0
(1.0, 11.564999999999463), (0, 0),0
(2.0, 11.564999999999463), (0, 0),0
(3.0, 11.564999999999463), (0, 0),0
(-3.0, 12.564999999999463), (0, 0),0
(-2.0, 12.564999999999463), (0, 0),0
(-1.0, 12.564999999999463), (0, 0),0
(0.0, 12.564999999999463), (0, 0),0
(1.0, 12.564999999999463), (0, 0),0
(2.0, 12.564999999999463), (0, 0),0
(3.0, 12.564999999999463), (0, 0),0
(-3.0, 13.564999999999818), (0, 0),0
(-2.0, 13.564999999999818), (0, 0),0
(-1.0, 13.564999999999818), (0, 0),0
(0.0, 13.564999999999818), (0, 0),0
(1.0, 13.564999999999818), (0, 0),0
(2.0, 13.564999999999818), (0, 0),0
(3.0, 13.564999999999818), (0, 0),0
(-3.0, 14.565000000000174), (0, 0),0
(-2.0, 14.565000000000174), (0, 0),0
(-1.0, 14.565000000000174), (0, 0),0
(0.0, 14.565000000000174), (0, 0),0
(1.0, 14.565000000000174), (0, 0),0
(2.0, 14.565000000000174), (0, 0),0
(3.0, 14.565000000000174), (0, 0),0
(-3.0, 15.565000000000529), (0, 0),0
(-2.0, 15.565000000000529), (0, 0),0
(-1.0, 15.565000000000529), (0, 0),0
(0.0, 15.565000000000529), (0, 0),0
(1.0, 15.565000000000529), (0, 0),0
(2.0, 15.565000000000529), (0, 0),0
(3.0, 15.565000000000529), (0, 0),0
