(-3.000000000000025, 7.694999999999492), (0.0, -3.5527136788004694e-14),8.881784197001252e-15
(-2.000000000000025, 7.694999999999492), (0.0, -3.5527136788004694e-14),8.881784197001252e-15
(-1.0000000000000242, 7.694999999999492), (0.0, -3.5527136788004694e-14),8.881784197001252e-15
(-2.3775759139255114e-14, 7.694999999999492), (0.0, -3.5527136788004694e-14),8.881784197001252e-15
(0.9999999999999765, 7.694999999999492), (0.0, -3.5527136788004694e-14),8.881784197001252e-15
(1.999999999999977, 7.694999999999492), (0.0, -3.5527136788004694e-14),8.881784197001252e-15
(2.999999999999977, 7.694999999999492), (0.0, -3.5527136788004694e-14),8.881784197001252e-15
(-3.000000000000025, 8.694999999999483), (0.0, 3.5527136788004694e-14),8.881784197001252e-15
(-2.000000000000025, 8.694999999999483), (0.0, 3.5527136788004694e-14),8.881784197001252e-15
(-1.0000000000000242, 8.694999999999483), (0.0, 3.5527136788004694e-14),8.881784197001252e-15
(-2.3775759139255114e-14, 8.694999999999483), (0.0, 3.5527136788004694e-14),8.881784197001252e-15
(0.9999999999999765, 8.694999999999483), (0.0, 3.5527136788004694e-14),8.881784197001252e-15
(1.999999999999977, 8.694999999999483), (0.0, 3.5527136788004694e-14),8.881784197001252e-15
(2.999999999999977, 8.694999999999483), (0.0, 3.5527136788004694e-14),8.881784197001252e-15
(-3.0, 9.694999999999483), (0, 0),0
(-2.0, 9.694999999999483), (0, 0),0
(-1.0, 9.694999999999483), (0, 0),0
(0.0, 9.694999999999483), (0, 0),0
(1.0, 9.694999999999483), (0, 0),0
(2.0, 9.694999999999483), (0, 0),0
(3.0, 9.694999999999483), (0, 0),0
(-3.0, 10.694999999999483), (0, 0),0
(-2.0, 10.694999999999483), (0, 0),0
(-1.0, 10.694999999999483), (0, 0),0
(0.0, 10.694999999999483), (0, 0),0
(1.0, 10.694999999999483), (0, 0),0
(2.0, 10.694999999999483), (0, 0),0
(3.0, 10.694999999999483), (0, 0),0
(-3.0, 11.694999999999483), (0, 0),0
(-2.0, 11.694999999999483), (0, 0),0
(-1.0, 11.694999999999483), (0, 0),0
(0.0, 11.694999999999483), (0, 0),0
(1.0, 11.694999999999483), (0, 0),0
(2.0, 11.694999999999483), (0, 0),0
(3.0, 11.694999999999483), (0, 0),0
(-3.0, 12.694999999999483), (0, 0),0
(-2.0, 12.694999999999483), (0, 0),0
(-1.0, 12.694999999999483), (0, 0),0
(0.0, 12.694999999999483), (0, 0),0
(1.0, 12.694999999999483), (0, 0),0
(2.0, 12.694999999999483), (0, 0),0
(3.0, 12.694999999999483), (0, 0),0
(-3.0, 13.694999999999839), (0, 0),0
(-2.0, 13.694999999999839), (0, 0),0
(-1.0, 13.694999999999839), (0, 0),0
(0.0, 13.694999999999839), (0, 0),0
(1.0, 13.694999999999839), (0, 0),0
(2.0, 13.694999999999839), (0, 0),0
(3.0, 13.694999999999839), (0, 0),0
(-3.0, 14.695000000000194), (0, 0),0
(-2.0, 14.695000000000194), (0, 0),0
(-1.0, 14.695000000000194), (0, 0),0
(0.0, 14.695000000000194), (0, 0),0
(1.0, 14.695000000000194), (0, 0),0
(2.0, 14.695000000000194), (0, 0),0
(3.0, 14.695000000000194), (0, 0),0
(-3.0, 15.69500000000055), (0, 0),0
(-2.0, 15.69500000000055), (0, 0),0
(-1.0, 15.69500000000055), (0, 0),0
(0.0, 15.69500000000055), (0, 0),0
(1.0, 15.69500000000055), (0, 0),0
(2.0, 15.69500000000055), (0, 0),0
(3.0, 15.69500000000055), (0, 0),0
