(-1.235598784176267, -3.2984795507928215), (-1.1888186659801973e-06, -0.0005240667838459851),0.00016621027253993503
(0.5700776713499411, -2.5675895692897317), (1.8531050560533146e-05, 1.987274666015393e-05),0.00011503554912639657
(-0.08559532586270874, 1.934809976996108), (0, 0),0
(-0.01038841635051687, 3.3207014356183997), (0, 0),0
(-0.0768370141077763, -0.20580125898579052), (0.01441268841955308, 0.7257173158594536),0.29309245949934415
(-1.6650282343153677, -2.3954987721390166), (-4.639392742530079e-05, 0.0003902184603104077),0.00010803620340960052
(-0.41766139725090834, -2.7232734257248787), (-1.863216916918231e-05, 9.210210253865879e-05),0.00012521091860340228
(-0.13737240772550852, -1.3720292607188365), (-0.15545082433066557, -0.779846431188433),0.41984776393276346
(-0.7987603534578607, -0.7041431275458219), (-0.12835289582575632, -0.08431586031058541),0.18282834515227042
(-0.9924714544083689, 4.968904413931135), (-0.007240079392683366, -6.656953362355991e-05),0.0072932906080297455
(0.00023263237410538933, 4.971186289740055), (0.0005840546377950976, 0.00026428397090361107),0.013994403810567158
(0.9935041312599814, 4.963810110913335), (0.006656024754888268, -0.00019771443728005116),0.006701113202537412
(0.35896833699877323, -0.9118127856442471), (0.02556438294526971, 0.6541067025051971),0.9551441958567406
(1.5635184321273672, -2.4536621374283163), (4.768386469993015e-05, 2.1873474336764645e-05),4.7998699653328813e-05
(0.8112689611809416, -1.2044340131515099), (-0.00025568494873762226, -0.7083939210476465),0.9581774989912663
(-1.9685339228770047, 6.222282278691103), (-0.015026712691516333, 2.6564825485677523e-05),0.015259568592726258
(-0.9837935876437347, 6.221847062824346), (-0.00022131754902581478, -0.0017849311921180368),0.030754011871010678
(0.00030309570805618115, 6.250217981595863), (-0.001517977680862509, 0.0035733798091105657),0.0325577465596929
(0.982880012082288, 6.223625629978112), (0.001667484320913069, -0.0017913257710776215),0.03239694872585852
(1.9675462908996613, 6.2232394258056205), (0.015098523600491588, -2.368767140058507e-05),0.01533364544445004
(1.340770888647481, -1.0995717440612502), (0.2440823337403367, 0.19273219418201426),0.46061974305564424
(-3.0000000000001195, 7.519999999998996), (-1.3292306252974049e-27, -3.5527136788004694e-14),8.881784197001252e-15
(-2.0000000000001195, 7.519999999998996), (-1.3351470820865625e-27, -3.5527136788004694e-14),8.881784197001252e-15
(-1.0000000000001181, 7.519999999998996), (-1.3262723969028261e-27, -3.5527136788004694e-14),8.881784197001252e-15
(-1.1768364061026664e-13, 7.519999999998996), (-1.324203609178885e-27, -3.5527136788004694e-14),8.881784197001252e-15
(0.9999999999998824, 7.519999999998996), (-1.3262723969028261e-27, -3.5527136788004694e-14),8.881784197001252e-15
(1.9999999999998828, 7.519999999998996), (-1.33317492982351e-27, -3.5527136788004694e-14),8.881784197001252e-15
(2.9999999999998836, 7.519999999998996), (-1.3252863207712998e-27, -3.5527136788004694e-14),8.881784197001252e-15
(-2.99999999999997, 8.519999999998987), (1.3292306252974049e-27, 3.5527136788004694e-14),8.881784197001252e-15
(-1.9999999999999691, 8.519999999998987), (1.3351470820865625e-27, 3.5527136788004694e-14),8.881784197001252e-15
(-0.9999999999999688, 8.519999999998987), (1.3262723969028261e-27, 3.5527136788004694e-14),8.881784197001252e-15
(3.1408431411250646e-14, 8.519999999998987), (1.324203609178885e-27, 3.5527136788004694e-14),8.881784197001252e-15
(1.0000000000000318, 8.519999999998987), (1.3262723969028261e-27, 3.5527136788004694e-14),8.881784197001252e-15
(2.000000000000033, 8.519999999998987), (1.33317492982351e-27, 3.5527136788004694e-14),8.881784197001252e-15
(3.000000000000033, 8.519999999998987), (1.3252863207712998e-27, 3.5527136788004694e-14),8.881784197001252e-15
(-3.0, 9.519999999998987), (0, 0),0
(-2.0, 9.519999999998987), (0, 0),0
(-1.0, 9.519999999998987), (0, 0),0
(0.0, 9.519999999998987), (0, 0),0
(1.0, 9.519999999998987), (0, 0),0
(2.0, 9.519999999998987), (0, 0),0
(3.0, 9.519999999998987), (0, 0),0
(-3.0, 10.519999999999342), (0, 0),0
(-2.0, 10.519999999999342), (0, 0),0
(-1.0, 10.519999999999342), (0, 0),0
(0.0, 10.519999999999342), (0, 0),0
(1.0, 10.519999999999342), (0, 0),0
(2.0, 10.519999999999342), (0, 0),0
(3.0, 10.519999999999342), (0, 0),0
(-3.0, 11.519999999999698), (0, 0),0
(-2.0, 11.519999999999698), (0, 0),0
(-1.0, 11.519999999999698), (0, 0),0
(0.0, 11.519999999999698), (0, 0),0
(1.0, 11.519999999999698), (0, 0),0
(2.0, 11.519999999999698), (0, 0),0
(3.0, 11.519999999999698), (0, 0),0
(-3.0, 12.520000000000053), (0, 0),0
(-2.0, 12.520000000000053), (0, 0),0
(-1.0, 12.520000000000053), (0, 0),0
(0.0, 12.520000000000053), (0, 0),0
(1.0, 12.520000000000053), (0, 0),0
(2.0, 12.520000000000053), (0, 0),0
(3.0, 12.520000000000053), (0, 0),0
