(-3.0, 8.779999999999653), (0, 0),0
(-2.0, 8.779999999999653), (0, 0),0
(-1.0, 8.779999999999653), (0, 0),0
(0.0, 8.779999999999653), (0, 0),0
(1.0, 8.779999999999653), (0, 0),0
(2.0, 8.779999999999653), (0, 0),0
(3.0, 8.779999999999653), (0, 0),0
(-3.0, 9.779999999999653), (0, 0),0
(-2.0, 9.779999999999653), (0, 0),0
(-1.0, 9.779999999999653), (0, 0),0
(0.0, 9.779999999999653), (0, 0),0
(1.0, 9.779999999999653), (0, 0),0
(2.0, 9.779999999999653), (0, 0),0
(3.0, 9.779999999999653), (0, 0),0
(-3.0, 10.779999999999653), (0, 0),0
(-2.0, 10.779999999999653), (0, 0),0
(-1.0, 10.779999999999653), (0, 0),0
(0.0, 10.779999999999653), (0, 0),0
(1.0, 10.779999999999653), (0, 0),0
(2.0, 10.779999999999653), (0, 0),0
(3.0, 10.779999999999653), (0, 0),0
(-3.0, 11.779999999999653), (0, 0),0
(-2.0, 11.779999999999653), (0, 0),0
(-1.0, 11.779999999999653), (0, 0),0
(0.0, 11.779999999999653), (0, 0),0
(1.0, 11.779999999999653), (0, 0),0
(2.0, 11.779999999999653), (0, 0),0
(3.0, 11.779999999999653), (0, 0),0
(-3.0, 12.779999999999653), (0, 0),0
(-2.0, 12.779999999999653), (0, 0),0
(-1.0, 12.779999999999653), (0, 0),0
(0.0, 12.779999999999653), (0, 0),0
(1.0, 12.779999999999653), (0, 0),0
(2.0, 12.779999999999653), (0, 0),0
(3.0, 12.779999999999653), (0, 0),0
(-3.0, 13.779999999999653), (0, 0),0
(-2.0, 13.779999999999653), (0, 0),0
(-1.0, 13.779999999999653), (0, 0),0
(0.0, 13.779999999999653), (0, 0),0
(1.0, 13.779999999999653), (0, 0),0
(2.0, 13.779999999999653), (0, 0),0
(3.0, 13.779999999999653), (0, 0),0
(-3.0, 14.780000000000008), (0, 0),0
(-2.0, 14.780000000000008), (0, 0),0
(-1.0, 14.780000000000008), (0, 0),0
(0.0, 14.780000000000008), (0, 0),0
(1.0, 14.780000000000008), (0, 0),0
(2.0, 14.780000000000008), (0, 0),0
(3.0, 14.780000000000008), (0, 0),0
(-3.0, 15.780000000000364), (0, 0),0
(-2.0, 15.780000000000364), (0, 0),0
(-1.0, 15.780000000000364), (0, 0),0
(0.0, 15.780000000000364), (0, 0),0
(1.0, 15.780000000000364), (0, 0),0
(2.0, 15.780000000000364), (0, 0),0
(3.0, 15.780000000000364), (0, 0),0
(-3.0, 16.78000000000044), (0, 0),0
(-2.0, 16.78000000000044), (0, 0),0
(-1.0, 16.78000000000044), (0, 0),0
(0.0, 16.78000000000044), (0, 0),0
(1.0, 16.78000000000044), (0, 0),0
(2.0, 16.78000000000044), (0, 0),0
(3.0, 16.78000000000044), (0, 0),0
