(-0.5670401770220647, -1.662878484661369), (-0.001328160846032293, -0.9917949277217433),0.42910147402626586
(0.4262592297561221, -1.1804106584864404), (-0.032804935707539916, 0.021836514396810693),0.11890389593970441
(-0.9987455401475662, 4.913179351403775), (-0.0028636652567883957, -7.816965504973324e-05),0.0028719802076411227
(-0.0016407379733049308, 4.9199838599134225), (0.0002073879509058847, 0.00012068606871171305),0.005535372437808439
(0.9956878851997234, 4.915993045757286), (0.002656277305882511, -4.251641366197982e-05),0.0026633922301673163
(-1.4773226715493322, -1.2903712784003591), (-0.0401552017937835, 0.00186225874310314),0.042962329689765544
(-0.5275400643036797, -1.076862354130719), (0.0027625832490571246, 1.0067474058911783),0.479765487217371
(-0.02549673762297955, 1.8073966055451645), (0, 0),0
(-1.977207087728165, 6.139996951224209), (-0.01135617603973763, 0.0003348933951112936),0.011488469594136075
(-0.988722420846683, 6.13270935315975), (0.0002641819876534682, -0.0014359243226826628),0.022709796685389194
(-0.0002480664425385602, 6.157239226467462), (0.0006385799249339335, 0.0022450182383192694),0.021790357203262056
(0.9888128044573048, 6.130179333113387), (-0.0007865131289160592, -0.0015837925253711865),0.021938766033380297
(1.9773957701301421, 6.139849857074207), (0.011239927256066288, 0.0004398052146232865),0.01136973592137136
(1.3396542705572918, -1.3038063533711417), (0.07152571509829858, -0.038651251309348766),0.07830753606409002
(-2.9999999999998774, 7.449999999999141), (1.4357268475022415e-27, -3.5527136788004694e-14),8.881784197001252e-15
(-1.9999999999998765, 7.449999999999141), (1.4436154565544516e-27, -3.5527136788004694e-14),8.881784197001252e-15
(-0.9999999999998762, 7.449999999999141), (1.4367129236337678e-27, -3.5527136788004694e-14),8.881784197001252e-15
(1.2390088954816752e-13, 7.449999999999141), (1.4346441359098266e-27, -3.5527136788004694e-14),8.881784197001252e-15
(1.0000000000001243, 7.449999999999141), (1.4367129236337678e-27, -3.5527136788004694e-14),8.881784197001252e-15
(2.0000000000001257, 7.449999999999141), (1.4455876088175041e-27, -3.5527136788004694e-14),8.881784197001252e-15
(3.0000000000001257, 7.449999999999141), (1.4396711520283465e-27, -3.5527136788004694e-14),8.881784197001252e-15
(-3.000000000000039, 8.449999999999132), (-1.4357268475022415e-27, 3.5527136788004694e-14),8.881784197001252e-15
(-2.000000000000039, 8.449999999999132), (-1.4436154565544516e-27, 3.5527136788004694e-14),8.881784197001252e-15
(-1.000000000000038, 8.449999999999132), (-1.4367129236337678e-27, 3.5527136788004694e-14),8.881784197001252e-15
(-3.762568034915152e-14, 8.449999999999132), (-1.4346441359098266e-27, 3.5527136788004694e-14),8.881784197001252e-15
(0.9999999999999626, 8.449999999999132), (-1.4367129236337678e-27, 3.5527136788004694e-14),8.881784197001252e-15
(1.999999999999963, 8.449999999999132), (-1.4455876088175041e-27, 3.5527136788004694e-14),8.881784197001252e-15
(2.9999999999999636, 8.449999999999132), (-1.4396711520283465e-27, 3.5527136788004694e-14),8.881784197001252e-15
(-3.0, 9.449999999999132), (0, 0),0
(-2.0, 9.449999999999132), (0, 0),0
(-1.0, 9.449999999999132), (0, 0),0
(0.0, 9.449999999999132), (0, 0),0
(1.0, 9.449999999999132), (0, 0),0
(2.0, 9.449999999999132), (0, 0),0
(3.0, 9.449999999999132), (0, 0),0
(-3.0, 10.449999999999132), (0, 0),0
(-2.0, 10.449999999999132), (0, 0),0
(-1.0, 10.449999999999132), (0, 0),0
(0.0, 10.449999999999132), (0, 0),0
(1.0, 10.449999999999132), (0, 0),0
(2.0, 10.449999999999132), (0, 0),0
(3.0, 10.449999999999132), (0, 0),0
(-3.0, 11.449999999999488), (0, 0),0
(-2.0, 11.449999999999488), (0, 0),0
(-1.0, 11.449999999999488), (0, 0),0
(0.0, 11.449999999999488), (0, 0),0
(1.0, 11.449999999999488), (0, 0),0
(2.0, 11.449999999999488), (0, 0),0
(3.0, 11.449999999999488), (0, 0),0
(-3.0, 12.449999999999843), (0, 0),0
(-2.0, 12.449999999999843), (0, 0),0
(-1.0, 12.449999999999843), (0, 0),0
(0.0, 12.449999999999843), (0, 0),0
(1.0, 12.449999999999843), (0, 0),0
(2.0, 12.449999999999843), (0, 0),0
(3.0, 12.449999999999843), (0, 0),0
(-3.0, 13.450000000000198), (0, 0),0
(-2.0, 13.450000000000198), (0, 0),0
(-1.0, 13.450000000000198), (0, 0),0
(0.0, 13.450000000000198), (0, 0),0
(1.0, 13.450000000000198), (0, 0),0
(2.0, 13.450000000000198), (0, 0),0
(3.0, 13.450000000000198), (0, 0),0
