(-3.0000000000000786, 7.089999999999398), (0.0, -3.5527136788004694e-14),8.881784197001252e-15
(-2.0000000000000786, 7.089999999999398), (0.0, -3.5527136788004694e-14),8.881784197001252e-15
(-1.000000000000078, 7.089999999999398), (0.0, -3.5527136788004694e-14),8.881784197001252e-15
(-7.751055353111269e-14, 7.089999999999398), (0.0, -3.5527136788004694e-14),8.881784197001252e-15
(0.9999999999999227, 7.089999999999398), (0.0, -3.5527136788004694e-14),8.881784197001252e-15
(1.9999999999999232, 7.089999999999398), (0.0, -3.5527136788004694e-14),8.881784197001252e-15
(2.999999999999923, 7.089999999999398), (0.0, -3.5527136788004694e-14),8.881784197001252e-15
(-3.0000000000000786, 8.089999999999389), (0.0, 3.5527136788004694e-14),8.881784197001252e-15
(-2.0000000000000786, 8.089999999999389), (0.0, 3.5527136788004694e-14),8.881784197001252e-15
(-1.000000000000078, 8.089999999999389), (0.0, 3.5527136788004694e-14),8.881784197001252e-15
(-7.751055353111269e-14, 8.089999999999389), (0.0, 3.5527136788004694e-14),8.881784197001252e-15
(0.9999999999999227, 8.089999999999389), (0.0, 3.5527136788004694e-14),8.881784197001252e-15
(1.9999999999999232, 8.089999999999389), (0.0, 3.5527136788004694e-14),8.881784197001252e-15
(2.999999999999923, 8.089999999999389), (0.0, 3.5527136788004694e-14),8.881784197001252e-15
(-3.0, 9.089999999999389), (0, 0),0
(-2.0, 9.089999999999389), (0, 0),0
(-1.0, 9.089999999999389), (0, 0),0
(0.0, 9.089999999999389), (0, 0),0
(1.0, 9.089999999999389), (0, 0),0
(2.0, 9.089999999999389), (0, 0),0
(3.0, 9.089999999999389), (0, 0),0
(-3.0, 10.089999999999389), (0, 0),0
(-2.0, 10.089999999999389), (0, 0),0
(-1.0, 10.089999999999389), (0, 0),0
(0.0, 10.089999999999389), (0, 0),0
(1.0, 10.089999999999389), (0, 0),0
(2.0, 10.089999999999389), (0, 0),0
(3.0, 10.089999999999389), (0, 0),0
(-3.0, 11.089999999999389), (0, 0),0
(-2.0, 11.089999999999389), (0, 0),0
(-1.0, 11.089999999999389), (0, 0),0
(0.0, 11.089999999999389), (0, 0),0
(1.0, 11.089999999999389), (0, 0),0
(2.0, 11.089999999999389), (0, 0),0
(3.0, 11.089999999999389), (0, 0),0
(-3.0, 12.089999999999389), (0, 0),0
(-2.0, 12.089999999999389), (0, 0),0
(-1.0, 12.089999999999389), (0, 0),0
(0.0, 12.089999999999389), (0, 0),0
(1.0, 12.089999999999389), (0, 0),0
(2.0, 12.089999999999389), (0, 0),0
(3.0, 12.089999999999389), (0, 0),0
(-3.0, 13.089999999999744), (0, 0),0
(-2.0, 13.089999999999744), (0, 0),0
(-1.0, 13.089999999999744), (0, 0),0
(0.0, 13.089999999999744), (0, 0),0
(1.0, 13.089999999999744), (0, 0),0
(2.0, 13.089999999999744), (0, 0),0
(3.0, 13.089999999999744), (0, 0),0
(-3.0, 14.0900000000001), (0, 0),0
(-2.0, 14.0900000000001), (0, 0),0
(-1.0, 14.0900000000001), (0, 0),0
(0.0, 14.0900000000001), (0, 0),0
(1.0, 14.0900000000001), (0, 0),0
(2.0, 14.0900000000001), (0, 0),0
(3.0, 14.0900000000001), (0, 0),0
(-3.0, 15.090000000000455), (0, 0),0
(-2.0, 15.090000000000455), (0, 0),0
(-1.0, 15.090000000000455), (0, 0),0
(0.0, 15.090000000000455), (0, 0),0
(1.0, 15.090000000000455), (0, 0),0
(2.0, 15.090000000000455), (0, 0),0
(3.0, 15.090000000000455), (0, 0),0
