(-0.8809643534543833, -1.0012607635688222), (0.15784467831876375, -0.306605954200042),0.7315937452215525
(0.842376310895661, -0.6033138799497022), (-0.05760218365816395, 0.7104896417745348),0.7481395003414772
(-0.9933386107785592, 5.023484952951173), (-0.0075979980098848255, -0.0003768656756670317),0.007657215079715951
(-0.0010721103883576497, 5.035789219964168), (-0.0011409651510411126, 0.0007042340981317583),0.016474302496446547
(0.9900673382626317, 5.0265070044492255), (0.008738963160925938, -0.0003273684224647266),0.008817087416730596
(-1.2312603268086397, -0.9444017598985608), (-0.22598274049605616, 0.14672339334356624),0.6451194352368945
(-0.09300707239158866, -0.5390351589793156), (0.009760196414918244, 0.17592926260992772),0.14888493947137693
(-0.02549673762297955, 1.9123966055451622), (0, 0),0
(-1.9618732912749033, 6.260035786563189), (-0.019370036405849157, -0.000683689173509711),0.01976129946155636
(-0.9816727511468801, 6.268685131395493), (0.0027800381091246246, -0.0010443369438124929),0.0366418754132698
(0.001113520137932756, 6.294277062059844), (-0.0022517450954422057, 0.0038423358092031373),0.03609908313550536
(0.9815093028060615, 6.266773499066355), (-0.000521552843357441, -0.0015955545225380514),0.038972456222861385
(1.9617333682436786, 6.260208290657686), (0.01936329623552418, -0.0005187551693428824),0.019753949039069463
(1.0115102854882276, -0.8681912879194009), (0.11598004942053809, -0.7265363435279867),0.6857288708547583
(-2.9999999999998868, 7.554999999999158), (1.270066057405829e-27, -3.5527136788004694e-14),8.881784197001252e-15
(-1.9999999999998859, 7.554999999999158), (1.2779546664580391e-27, -3.5527136788004694e-14),8.881784197001252e-15
(-0.9999999999998855, 7.554999999999158), (1.2710521335373553e-27, -3.5527136788004694e-14),8.881784197001252e-15
(1.145750161413162e-13, 7.554999999999158), (1.268983345813414e-27, -3.5527136788004694e-14),8.881784197001252e-15
(1.000000000000115, 7.554999999999158), (1.2710521335373553e-27, -3.5527136788004694e-14),8.881784197001252e-15
(2.0000000000001164, 7.554999999999158), (1.2799268187210917e-27, -3.5527136788004694e-14),8.881784197001252e-15
(3.0000000000001164, 7.554999999999158), (1.274010361931934e-27, -3.5527136788004694e-14),8.881784197001252e-15
(-3.0000000000000298, 8.554999999999149), (-1.270066057405829e-27, 3.5527136788004694e-14),8.881784197001252e-15
(-2.0000000000000298, 8.554999999999149), (-1.2779546664580391e-27, 3.5527136788004694e-14),8.881784197001252e-15
(-1.0000000000000286, 8.554999999999149), (-1.2710521335373553e-27, 3.5527136788004694e-14),8.881784197001252e-15
(-2.8299806942300205e-14, 8.554999999999149), (-1.268983345813414e-27, 3.5527136788004694e-14),8.881784197001252e-15
(0.9999999999999719, 8.554999999999149), (-1.2710521335373553e-27, 3.5527136788004694e-14),8.881784197001252e-15
(1.9999999999999722, 8.554999999999149), (-1.2799268187210917e-27, 3.5527136788004694e-14),8.881784197001252e-15
(2.999999999999973, 8.554999999999149), (-1.274010361931934e-27, 3.5527136788004694e-14),8.881784197001252e-15
(-3.0, 9.554999999999149), (0, 0),0
(-2.0, 9.554999999999149), (0, 0),0
(-1.0, 9.554999999999149), (0, 0),0
(0.0, 9.554999999999149), (0, 0),0
(1.0, 9.554999999999149), (0, 0),0
(2.0, 9.554999999999149), (0, 0),0
(3.0, 9.554999999999149), (0, 0),0
(-3.0, 10.554999999999149), (0, 0),0
(-2.0, 10.554999999999149), (0, 0),0
(-1.0, 10.554999999999149), (0, 0),0
(0.0, 10.554999999999149), (0, 0),0
(1.0, 10.554999999999149), (0, 0),0
(2.0, 10.554999999999149), (0, 0),0
(3.0, 10.554999999999149), (0, 0),0
(-3.0, 11.554999999999504), (0, 0),0
(-2.0, 11.554999999999504), (0, 0),0
(-1.0, 11.554999999999504), (0, 0),0
(0.0, 11.554999999999504), (0, 0),0
(1.0, 11.554999999999504), (0, 0),0
(2.0, 11.554999999999504), (0, 0),0
(3.0, 11.554999999999504), (0, 0),0
(-3.0, 12.55499999999986), (0, 0),0
(-2.0, 12.55499999999986), (0, 0),0
(-1.0, 12.55499999999986), (0, 0),0
(0.0, 12.55499999999986), (0, 0),0
(1.0, 12.55499999999986), (0, 0),0
(2.0, 12.55499999999986), (0, 0),0
(3.0, 12.55499999999986), (0, 0),0
(-3.0, 13.555000000000215), (0, 0),0
(-2.0, 13.555000000000215), (0, 0),0
(-1.0, 13.555000000000215), (0, 0),0
(0.0, 13.555000000000215), (0, 0),0
(1.0, 13.555000000000215), (0, 0),0
(2.0, 13.555000000000215), (0, 0),0
(3.0, 13.555000000000215), (0, 0),0
