(-3.000000000000047, 7.444999999999453), (0.0, -3.5527136788004694e-14),8.881784197001252e-15
(-2.000000000000047, 7.444999999999453), (0.0, -3.5527136788004694e-14),8.881784197001252e-15
(-1.0000000000000464, 7.444999999999453), (0.0, -3.5527136788004694e-14),8.881784197001252e-15
(-4.598021963175825e-14, 7.444999999999453), (0.0, -3.5527136788004694e-14),8.881784197001252e-15
(0.9999999999999543, 7.444999999999453), (0.0, -3.5527136788004694e-14),8.881784197001252e-15
(1.9999999999999547, 7.444999999999453), (0.0, -3.5527136788004694e-14),8.881784197001252e-15
(2.9999999999999547, 7.444999999999453), (0.0, -3.5527136788004694e-14),8.881784197001252e-15
(-3.000000000000047, 8.444999999999444), (0.0, 3.5527136788004694e-14),8.881784197001252e-15
(-2.000000000000047, 8.444999999999444), (0.0, 3.5527136788004694e-14),8.881784197001252e-15
(-1.0000000000000464, 8.444999999999444), (0.0, 3.5527136788004694e-14),8.881784197001252e-15
(-4.598021963175825e-14, 8.444999999999444), (0.0, 3.5527136788004694e-14),8.881784197001252e-15
(0.9999999999999543, 8.444999999999444), (0.0, 3.5527136788004694e-14),8.881784197001252e-15
(1.9999999999999547, 8.444999999999444), (0.0, 3.5527136788004694e-14),8.881784197001252e-15
(2.9999999999999547, 8.444999999999444), (0.0, 3.5527136788004694e-14),8.881784197001252e-15
(-3.0, 9.444999999999444), (0, 0),0
(-2.0, 9.444999999999444), (0, 0),0
(-1.0, 9.444999999999444), (0, 0),0
(0.0, 9.444999999999444), (0, 0),0
(1.0, 9.444999999999444), (0, 0),0
(2.0, 9.444999999999444), (0, 0),0
(3.0, 9.444999999999444), (0, 0),0
(-3.0, 10.444999999999444), (0, 0),0
(-2.0, 10.444999999999444), (0, 0),0
(-1.0, 10.444999999999444), (0, 0),0
(0.0, 10.444999999999444), (0, 0),0
(1.0, 10.444999999999444), (0, 0),0
(2.0, 10.444999999999444), (0, 0),0
(3.0, 10.444999999999444), (0, 0),0
(-3.0, 11.444999999999444), (0, 0),0
(-2.0, 11.444999999999444), (0, 0),0
(-1.0, 11.444999999999444), (0, 0),0
(0.0, 11.444999999999444), (0, 0),0
(1.0, 11.444999999999444), (0, 0),0
(2.0, 11.444999999999444), (0, 0),0
(3.0, 11.444999999999444), (0, 0),0
(-3.0, 12.444999999999444), (0, 0),0
(-2.0, 12.444999999999444), (0, 0),0
(-1.0, 12.444999999999444), (0, 0),0
(0.0, 12.444999999999444), (0, 0),0
(1.0, 12.444999999999444), (0, 0),0
(2.0, 12.444999999999444), (0, 0),0
(3.0, 12.444999999999444), (0, 0),0
(-3.0, 13.4449999999998), (0, 0),0
(-2.0, 13.4449999999998), (0, 0),0
(-1.0, 13.4449999999998), (0, 0),0
(0.0, 13.4449999999998), (0, 0),0
(1.0, 13.4449999999998), (0, 0),0
(2.0, 13.4449999999998), (0, 0),0
(3.0, 13.4449999999998), (0, 0),0
(-3.0, 14.445000000000155), (0, 0),0
(-2.0, 14.445000000000155), (0, 0),0
(-1.0, 14.445000000000155), (0, 0),0
(0.0, 14.445000000000155), (0, 0),0
(1.0, 14.445000000000155), (0, 0),0
(2.0, 14.445000000000155), (0, 0),0
(3.0, 14.445000000000155), (0, 0),0
(-3.0, 15.44500000000051), (0, 0),0
(-2.0, 15.44500000000051), (0, 0),0
(-1.0, 15.44500000000051), (0, 0),0
(0.0, 15.44500000000051), (0, 0),0
(1.0, 15.44500000000051), (0, 0),0
(2.0, 15.44500000000051), (0, 0),0
(3.0, 15.44500000000051), (0, 0),0
