(-3.0, 10.10499999999986), (0, 0),0
(-2.0, 10.10499999999986), (0, 0),0
(-1.0, 10.10499999999986), (0, 0),0
(0.0, 10.10499999999986), (0, 0),0
(1.0, 10.10499999999986), (0, 0),0
(2.0, 10.10499999999986), (0, 0),0
(3.0, 10.10499999999986), (0, 0),0
(-3.0, 11.10499999999986), (0, 0),0
(-2.0, 11.10499999999986), (0, 0),0
(-1.0, 11.10499999999986), (0, 0),0
(0.0, 11.10499999999986), (0, 0),0
(1.0, 11.10499999999986), (0, 0),0
(2.0, 11.10499999999986), (0, 0),0
(3.0, 11.10499999999986), (0, 0),0
(-3.0, 12.10499999999986), (0, 0),0
(-2.0, 12.10499999999986), (0, 0),0
(-1.0, 12.10499999999986), (0, 0),0
(0.0, 12.10499999999986), (0, 0),0
(1.0, 12.10499999999986), (0, 0),0
(2.0, 12.10499999999986), (0, 0),0
(3.0, 12.10499999999986), (0, 0),0
(-3.0, 13.10499999999986), (0, 0),0
(-2.0, 13.10499999999986), (0, 0),0
(-1.0, 13.10499999999986), (0, 0),0
(0.0, 13.10499999999986), (0, 0),0
(1.0, 13.10499999999986), (0, 0),0
(2.0, 13.10499999999986), (0, 0),0
(3.0, 13.10499999999986), (0, 0),0
(-3.0, 14.10499999999986), (0, 0),0
(-2.0, 14.10499999999986), (0, 0),0
(-1.0, 14.10499999999986), (0, 0),0
(0.0, 14.10499999999986), (0, 0),0
(1.0, 14.10499999999986), (0, 0),0
(2.0, 14.10499999999986), (0, 0),0
(3.0, 14.10499999999986), (0, 0),0
(-3.0, 15.10499999999986), (0, 0),0
(-2.0, 15.10499999999986), (0, 0),0
(-1.0, 15.10499999999986), (0, 0),0
(0.0, 15.10499999999986), (0, 0),0
(1.0, 15.10499999999986), (0, 0),0
(2.0, 15.10499999999986), (0, 0),0
(3.0, 15.10499999999986), (0, 0),0
(-3.0, 16.105000000000178), (0, 0),0
(-2.0, 16.105000000000178), (0, 0),0
(-1.0, 16.105000000000178), (0, 0),0
(0.0, 16.105000000000178), (0, 0),0
(1.0, 16.105000000000178), (0, 0),0
(2.0, 16.105000000000178), (0, 0),0
(3.0, 16.105000000000178), (0, 0),0
(-3.0, 17.105000000000178), (0, 0),0
(-2.0, 17.105000000000178), (0, 0),0
(-1.0, 17.105000000000178), (0, 0),0
(0.0, 17.105000000000178), (0, 0),0
(1.0, 17.105000000000178), (0, 0),0
(2.0, 17.105000000000178), (0, 0),0
(3.0, 17.105000000000178), (0, 0),0
(-3.0, 18.105000000000178), (0, 0),0
(-2.0, 18.105000000000178), (0, 0),0
(-1.0, 18.105000000000178), (0, 0),0
(0.0, 18.105000000000178), (0, 0),0
(1.0, 18.105000000000178), (0, 0),0
(2.0, 18.105000000000178), (0, 0),0
(3.0, 18.105000000000178), (0, 0),0
