(-1.2351400067540228, -3.061990326413885), (3.7446061060761597e-06, -0.004300259258283728),0.001360308431362478
(0.5699224825750435, -2.3316723054495445), (0.0001473904946184727, 0.0001626744317549182),0.0009604246819094886
(-0.9303362988072169, 4.1435372014293685), (0.29005097356804055, -0.3246847254228216),0.8528763431008829
(-0.003916732806259161, 4.210020929867518), (0.0040215345218129195, 0.03586671945343407),0.13770294682967488
(0.9274056043709217, 4.146368949283653), (-0.2949382669083518, -0.31247114975940826),0.8445017204350682
(-1.6641295259049567, -2.159672057308644), (-0.0003840604175892462, 0.0032312652478489836),0.0008952676008248117
(-0.4173283512839853, -2.487312824871276), (-0.00016865931328244397, 0.0007228093504161918),0.0010211053137852977
(-0.02549673762297955, -0.6023336939480244), (0, 0),0
(-1.5871545521887274, 4.637536442463391), (-0.2750364674835378, 1.0420451796540562),0.672970282831576
(-0.9152145814289658, 5.2798237953455915), (-0.023783784219593193, 0.1598666079950189),0.14776858619332578
(0.004938506544252076, 5.348277595323166), (-0.00836769730752597, 0.0463372582042067),0.16468810444659732
(0.9147091124401219, 5.276267215657416), (0.03129996546885253, 0.1581004174752845),0.15901660613850788
(1.5875780278601272, 4.636647522030839), (0.2764632918826719, 1.0361079116267327),0.6743060757386281
(1.5630583833785818, -2.2182151521052482), (0.0004015846301471413, 0.0001835102282636338),0.00040436019866185724
(-1.326339567595985, 4.124373605173638), (-0.12832152481783157, -0.9173281275290301),1.027894058381404
(-1.898945206943479, 6.525752470798036), (-0.045268193302037706, -0.013747224914539478),0.04767099221627402
(-0.949349001841124, 6.597846758515874), (-0.005066139400981488, 0.0070066698257723395),0.10086290490230565
(-0.0030710779747547823, 6.629527115305042), (0.005381520678642518, 0.012603793132568954),0.10039693042731601
(0.9492177712901406, 6.598475130132956), (-0.0008338031876913496, 0.008039757230728018),0.0954510482425418
(1.8982412398815038, 6.526432958320668), (0.045786615212068026, -0.013902995274529834),0.04824603050125742
(1.3264865265877452, 4.124328853760657), (0.12861197529546248, -0.9238400916974729),1.0252985965844175
(-3.0000000000000986, 7.754999999999033), (-9.584659998435293e-28, -3.5527136788004694e-14),8.881784197001252e-15
(-2.0000000000000986, 7.754999999999033), (-9.64382456632687e-28, -3.5527136788004694e-14),8.881784197001252e-15
(-1.0000000000000973, 7.754999999999033), (-9.555077714489505e-28, -3.5527136788004694e-14),8.881784197001252e-15
(-9.68114477473137e-14, 7.754999999999033), (-9.534389837250092e-28, -3.5527136788004694e-14),8.881784197001252e-15
(0.9999999999999033, 7.754999999999033), (-9.555077714489505e-28, -3.5527136788004694e-14),8.881784197001252e-15
(1.9999999999999036, 7.754999999999033), (-9.624103043696344e-28, -3.5527136788004694e-14),8.881784197001252e-15
(2.9999999999999045, 7.754999999999033), (-9.545216953174243e-28, -3.5527136788004694e-14),8.881784197001252e-15
(-2.9999999999999907, 8.754999999999024), (9.584659998435293e-28, 3.5527136788004694e-14),8.881784197001252e-15
(-1.99999999999999, 8.754999999999024), (9.64382456632687e-28, 3.5527136788004694e-14),8.881784197001252e-15
(-0.9999999999999897, 8.754999999999024), (9.555077714489505e-28, 3.5527136788004694e-14),8.881784197001252e-15
(1.0536238548297686e-14, 8.754999999999024), (9.534389837250092e-28, 3.5527136788004694e-14),8.881784197001252e-15
(1.0000000000000109, 8.754999999999024), (9.555077714489505e-28, 3.5527136788004694e-14),8.881784197001252e-15
(2.000000000000012, 8.754999999999024), (9.624103043696344e-28, 3.5527136788004694e-14),8.881784197001252e-15
(3.000000000000012, 8.754999999999024), (9.545216953174243e-28, 3.5527136788004694e-14),8.881784197001252e-15
(-3.0, 9.754999999999024), (0, 0),0
(-2.0, 9.754999999999024), (0, 0),0
(-1.0, 9.754999999999024), (0, 0),0
(0.0, 9.754999999999024), (0, 0),0
(1.0, 9.754999999999024), (0, 0),0
(2.0, 9.754999999999024), (0, 0),0
(3.0, 9.754999999999024), (0, 0),0
(-3.0, 10.754999999999379), (0, 0),0
(-2.0, 10.754999999999379), (0, 0),0
(-1.0, 10.754999999999379), (0, 0),0
(0.0, 10.754999999999379), (0, 0),0
(1.0, 10.754999999999379), (0, 0),0
(2.0, 10.754999999999379), (0, 0),0
(3.0, 10.754999999999379), (0, 0),0
(-3.0, 11.754999999999734), (0, 0),0
(-2.0, 11.754999999999734), (0, 0),0
(-1.0, 11.754999999999734), (0, 0),0
(0.0, 11.754999999999734), (0, 0),0
(1.0, 11.754999999999734), (0, 0),0
(2.0, 11.754999999999734), (0, 0),0
(3.0, 11.754999999999734), (0, 0),0
(-3.0, 12.75500000000009), (0, 0),0
(-2.0, 12.75500000000009), (0, 0),0
(-1.0, 12.75500000000009), (0, 0),0
(0.0, 12.75500000000009), (0, 0),0
(1.0, 12.75500000000009), (0, 0),0
(2.0, 12.75500000000009), (0, 0),0
(3.0, 12.75500000000009), (0, 0),0
