(-0.7671126831164453, 3.181814615532464), (0, 0),0
(-1.7988952506901519, 5.047762382265672), (0.039872581628219814, -0.2974822172511108),0.9429553549769488
(-0.9477935621748796, 5.354280526653075), (0.033972533093378866, 0.10456250216844702),0.14517623996128293
(0.0003780050725169762, 5.416475786185679), (-0.004189104566109214, 0.025099044813473817),0.10425453181869326
(0.9441120543721114, 5.3581248530976096), (-0.03075823126682576, 0.10539189642839658),0.15110538963448095
(1.7942377259583817, 5.052604506732872), (-0.04245545408598078, -0.2812811236823902),0.9414307784009338
(0.7647270381957029, 3.183858347570198), (0, 0),0
(-1.9417215984954654, 5.10101247895626), (-0.1210553119029727, 0.18053271438486768),0.8475698900316562
(-1.882062099177649, 6.568662356194825), (-0.05857732516661799, -0.02257556475702025),0.06279134258894292
(-0.9491735392038891, 6.658545626030322), (0.01285995535321139, 0.016614188627751655),0.1108418490419103
(0.0022705388758186974, 6.689561824242008), (-0.014134041895997311, 0.013825084469267395),0.112027216029015
(0.9377892941544086, 6.658833030935393), (0.011264319901159982, 0.01068682565634183),0.1154323091214795
(1.8820420525999642, 6.568704190924688), (0.04858709180824393, -0.01855053399634063),0.051455599545431885
(1.9417455245065447, 5.100893829575787), (0.12461298710028977, 0.16317718313831595),0.8447891455691559
(-2.999999999999907, 7.784999999999194), (9.071900410041636e-28, -3.5527136788004694e-14),8.881784197001252e-15
(-1.9999999999999063, 7.784999999999194), (9.150786500563737e-28, -3.5527136788004694e-14),8.881784197001252e-15
(-0.999999999999906, 7.784999999999194), (9.081761171356898e-28, -3.5527136788004694e-14),8.881784197001252e-15
(9.414691248821333e-14, 7.784999999999194), (9.061073294117483e-28, -3.5527136788004694e-14),8.881784197001252e-15
(1.0000000000000946, 7.784999999999194), (9.081761171356898e-28, -3.5527136788004694e-14),8.881784197001252e-15
(2.000000000000096, 7.784999999999194), (9.170508023194262e-28, -3.5527136788004694e-14),8.881784197001252e-15
(3.000000000000096, 7.784999999999194), (9.111343455302686e-28, -3.5527136788004694e-14),8.881784197001252e-15
(-3.0000000000000093, 8.784999999999185), (-9.071900410041636e-28, 3.5527136788004694e-14),8.881784197001252e-15
(-2.0000000000000093, 8.784999999999185), (-9.150786500563737e-28, 3.5527136788004694e-14),8.881784197001252e-15
(-1.0000000000000082, 8.784999999999185), (-9.081761171356898e-28, 3.5527136788004694e-14),8.881784197001252e-15
(-7.871703289197301e-15, 8.784999999999185), (-9.061073294117483e-28, 3.5527136788004694e-14),8.881784197001252e-15
(0.9999999999999923, 8.784999999999185), (-9.081761171356898e-28, 3.5527136788004694e-14),8.881784197001252e-15
(1.9999999999999927, 8.784999999999185), (-9.170508023194262e-28, 3.5527136788004694e-14),8.881784197001252e-15
(2.9999999999999933, 8.784999999999185), (-9.111343455302686e-28, 3.5527136788004694e-14),8.881784197001252e-15
(-3.0, 9.784999999999185), (0, 0),0
(-2.0, 9.784999999999185), (0, 0),0
(-1.0, 9.784999999999185), (0, 0),0
(0.0, 9.784999999999185), (0, 0),0
(1.0, 9.784999999999185), (0, 0),0
(2.0, 9.784999999999185), (0, 0),0
(3.0, 9.784999999999185), (0, 0),0
(-3.0, 10.784999999999185), (0, 0),0
(-2.0, 10.784999999999185), (0, 0),0
(-1.0, 10.784999999999185), (0, 0),0
(0.0, 10.784999999999185), (0, 0),0
(1.0, 10.784999999999185), (0, 0),0
(2.0, 10.784999999999185), (0, 0),0
(3.0, 10.784999999999185), (0, 0),0
(-3.0, 11.78499999999954), (0, 0),0
(-2.0, 11.78499999999954), (0, 0),0
(-1.0, 11.78499999999954), (0, 0),0
(0.0, 11.78499999999954), (0, 0),0
(1.0, 11.78499999999954), (0, 0),0
(2.0, 11.78499999999954), (0, 0),0
(3.0, 11.78499999999954), (0, 0),0
(-3.0, 12.784999999999895), (0, 0),0
(-2.0, 12.784999999999895), (0, 0),0
(-1.0, 12.784999999999895), (0, 0),0
(0.0, 12.784999999999895), (0, 0),0
(1.0, 12.784999999999895), (0, 0),0
(2.0, 12.784999999999895), (0, 0),0
(3.0, 12.784999999999895), (0, 0),0
(-3.0, 13.78500000000025), (0, 0),0
(-2.0, 13.78500000000025), (0, 0),0
(-1.0, 13.78500000000025), (0, 0),0
(0.0, 13.78500000000025), (0, 0),0
(1.0, 13.78500000000025), (0, 0),0
(2.0, 13.78500000000025), (0, 0),0
(3.0, 13.78500000000025), (0, 0),0
