(-2.0907432369758516, 5.345120000940331), (3.7435926986096746, 2.0062582056067195),4.372104128604969
(-1.9381052531140313, 6.290905126777256), (-0.018267248418365134, 0.14775068884984147),0.0674550742375355
(-0.9696389631301031, 6.399377439987123), (-0.006816671813627346, 0.00757574370322887),0.05804158297279183
(-0.0025713228558312375, 6.426085707298258), (0.003642106432858276, 0.006371755798279793),0.06124472888372923
(0.9684202021329604, 6.400869768567143), (0.0018694128746288285, 0.008456475261165594),0.05553650388461895
(1.9358125582816583, 6.29521725045748), (0.01993627587669328, 0.1390222808732487),0.06650289953808075
(2.08824147575188, 5.347038819136662), (-3.7439565735618627, 2.0146918688297086),4.369774525041353
(-3.0000000000001146, 7.6599999999993305), (-1.1754027487793076e-27, -3.5527136788004694e-14),8.881784197001252e-15
(-2.000000000000114, 7.6599999999993305), (-1.1773749010423601e-27, -3.5527136788004694e-14),8.881784197001252e-15
(-1.0000000000001132, 7.6599999999993305), (-1.1724445203847288e-27, -3.5527136788004694e-14),8.881784197001252e-15
(-1.1263801003025266e-13, 7.6599999999993305), (-1.1689488804984685e-27, -3.5527136788004694e-14),8.881784197001252e-15
(0.9999999999998876, 7.6599999999993305), (-1.16948629199015e-27, -3.5527136788004694e-14),8.881784197001252e-15
(1.9999999999998883, 7.6599999999993305), (-1.173430596516255e-27, -3.5527136788004694e-14),8.881784197001252e-15
(2.999999999999889, 7.6599999999993305), (-1.1675141397270975e-27, -3.5527136788004694e-14),8.881784197001252e-15
(-2.9999999999999822, 8.659999999999322), (1.1754027487793076e-27, 3.5527136788004694e-14),8.881784197001252e-15
(-1.9999999999999816, 8.659999999999322), (1.1773749010423601e-27, 3.5527136788004694e-14),8.881784197001252e-15
(-0.9999999999999812, 8.659999999999322), (1.1724445203847288e-27, 3.5527136788004694e-14),8.881784197001252e-15
(1.897393353544889e-14, 8.659999999999322), (1.1689488804984685e-27, 3.5527136788004694e-14),8.881784197001252e-15
(1.0000000000000193, 8.659999999999322), (1.16948629199015e-27, 3.5527136788004694e-14),8.881784197001252e-15
(2.0000000000000204, 8.659999999999322), (1.173430596516255e-27, 3.5527136788004694e-14),8.881784197001252e-15
(3.0000000000000204, 8.659999999999322), (1.1675141397270975e-27, 3.5527136788004694e-14),8.881784197001252e-15
(-3.0, 9.659999999999322), (0, 0),0
(-2.0, 9.659999999999322), (0, 0),0
(-1.0, 9.659999999999322), (0, 0),0
(0.0, 9.659999999999322), (0, 0),0
(1.0, 9.659999999999322), (0, 0),0
(2.0, 9.659999999999322), (0, 0),0
(3.0, 9.659999999999322), (0, 0),0
(-3.0, 10.659999999999322), (0, 0),0
(-2.0, 10.659999999999322), (0, 0),0
(-1.0, 10.659999999999322), (0, 0),0
(0.0, 10.659999999999322), (0, 0),0
(1.0, 10.659999999999322), (0, 0),0
(2.0, 10.659999999999322), (0, 0),0
(3.0, 10.659999999999322), (0, 0),0
(-3.0, 11.659999999999322), (0, 0),0
(-2.0, 11.659999999999322), (0, 0),0
(-1.0, 11.659999999999322), (0, 0),0
(0.0, 11.659999999999322), (0, 0),0
(1.0, 11.659999999999322), (0, 0),0
(2.0, 11.659999999999322), (0, 0),0
(3.0, 11.659999999999322), (0, 0),0
(-3.0, 12.659999999999677), (0, 0),0
(-2.0, 12.659999999999677), (0, 0),0
(-1.0, 12.659999999999677), (0, 0),0
(0.0, 12.659999999999677), (0, 0),0
(1.0, 12.659999999999677), (0, 0),0
(2.0, 12.659999999999677), (0, 0),0
(3.0, 12.659999999999677), (0, 0),0
(-3.0, 13.660000000000032), (0, 0),0
(-2.0, 13.660000000000032), (0, 0),0
(-1.0, 13.660000000000032), (0, 0),0
(0.0, 13.660000000000032), (0, 0),0
(1.0, 13.660000000000032), (0, 0),0
(2.0, 13.660000000000032), (0, 0),0
(3.0, 13.660000000000032), (0, 0),0
(-3.0, 14.660000000000387), (0, 0),0
(-2.0, 14.660000000000387), (0, 0),0
(-1.0, 14.660000000000387), (0, 0),0
(0.0, 14.660000000000387), (0, 0),0
(1.0, 14.660000000000387), (0, 0),0
(2.0, 14.660000000000387), (0, 0),0
(3.0, 14.660000000000387), (0, 0),0
