(-3.000000000000066, 7.22999999999942), (0.0, -3.5527136788004694e-14),8.881784197001252e-15
(-2.000000000000066, 7.22999999999942), (0.0, -3.5527136788004694e-14),8.881784197001252e-15
(-1.0000000000000655, 7.22999999999942), (0.0, -3.5527136788004694e-14),8.881784197001252e-15
(-6.507605565531094e-14, 7.22999999999942), (0.0, -3.5527136788004694e-14),8.881784197001252e-15
(0.9999999999999352, 7.22999999999942), (0.0, -3.5527136788004694e-14),8.881784197001252e-15
(1.9999999999999356, 7.22999999999942), (0.0, -3.5527136788004694e-14),8.881784197001252e-15
(2.9999999999999356, 7.22999999999942), (0.0, -3.5527136788004694e-14),8.881784197001252e-15
(-3.000000000000066, 8.22999999999941), (0.0, 3.5527136788004694e-14),8.881784197001252e-15
(-2.000000000000066, 8.22999999999941), (0.0, 3.5527136788004694e-14),8.881784197001252e-15
(-1.0000000000000655, 8.22999999999941), (0.0, 3.5527136788004694e-14),8.881784197001252e-15
(-6.507605565531094e-14, 8.22999999999941), (0.0, 3.5527136788004694e-14),8.881784197001252e-15
(0.9999999999999352, 8.22999999999941), (0.0, 3.5527136788004694e-14),8.881784197001252e-15
(1.9999999999999356, 8.22999999999941), (0.0, 3.5527136788004694e-14),8.881784197001252e-15
(2.9999999999999356, 8.22999999999941), (0.0, 3.5527136788004694e-14),8.881784197001252e-15
(-3.0, 9.22999999999941), (0, 0),0
(-2.0, 9.22999999999941), (0, 0),0
(-1.0, 9.22999999999941), (0, 0),0
(0.0, 9.22999999999941), (0, 0),0
(1.0, 9.22999999999941), (0, 0),0
(2.0, 9.22999999999941), (0, 0),0
(3.0, 9.22999999999941), (0, 0),0
(-3.0, 10.22999999999941), (0, 0),0
(-2.0, 10.22999999999941), (0, 0),0
(-1.0, 10.22999999999941), (0, 0),0
(0.0, 10.22999999999941), (0, 0),0
(1.0, 10.22999999999941), (0, 0),0
(2.0, 10.22999999999941), (0, 0),0
(3.0, 10.22999999999941), (0, 0),0
(-3.0, 11.22999999999941), (0, 0),0
(-2.0, 11.22999999999941), (0, 0),0
(-1.0, 11.22999999999941), (0, 0),0
(0.0, 11.22999999999941), (0, 0),0
(1.0, 11.22999999999941), (0, 0),0
(2.0, 11.22999999999941), (0, 0),0
(3.0, 11.22999999999941), (0, 0),0
(-3.0, 12.22999999999941), (0, 0),0
(-2.0, 12.22999999999941), (0, 0),0
(-1.0, 12.22999999999941), (0, 0),0
(0.0, 12.22999999999941), (0, 0),0
(1.0, 12.22999999999941), (0, 0),0
(2.0, 12.22999999999941), (0, 0),0
(3.0, 12.22999999999941), (0, 0),0
(-3.0, 13.229999999999766), (0, 0),0
(-2.0, 13.229999999999766), (0, 0),0
(-1.0, 13.229999999999766), (0, 0),0
(0.0, 13.229999999999766), (0, 0),0
(1.0, 13.229999999999766), (0, 0),0
(2.0, 13.229999999999766), (0, 0),0
(3.0, 13.229999999999766), (0, 0),0
(-3.0, 14.230000000000121), (0, 0),0
(-2.0, 14.230000000000121), (0, 0),0
(-1.0, 14.230000000000121), (0, 0),0
(0.0, 14.230000000000121), (0, 0),0
(1.0, 14.230000000000121), (0, 0),0
(2.0, 14.230000000000121), (0, 0),0
(3.0, 14.230000000000121), (0, 0),0
(-3.0, 15.230000000000476), (0, 0),0
(-2.0, 15.230000000000476), (0, 0),0
(-1.0, 15.230000000000476), (0, 0),0
(0.0, 15.230000000000476), (0, 0),0
(1.0, 15.230000000000476), (0, 0),0
(2.0, 15.230000000000476), (0, 0),0
(3.0, 15.230000000000476), (0, 0),0
