(-3.0, 8.639999999999631), (0, 0),0
(-2.0, 8.639999999999631), (0, 0),0
(-1.0, 8.639999999999631), (0, 0),0
(0.0, 8.639999999999631), (0, 0),0
(1.0, 8.639999999999631), (0, 0),0
(2.0, 8.639999999999631), (0, 0),0
(3.0, 8.639999999999631), (0, 0),0
(-3.0, 9.639999999999631), (0, 0),0
(-2.0, 9.639999999999631), (0, 0),0
(-1.0, 9.639999999999631), (0, 0),0
(0.0, 9.639999999999631), (0, 0),0
(1.0, 9.639999999999631), (0, 0),0
(2.0, 9.639999999999631), (0, 0),0
(3.0, 9.639999999999631), (0, 0),0
(-3.0, 10.639999999999631), (0, 0),0
(-2.0, 10.639999999999631), (0, 0),0
(-1.0, 10.639999999999631), (0, 0),0
(0.0, 10.639999999999631), (0, 0),0
(1.0, 10.639999999999631), (0, 0),0
(2.0, 10.639999999999631), (0, 0),0
(3.0, 10.639999999999631), (0, 0),0
(-3.0, 11.639999999999631), (0, 0),0
(-2.0, 11.639999999999631), (0, 0),0
(-1.0, 11.639999999999631), (0, 0),0
(0.0, 11.639999999999631), (0, 0),0
(1.0, 11.639999999999631), (0, 0),0
(2.0, 11.639999999999631), (0, 0),0
(3.0, 11.639999999999631), (0, 0),0
(-3.0, 12.639999999999631), (0, 0),0
(-2.0, 12.639999999999631), (0, 0),0
(-1.0, 12.639999999999631), (0, 0),0
(0.0, 12.639999999999631), (0, 0),0
(1.0, 12.639999999999631), (0, 0),0
(2.0, 12.639999999999631), (0, 0),0
(3.0, 12.639999999999631), (0, 0),0
(-3.0, 13.639999999999631), (0, 0),0
(-2.0, 13.639999999999631), (0, 0),0
(-1.0, 13.639999999999631), (0, 0),0
(0.0, 13.639999999999631), (0, 0),0
(1.0, 13.639999999999631), (0, 0),0
(2.0, 13.639999999999631), (0, 0),0
(3.0, 13.639999999999631), (0, 0),0
(-3.0, 14.639999999999986), (0, 0),0
(-2.0, 14.639999999999986), (0, 0),0
(-1.0, 14.639999999999986), (0, 0),0
(0.0, 14.639999999999986), (0, 0),0
(1.0, 14.639999999999986), (0, 0),0
(2.0, 14.639999999999986), (0, 0),0
(3.0, 14.639999999999986), (0, 0),0
(-3.0, 15.640000000000342), (0, 0),0
(-2.0, 15.640000000000342), (0, 0),0
(-1.0, 15.640000000000342), (0, 0),0
(0.0, 15.640000000000342), (0, 0),0
(1.0, 15.640000000000342), (0, 0),0
(2.0, 15.640000000000342), (0, 0),0
(3.0, 15.640000000000342), (0, 0),0
(-3.0, 16.64000000000047), (0, 0),0
(-2.0, 16.64000000000047), (0, 0),0
(-1.0, 16.64000000000047), (0, 0),0
(0.0, 16.64000000000047), (0, 0),0
(1.0, 16.64000000000047), (0, 0),0
(2.0, 16.64000000000047), (0, 0),0
(3.0, 16.64000000000047), (0, 0),0
