(-3.0, 8.804999999999657), (0, 0),0
(-2.0, 8.804999999999657), (0, 0),0
(-1.0, 8.804999999999657), (0, 0),0
(0.0, 8.804999999999657), (0, 0),0
(1.0, 8.804999999999657), (0, 0),0
(2.0, 8.804999999999657), (0, 0),0
(3.0, 8.804999999999657), (0, 0),0
(-3.0, 9.804999999999657), (0, 0),0
(-2.0, 9.804999999999657), (0, 0),0
(-1.0, 9.804999999999657), (0, 0),0
(0.0, 9.804999999999657), (0, 0),0
(1.0, 9.804999999999657), (0, 0),0
(2.0, 9.804999999999657), (0, 0),0
(3.0, 9.804999999999657), (0, 0),0
(-3.0, 10.804999999999657), (0, 0),0
(-2.0, 10.804999999999657), (0, 0),0
(-1.0, 10.804999999999657), (0, 0),0
(0.0, 10.804999999999657), (0, 0),0
(1.0, 10.804999999999657), (0, 0),0
(2.0, 10.804999999999657), (0, 0),0
(3.0, 10.804999999999657), (0, 0),0
(-3.0, 11.804999999999657), (0, 0),0
(-2.0, 11.804999999999657), (0, 0),0
(-1.0, 11.804999999999657), (0, 0),0
(0.0, 11.804999999999657), (0, 0),0
(1.0, 11.804999999999657), (0, 0),0
(2.0, 11.804999999999657), (0, 0),0
(3.0, 11.804999999999657), (0, 0),0
(-3.0, 12.804999999999657), (0, 0),0
(-2.0, 12.804999999999657), (0, 0),0
(-1.0, 12.804999999999657), (0, 0),0
(0.0, 12.804999999999657), (0, 0),0
(1.0, 12.804999999999657), (0, 0),0
(2.0, 12.804999999999657), (0, 0),0
(3.0, 12.804999999999657), (0, 0),0
(-3.0, 13.804999999999657), (0, 0),0
(-2.0, 13.804999999999657), (0, 0),0
(-1.0, 13.804999999999657), (0, 0),0
(0.0, 13.804999999999657), (0, 0),0
(1.0, 13.804999999999657), (0, 0),0
(2.0, 13.804999999999657), (0, 0),0
(3.0, 13.804999999999657), (0, 0),0
(-3.0, 14.805000000000012), (0, 0),0
(-2.0, 14.805000000000012), (0, 0),0
(-1.0, 14.805000000000012), (0, 0),0
(0.0, 14.805000000000012), (0, 0),0
(1.0, 14.805000000000012), (0, 0),0
(2.0, 14.805000000000012), (0, 0),0
(3.0, 14.805000000000012), (0, 0),0
(-3.0, 15.805000000000367), (0, 0),0
(-2.0, 15.805000000000367), (0, 0),0
(-1.0, 15.805000000000367), (0, 0),0
(0.0, 15.805000000000367), (0, 0),0
(1.0, 15.805000000000367), (0, 0),0
(2.0, 15.805000000000367), (0, 0),0
(3.0, 15.805000000000367), (0, 0),0
(-3.0, 16.805000000000437), (0, 0),0
(-2.0, 16.805000000000437), (0, 0),0
(-1.0, 16.805000000000437), (0, 0),0
(0.0, 16.805000000000437), (0, 0),0
(1.0, 16.805000000000437), (0, 0),0
(2.0, 16.805000000000437), (0, 0),0
(3.0, 16.805000000000437), (0, 0),0
