(-2.084901347161564, 5.366385599530898), (-0.005863850118224229, -0.14139834514818994),0.03721780349468329
(-1.9273463716493227, 6.316188730500121), (-0.02555608031303142, 0.12732749735460475),0.06990231601265817
(-0.9660369314679456, 6.423814993748249), (-0.00024471863004340427, 0.010558349416057293),0.06543385473818608
(0.0008420015005849973, 6.450628497008172), (-0.0025989506590108347, 0.007082406054235091),0.06828752580374409
(0.964976807089985, 6.4255153136886305), (0.001900201595969278, 0.010641924535378128),0.06923124774754585
(1.9255127193715236, 6.3200645884080195), (0.026860368729967297, 0.11910073498553796),0.06869780339195453
(2.082720843635471, 5.367960886609763), (0.0055030293943733105, -0.13331256719762327),0.03500473922794156
(-3.0000000000001132, 7.674999999999333), (-1.1517369216226772e-27, -3.5527136788004694e-14),8.881784197001252e-15
(-2.000000000000113, 7.674999999999333), (-1.1537090738857298e-27, -3.5527136788004694e-14),8.881784197001252e-15
(-1.000000000000112, 7.674999999999333), (-1.1487786932280984e-27, -3.5527136788004694e-14),8.881784197001252e-15
(-1.1130574240070247e-13, 7.674999999999333), (-1.1452830533418381e-27, -3.5527136788004694e-14),8.881784197001252e-15
(0.999999999999889, 7.674999999999333), (-1.1458204648335196e-27, -3.5527136788004694e-14),8.881784197001252e-15
(1.9999999999998896, 7.674999999999333), (-1.1497647693596247e-27, -3.5527136788004694e-14),8.881784197001252e-15
(2.9999999999998903, 7.674999999999333), (-1.1438483125704671e-27, -3.5527136788004694e-14),8.881784197001252e-15
(-2.9999999999999836, 8.674999999999324), (1.1517369216226772e-27, 3.5527136788004694e-14),8.881784197001252e-15
(-1.999999999999983, 8.674999999999324), (1.1537090738857298e-27, 3.5527136788004694e-14),8.881784197001252e-15
(-0.9999999999999826, 8.674999999999324), (1.1487786932280984e-27, 3.5527136788004694e-14),8.881784197001252e-15
(1.7641665905898702e-14, 8.674999999999324), (1.1452830533418381e-27, 3.5527136788004694e-14),8.881784197001252e-15
(1.000000000000018, 8.674999999999324), (1.1458204648335196e-27, 3.5527136788004694e-14),8.881784197001252e-15
(2.000000000000019, 8.674999999999324), (1.1497647693596247e-27, 3.5527136788004694e-14),8.881784197001252e-15
(3.000000000000019, 8.674999999999324), (1.1438483125704671e-27, 3.5527136788004694e-14),8.881784197001252e-15
(-3.0, 9.674999999999324), (0, 0),0
(-2.0, 9.674999999999324), (0, 0),0
(-1.0, 9.674999999999324), (0, 0),0
(0.0, 9.674999999999324), (0, 0),0
(1.0, 9.674999999999324), (0, 0),0
(2.0, 9.674999999999324), (0, 0),0
(3.0, 9.674999999999324), (0, 0),0
(-3.0, 10.674999999999324), (0, 0),0
(-2.0, 10.674999999999324), (0, 0),0
(-1.0, 10.674999999999324), (0, 0),0
(0.0, 10.674999999999324), (0, 0),0
(1.0, 10.674999999999324), (0, 0),0
(2.0, 10.674999999999324), (0, 0),0
(3.0, 10.674999999999324), (0, 0),0
(-3.0, 11.674999999999324), (0, 0),0
(-2.0, 11.674999999999324), (0, 0),0
(-1.0, 11.674999999999324), (0, 0),0
(0.0, 11.674999999999324), (0, 0),0
(1.0, 11.674999999999324), (0, 0),0
(2.0, 11.674999999999324), (0, 0),0
(3.0, 11.674999999999324), (0, 0),0
(-3.0, 12.67499999999968), (0, 0),0
(-2.0, 12.67499999999968), (0, 0),0
(-1.0, 12.67499999999968), (0, 0),0
(0.0, 12.67499999999968), (0, 0),0
(1.0, 12.67499999999968), (0, 0),0
(2.0, 12.67499999999968), (0, 0),0
(3.0, 12.67499999999968), (0, 0),0
(-3.0, 13.675000000000034), (0, 0),0
(-2.0, 13.675000000000034), (0, 0),0
(-1.0, 13.675000000000034), (0, 0),0
(0.0, 13.675000000000034), (0, 0),0
(1.0, 13.675000000000034), (0, 0),0
(2.0, 13.675000000000034), (0, 0),0
(3.0, 13.675000000000034), (0, 0),0
(-3.0, 14.67500000000039), (0, 0),0
(-2.0, 14.67500000000039), (0, 0),0
(-1.0, 14.67500000000039), (0, 0),0
(0.0, 14.67500000000039), (0, 0),0
(1.0, 14.67500000000039), (0, 0),0
(2.0, 14.67500000000039), (0, 0),0
(3.0, 14.67500000000039), (0, 0),0
