(-1.2076253850086647, 3.860497190405756), (0, 0),0
(-1.9971733240330372, 5.607721213736478), (-0.0013894807007558377, -0.00029167839814226733),0.0013933341663998622
(-0.9999389675785344, 5.660055823260896), (-0.0003685132255893057, 0.00011525818004712212),0.0031549846783525126
(-0.002014626503330925, 5.68509203460051), (0.0004975688745332096, 0.00028427969982762914),0.0030239573855380675
(0.9964945935501588, 5.663730453674843), (-0.00023905777977138894, 0.0001961140911050507),0.0027659751510895614
(1.9937111033459438, 5.613191784776726), (0.0014994828315833227, -0.00030397357283753465),0.0015036682775041443
(1.2052397400879222, 3.86254092244349), (0, 0),0
(-3.00000000000017, 7.034999999999233), (-2.1614788803055723e-27, -3.5527136788004694e-14),8.881784197001252e-15
(-2.0000000000001696, 7.034999999999233), (-2.163451032568625e-27, -3.5527136788004694e-14),8.881784197001252e-15
(-1.0000000000001688, 7.034999999999233), (-2.1585206519109936e-27, -3.5527136788004694e-14),8.881784197001252e-15
(-1.6814916126151048e-13, 7.034999999999233), (-2.1550250120247332e-27, -3.5527136788004694e-14),8.881784197001252e-15
(0.9999999999998321, 7.034999999999233), (-2.1555624235164148e-27, -3.5527136788004694e-14),8.881784197001252e-15
(1.9999999999998328, 7.034999999999233), (-2.1595067280425198e-27, -3.5527136788004694e-14),8.881784197001252e-15
(2.9999999999998335, 7.034999999999233), (-2.1535902712533622e-27, -3.5527136788004694e-14),8.881784197001252e-15
(-2.9999999999999267, 8.034999999999224), (2.1614788803055723e-27, 3.5527136788004694e-14),8.881784197001252e-15
(-1.999999999999926, 8.034999999999224), (2.163451032568625e-27, 3.5527136788004694e-14),8.881784197001252e-15
(-0.9999999999999257, 8.034999999999224), (2.1585206519109936e-27, 3.5527136788004694e-14),8.881784197001252e-15
(7.448508476670672e-14, 8.034999999999224), (2.1550250120247332e-27, 3.5527136788004694e-14),8.881784197001252e-15
(1.0000000000000748, 8.034999999999224), (2.1555624235164148e-27, 3.5527136788004694e-14),8.881784197001252e-15
(2.000000000000076, 8.034999999999224), (2.1595067280425198e-27, 3.5527136788004694e-14),8.881784197001252e-15
(3.000000000000076, 8.034999999999224), (2.1535902712533622e-27, 3.5527136788004694e-14),8.881784197001252e-15
(-3.0, 9.034999999999224), (0, 0),0
(-2.0, 9.034999999999224), (0, 0),0
(-1.0, 9.034999999999224), (0, 0),0
(0.0, 9.034999999999224), (0, 0),0
(1.0, 9.034999999999224), (0, 0),0
(2.0, 9.034999999999224), (0, 0),0
(3.0, 9.034999999999224), (0, 0),0
(-3.0, 10.034999999999224), (0, 0),0
(-2.0, 10.034999999999224), (0, 0),0
(-1.0, 10.034999999999224), (0, 0),0
(0.0, 10.034999999999224), (0, 0),0
(1.0, 10.034999999999224), (0, 0),0
(2.0, 10.034999999999224), (0, 0),0
(3.0, 10.034999999999224), (0, 0),0
(-3.0, 11.034999999999224), (0, 0),0
(-2.0, 11.034999999999224), (0, 0),0
(-1.0, 11.034999999999224), (0, 0),0
(0.0, 11.034999999999224), (0, 0),0
(1.0, 11.034999999999224), (0, 0),0
(2.0, 11.034999999999224), (0, 0),0
(3.0, 11.034999999999224), (0, 0),0
(-3.0, 12.03499999999958), (0, 0),0
(-2.0, 12.03499999999958), (0, 0),0
(-1.0, 12.03499999999958), (0, 0),0
(0.0, 12.03499999999958), (0, 0),0
(1.0, 12.03499999999958), (0, 0),0
(2.0, 12.03499999999958), (0, 0),0
(3.0, 12.03499999999958), (0, 0),0
(-3.0, 13.034999999999934), (0, 0),0
(-2.0, 13.034999999999934), (0, 0),0
(-1.0, 13.034999999999934), (0, 0),0
(0.0, 13.034999999999934), (0, 0),0
(1.0, 13.034999999999934), (0, 0),0
(2.0, 13.034999999999934), (0, 0),0
(3.0, 13.034999999999934), (0, 0),0
(-3.0, 14.03500000000029), (0, 0),0
(-2.0, 14.03500000000029), (0, 0),0
(-1.0, 14.03500000000029), (0, 0),0
(0.0, 14.03500000000029), (0, 0),0
(1.0, 14.03500000000029), (0, 0),0
(2.0, 14.03500000000029), (0, 0),0
(3.0, 14.03500000000029), (0, 0),0
