(-3.0, 9.33499999999974), (0, 0),0
(-2.0, 9.33499999999974), (0, 0),0
(-1.0, 9.33499999999974), (0, 0),0
(0.0, 9.33499999999974), (0, 0),0
(1.0, 9.33499999999974), (0, 0),0
(2.0, 9.33499999999974), (0, 0),0
(3.0, 9.33499999999974), (0, 0),0
(-3.0, 10.33499999999974), (0, 0),0
(-2.0, 10.33499999999974), (0, 0),0
(-1.0, 10.33499999999974), (0, 0),0
(0.0, 10.33499999999974), (0, 0),0
(1.0, 10.33499999999974), (0, 0),0
(2.0, 10.33499999999974), (0, 0),0
(3.0, 10.33499999999974), (0, 0),0
(-3.0, 11.33499999999974), (0, 0),0
(-2.0, 11.33499999999974), (0, 0),0
(-1.0, 11.33499999999974), (0, 0),0
(0.0, 11.33499999999974), (0, 0),0
(1.0, 11.33499999999974), (0, 0),0
(2.0, 11.33499999999974), (0, 0),0
(3.0, 11.33499999999974), (0, 0),0
(-3.0, 12.33499999999974), (0, 0),0
(-2.0, 12.33499999999974), (0, 0),0
(-1.0, 12.33499999999974), (0, 0),0
(0.0, 12.33499999999974), (0, 0),0
(1.0, 12.33499999999974), (0, 0),0
(2.0, 12.33499999999974), (0, 0),0
(3.0, 12.33499999999974), (0, 0),0
(-3.0, 13.33499999999974), (0, 0),0
(-2.0, 13.33499999999974), (0, 0),0
(-1.0, 13.33499999999974), (0, 0),0
(0.0, 13.33499999999974), (0, 0),0
(1.0, 13.33499999999974), (0, 0),0
(2.0, 13.33499999999974), (0, 0),0
(3.0, 13.33499999999974), (0, 0),0
(-3.0, 14.33499999999974), (0, 0),0
(-2.0, 14.33499999999974), (0, 0),0
(-1.0, 14.33499999999974), (0, 0),0
(0.0, 14.33499999999974), (0, 0),0
(1.0, 14.33499999999974), (0, 0),0
(2.0, 14.33499999999974), (0, 0),0
(3.0, 14.33499999999974), (0, 0),0
(-3.0, 15.335000000000095), (0, 0),0
(-2.0, 15.335000000000095), (0, 0),0
(-1.0, 15.335000000000095), (0, 0),0
(0.0, 15.335000000000095), (0, 0),0
(1.0, 15.335000000000095), (0, 0),0
(2.0, 15.335000000000095), (0, 0),0
(3.0, 15.335000000000095), (0, 0),0
(-3.0, 16.33500000000033), (0, 0),0
(-2.0, 16.33500000000033), (0, 0),0
(-1.0, 16.33500000000033), (0, 0),0
(0.0, 16.33500000000033), (0, 0),0
(1.0, 16.33500000000033), (0, 0),0
(2.0, 16.33500000000033), (0, 0),0
(3.0, 16.33500000000033), (0, 0),0
(-3.0, 17.33500000000033), (0, 0),0
(-2.0, 17.33500000000033), (0, 0),0
(-1.0, 17.33500000000033), (0, 0),0
(0.0, 17.33500000000033), (0, 0),0
(1.0, 17.33500000000033), (0, 0),0
(2.0, 17.33500000000033), (0, 0),0
(3.0, 17.33500000000033), (0, 0),0
