(-0.6773937084687284, -1.8032478206669778), (-0.020320930933362694, -1.0213923235615072),0.44681395795898315
(0.42284691329452406, -1.2364242378959578), (0.012649935764615969, 0.020333878107660578),0.13189330415199318
(-0.999380494250021, 4.887556490025771), (-0.0019858067575396817, -4.91681908962935e-05),0.0019898041212063067
(-0.0013894174520703339, 4.8937340064923776), (-0.00028564887739824293, 7.9848181144501e-05),0.004266455848791373
(0.9963282428364213, 4.89036502498804), (0.0022714556349379246, -3.067999024820749e-05),0.002276651727585066
(-1.4913902202357252, -1.3289656255301123), (-0.053308313653135105, 0.10707117028303464),0.06415811621906908
(-0.5039337007037442, -1.217287268344424), (0.005954029358599046, 0.9199108193273665),0.4681742783013333
(-0.02549673762297955, 1.782396605545165), (0, 0),0
(-1.9798452093829195, 6.112411759002061), (-0.009755467850081136, 0.00039472101078728573),0.009853049516150736
(-0.9897489113697661, 6.1023965598969445), (0.00072644379981604, -0.0012841349069781934),0.018967891390363922
(0.0008359144415430537, 6.126791220508314), (-0.0015214999382526188, 0.0020385721734490483),0.019783088045484787
(0.9898010938286762, 6.099861811053161), (0.0009378861006224017, -0.0016314844919912803),0.02037587844520239
(1.9800155577314162, 6.1122831255694825), (0.009612637887895313, 0.0004823262147331397),0.009707632273930789
(1.3575148323634934, -1.3465095718917053), (0.055025279463282784, -0.025923544156554488),0.05887147546274396
(-2.999999999999875, 7.424999999999137), (1.475169892763292e-27, -3.5527136788004694e-14),8.881784197001252e-15
(-1.9999999999998743, 7.424999999999137), (1.4830585018155022e-27, -3.5527136788004694e-14),8.881784197001252e-15
(-0.999999999999874, 7.424999999999137), (1.4761559688948183e-27, -3.5527136788004694e-14),8.881784197001252e-15
(1.2612133559741783e-13, 7.424999999999137), (1.4740871811708772e-27, -3.5527136788004694e-14),8.881784197001252e-15
(1.0000000000001266, 7.424999999999137), (1.4761559688948183e-27, -3.5527136788004694e-14),8.881784197001252e-15
(2.000000000000128, 7.424999999999137), (1.4850306540785547e-27, -3.5527136788004694e-14),8.881784197001252e-15
(3.000000000000128, 7.424999999999137), (1.4791141972893971e-27, -3.5527136788004694e-14),8.881784197001252e-15
(-3.0000000000000413, 8.424999999999129), (-1.475169892763292e-27, 3.5527136788004694e-14),8.881784197001252e-15
(-2.0000000000000413, 8.424999999999129), (-1.4830585018155022e-27, 3.5527136788004694e-14),8.881784197001252e-15
(-1.0000000000000402, 8.424999999999129), (-1.4761559688948183e-27, 3.5527136788004694e-14),8.881784197001252e-15
(-3.9846126398401836e-14, 8.424999999999129), (-1.4740871811708772e-27, 3.5527136788004694e-14),8.881784197001252e-15
(0.9999999999999604, 8.424999999999129), (-1.4761559688948183e-27, 3.5527136788004694e-14),8.881784197001252e-15
(1.9999999999999607, 8.424999999999129), (-1.4850306540785547e-27, 3.5527136788004694e-14),8.881784197001252e-15
(2.9999999999999614, 8.424999999999129), (-1.4791141972893971e-27, 3.5527136788004694e-14),8.881784197001252e-15
(-3.0, 9.424999999999129), (0, 0),0
(-2.0, 9.424999999999129), (0, 0),0
(-1.0, 9.424999999999129), (0, 0),0
(0.0, 9.424999999999129), (0, 0),0
(1.0, 9.424999999999129), (0, 0),0
(2.0, 9.424999999999129), (0, 0),0
(3.0, 9.424999999999129), (0, 0),0
(-3.0, 10.424999999999129), (0, 0),0
(-2.0, 10.424999999999129), (0, 0),0
(-1.0, 10.424999999999129), (0, 0),0
(0.0, 10.424999999999129), (0, 0),0
(1.0, 10.424999999999129), (0, 0),0
(2.0, 10.424999999999129), (0, 0),0
(3.0, 10.424999999999129), (0, 0),0
(-3.0, 11.424999999999484), (0, 0),0
(-2.0, 11.424999999999484), (0, 0),0
(-1.0, 11.424999999999484), (0, 0),0
(0.0, 11.424999999999484), (0, 0),0
(1.0, 11.424999999999484), (0, 0),0
(2.0, 11.424999999999484), (0, 0),0
(3.0, 11.424999999999484), (0, 0),0
(-3.0, 12.424999999999839), (0, 0),0
(-2.0, 12.424999999999839), (0, 0),0
(-1.0, 12.424999999999839), (0, 0),0
(0.0, 12.424999999999839), (0, 0),0
(1.0, 12.424999999999839), (0, 0),0
(2.0, 12.424999999999839), (0, 0),0
(3.0, 12.424999999999839), (0, 0),0
(-3.0, 13.425000000000194), (0, 0),0
(-2.0, 13.425000000000194), (0, 0),0
(-1.0, 13.425000000000194), (0, 0),0
(0.0, 13.425000000000194), (0, 0),0
(1.0, 13.425000000000194), (0, 0),0
(2.0, 13.425000000000194), (0, 0),0
(3.0, 13.425000000000194), (0, 0),0
