(-3.0, 8.064999999999541), (0, 0),0
(-2.0, 8.064999999999541), (0, 0),0
(-1.0, 8.064999999999541), (0, 0),0
(0.0, 8.064999999999541), (0, 0),0
(1.0, 8.064999999999541), (0, 0),0
(2.0, 8.064999999999541), (0, 0),0
(3.0, 8.064999999999541), (0, 0),0
(-3.0, 9.064999999999541), (0, 0),0
(-2.0, 9.064999999999541), (0, 0),0
(-1.0, 9.064999999999541), (0, 0),0
(0.0, 9.064999999999541), (0, 0),0
(1.0, 9.064999999999541), (0, 0),0
(2.0, 9.064999999999541), (0, 0),0
(3.0, 9.064999999999541), (0, 0),0
(-3.0, 10.064999999999541), (0, 0),0
(-2.0, 10.064999999999541), (0, 0),0
(-1.0, 10.064999999999541), (0, 0),0
(0.0, 10.064999999999541), (0, 0),0
(1.0, 10.064999999999541), (0, 0),0
(2.0, 10.064999999999541), (0, 0),0
(3.0, 10.064999999999541), (0, 0),0
(-3.0, 11.064999999999541), (0, 0),0
(-2.0, 11.064999999999541), (0, 0),0
(-1.0, 11.064999999999541), (0, 0),0
(0.0, 11.064999999999541), (0, 0),0
(1.0, 11.064999999999541), (0, 0),0
(2.0, 11.064999999999541), (0, 0),0
(3.0, 11.064999999999541), (0, 0),0
(-3.0, 12.064999999999541), (0, 0),0
(-2.0, 12.064999999999541), (0, 0),0
(-1.0, 12.064999999999541), (0, 0),0
(0.0, 12.064999999999541), (0, 0),0
(1.0, 12.064999999999541), (0, 0),0
(2.0, 12.064999999999541), (0, 0),0
(3.0, 12.064999999999541), (0, 0),0
(-3.0, 13.064999999999541), (0, 0),0
(-2.0, 13.064999999999541), (0, 0),0
(-1.0, 13.064999999999541), (0, 0),0
(0.0, 13.064999999999541), (0, 0),0
(1.0, 13.064999999999541), (0, 0),0
(2.0, 13.064999999999541), (0, 0),0
(3.0, 13.064999999999541), (0, 0),0
(-3.0, 14.064999999999896), (0, 0),0
(-2.0, 14.064999999999896), (0, 0),0
(-1.0, 14.064999999999896), (0, 0),0
(0.0, 14.064999999999896), (0, 0),0
(1.0, 14.064999999999896), (0, 0),0
(2.0, 14.064999999999896), (0, 0),0
(3.0, 14.064999999999896), (0, 0),0
(-3.0, 15.065000000000252), (0, 0),0
(-2.0, 15.065000000000252), (0, 0),0
(-1.0, 15.065000000000252), (0, 0),0
(0.0, 15.065000000000252), (0, 0),0
(1.0, 15.065000000000252), (0, 0),0
(2.0, 15.065000000000252), (0, 0),0
(3.0, 15.065000000000252), (0, 0),0
(-3.0, 16.065000000000584), (0, 0),0
(-2.0, 16.065000000000584), (0, 0),0
(-1.0, 16.065000000000584), (0, 0),0
(0.0, 16.065000000000584), (0, 0),0
(1.0, 16.065000000000584), (0, 0),0
(2.0, 16.065000000000584), (0, 0),0
(3.0, 16.065000000000584), (0, 0),0
