(-1.4278817359547742, 4.204838477842403), (3.75, 2.1650635094610964),4.330127018922194
(-1.994379512431298, 5.740472229293264), (-0.0025617220911069503, -0.0005680403553641053),0.0025722718471782313
(-0.9984808503528143, 5.795680269997364), (-0.0007247879255860329, 0.0002390233606079113),0.005870690592058803
(-0.0020912858701577176, 5.820617749150584), (0.0009601533662442524, 0.0005318158198096307),0.005630767645917967
(0.9953395227940179, 5.798880132518351), (-0.00043292052227443534, 0.000386481841715732),0.005103233853300582
(1.9911503270172177, 5.745712942530198), (0.002759277172723166, -0.0005892806667691687),0.002770884952263186
(1.4254960910340317, 4.206882209880137), (0, 0),0
(-3.0000000000001585, 7.164999999999253), (-1.9563750449481093e-27, -3.5527136788004694e-14),8.881784197001252e-15
(-2.000000000000158, 7.164999999999253), (-1.9583471972111618e-27, -3.5527136788004694e-14),8.881784197001252e-15
(-1.0000000000001572, 7.164999999999253), (-1.9534168165535305e-27, -3.5527136788004694e-14),8.881784197001252e-15
(-1.5660284180540886e-13, 7.164999999999253), (-1.94992117666727e-27, -3.5527136788004694e-14),8.881784197001252e-15
(0.9999999999998437, 7.164999999999253), (-1.9504585881589517e-27, -3.5527136788004694e-14),8.881784197001252e-15
(1.9999999999998443, 7.164999999999253), (-1.9544028926850567e-27, -3.5527136788004694e-14),8.881784197001252e-15
(2.999999999999845, 7.164999999999253), (-1.948486435895899e-27, -3.5527136788004694e-14),8.881784197001252e-15
(-2.9999999999999383, 8.164999999999244), (1.9563750449481093e-27, 3.5527136788004694e-14),8.881784197001252e-15
(-1.9999999999999376, 8.164999999999244), (1.9583471972111618e-27, 3.5527136788004694e-14),8.881784197001252e-15
(-0.9999999999999373, 8.164999999999244), (1.9534168165535305e-27, 3.5527136788004694e-14),8.881784197001252e-15
(6.293876531060509e-14, 8.164999999999244), (1.94992117666727e-27, 3.5527136788004694e-14),8.881784197001252e-15
(1.0000000000000633, 8.164999999999244), (1.9504585881589517e-27, 3.5527136788004694e-14),8.881784197001252e-15
(2.0000000000000644, 8.164999999999244), (1.9544028926850567e-27, 3.5527136788004694e-14),8.881784197001252e-15
(3.0000000000000644, 8.164999999999244), (1.948486435895899e-27, 3.5527136788004694e-14),8.881784197001252e-15
(-3.0, 9.164999999999244), (0, 0),0
(-2.0, 9.164999999999244), (0, 0),0
(-1.0, 9.164999999999244), (0, 0),0
(0.0, 9.164999999999244), (0, 0),0
(1.0, 9.164999999999244), (0, 0),0
(2.0, 9.164999999999244), (0, 0),0
(3.0, 9.164999999999244), (0, 0),0
(-3.0, 10.164999999999244), (0, 0),0
(-2.0, 10.164999999999244), (0, 0),0
(-1.0, 10.164999999999244), (0, 0),0
(0.0, 10.164999999999244), (0, 0),0
(1.0, 10.164999999999244), (0, 0),0
(2.0, 10.164999999999244), (0, 0),0
(3.0, 10.164999999999244), (0, 0),0
(-3.0, 11.164999999999244), (0, 0),0
(-2.0, 11.164999999999244), (0, 0),0
(-1.0, 11.164999999999244), (0, 0),0
(0.0, 11.164999999999244), (0, 0),0
(1.0, 11.164999999999244), (0, 0),0
(2.0, 11.164999999999244), (0, 0),0
(3.0, 11.164999999999244), (0, 0),0
(-3.0, 12.1649999999996), (0, 0),0
(-2.0, 12.1649999999996), (0, 0),0
(-1.0, 12.1649999999996), (0, 0),0
(0.0, 12.1649999999996), (0, 0),0
(1.0, 12.1649999999996), (0, 0),0
(2.0, 12.1649999999996), (0, 0),0
(3.0, 12.1649999999996), (0, 0),0
(-3.0, 13.164999999999955), (0, 0),0
(-2.0, 13.164999999999955), (0, 0),0
(-1.0, 13.164999999999955), (0, 0),0
(0.0, 13.164999999999955), (0, 0),0
(1.0, 13.164999999999955), (0, 0),0
(2.0, 13.164999999999955), (0, 0),0
(3.0, 13.164999999999955), (0, 0),0
(-3.0, 14.16500000000031), (0, 0),0
(-2.0, 14.16500000000031), (0, 0),0
(-1.0, 14.16500000000031), (0, 0),0
(0.0, 14.16500000000031), (0, 0),0
(1.0, 14.16500000000031), (0, 0),0
(2.0, 14.16500000000031), (0, 0),0
(3.0, 14.16500000000031), (0, 0),0
