(-3.0, 9.164999999999713), (0, 0),0
(-2.0, 9.164999999999713), (0, 0),0
(-1.0, 9.164999999999713), (0, 0),0
(0.0, 9.164999999999713), (0, 0),0
(1.0, 9.164999999999713), (0, 0),0
(2.0, 9.164999999999713), (0, 0),0
(3.0, 9.164999999999713), (0, 0),0
(-3.0, 10.164999999999713), (0, 0),0
(-2.0, 10.164999999999713), (0, 0),0
(-1.0, 10.164999999999713), (0, 0),0
(0.0, 10.164999999999713), (0, 0),0
(1.0, 10.164999999999713), (0, 0),0
(2.0, 10.164999999999713), (0, 0),0
(3.0, 10.164999999999713), (0, 0),0
(-3.0, 11.164999999999713), (0, 0),0
(-2.0, 11.164999999999713), (0, 0),0
(-1.0, 11.164999999999713), (0, 0),0
(0.0, 11.164999999999713), (0, 0),0
(1.0, 11.164999999999713), (0, 0),0
(2.0, 11.164999999999713), (0, 0),0
(3.0, 11.164999999999713), (0, 0),0
(-3.0, 12.164999999999713), (0, 0),0
(-2.0, 12.164999999999713), (0, 0),0
(-1.0, 12.164999999999713), (0, 0),0
(0.0, 12.164999999999713), (0, 0),0
(1.0, 12.164999999999713), (0, 0),0
(2.0, 12.164999999999713), (0, 0),0
(3.0, 12.164999999999713), (0, 0),0
(-3.0, 13.164999999999713), (0, 0),0
(-2.0, 13.164999999999713), (0, 0),0
(-1.0, 13.164999999999713), (0, 0),0
(0.0, 13.164999999999713), (0, 0),0
(1.0, 13.164999999999713), (0, 0),0
(2.0, 13.164999999999713), (0, 0),0
(3.0, 13.164999999999713), (0, 0),0
(-3.0, 14.164999999999713), (0, 0),0
(-2.0, 14.164999999999713), (0, 0),0
(-1.0, 14.164999999999713), (0, 0),0
(0.0, 14.164999999999713), (0, 0),0
(1.0, 14.164999999999713), (0, 0),0
(2.0, 14.164999999999713), (0, 0),0
(3.0, 14.164999999999713), (0, 0),0
(-3.0, 15.165000000000068), (0, 0),0
(-2.0, 15.165000000000068), (0, 0),0
(-1.0, 15.165000000000068), (0, 0),0
(0.0, 15.165000000000068), (0, 0),0
(1.0, 15.165000000000068), (0, 0),0
(2.0, 15.165000000000068), (0, 0),0
(3.0, 15.165000000000068), (0, 0),0
(-3.0, 16.165000000000365), (0, 0),0
(-2.0, 16.165000000000365), (0, 0),0
(-1.0, 16.165000000000365), (0, 0),0
(0.0, 16.165000000000365), (0, 0),0
(1.0, 16.165000000000365), (0, 0),0
(2.0, 16.165000000000365), (0, 0),0
(3.0, 16.165000000000365), (0, 0),0
(-3.0, 17.165000000000365), (0, 0),0
(-2.0, 17.165000000000365), (0, 0),0
(-1.0, 17.165000000000365), (0, 0),0
(0.0, 17.165000000000365), (0, 0),0
(1.0, 17.165000000000365), (0, 0),0
(2.0, 17.165000000000365), (0, 0),0
(3.0, 17.165000000000365), (0, 0),0
