(-1.6481380869008837, 4.6991797652790455), (0, 0),0
(-1.9779305285080235, 6.036683741781082), (-0.01022371010191164, -0.002990874771852263),0.010358310720954611
(-0.9909249851012861, 6.108869131185403), (0.0007258350445208967, 0.00203338420969929),0.019951225743422674
(-0.0008322932401283523, 6.133822197065545), (-0.0021292010741168783, 0.0020744576547414074),0.02136185174846339
(0.9871138910422322, 6.110095179098805), (0.0027851968599569357, 0.001358893060367137),0.02071244073238665
(1.975750924718517, 6.040886842210203), (0.008841879271550685, -0.0024758601529555717),0.008943504006391323
(1.6457524419801413, 4.7012234973167795), (0, 0),0
(-3.0000000000001337, 7.444999999999297), (-1.5146129380243427e-27, -3.5527136788004694e-14),8.881784197001252e-15
(-2.0000000000001332, 7.444999999999297), (-1.5165850902873952e-27, -3.5527136788004694e-14),8.881784197001252e-15
(-1.0000000000001323, 7.444999999999297), (-1.5116547096297639e-27, -3.5527136788004694e-14),8.881784197001252e-15
(-1.3173384605380535e-13, 7.444999999999297), (-1.5081590697435036e-27, -3.5527136788004694e-14),8.881784197001252e-15
(0.9999999999998685, 7.444999999999297), (-1.508696481235185e-27, -3.5527136788004694e-14),8.881784197001252e-15
(1.9999999999998692, 7.444999999999297), (-1.5126407857612901e-27, -3.5527136788004694e-14),8.881784197001252e-15
(2.99999999999987, 7.444999999999297), (-1.5067243289721325e-27, -3.5527136788004694e-14),8.881784197001252e-15
(-2.999999999999963, 8.444999999999288), (1.5146129380243427e-27, 3.5527136788004694e-14),8.881784197001252e-15
(-1.9999999999999625, 8.444999999999288), (1.5165850902873952e-27, 3.5527136788004694e-14),8.881784197001252e-15
(-0.9999999999999621, 8.444999999999288), (1.5116547096297639e-27, 3.5527136788004694e-14),8.881784197001252e-15
(3.8069769559001586e-14, 8.444999999999288), (1.5081590697435036e-27, 3.5527136788004694e-14),8.881784197001252e-15
(1.0000000000000384, 8.444999999999288), (1.508696481235185e-27, 3.5527136788004694e-14),8.881784197001252e-15
(2.0000000000000395, 8.444999999999288), (1.5126407857612901e-27, 3.5527136788004694e-14),8.881784197001252e-15
(3.0000000000000395, 8.444999999999288), (1.5067243289721325e-27, 3.5527136788004694e-14),8.881784197001252e-15
(-3.0, 9.444999999999288), (0, 0),0
(-2.0, 9.444999999999288), (0, 0),0
(-1.0, 9.444999999999288), (0, 0),0
(0.0, 9.444999999999288), (0, 0),0
(1.0, 9.444999999999288), (0, 0),0
(2.0, 9.444999999999288), (0, 0),0
(3.0, 9.444999999999288), (0, 0),0
(-3.0, 10.444999999999288), (0, 0),0
(-2.0, 10.444999999999288), (0, 0),0
(-1.0, 10.444999999999288), (0, 0),0
(0.0, 10.444999999999288), (0, 0),0
(1.0, 10.444999999999288), (0, 0),0
(2.0, 10.444999999999288), (0, 0),0
(3.0, 10.444999999999288), (0, 0),0
(-3.0, 11.444999999999288), (0, 0),0
(-2.0, 11.444999999999288), (0, 0),0
(-1.0, 11.444999999999288), (0, 0),0
(0.0, 11.444999999999288), (0, 0),0
(1.0, 11.444999999999288), (0, 0),0
(2.0, 11.444999999999288), (0, 0),0
(3.0, 11.444999999999288), (0, 0),0
(-3.0, 12.444999999999643), (0, 0),0
(-2.0, 12.444999999999643), (0, 0),0
(-1.0, 12.444999999999643), (0, 0),0
(0.0, 12.444999999999643), (0, 0),0
(1.0, 12.444999999999643), (0, 0),0
(2.0, 12.444999999999643), (0, 0),0
(3.0, 12.444999999999643), (0, 0),0
(-3.0, 13.444999999999999), (0, 0),0
(-2.0, 13.444999999999999), (0, 0),0
(-1.0, 13.444999999999999), (0, 0),0
(0.0, 13.444999999999999), (0, 0),0
(1.0, 13.444999999999999), (0, 0),0
(2.0, 13.444999999999999), (0, 0),0
(3.0, 13.444999999999999), (0, 0),0
(-3.0, 14.445000000000354), (0, 0),0
(-2.0, 14.445000000000354), (0, 0),0
(-1.0, 14.445000000000354), (0, 0),0
(0.0, 14.445000000000354), (0, 0),0
(1.0, 14.445000000000354), (0, 0),0
(2.0, 14.445000000000354), (0, 0),0
(3.0, 14.445000000000354), (0, 0),0
