(-3.000000000000087, 6.994999999999383), (0.0, -3.5527136788004694e-14),8.881784197001252e-15
(-2.000000000000087, 6.994999999999383), (0.0, -3.5527136788004694e-14),8.881784197001252e-15
(-1.0000000000000864, 6.994999999999383), (0.0, -3.5527136788004694e-14),8.881784197001252e-15
(-8.594824851826388e-14, 6.994999999999383), (0.0, -3.5527136788004694e-14),8.881784197001252e-15
(0.9999999999999143, 6.994999999999383), (0.0, -3.5527136788004694e-14),8.881784197001252e-15
(1.9999999999999147, 6.994999999999383), (0.0, -3.5527136788004694e-14),8.881784197001252e-15
(2.9999999999999147, 6.994999999999383), (0.0, -3.5527136788004694e-14),8.881784197001252e-15
(-3.000000000000087, 7.994999999999374), (0.0, 3.5527136788004694e-14),8.881784197001252e-15
(-2.000000000000087, 7.994999999999374), (0.0, 3.5527136788004694e-14),8.881784197001252e-15
(-1.0000000000000864, 7.994999999999374), (0.0, 3.5527136788004694e-14),8.881784197001252e-15
(-8.594824851826388e-14, 7.994999999999374), (0.0, 3.5527136788004694e-14),8.881784197001252e-15
(0.9999999999999143, 7.994999999999374), (0.0, 3.5527136788004694e-14),8.881784197001252e-15
(1.9999999999999147, 7.994999999999374), (0.0, 3.5527136788004694e-14),8.881784197001252e-15
(2.9999999999999147, 7.994999999999374), (0.0, 3.5527136788004694e-14),8.881784197001252e-15
(-3.0, 8.994999999999374), (0, 0),0
(-2.0, 8.994999999999374), (0, 0),0
(-1.0, 8.994999999999374), (0, 0),0
(0.0, 8.994999999999374), (0, 0),0
(1.0, 8.994999999999374), (0, 0),0
(2.0, 8.994999999999374), (0, 0),0
(3.0, 8.994999999999374), (0, 0),0
(-3.0, 9.994999999999374), (0, 0),0
(-2.0, 9.994999999999374), (0, 0),0
(-1.0, 9.994999999999374), (0, 0),0
(0.0, 9.994999999999374), (0, 0),0
(1.0, 9.994999999999374), (0, 0),0
(2.0, 9.994999999999374), (0, 0),0
(3.0, 9.994999999999374), (0, 0),0
(-3.0, 10.994999999999374), (0, 0),0
(-2.0, 10.994999999999374), (0, 0),0
(-1.0, 10.994999999999374), (0, 0),0
(0.0, 10.994999999999374), (0, 0),0
(1.0, 10.994999999999374), (0, 0),0
(2.0, 10.994999999999374), (0, 0),0
(3.0, 10.994999999999374), (0, 0),0
(-3.0, 11.994999999999374), (0, 0),0
(-2.0, 11.994999999999374), (0, 0),0
(-1.0, 11.994999999999374), (0, 0),0
(0.0, 11.994999999999374), (0, 0),0
(1.0, 11.994999999999374), (0, 0),0
(2.0, 11.994999999999374), (0, 0),0
(3.0, 11.994999999999374), (0, 0),0
(-3.0, 12.99499999999973), (0, 0),0
(-2.0, 12.99499999999973), (0, 0),0
(-1.0, 12.99499999999973), (0, 0),0
(0.0, 12.99499999999973), (0, 0),0
(1.0, 12.99499999999973), (0, 0),0
(2.0, 12.99499999999973), (0, 0),0
(3.0, 12.99499999999973), (0, 0),0
(-3.0, 13.995000000000084), (0, 0),0
(-2.0, 13.995000000000084), (0, 0),0
(-1.0, 13.995000000000084), (0, 0),0
(0.0, 13.995000000000084), (0, 0),0
(1.0, 13.995000000000084), (0, 0),0
(2.0, 13.995000000000084), (0, 0),0
(3.0, 13.995000000000084), (0, 0),0
(-3.0, 14.99500000000044), (0, 0),0
(-2.0, 14.99500000000044), (0, 0),0
(-1.0, 14.99500000000044), (0, 0),0
(0.0, 14.99500000000044), (0, 0),0
(1.0, 14.99500000000044), (0, 0),0
(2.0, 14.99500000000044), (0, 0),0
(3.0, 14.99500000000044), (0, 0),0
