(-1.1730125557912028, -2.5664466773648305), (-0.013320200025436504, -0.15358260164993648),0.05510630296602925
(0.563648038751442, -1.844317144497701), (0.005660653767526603, 0.012019276604380489),0.06371590070622313
(-1.0013268514324258, 4.6406474555384305), (-0.00017270139430481827, -2.912221543871613e-06),0.0001727327655338673
(-0.0015084685619383086, 4.644862378999638), (1.4323628289477714e-05, 3.8387595484472645e-06),0.0003311357924559166
(0.9983320590643349, 4.643400067921088), (0.00015837776601534056, -9.265380045756516e-07),0.00015840302692204933
(-1.632181763396238, -1.7052423983372171), (-0.011035781351687125, 0.08279354943732396),0.024034236549197785
(-0.3891579820274763, -1.9968912826336105), (-0.009044965535700354, 0.04939489400197773),0.06612741470852124
(-0.02549673762297955, -0.17733369394802403), (0, 0),0
(-1.9935398161298228, 5.85400230866007), (-0.0024491020394092496, 0.00023946522924056835),0.0024558648941144234
(-0.9962935729514547, 5.829625435382711), (-0.0008200151486516967, -0.0005467405729448028),0.005736648053421556
(0.00015057752124838554, 5.853040221485881), (0.0007085604664707158, 0.0005779228329402934),0.005848828553443264
(0.9972344793233736, 5.826692606111358), (-0.0004068283810870141, -0.0005922756298704646),0.005545384235513429
(1.9938913130831992, 5.853698949508069), (0.0029673851026772446, 0.0003216281406344056),0.002977338841377297
(1.5315391227778152, -1.7625420144281525), (0.02774029314529738, 0.009374881606254298),0.028660552414533358
(-2.9999999999998535, 7.179999999999099), (1.861711736321588e-27, -3.5527136788004694e-14),8.881784197001252e-15
(-1.9999999999998526, 7.179999999999099), (1.869600345373798e-27, -3.5527136788004694e-14),8.881784197001252e-15
(-0.9999999999998522, 7.179999999999099), (1.862697812453114e-27, -3.5527136788004694e-14),8.881784197001252e-15
(1.478817068800709e-13, 7.179999999999099), (1.860629024729173e-27, -3.5527136788004694e-14),8.881784197001252e-15
(1.0000000000001483, 7.179999999999099), (1.862697812453114e-27, -3.5527136788004694e-14),8.881784197001252e-15
(2.0000000000001497, 7.179999999999099), (1.8715724976368505e-27, -3.5527136788004694e-14),8.881784197001252e-15
(3.0000000000001497, 7.179999999999099), (1.865656040847693e-27, -3.5527136788004694e-14),8.881784197001252e-15
(-3.000000000000063, 8.17999999999909), (-1.861711736321588e-27, 3.5527136788004694e-14),8.881784197001252e-15
(-2.000000000000063, 8.17999999999909), (-1.869600345373798e-27, 3.5527136788004694e-14),8.881784197001252e-15
(-1.000000000000062, 8.17999999999909), (-1.862697812453114e-27, 3.5527136788004694e-14),8.881784197001252e-15
(-6.16064976810549e-14, 8.17999999999909), (-1.860629024729173e-27, 3.5527136788004694e-14),8.881784197001252e-15
(0.9999999999999386, 8.17999999999909), (-1.862697812453114e-27, 3.5527136788004694e-14),8.881784197001252e-15
(1.999999999999939, 8.17999999999909), (-1.8715724976368505e-27, 3.5527136788004694e-14),8.881784197001252e-15
(2.9999999999999396, 8.17999999999909), (-1.865656040847693e-27, 3.5527136788004694e-14),8.881784197001252e-15
(-3.0, 9.17999999999909), (0, 0),0
(-2.0, 9.17999999999909), (0, 0),0
(-1.0, 9.17999999999909), (0, 0),0
(0.0, 9.17999999999909), (0, 0),0
(1.0, 9.17999999999909), (0, 0),0
(2.0, 9.17999999999909), (0, 0),0
(3.0, 9.17999999999909), (0, 0),0
(-3.0, 10.17999999999909), (0, 0),0
(-2.0, 10.17999999999909), (0, 0),0
(-1.0, 10.17999999999909), (0, 0),0
(0.0, 10.17999999999909), (0, 0),0
(1.0, 10.17999999999909), (0, 0),0
(2.0, 10.17999999999909), (0, 0),0
(3.0, 10.17999999999909), (0, 0),0
(-3.0, 11.179999999999445), (0, 0),0
(-2.0, 11.179999999999445), (0, 0),0
(-1.0, 11.179999999999445), (0, 0),0
(0.0, 11.179999999999445), (0, 0),0
(1.0, 11.179999999999445), (0, 0),0
(2.0, 11.179999999999445), (0, 0),0
(3.0, 11.179999999999445), (0, 0),0
(-3.0, 12.1799999999998), (0, 0),0
(-2.0, 12.1799999999998), (0, 0),0
(-1.0, 12.1799999999998), (0, 0),0
(0.0, 12.1799999999998), (0, 0),0
(1.0, 12.1799999999998), (0, 0),0
(2.0, 12.1799999999998), (0, 0),0
(3.0, 12.1799999999998), (0, 0),0
(-3.0, 13.180000000000156), (0, 0),0
(-2.0, 13.180000000000156), (0, 0),0
(-1.0, 13.180000000000156), (0, 0),0
(0.0, 13.180000000000156), (0, 0),0
(1.0, 13.180000000000156), (0, 0),0
(2.0, 13.180000000000156), (0, 0),0
(3.0, 13.180000000000156), (0, 0),0
