(-3.0, 9.299999999999734), (0, 0),0
(-2.0, 9.299999999999734), (0, 0),0
(-1.0, 9.299999999999734), (0, 0),0
(0.0, 9.299999999999734), (0, 0),0
(1.0, 9.299999999999734), (0, 0),0
(2.0, 9.299999999999734), (0, 0),0
(3.0, 9.299999999999734), (0, 0),0
(-3.0, 10.299999999999734), (0, 0),0
(-2.0, 10.299999999999734), (0, 0),0
(-1.0, 10.299999999999734), (0, 0),0
(0.0, 10.299999999999734), (0, 0),0
(1.0, 10.299999999999734), (0, 0),0
(2.0, 10.299999999999734), (0, 0),0
(3.0, 10.299999999999734), (0, 0),0
(-3.0, 11.299999999999734), (0, 0),0
(-2.0, 11.299999999999734), (0, 0),0
(-1.0, 11.299999999999734), (0, 0),0
(0.0, 11.299999999999734), (0, 0),0
(1.0, 11.299999999999734), (0, 0),0
(2.0, 11.299999999999734), (0, 0),0
(3.0, 11.299999999999734), (0, 0),0
(-3.0, 12.299999999999734), (0, 0),0
(-2.0, 12.299999999999734), (0, 0),0
(-1.0, 12.299999999999734), (0, 0),0
(0.0, 12.299999999999734), (0, 0),0
(1.0, 12.299999999999734), (0, 0),0
(2.0, 12.299999999999734), (0, 0),0
(3.0, 12.299999999999734), (0, 0),0
(-3.0, 13.299999999999734), (0, 0),0
(-2.0, 13.299999999999734), (0, 0),0
(-1.0, 13.299999999999734), (0, 0),0
(0.0, 13.299999999999734), (0, 0),0
(1.0, 13.299999999999734), (0, 0),0
(2.0, 13.299999999999734), (0, 0),0
(3.0, 13.299999999999734), (0, 0),0
(-3.0, 14.299999999999734), (0, 0),0
(-2.0, 14.299999999999734), (0, 0),0
(-1.0, 14.299999999999734), (0, 0),0
(0.0, 14.299999999999734), (0, 0),0
(1.0, 14.299999999999734), (0, 0),0
(2.0, 14.299999999999734), (0, 0),0
(3.0, 14.299999999999734), (0, 0),0
(-3.0, 15.30000000000009), (0, 0),0
(-2.0, 15.30000000000009), (0, 0),0
(-1.0, 15.30000000000009), (0, 0),0
(0.0, 15.30000000000009), (0, 0),0
(1.0, 15.30000000000009), (0, 0),0
(2.0, 15.30000000000009), (0, 0),0
(3.0, 15.30000000000009), (0, 0),0
(-3.0, 16.300000000000338), (0, 0),0
(-2.0, 16.300000000000338), (0, 0),0
(-1.0, 16.300000000000338), (0, 0),0
(0.0, 16.300000000000338), (0, 0),0
(1.0, 16.300000000000338), (0, 0),0
(2.0, 16.300000000000338), (0, 0),0
(3.0, 16.300000000000338), (0, 0),0
(-3.0, 17.300000000000338), (0, 0),0
(-2.0, 17.300000000000338), (0, 0),0
(-1.0, 17.300000000000338), (0, 0),0
(0.0, 17.300000000000338), (0, 0),0
(1.0, 17.300000000000338), (0, 0),0
(2.0, 17.300000000000338), (0, 0),0
(3.0, 17.300000000000338), (0, 0),0
