(-0.5690221248267749, -1.4881833849249886), (-0.004480938519259375, -0.9776070228383817),0.46332492352623345
(0.46767134204154603, -1.0865296718781021), (-0.011916708406906132, -0.006758475290730287),0.28423687052674285
(-0.9977398839125012, 4.944165937895718), (-0.0039061404228593025, -0.00012262498044057416),0.003921639979597713
(-0.001692198969224078, 4.95198313816643), (0.00027751171398030135, 0.0001951067218483732),0.007563577642524244
(0.9946534402812744, 4.947007645165435), (0.003628628708879001, -7.248174140779902e-05),0.003641937662926531
(-1.457962683713995, -1.2417857368911955), (-0.06893102074441693, 0.07642554372478687),0.07754289086629718
(-0.37872824629255003, -0.9041868513772617), (-0.04015945521680751, 0.999049825601812),0.5199638258056747
(-0.02549673762297955, 1.8373966055451638), (0, 0),0
(-1.9736074406165536, 6.173525406700509), (-0.012457234925239393, 0.00017859625205739709),0.01261649077988325
(-0.9862302734963418, 6.169986462013486), (-0.0013054573739959621, -0.0015598491041200848),0.026578450769672912
(-0.0005024595432887394, 6.194718893081058), (0.001165087316021442, 0.0027678548749877673),0.02672728706727645
(0.9863586609548556, 6.167563262549457), (0.00012389605302847231, -0.0016848174011020547),0.025398865087985945
(1.9737074875321066, 6.173464526667417), (0.01247370893018544, 0.000298215378176975),0.012633538010499157
(1.3039517603892932, -1.2383237210826985), (0.12548812288738995, -0.09110987119748681),0.15005507738100443
(-2.99999999999988, 7.479999999999146), (1.3883951931889808e-27, -3.5527136788004694e-14),8.881784197001252e-15
(-1.9999999999998792, 7.479999999999146), (1.3962838022411909e-27, -3.5527136788004694e-14),8.881784197001252e-15
(-0.9999999999998789, 7.479999999999146), (1.389381269320507e-27, -3.5527136788004694e-14),8.881784197001252e-15
(1.2123635428906714e-13, 7.479999999999146), (1.3873124815965659e-27, -3.5527136788004694e-14),8.881784197001252e-15
(1.0000000000001217, 7.479999999999146), (1.389381269320507e-27, -3.5527136788004694e-14),8.881784197001252e-15
(2.000000000000123, 7.479999999999146), (1.3982559545042434e-27, -3.5527136788004694e-14),8.881784197001252e-15
(3.000000000000123, 7.479999999999146), (1.3923394977150858e-27, -3.5527136788004694e-14),8.881784197001252e-15
(-3.0000000000000364, 8.479999999999137), (-1.3883951931889808e-27, 3.5527136788004694e-14),8.881784197001252e-15
(-2.0000000000000364, 8.479999999999137), (-1.3962838022411909e-27, 3.5527136788004694e-14),8.881784197001252e-15
(-1.0000000000000353, 8.479999999999137), (-1.389381269320507e-27, 3.5527136788004694e-14),8.881784197001252e-15
(-3.496114509005115e-14, 8.479999999999137), (-1.3873124815965659e-27, 3.5527136788004694e-14),8.881784197001252e-15
(0.9999999999999653, 8.479999999999137), (-1.389381269320507e-27, 3.5527136788004694e-14),8.881784197001252e-15
(1.9999999999999656, 8.479999999999137), (-1.3982559545042434e-27, 3.5527136788004694e-14),8.881784197001252e-15
(2.9999999999999662, 8.479999999999137), (-1.3923394977150858e-27, 3.5527136788004694e-14),8.881784197001252e-15
(-3.0, 9.479999999999137), (0, 0),0
(-2.0, 9.479999999999137), (0, 0),0
(-1.0, 9.479999999999137), (0, 0),0
(0.0, 9.479999999999137), (0, 0),0
(1.0, 9.479999999999137), (0, 0),0
(2.0, 9.479999999999137), (0, 0),0
(3.0, 9.479999999999137), (0, 0),0
(-3.0, 10.479999999999137), (0, 0),0
(-2.0, 10.479999999999137), (0, 0),0
(-1.0, 10.479999999999137), (0, 0),0
(0.0, 10.479999999999137), (0, 0),0
(1.0, 10.479999999999137), (0, 0),0
(2.0, 10.479999999999137), (0, 0),0
(3.0, 10.479999999999137), (0, 0),0
(-3.0, 11.479999999999492), (0, 0),0
(-2.0, 11.479999999999492), (0, 0),0
(-1.0, 11.479999999999492), (0, 0),0
(0.0, 11.479999999999492), (0, 0),0
(1.0, 11.479999999999492), (0, 0),0
(2.0, 11.479999999999492), (0, 0),0
(3.0, 11.479999999999492), (0, 0),0
(-3.0, 12.479999999999848), (0, 0),0
(-2.0, 12.479999999999848), (0, 0),0
(-1.0, 12.479999999999848), (0, 0),0
(0.0, 12.479999999999848), (0, 0),0
(1.0, 12.479999999999848), (0, 0),0
(2.0, 12.479999999999848), (0, 0),0
(3.0, 12.479999999999848), (0, 0),0
(-3.0, 13.480000000000203), (0, 0),0
(-2.0, 13.480000000000203), (0, 0),0
(-1.0, 13.480000000000203), (0, 0),0
(0.0, 13.480000000000203), (0, 0),0
(1.0, 13.480000000000203), (0, 0),0
(2.0, 13.480000000000203), (0, 0),0
(3.0, 13.480000000000203), (0, 0),0
