(-2.079852921096148, 5.386801401562338), (-0.005140400809053078, -0.12027836857880599),0.03149792341795876
(-1.91665483527814, 6.341454562207116), (-0.03231054919810628, 0.10324189534178617),0.07072938780459548
(-0.9620396917272876, 6.450018399317049), (-0.001411262367042511, 0.012673933458406585),0.07975079366503957
(-0.0029366397694220027, 6.476934810918033), (0.004899033324809551, 0.007947954872764534),0.07573443843373218
(0.9615124238295318, 6.451481140745264), (-0.004384540529681014, 0.013568394346905922),0.07541815922708472
(1.915363425448299, 6.344811314634803), (0.03354867413717027, 0.0957860005300231),0.06971382745377175
(2.077983521143493, 5.388043821617955), (0.004799045441903065, -0.11293980997108033),0.02951077738201635
(-3.000000000000112, 7.689999999999335), (-1.1280710944660469e-27, -3.5527136788004694e-14),8.881784197001252e-15
(-2.0000000000001115, 7.689999999999335), (-1.1300432467290994e-27, -3.5527136788004694e-14),8.881784197001252e-15
(-1.0000000000001106, 7.689999999999335), (-1.125112866071468e-27, -3.5527136788004694e-14),8.881784197001252e-15
(-1.0997347477115228e-13, 7.689999999999335), (-1.1216172261852078e-27, -3.5527136788004694e-14),8.881784197001252e-15
(0.9999999999998903, 7.689999999999335), (-1.1221546376768893e-27, -3.5527136788004694e-14),8.881784197001252e-15
(1.999999999999891, 7.689999999999335), (-1.1260989422029944e-27, -3.5527136788004694e-14),8.881784197001252e-15
(2.9999999999998916, 7.689999999999335), (-1.1201824854138368e-27, -3.5527136788004694e-14),8.881784197001252e-15
(-2.999999999999985, 8.689999999999326), (1.1280710944660469e-27, 3.5527136788004694e-14),8.881784197001252e-15
(-1.9999999999999842, 8.689999999999326), (1.1300432467290994e-27, 3.5527136788004694e-14),8.881784197001252e-15
(-0.9999999999999839, 8.689999999999326), (1.125112866071468e-27, 3.5527136788004694e-14),8.881784197001252e-15
(1.6309398276348514e-14, 8.689999999999326), (1.1216172261852078e-27, 3.5527136788004694e-14),8.881784197001252e-15
(1.0000000000000167, 8.689999999999326), (1.1221546376768893e-27, 3.5527136788004694e-14),8.881784197001252e-15
(2.0000000000000178, 8.689999999999326), (1.1260989422029944e-27, 3.5527136788004694e-14),8.881784197001252e-15
(3.0000000000000178, 8.689999999999326), (1.1201824854138368e-27, 3.5527136788004694e-14),8.881784197001252e-15
(-3.0, 9.689999999999326), (0, 0),0
(-2.0, 9.689999999999326), (0, 0),0
(-1.0, 9.689999999999326), (0, 0),0
(0.0, 9.689999999999326), (0, 0),0
(1.0, 9.689999999999326), (0, 0),0
(2.0, 9.689999999999326), (0, 0),0
(3.0, 9.689999999999326), (0, 0),0
(-3.0, 10.689999999999326), (0, 0),0
(-2.0, 10.689999999999326), (0, 0),0
(-1.0, 10.689999999999326), (0, 0),0
(0.0, 10.689999999999326), (0, 0),0
(1.0, 10.689999999999326), (0, 0),0
(2.0, 10.689999999999326), (0, 0),0
(3.0, 10.689999999999326), (0, 0),0
(-3.0, 11.689999999999326), (0, 0),0
(-2.0, 11.689999999999326), (0, 0),0
(-1.0, 11.689999999999326), (0, 0),0
(0.0, 11.689999999999326), (0, 0),0
(1.0, 11.689999999999326), (0, 0),0
(2.0, 11.689999999999326), (0, 0),0
(3.0, 11.689999999999326), (0, 0),0
(-3.0, 12.689999999999682), (0, 0),0
(-2.0, 12.689999999999682), (0, 0),0
(-1.0, 12.689999999999682), (0, 0),0
(0.0, 12.689999999999682), (0, 0),0
(1.0, 12.689999999999682), (0, 0),0
(2.0, 12.689999999999682), (0, 0),0
(3.0, 12.689999999999682), (0, 0),0
(-3.0, 13.690000000000037), (0, 0),0
(-2.0, 13.690000000000037), (0, 0),0
(-1.0, 13.690000000000037), (0, 0),0
(0.0, 13.690000000000037), (0, 0),0
(1.0, 13.690000000000037), (0, 0),0
(2.0, 13.690000000000037), (0, 0),0
(3.0, 13.690000000000037), (0, 0),0
(-3.0, 14.690000000000392), (0, 0),0
(-2.0, 14.690000000000392), (0, 0),0
(-1.0, 14.690000000000392), (0, 0),0
(0.0, 14.690000000000392), (0, 0),0
(1.0, 14.690000000000392), (0, 0),0
(2.0, 14.690000000000392), (0, 0),0
(3.0, 14.690000000000392), (0, 0),0
