(-1.2044722184616203, -2.669484997294416), (-0.008775961429953688, -0.09162405862317721),0.03259428974636003
(0.5688614803105233, -1.9461343556975628), (-0.0023563892938309097, 0.002251049906951106),0.030420386601281324
(-1.0014122794109963, 4.570563674418032), (-8.327366308805618e-05, -1.3757940425750907e-06),8.328130917356624e-05
(-0.0015040897533880344, 4.574693634838406), (7.107742333178419e-06, 1.7958373993733065e-06),0.00015945310446063843
(0.998418788102224, 4.573315029558016), (7.616592075487777e-05, -4.200433567982158e-07),7.617179528707219e-05
(-1.6455458097802296, -1.787564316697487), (-0.00614505981861479, 0.049147855996908754),0.013932051112477306
(-0.40494213306885174, -2.100472304610945), (0.001247118885149773, 0.03380750591815831),0.03270398398741081
(-0.02549673762297955, -0.2473336939480241), (0, 0),0
(-1.9952000396219132, 5.782377836626879), (-0.0018045743763103717, 0.0001888364137334695),0.0018084623205358863
(-0.9973499015136237, 5.756273282002054), (-0.00037327334733201875, -0.0003923233807159517),0.003991670510617551
(0.00019478228537128523, 5.779574651966096), (0.00048018874769532914, 0.0003822578164301998),0.003884349237038953
(0.9981478791103199, 5.75330245517097), (-0.00047759826276827467, -0.00042976706075795564),0.003882059555424533
(1.9955520600873125, 5.782074301796115), (0.002175257238715336, 0.00025099621131023805),0.0021809185084672444
(1.5475929522785412, -1.8481767976791375), (0.016030291657249614, 0.006417646801159046),0.016378641247753234
(-2.9999999999998472, 7.109999999999088), (1.9721522630525295e-27, -3.5527136788004694e-14),8.881784197001252e-15
(-1.9999999999998463, 7.109999999999088), (1.9800408721047396e-27, -3.5527136788004694e-14),8.881784197001252e-15
(-0.999999999999846, 7.109999999999088), (1.9731383391840558e-27, -3.5527136788004694e-14),8.881784197001252e-15
(1.5409895581797178e-13, 7.109999999999088), (1.9710695514601148e-27, -3.5527136788004694e-14),8.881784197001252e-15
(1.0000000000001545, 7.109999999999088), (1.9731383391840558e-27, -3.5527136788004694e-14),8.881784197001252e-15
(2.000000000000156, 7.109999999999088), (1.982013024367792e-27, -3.5527136788004694e-14),8.881784197001252e-15
(3.000000000000156, 7.109999999999088), (1.9760965675786346e-27, -3.5527136788004694e-14),8.881784197001252e-15
(-3.0000000000000693, 8.10999999999908), (-1.9721522630525295e-27, 3.5527136788004694e-14),8.881784197001252e-15
(-2.0000000000000693, 8.10999999999908), (-1.9800408721047396e-27, 3.5527136788004694e-14),8.881784197001252e-15
(-1.0000000000000682, 8.10999999999908), (-1.9731383391840558e-27, 3.5527136788004694e-14),8.881784197001252e-15
(-6.782374661895578e-14, 8.10999999999908), (-1.9710695514601148e-27, 3.5527136788004694e-14),8.881784197001252e-15
(0.9999999999999324, 8.10999999999908), (-1.9731383391840558e-27, 3.5527136788004694e-14),8.881784197001252e-15
(1.9999999999999327, 8.10999999999908), (-1.982013024367792e-27, 3.5527136788004694e-14),8.881784197001252e-15
(2.9999999999999334, 8.10999999999908), (-1.9760965675786346e-27, 3.5527136788004694e-14),8.881784197001252e-15
(-3.0, 9.10999999999908), (0, 0),0
(-2.0, 9.10999999999908), (0, 0),0
(-1.0, 9.10999999999908), (0, 0),0
(0.0, 9.10999999999908), (0, 0),0
(1.0, 9.10999999999908), (0, 0),0
(2.0, 9.10999999999908), (0, 0),0
(3.0, 9.10999999999908), (0, 0),0
(-3.0, 10.10999999999908), (0, 0),0
(-2.0, 10.10999999999908), (0, 0),0
(-1.0, 10.10999999999908), (0, 0),0
(0.0, 10.10999999999908), (0, 0),0
(1.0, 10.10999999999908), (0, 0),0
(2.0, 10.10999999999908), (0, 0),0
(3.0, 10.10999999999908), (0, 0),0
(-3.0, 11.109999999999435), (0, 0),0
(-2.0, 11.109999999999435), (0, 0),0
(-1.0, 11.109999999999435), (0, 0),0
(0.0, 11.109999999999435), (0, 0),0
(1.0, 11.109999999999435), (0, 0),0
(2.0, 11.109999999999435), (0, 0),0
(3.0, 11.109999999999435), (0, 0),0
(-3.0, 12.10999999999979), (0, 0),0
(-2.0, 12.10999999999979), (0, 0),0
(-1.0, 12.10999999999979), (0, 0),0
(0.0, 12.10999999999979), (0, 0),0
(1.0, 12.10999999999979), (0, 0),0
(2.0, 12.10999999999979), (0, 0),0
(3.0, 12.10999999999979), (0, 0),0
(-3.0, 13.110000000000145), (0, 0),0
(-2.0, 13.110000000000145), (0, 0),0
(-1.0, 13.110000000000145), (0, 0),0
(0.0, 13.110000000000145), (0, 0),0
(1.0, 13.110000000000145), (0, 0),0
(2.0, 13.110000000000145), (0, 0),0
(3.0, 13.110000000000145), (0, 0),0
