(-1.213161632954243, -2.708619738269551), (-0.006353826097188843, -0.07093102184132583),0.024960208572056497
(0.5688111499229577, -1.9843892131151777), (-0.0008104185438816067, 0.0020136520459671722),0.022754938117977686
(-1.0014336349715252, 4.540542730658455), (-6.0914607073276306e-05, -1.0012041858694222e-06),6.091883242476115e-05
(-0.0015029953206431236, 4.544651493687958), (5.260639317794715e-06, 1.3034623976733194e-06),0.00011657594919400882
(0.9984404258634053, 4.543293813712111), (5.565396775548159e-05, -3.0225821180389724e-07),5.565711676924767e-05
(-1.6493852555803785, -1.8211011009372569), (-0.004829472857517172, 0.03930321007132123),0.011071094289765826
(-0.4079771750104207, -2.1393283650548516), (0.00043891011071180326, 0.024810668472506247),0.024888824833424694
(-0.02549673762297955, -0.2773336939480241), (0, 0),0
(-1.9957325628168683, 5.751856834129721), (-0.0016251594627809327, 0.00017381135970276305),0.001628391931285833
(-0.9977176306883039, 5.725172324650864), (-0.00020436721883935203, -0.0003444105270085099),0.003461776970495989
(0.00017786997993909492, 5.748435191377872), (0.00016104912448830955, 0.0003461500187201065),0.0035052347903643533
(0.9981608262713796, 5.722184200328413), (5.598121402576009e-05, -0.0003651856892760055),0.00328765369348738
(1.996113796220078, 5.751524832705479), (0.001612496343106215, 0.0001896348378616458),0.0016158039423331827
(1.5517616987040683, -1.8822327209456913), (0.011554807387875819, 0.004803491251531181),0.011755227566843662
(-2.9999999999998446, 7.0799999999990835), (2.0194839173657902e-27, -3.5527136788004694e-14),8.881784197001252e-15
(-1.9999999999998437, 7.0799999999990835), (2.0273725264180003e-27, -3.5527136788004694e-14),8.881784197001252e-15
(-0.9999999999998433, 7.0799999999990835), (2.0204699934973165e-27, -3.5527136788004694e-14),8.881784197001252e-15
(1.5676349107707215e-13, 7.0799999999990835), (2.0184012057733755e-27, -3.5527136788004694e-14),8.881784197001252e-15
(1.0000000000001572, 7.0799999999990835), (2.0204699934973165e-27, -3.5527136788004694e-14),8.881784197001252e-15
(2.0000000000001585, 7.0799999999990835), (2.029344678681053e-27, -3.5527136788004694e-14),8.881784197001252e-15
(3.0000000000001585, 7.0799999999990835), (2.0234282218918953e-27, -3.5527136788004694e-14),8.881784197001252e-15
(-3.000000000000072, 8.079999999999075), (-2.0194839173657902e-27, 3.5527136788004694e-14),8.881784197001252e-15
(-2.000000000000072, 8.079999999999075), (-2.0273725264180003e-27, 3.5527136788004694e-14),8.881784197001252e-15
(-1.0000000000000708, 8.079999999999075), (-2.0204699934973165e-27, 3.5527136788004694e-14),8.881784197001252e-15
(-7.048828187805616e-14, 8.079999999999075), (-2.0184012057733755e-27, 3.5527136788004694e-14),8.881784197001252e-15
(0.9999999999999297, 8.079999999999075), (-2.0204699934973165e-27, 3.5527136788004694e-14),8.881784197001252e-15
(1.99999999999993, 8.079999999999075), (-2.029344678681053e-27, 3.5527136788004694e-14),8.881784197001252e-15
(2.9999999999999307, 8.079999999999075), (-2.0234282218918953e-27, 3.5527136788004694e-14),8.881784197001252e-15
(-3.0, 9.079999999999075), (0, 0),0
(-2.0, 9.079999999999075), (0, 0),0
(-1.0, 9.079999999999075), (0, 0),0
(0.0, 9.079999999999075), (0, 0),0
(1.0, 9.079999999999075), (0, 0),0
(2.0, 9.079999999999075), (0, 0),0
(3.0, 9.079999999999075), (0, 0),0
(-3.0, 10.079999999999075), (0, 0),0
(-2.0, 10.079999999999075), (0, 0),0
(-1.0, 10.079999999999075), (0, 0),0
(0.0, 10.079999999999075), (0, 0),0
(1.0, 10.079999999999075), (0, 0),0
(2.0, 10.079999999999075), (0, 0),0
(3.0, 10.079999999999075), (0, 0),0
(-3.0, 11.07999999999943), (0, 0),0
(-2.0, 11.07999999999943), (0, 0),0
(-1.0, 11.07999999999943), (0, 0),0
(0.0, 11.07999999999943), (0, 0),0
(1.0, 11.07999999999943), (0, 0),0
(2.0, 11.07999999999943), (0, 0),0
(3.0, 11.07999999999943), (0, 0),0
(-3.0, 12.079999999999785), (0, 0),0
(-2.0, 12.079999999999785), (0, 0),0
(-1.0, 12.079999999999785), (0, 0),0
(0.0, 12.079999999999785), (0, 0),0
(1.0, 12.079999999999785), (0, 0),0
(2.0, 12.079999999999785), (0, 0),0
(3.0, 12.079999999999785), (0, 0),0
(-3.0, 13.08000000000014), (0, 0),0
(-2.0, 13.08000000000014), (0, 0),0
(-1.0, 13.08000000000014), (0, 0),0
(0.0, 13.08000000000014), (0, 0),0
(1.0, 13.08000000000014), (0, 0),0
(2.0, 13.08000000000014), (0, 0),0
(3.0, 13.08000000000014), (0, 0),0
