(-3.0000000000000195, 7.754999999999502), (0.0, -3.5527136788004694e-14),8.881784197001252e-15
(-2.0000000000000195, 7.754999999999502), (0.0, -3.5527136788004694e-14),8.881784197001252e-15
(-1.0000000000000189, 7.754999999999502), (0.0, -3.5527136788004694e-14),8.881784197001252e-15
(-1.8446688621054363e-14, 7.754999999999502), (0.0, -3.5527136788004694e-14),8.881784197001252e-15
(0.9999999999999818, 7.754999999999502), (0.0, -3.5527136788004694e-14),8.881784197001252e-15
(1.9999999999999822, 7.754999999999502), (0.0, -3.5527136788004694e-14),8.881784197001252e-15
(2.9999999999999822, 7.754999999999502), (0.0, -3.5527136788004694e-14),8.881784197001252e-15
(-3.0000000000000195, 8.754999999999493), (0.0, 3.5527136788004694e-14),8.881784197001252e-15
(-2.0000000000000195, 8.754999999999493), (0.0, 3.5527136788004694e-14),8.881784197001252e-15
(-1.0000000000000189, 8.754999999999493), (0.0, 3.5527136788004694e-14),8.881784197001252e-15
(-1.8446688621054363e-14, 8.754999999999493), (0.0, 3.5527136788004694e-14),8.881784197001252e-15
(0.9999999999999818, 8.754999999999493), (0.0, 3.5527136788004694e-14),8.881784197001252e-15
(1.9999999999999822, 8.754999999999493), (0.0, 3.5527136788004694e-14),8.881784197001252e-15
(2.9999999999999822, 8.754999999999493), (0.0, 3.5527136788004694e-14),8.881784197001252e-15
(-3.0, 9.754999999999493), (0, 0),0
(-2.0, 9.754999999999493), (0, 0),0
(-1.0, 9.754999999999493), (0, 0),0
(0.0, 9.754999999999493), (0, 0),0
(1.0, 9.754999999999493), (0, 0),0
(2.0, 9.754999999999493), (0, 0),0
(3.0, 9.754999999999493), (0, 0),0
(-3.0, 10.754999999999493), (0, 0),0
(-2.0, 10.754999999999493), (0, 0),0
(-1.0, 10.754999999999493), (0, 0),0
(0.0, 10.754999999999493), (0, 0),0
(1.0, 10.754999999999493), (0, 0),0
(2.0, 10.754999999999493), (0, 0),0
(3.0, 10.754999999999493), (0, 0),0
(-3.0, 11.754999999999493), (0, 0),0
(-2.0, 11.754999999999493), (0, 0),0
(-1.0, 11.754999999999493), (0, 0),0
(0.0, 11.754999999999493), (0, 0),0
(1.0, 11.754999999999493), (0, 0),0
(2.0, 11.754999999999493), (0, 0),0
(3.0, 11.754999999999493), (0, 0),0
(-3.0, 12.754999999999493), (0, 0),0
(-2.0, 12.754999999999493), (0, 0),0
(-1.0, 12.754999999999493), (0, 0),0
(0.0, 12.754999999999493), (0, 0),0
(1.0, 12.754999999999493), (0, 0),0
(2.0, 12.754999999999493), (0, 0),0
(3.0, 12.754999999999493), (0, 0),0
(-3.0, 13.754999999999848), (0, 0),0
(-2.0, 13.754999999999848), (0, 0),0
(-1.0, 13.754999999999848), (0, 0),0
(0.0, 13.754999999999848), (0, 0),0
(1.0, 13.754999999999848), (0, 0),0
(2.0, 13.754999999999848), (0, 0),0
(3.0, 13.754999999999848), (0, 0),0
(-3.0, 14.755000000000203), (0, 0),0
(-2.0, 14.755000000000203), (0, 0),0
(-1.0, 14.755000000000203), (0, 0),0
(0.0, 14.755000000000203), (0, 0),0
(1.0, 14.755000000000203), (0, 0),0
(2.0, 14.755000000000203), (0, 0),0
(3.0, 14.755000000000203), (0, 0),0
(-3.0, 15.755000000000559), (0, 0),0
(-2.0, 15.755000000000559), (0, 0),0
(-1.0, 15.755000000000559), (0, 0),0
(0.0, 15.755000000000559), (0, 0),0
(1.0, 15.755000000000559), (0, 0),0
(2.0, 15.755000000000559), (0, 0),0
(3.0, 15.755000000000559), (0, 0),0
