(-3.0000000000000036, 7.93499999999953), (0.0, -3.5527136788004694e-14),8.881784197001252e-15
(-2.0000000000000036, 7.93499999999953), (0.0, -3.5527136788004694e-14),8.881784197001252e-15
(-1.0000000000000029, 7.93499999999953), (0.0, -3.5527136788004694e-14),8.881784197001252e-15
(-2.459477066452109e-15, 7.93499999999953), (0.0, -3.5527136788004694e-14),8.881784197001252e-15
(0.9999999999999978, 7.93499999999953), (0.0, -3.5527136788004694e-14),8.881784197001252e-15
(1.9999999999999982, 7.93499999999953), (0.0, -3.5527136788004694e-14),8.881784197001252e-15
(2.9999999999999982, 7.93499999999953), (0.0, -3.5527136788004694e-14),8.881784197001252e-15
(-3.0000000000000036, 8.93499999999952), (0.0, 3.5527136788004694e-14),8.881784197001252e-15
(-2.0000000000000036, 8.93499999999952), (0.0, 3.5527136788004694e-14),8.881784197001252e-15
(-1.0000000000000029, 8.93499999999952), (0.0, 3.5527136788004694e-14),8.881784197001252e-15
(-2.459477066452109e-15, 8.93499999999952), (0.0, 3.5527136788004694e-14),8.881784197001252e-15
(0.9999999999999978, 8.93499999999952), (0.0, 3.5527136788004694e-14),8.881784197001252e-15
(1.9999999999999982, 8.93499999999952), (0.0, 3.5527136788004694e-14),8.881784197001252e-15
(2.9999999999999982, 8.93499999999952), (0.0, 3.5527136788004694e-14),8.881784197001252e-15
(-3.0, 9.93499999999952), (0, 0),0
(-2.0, 9.93499999999952), (0, 0),0
(-1.0, 9.93499999999952), (0, 0),0
(0.0, 9.93499999999952), (0, 0),0
(1.0, 9.93499999999952), (0, 0),0
(2.0, 9.93499999999952), (0, 0),0
(3.0, 9.93499999999952), (0, 0),0
(-3.0, 10.93499999999952), (0, 0),0
(-2.0, 10.93499999999952), (0, 0),0
(-1.0, 10.93499999999952), (0, 0),0
(0.0, 10.93499999999952), (0, 0),0
(1.0, 10.93499999999952), (0, 0),0
(2.0, 10.93499999999952), (0, 0),0
(3.0, 10.93499999999952), (0, 0),0
(-3.0, 11.93499999999952), (0, 0),0
(-2.0, 11.93499999999952), (0, 0),0
(-1.0, 11.93499999999952), (0, 0),0
(0.0, 11.93499999999952), (0, 0),0
(1.0, 11.93499999999952), (0, 0),0
(2.0, 11.93499999999952), (0, 0),0
(3.0, 11.93499999999952), (0, 0),0
(-3.0, 12.93499999999952), (0, 0),0
(-2.0, 12.93499999999952), (0, 0),0
(-1.0, 12.93499999999952), (0, 0),0
(0.0, 12.93499999999952), (0, 0),0
(1.0, 12.93499999999952), (0, 0),0
(2.0, 12.93499999999952), (0, 0),0
(3.0, 12.93499999999952), (0, 0),0
(-3.0, 13.934999999999876), (0, 0),0
(-2.0, 13.934999999999876), (0, 0),0
(-1.0, 13.934999999999876), (0, 0),0
(0.0, 13.934999999999876), (0, 0),0
(1.0, 13.934999999999876), (0, 0),0
(2.0, 13.934999999999876), (0, 0),0
(3.0, 13.934999999999876), (0, 0),0
(-3.0, 14.935000000000231), (0, 0),0
(-2.0, 14.935000000000231), (0, 0),0
(-1.0, 14.935000000000231), (0, 0),0
(0.0, 14.935000000000231), (0, 0),0
(1.0, 14.935000000000231), (0, 0),0
(2.0, 14.935000000000231), (0, 0),0
(3.0, 14.935000000000231), (0, 0),0
(-3.0, 15.935000000000587), (0, 0),0
(-2.0, 15.935000000000587), (0, 0),0
(-1.0, 15.935000000000587), (0, 0),0
(0.0, 15.935000000000587), (0, 0),0
(1.0, 15.935000000000587), (0, 0),0
(2.0, 15.935000000000587), (0, 0),0
(3.0, 15.935000000000587), (0, 0),0
