(-3.0, 10.3599999999999), (0, 0),0
(-2.0, 10.3599999999999), (0, 0),0
(-1.0, 10.3599999999999), (0, 0),0
(0.0, 10.3599999999999), (0, 0),0
(1.0, 10.3599999999999), (0, 0),0
(2.0, 10.3599999999999), (0, 0),0
(3.0, 10.3599999999999), (0, 0),0
(-3.0, 11.3599999999999), (0, 0),0
(-2.0, 11.3599999999999), (0, 0),0
(-1.0, 11.3599999999999), (0, 0),0
(0.0, 11.3599999999999), (0, 0),0
(1.0, 11.3599999999999), (0, 0),0
(2.0, 11.3599999999999), (0, 0),0
(3.0, 11.3599999999999), (0, 0),0
(-3.0, 12.3599999999999), (0, 0),0
(-2.0, 12.3599999999999), (0, 0),0
(-1.0, 12.3599999999999), (0, 0),0
(0.0, 12.3599999999999), (0, 0),0
(1.0, 12.3599999999999), (0, 0),0
(2.0, 12.3599999999999), (0, 0),0
(3.0, 12.3599999999999), (0, 0),0
(-3.0, 13.3599999999999), (0, 0),0
(-2.0, 13.3599999999999), (0, 0),0
(-1.0, 13.3599999999999), (0, 0),0
(0.0, 13.3599999999999), (0, 0),0
(1.0, 13.3599999999999), (0, 0),0
(2.0, 13.3599999999999), (0, 0),0
(3.0, 13.3599999999999), (0, 0),0
(-3.0, 14.3599999999999), (0, 0),0
(-2.0, 14.3599999999999), (0, 0),0
(-1.0, 14.3599999999999), (0, 0),0
(0.0, 14.3599999999999), (0, 0),0
(1.0, 14.3599999999999), (0, 0),0
(2.0, 14.3599999999999), (0, 0),0
(3.0, 14.3599999999999), (0, 0),0
(-3.0, 15.3599999999999), (0, 0),0
(-2.0, 15.3599999999999), (0, 0),0
(-1.0, 15.3599999999999), (0, 0),0
(0.0, 15.3599999999999), (0, 0),0
(1.0, 15.3599999999999), (0, 0),0
(2.0, 15.3599999999999), (0, 0),0
(3.0, 15.3599999999999), (0, 0),0
(-3.0, 16.360000000000127), (0, 0),0
(-2.0, 16.360000000000127), (0, 0),0
(-1.0, 16.360000000000127), (0, 0),0
(0.0, 16.360000000000127), (0, 0),0
(1.0, 16.360000000000127), (0, 0),0
(2.0, 16.360000000000127), (0, 0),0
(3.0, 16.360000000000127), (0, 0),0
(-3.0, 17.360000000000127), (0, 0),0
(-2.0, 17.360000000000127), (0, 0),0
(-1.0, 17.360000000000127), (0, 0),0
(0.0, 17.360000000000127), (0, 0),0
(1.0, 17.360000000000127), (0, 0),0
(2.0, 17.360000000000127), (0, 0),0
(3.0, 17.360000000000127), (0, 0),0
(-3.0, 18.360000000000127), (0, 0),0
(-2.0, 18.360000000000127), (0, 0),0
(-1.0, 18.360000000000127), (0, 0),0
(0.0, 18.360000000000127), (0, 0),0
(1.0, 18.360000000000127), (0, 0),0
(2.0, 18.360000000000127), (0, 0),0
(3.0, 18.360000000000127), (0, 0),0
