(-3.0000000000000244, 7.699999999999493), (0.0, -3.5527136788004694e-14),8.881784197001252e-15
(-2.0000000000000244, 7.699999999999493), (0.0, -3.5527136788004694e-14),8.881784197001252e-15
(-1.0000000000000238, 7.699999999999493), (0.0, -3.5527136788004694e-14),8.881784197001252e-15
(-2.333166992940505e-14, 7.699999999999493), (0.0, -3.5527136788004694e-14),8.881784197001252e-15
(0.9999999999999769, 7.699999999999493), (0.0, -3.5527136788004694e-14),8.881784197001252e-15
(1.9999999999999774, 7.699999999999493), (0.0, -3.5527136788004694e-14),8.881784197001252e-15
(2.9999999999999774, 7.699999999999493), (0.0, -3.5527136788004694e-14),8.881784197001252e-15
(-3.0000000000000244, 8.699999999999484), (0.0, 3.5527136788004694e-14),8.881784197001252e-15
(-2.0000000000000244, 8.699999999999484), (0.0, 3.5527136788004694e-14),8.881784197001252e-15
(-1.0000000000000238, 8.699999999999484), (0.0, 3.5527136788004694e-14),8.881784197001252e-15
(-2.333166992940505e-14, 8.699999999999484), (0.0, 3.5527136788004694e-14),8.881784197001252e-15
(0.9999999999999769, 8.699999999999484), (0.0, 3.5527136788004694e-14),8.881784197001252e-15
(1.9999999999999774, 8.699999999999484), (0.0, 3.5527136788004694e-14),8.881784197001252e-15
(2.9999999999999774, 8.699999999999484), (0.0, 3.5527136788004694e-14),8.881784197001252e-15
(-3.0, 9.699999999999484), (0, 0),0
(-2.0, 9.699999999999484), (0, 0),0
(-1.0, 9.699999999999484), (0, 0),0
(0.0, 9.699999999999484), (0, 0),0
(1.0, 9.699999999999484), (0, 0),0
(2.0, 9.699999999999484), (0, 0),0
(3.0, 9.699999999999484), (0, 0),0
(-3.0, 10.699999999999484), (0, 0),0
(-2.0, 10.699999999999484), (0, 0),0
(-1.0, 10.699999999999484), (0, 0),0
(0.0, 10.699999999999484), (0, 0),0
(1.0, 10.699999999999484), (0, 0),0
(2.0, 10.699999999999484), (0, 0),0
(3.0, 10.699999999999484), (0, 0),0
(-3.0, 11.699999999999484), (0, 0),0
(-2.0, 11.699999999999484), (0, 0),0
(-1.0, 11.699999999999484), (0, 0),0
(0.0, 11.699999999999484), (0, 0),0
(1.0, 11.699999999999484), (0, 0),0
(2.0, 11.699999999999484), (0, 0),0
(3.0, 11.699999999999484), (0, 0),0
(-3.0, 12.699999999999484), (0, 0),0
(-2.0, 12.699999999999484), (0, 0),0
(-1.0, 12.699999999999484), (0, 0),0
(0.0, 12.699999999999484), (0, 0),0
(1.0, 12.699999999999484), (0, 0),0
(2.0, 12.699999999999484), (0, 0),0
(3.0, 12.699999999999484), (0, 0),0
(-3.0, 13.69999999999984), (0, 0),0
(-2.0, 13.69999999999984), (0, 0),0
(-1.0, 13.69999999999984), (0, 0),0
(0.0, 13.69999999999984), (0, 0),0
(1.0, 13.69999999999984), (0, 0),0
(2.0, 13.69999999999984), (0, 0),0
(3.0, 13.69999999999984), (0, 0),0
(-3.0, 14.700000000000195), (0, 0),0
(-2.0, 14.700000000000195), (0, 0),0
(-1.0, 14.700000000000195), (0, 0),0
(0.0, 14.700000000000195), (0, 0),0
(1.0, 14.700000000000195), (0, 0),0
(2.0, 14.700000000000195), (0, 0),0
(3.0, 14.700000000000195), (0, 0),0
(-3.0, 15.70000000000055), (0, 0),0
(-2.0, 15.70000000000055), (0, 0),0
(-1.0, 15.70000000000055), (0, 0),0
(0.0, 15.70000000000055), (0, 0),0
(1.0, 15.70000000000055), (0, 0),0
(2.0, 15.70000000000055), (0, 0),0
(3.0, 15.70000000000055), (0, 0),0
