(-3.0, 10.824999999999973), (0, 0),0
(-2.0, 10.824999999999973), (0, 0),0
(-1.0, 10.824999999999973), (0, 0),0
(0.0, 10.824999999999973), (0, 0),0
(1.0, 10.824999999999973), (0, 0),0
(2.0, 10.824999999999973), (0, 0),0
(3.0, 10.824999999999973), (0, 0),0
(-3.0, 11.824999999999973), (0, 0),0
(-2.0, 11.824999999999973), (0, 0),0
(-1.0, 11.824999999999973), (0, 0),0
(0.0, 11.824999999999973), (0, 0),0
(1.0, 11.824999999999973), (0, 0),0
(2.0, 11.824999999999973), (0, 0),0
(3.0, 11.824999999999973), (0, 0),0
(-3.0, 12.824999999999973), (0, 0),0
(-2.0, 12.824999999999973), (0, 0),0
(-1.0, 12.824999999999973), (0, 0),0
(0.0, 12.824999999999973), (0, 0),0
(1.0, 12.824999999999973), (0, 0),0
(2.0, 12.824999999999973), (0, 0),0
(3.0, 12.824999999999973), (0, 0),0
(-3.0, 13.824999999999973), (0, 0),0
(-2.0, 13.824999999999973), (0, 0),0
(-1.0, 13.824999999999973), (0, 0),0
(0.0, 13.824999999999973), (0, 0),0
(1.0, 13.824999999999973), (0, 0),0
(2.0, 13.824999999999973), (0, 0),0
(3.0, 13.824999999999973), (0, 0),0
(-3.0, 14.824999999999973), (0, 0),0
(-2.0, 14.824999999999973), (0, 0),0
(-1.0, 14.824999999999973), (0, 0),0
(0.0, 14.824999999999973), (0, 0),0
(1.0, 14.824999999999973), (0, 0),0
(2.0, 14.824999999999973), (0, 0),0
(3.0, 14.824999999999973), (0, 0),0
(-3.0, 15.824999999999973), (0, 0),0
(-2.0, 15.824999999999973), (0, 0),0
(-1.0, 15.824999999999973), (0, 0),0
(0.0, 15.824999999999973), (0, 0),0
(1.0, 15.824999999999973), (0, 0),0
(2.0, 15.824999999999973), (0, 0),0
(3.0, 15.824999999999973), (0, 0),0
(-3.0, 16.825000000000035), (0, 0),0
(-2.0, 16.825000000000035), (0, 0),0
(-1.0, 16.825000000000035), (0, 0),0
(0.0, 16.825000000000035), (0, 0),0
(1.0, 16.825000000000035), (0, 0),0
(2.0, 16.825000000000035), (0, 0),0
(3.0, 16.825000000000035), (0, 0),0
(-3.0, 17.825000000000035), (0, 0),0
(-2.0, 17.825000000000035), (0, 0),0
(-1.0, 17.825000000000035), (0, 0),0
(0.0, 17.825000000000035), (0, 0),0
(1.0, 17.825000000000035), (0, 0),0
(2.0, 17.825000000000035), (0, 0),0
(3.0, 17.825000000000035), (0, 0),0
(-3.0, 18.825000000000035), (0, 0),0
(-2.0, 18.825000000000035), (0, 0),0
(-1.0, 18.825000000000035), (0, 0),0
(0.0, 18.825000000000035), (0, 0),0
(1.0, 18.825000000000035), (0, 0),0
(2.0, 18.825000000000035), (0, 0),0
(3.0, 18.825000000000035), (0, 0),0
