(-3.0, 9.099999999999703), (0, 0),0
(-2.0, 9.099999999999703), (0, 0),0
(-1.0, 9.099999999999703), (0, 0),0
(0.0, 9.099999999999703), (0, 0),0
(1.0, 9.099999999999703), (0, 0),0
(2.0, 9.099999999999703), (0, 0),0
(3.0, 9.099999999999703), (0, 0),0
(-3.0, 10.099999999999703), (0, 0),0
(-2.0, 10.099999999999703), (0, 0),0
(-1.0, 10.099999999999703), (0, 0),0
(0.0, 10.099999999999703), (0, 0),0
(1.0, 10.099999999999703), (0, 0),0
(2.0, 10.099999999999703), (0, 0),0
(3.0, 10.099999999999703), (0, 0),0
(-3.0, 11.099999999999703), (0, 0),0
(-2.0, 11.099999999999703), (0, 0),0
(-1.0, 11.099999999999703), (0, 0),0
(0.0, 11.099999999999703), (0, 0),0
(1.0, 11.099999999999703), (0, 0),0
(2.0, 11.099999999999703), (0, 0),0
(3.0, 11.099999999999703), (0, 0),0
(-3.0, 12.099999999999703), (0, 0),0
(-2.0, 12.099999999999703), (0, 0),0
(-1.0, 12.099999999999703), (0, 0),0
(0.0, 12.099999999999703), (0, 0),0
(1.0, 12.099999999999703), (0, 0),0
(2.0, 12.099999999999703), (0, 0),0
(3.0, 12.099999999999703), (0, 0),0
(-3.0, 13.099999999999703), (0, 0),0
(-2.0, 13.099999999999703), (0, 0),0
(-1.0, 13.099999999999703), (0, 0),0
(0.0, 13.099999999999703), (0, 0),0
(1.0, 13.099999999999703), (0, 0),0
(2.0, 13.099999999999703), (0, 0),0
(3.0, 13.099999999999703), (0, 0),0
(-3.0, 14.099999999999703), (0, 0),0
(-2.0, 14.099999999999703), (0, 0),0
(-1.0, 14.099999999999703), (0, 0),0
(0.0, 14.099999999999703), (0, 0),0
(1.0, 14.099999999999703), (0, 0),0
(2.0, 14.099999999999703), (0, 0),0
(3.0, 14.099999999999703), (0, 0),0
(-3.0, 15.100000000000058), (0, 0),0
(-2.0, 15.100000000000058), (0, 0),0
(-1.0, 15.100000000000058), (0, 0),0
(0.0, 15.100000000000058), (0, 0),0
(1.0, 15.100000000000058), (0, 0),0
(2.0, 15.100000000000058), (0, 0),0
(3.0, 15.100000000000058), (0, 0),0
(-3.0, 16.100000000000378), (0, 0),0
(-2.0, 16.100000000000378), (0, 0),0
(-1.0, 16.100000000000378), (0, 0),0
(0.0, 16.100000000000378), (0, 0),0
(1.0, 16.100000000000378), (0, 0),0
(2.0, 16.100000000000378), (0, 0),0
(3.0, 16.100000000000378), (0, 0),0
(-3.0, 17.100000000000378), (0, 0),0
(-2.0, 17.100000000000378), (0, 0),0
(-1.0, 17.100000000000378), (0, 0),0
(0.0, 17.100000000000378), (0, 0),0
(1.0, 17.100000000000378), (0, 0),0
(2.0, 17.100000000000378), (0, 0),0
(3.0, 17.100000000000378), (0, 0),0
