(-3.0, 9.429999999999755), (0, 0),0
(-2.0, 9.429999999999755), (0, 0),0
(-1.0, 9.429999999999755), (0, 0),0
(0.0, 9.429999999999755), (0, 0),0
(1.0, 9.429999999999755), (0, 0),0
(2.0, 9.429999999999755), (0, 0),0
(3.0, 9.429999999999755), (0, 0),0
(-3.0, 10.429999999999755), (0, 0),0
(-2.0, 10.429999999999755), (0, 0),0
(-1.0, 10.429999999999755), (0, 0),0
(0.0, 10.429999999999755), (0, 0),0
(1.0, 10.429999999999755), (0, 0),0
(2.0, 10.429999999999755), (0, 0),0
(3.0, 10.429999999999755), (0, 0),0
(-3.0, 11.429999999999755), (0, 0),0
(-2.0, 11.429999999999755), (0, 0),0
(-1.0, 11.429999999999755), (0, 0),0
(0.0, 11.429999999999755), (0, 0),0
(1.0, 11.429999999999755), (0, 0),0
(2.0, 11.429999999999755), (0, 0),0
(3.0, 11.429999999999755), (0, 0),0
(-3.0, 12.429999999999755), (0, 0),0
(-2.0, 12.429999999999755), (0, 0),0
(-1.0, 12.429999999999755), (0, 0),0
(0.0, 12.429999999999755), (0, 0),0
(1.0, 12.429999999999755), (0, 0),0
(2.0, 12.429999999999755), (0, 0),0
(3.0, 12.429999999999755), (0, 0),0
(-3.0, 13.429999999999755), (0, 0),0
(-2.0, 13.429999999999755), (0, 0),0
(-1.0, 13.429999999999755), (0, 0),0
(0.0, 13.429999999999755), (0, 0),0
(1.0, 13.429999999999755), (0, 0),0
(2.0, 13.429999999999755), (0, 0),0
(3.0, 13.429999999999755), (0, 0),0
(-3.0, 14.429999999999755), (0, 0),0
(-2.0, 14.429999999999755), (0, 0),0
(-1.0, 14.429999999999755), (0, 0),0
(0.0, 14.429999999999755), (0, 0),0
(1.0, 14.429999999999755), (0, 0),0
(2.0, 14.429999999999755), (0, 0),0
(3.0, 14.429999999999755), (0, 0),0
(-3.0, 15.43000000000011), (0, 0),0
(-2.0, 15.43000000000011), (0, 0),0
(-1.0, 15.43000000000011), (0, 0),0
(0.0, 15.43000000000011), (0, 0),0
(1.0, 15.43000000000011), (0, 0),0
(2.0, 15.43000000000011), (0, 0),0
(3.0, 15.43000000000011), (0, 0),0
(-3.0, 16.430000000000312), (0, 0),0
(-2.0, 16.430000000000312), (0, 0),0
(-1.0, 16.430000000000312), (0, 0),0
(0.0, 16.430000000000312), (0, 0),0
(1.0, 16.430000000000312), (0, 0),0
(2.0, 16.430000000000312), (0, 0),0
(3.0, 16.430000000000312), (0, 0),0
(-3.0, 17.430000000000312), (0, 0),0
(-2.0, 17.430000000000312), (0, 0),0
(-1.0, 17.430000000000312), (0, 0),0
(0.0, 17.430000000000312), (0, 0),0
(1.0, 17.430000000000312), (0, 0),0
(2.0, 17.430000000000312), (0, 0),0
(3.0, 17.430000000000312), (0, 0),0
