(-3.0, 8.029999999999536), (0, 0),0
(-2.0, 8.029999999999536), (0, 0),0
(-1.0, 8.029999999999536), (0, 0),0
(0.0, 8.029999999999536), (0, 0),0
(1.0, 8.029999999999536), (0, 0),0
(2.0, 8.029999999999536), (0, 0),0
(3.0, 8.029999999999536), (0, 0),0
(-3.0, 9.029999999999536), (0, 0),0
(-2.0, 9.029999999999536), (0, 0),0
(-1.0, 9.029999999999536), (0, 0),0
(0.0, 9.029999999999536), (0, 0),0
(1.0, 9.029999999999536), (0, 0),0
(2.0, 9.029999999999536), (0, 0),0
(3.0, 9.029999999999536), (0, 0),0
(-3.0, 10.029999999999536), (0, 0),0
(-2.0, 10.029999999999536), (0, 0),0
(-1.0, 10.029999999999536), (0, 0),0
(0.0, 10.029999999999536), (0, 0),0
(1.0, 10.029999999999536), (0, 0),0
(2.0, 10.029999999999536), (0, 0),0
(3.0, 10.029999999999536), (0, 0),0
(-3.0, 11.029999999999536), (0, 0),0
(-2.0, 11.029999999999536), (0, 0),0
(-1.0, 11.029999999999536), (0, 0),0
(0.0, 11.029999999999536), (0, 0),0
(1.0, 11.029999999999536), (0, 0),0
(2.0, 11.029999999999536), (0, 0),0
(3.0, 11.029999999999536), (0, 0),0
(-3.0, 12.029999999999536), (0, 0),0
(-2.0, 12.029999999999536), (0, 0),0
(-1.0, 12.029999999999536), (0, 0),0
(0.0, 12.029999999999536), (0, 0),0
(1.0, 12.029999999999536), (0, 0),0
(2.0, 12.029999999999536), (0, 0),0
(3.0, 12.029999999999536), (0, 0),0
(-3.0, 13.029999999999536), (0, 0),0
(-2.0, 13.029999999999536), (0, 0),0
(-1.0, 13.029999999999536), (0, 0),0
(0.0, 13.029999999999536), (0, 0),0
(1.0, 13.029999999999536), (0, 0),0
(2.0, 13.029999999999536), (0, 0),0
(3.0, 13.029999999999536), (0, 0),0
(-3.0, 14.029999999999891), (0, 0),0
(-2.0, 14.029999999999891), (0, 0),0
(-1.0, 14.029999999999891), (0, 0),0
(0.0, 14.029999999999891), (0, 0),0
(1.0, 14.029999999999891), (0, 0),0
(2.0, 14.029999999999891), (0, 0),0
(3.0, 14.029999999999891), (0, 0),0
(-3.0, 15.030000000000246), (0, 0),0
(-2.0, 15.030000000000246), (0, 0),0
(-1.0, 15.030000000000246), (0, 0),0
(0.0, 15.030000000000246), (0, 0),0
(1.0, 15.030000000000246), (0, 0),0
(2.0, 15.030000000000246), (0, 0),0
(3.0, 15.030000000000246), (0, 0),0
(-3.0, 16.03000000000059), (0, 0),0
(-2.0, 16.03000000000059), (0, 0),0
(-1.0, 16.03000000000059), (0, 0),0
(0.0, 16.03000000000059), (0, 0),0
(1.0, 16.03000000000059), (0, 0),0
(2.0, 16.03000000000059), (0, 0),0
(3.0, 16.03000000000059), (0, 0),0
