(-3.0, 9.52499999999977), (0, 0),0
(-2.0, 9.52499999999977), (0, 0),0
(-1.0, 9.52499999999977), (0, 0),0
(0.0, 9.52499999999977), (0, 0),0
(1.0, 9.52499999999977), (0, 0),0
(2.0, 9.52499999999977), (0, 0),0
(3.0, 9.52499999999977), (0, 0),0
(-3.0, 10.52499999999977), (0, 0),0
(-2.0, 10.52499999999977), (0, 0),0
(-1.0, 10.52499999999977), (0, 0),0
(0.0, 10.52499999999977), (0, 0),0
(1.0, 10.52499999999977), (0, 0),0
(2.0, 10.52499999999977), (0, 0),0
(3.0, 10.52499999999977), (0, 0),0
(-3.0, 11.52499999999977), (0, 0),0
(-2.0, 11.52499999999977), (0, 0),0
(-1.0, 11.52499999999977), (0, 0),0
(0.0, 11.52499999999977), (0, 0),0
(1.0, 11.52499999999977), (0, 0),0
(2.0, 11.52499999999977), (0, 0),0
(3.0, 11.52499999999977), (0, 0),0
(-3.0, 12.52499999999977), (0, 0),0
(-2.0, 12.52499999999977), (0, 0),0
(-1.0, 12.52499999999977), (0, 0),0
(0.0, 12.52499999999977), (0, 0),0
(1.0, 12.52499999999977), (0, 0),0
(2.0, 12.52499999999977), (0, 0),0
(3.0, 12.52499999999977), (0, 0),0
(-3.0, 13.52499999999977), (0, 0),0
(-2.0, 13.52499999999977), (0, 0),0
(-1.0, 13.52499999999977), (0, 0),0
(0.0, 13.52499999999977), (0, 0),0
(1.0, 13.52499999999977), (0, 0),0
(2.0, 13.52499999999977), (0, 0),0
(3.0, 13.52499999999977), (0, 0),0
(-3.0, 14.52499999999977), (0, 0),0
(-2.0, 14.52499999999977), (0, 0),0
(-1.0, 14.52499999999977), (0, 0),0
(0.0, 14.52499999999977), (0, 0),0
(1.0, 14.52499999999977), (0, 0),0
(2.0, 14.52499999999977), (0, 0),0
(3.0, 14.52499999999977), (0, 0),0
(-3.0, 15.525000000000125), (0, 0),0
(-2.0, 15.525000000000125), (0, 0),0
(-1.0, 15.525000000000125), (0, 0),0
(0.0, 15.525000000000125), (0, 0),0
(1.0, 15.525000000000125), (0, 0),0
(2.0, 15.525000000000125), (0, 0),0
(3.0, 15.525000000000125), (0, 0),0
(-3.0, 16.525000000000293), (0, 0),0
(-2.0, 16.525000000000293), (0, 0),0
(-1.0, 16.525000000000293), (0, 0),0
(0.0, 16.525000000000293), (0, 0),0
(1.0, 16.525000000000293), (0, 0),0
(2.0, 16.525000000000293), (0, 0),0
(3.0, 16.525000000000293), (0, 0),0
(-3.0, 17.525000000000293), (0, 0),0
(-2.0, 17.525000000000293), (0, 0),0
(-1.0, 17.525000000000293), (0, 0),0
(0.0, 17.525000000000293), (0, 0),0
(1.0, 17.525000000000293), (0, 0),0
(2.0, 17.525000000000293), (0, 0),0
(3.0, 17.525000000000293), (0, 0),0
