(-2.467263440140983, 6.026670931050121), (-0.07880409530377713, -0.2882547337624017),0.12156380636293906
(-1.8190104965921376, 6.6194763523072355), (-0.0014123796384995224, 0.246807535012377),0.21032535792703333
(-0.9152805197186177, 6.736213830471122), (-0.00010224544023314242, 0.029742581841595568),0.17690235865470216
(-0.004025868964819544, 6.769412462565553), (0.006529806759902473, 0.022429954514401572),0.16842377692168542
(0.9150845448360866, 6.736013917305769), (-0.006300039802266719, 0.03057587616204941),0.16888510246716126
(1.8190013134518495, 6.619478308796043), (0.0012881530876827502, 0.24693830844450937),0.21015933568805722
(2.4672623655221155, 6.026671969526106), (0.07880080033719129, -0.28823952221253124),0.12155720305197348
(-3.0000000000001004, 7.8199999999993555), (-9.229672591085838e-28, -3.5527136788004694e-14),8.881784197001252e-15
(-2.0000000000001, 7.8199999999993555), (-9.249394113716363e-28, -3.5527136788004694e-14),8.881784197001252e-15
(-1.000000000000099, 7.8199999999993555), (-9.20009030714005e-28, -3.5527136788004694e-14),8.881784197001252e-15
(-9.842715531505065e-14, 7.8199999999993555), (-9.165133908277445e-28, -3.5527136788004694e-14),8.881784197001252e-15
(0.9999999999999019, 7.8199999999993555), (-9.170508023194262e-28, -3.5527136788004694e-14),8.881784197001252e-15
(1.9999999999999025, 7.8199999999993555), (-9.209951068455313e-28, -3.5527136788004694e-14),8.881784197001252e-15
(2.999999999999903, 7.8199999999993555), (-9.150786500563737e-28, -3.5527136788004694e-14),8.881784197001252e-15
(-2.9999999999999964, 8.819999999999347), (9.229672591085838e-28, 3.5527136788004694e-14),8.881784197001252e-15
(-1.9999999999999958, 8.819999999999347), (9.249394113716363e-28, 3.5527136788004694e-14),8.881784197001252e-15
(-0.9999999999999954, 8.819999999999347), (9.20009030714005e-28, 3.5527136788004694e-14),8.881784197001252e-15
(4.763078820246856e-15, 8.819999999999347), (9.165133908277445e-28, 3.5527136788004694e-14),8.881784197001252e-15
(1.000000000000005, 8.819999999999347), (9.170508023194262e-28, 3.5527136788004694e-14),8.881784197001252e-15
(2.000000000000006, 8.819999999999347), (9.209951068455313e-28, 3.5527136788004694e-14),8.881784197001252e-15
(3.000000000000006, 8.819999999999347), (9.150786500563737e-28, 3.5527136788004694e-14),8.881784197001252e-15
(-3.0, 9.819999999999347), (0, 0),0
(-2.0, 9.819999999999347), (0, 0),0
(-1.0, 9.819999999999347), (0, 0),0
(0.0, 9.819999999999347), (0, 0),0
(1.0, 9.819999999999347), (0, 0),0
(2.0, 9.819999999999347), (0, 0),0
(3.0, 9.819999999999347), (0, 0),0
(-3.0, 10.819999999999347), (0, 0),0
(-2.0, 10.819999999999347), (0, 0),0
(-1.0, 10.819999999999347), (0, 0),0
(0.0, 10.819999999999347), (0, 0),0
(1.0, 10.819999999999347), (0, 0),0
(2.0, 10.819999999999347), (0, 0),0
(3.0, 10.819999999999347), (0, 0),0
(-3.0, 11.819999999999347), (0, 0),0
(-2.0, 11.819999999999347), (0, 0),0
(-1.0, 11.819999999999347), (0, 0),0
(0.0, 11.819999999999347), (0, 0),0
(1.0, 11.819999999999347), (0, 0),0
(2.0, 11.819999999999347), (0, 0),0
(3.0, 11.819999999999347), (0, 0),0
(-3.0, 12.819999999999702), (0, 0),0
(-2.0, 12.819999999999702), (0, 0),0
(-1.0, 12.819999999999702), (0, 0),0
(0.0, 12.819999999999702), (0, 0),0
(1.0, 12.819999999999702), (0, 0),0
(2.0, 12.819999999999702), (0, 0),0
(3.0, 12.819999999999702), (0, 0),0
(-3.0, 13.820000000000057), (0, 0),0
(-2.0, 13.820000000000057), (0, 0),0
(-1.0, 13.820000000000057), (0, 0),0
(0.0, 13.820000000000057), (0, 0),0
(1.0, 13.820000000000057), (0, 0),0
(2.0, 13.820000000000057), (0, 0),0
(3.0, 13.820000000000057), (0, 0),0
(-3.0, 14.820000000000412), (0, 0),0
(-2.0, 14.820000000000412), (0, 0),0
(-1.0, 14.820000000000412), (0, 0),0
(0.0, 14.820000000000412), (0, 0),0
(1.0, 14.820000000000412), (0, 0),0
(2.0, 14.820000000000412), (0, 0),0
(3.0, 14.820000000000412), (0, 0),0
