(-0.7671126831164453, 3.1468146155324646), (0, 0),0
(-1.6406691709251335, 4.501451689283739), (3.5764306524294485, 2.574745058829193),5.05027527174469
(-0.9410764624809891, 5.269920830703024), (-0.05727741392119999, -0.01596835464064559),0.061156479532073926
(-0.004504992712843431, 5.335197457001758), (0.0027618433626090746, 0.029906237801234775),0.11914608993116449
(0.9355870372802718, 5.275109610814022), (0.054515570558590916, -0.013937883160589184),0.05798961039909056
(1.622661196822817, 4.525374315943559), (-3.5956595717488526, 2.6103253205989105),5.074473564595889
(0.7647270381957029, 3.1488583475701986), (0, 0),0
(-1.399650260040775, 4.3592304356174205), (0.17356934757055167, -0.40968154936809653),0.720148252822496
(-1.9009158192624944, 6.515035407583243), (-0.039396350633389136, -0.011823323094040534),0.0412049260395807
(-0.9448080326462602, 6.586770296044657), (-0.014349941137353855, 0.00499789056314239),0.09823017733337203
(-0.0023081654585698024, 6.616693147658821), (0.012063001088644457, 0.01204712845233568),0.10063038618015796
(0.9536180297182975, 6.586755756483188), (-0.0066503044411599654, 0.009222124205380704),0.09468230507092379
(1.8999037176022329, 6.5160596897540195), (0.0483335951232585, -0.01444382012681824),0.05107717018455715
(1.4153109657399867, 4.375826429369162), (-0.15434042825114738, -0.44526181113781405),0.744346545673696
(-2.999999999999904, 7.749999999999188), (9.624103043696344e-28, -3.5527136788004694e-14),8.881784197001252e-15
(-1.9999999999999032, 7.749999999999188), (9.702989134218445e-28, -3.5527136788004694e-14),8.881784197001252e-15
(-0.9999999999999029, 7.749999999999188), (9.633963805011607e-28, -3.5527136788004694e-14),8.881784197001252e-15
(9.725553695716376e-14, 7.749999999999188), (9.613275927772193e-28, -3.5527136788004694e-14),8.881784197001252e-15
(1.0000000000000977, 7.749999999999188), (9.633963805011607e-28, -3.5527136788004694e-14),8.881784197001252e-15
(2.000000000000099, 7.749999999999188), (9.72271065684897e-28, -3.5527136788004694e-14),8.881784197001252e-15
(3.000000000000099, 7.749999999999188), (9.663546088957395e-28, -3.5527136788004694e-14),8.881784197001252e-15
(-3.0000000000000124, 8.74999999999918), (-9.624103043696344e-28, 3.5527136788004694e-14),8.881784197001252e-15
(-2.0000000000000124, 8.74999999999918), (-9.702989134218445e-28, 3.5527136788004694e-14),8.881784197001252e-15
(-1.0000000000000113, 8.74999999999918), (-9.633963805011607e-28, 3.5527136788004694e-14),8.881784197001252e-15
(-1.098032775814775e-14, 8.74999999999918), (-9.613275927772193e-28, 3.5527136788004694e-14),8.881784197001252e-15
(0.9999999999999892, 8.74999999999918), (-9.633963805011607e-28, 3.5527136788004694e-14),8.881784197001252e-15
(1.9999999999999896, 8.74999999999918), (-9.72271065684897e-28, 3.5527136788004694e-14),8.881784197001252e-15
(2.9999999999999902, 8.74999999999918), (-9.663546088957395e-28, 3.5527136788004694e-14),8.881784197001252e-15
(-3.0, 9.74999999999918), (0, 0),0
(-2.0, 9.74999999999918), (0, 0),0
(-1.0, 9.74999999999918), (0, 0),0
(0.0, 9.74999999999918), (0, 0),0
(1.0, 9.74999999999918), (0, 0),0
(2.0, 9.74999999999918), (0, 0),0
(3.0, 9.74999999999918), (0, 0),0
(-3.0, 10.74999999999918), (0, 0),0
(-2.0, 10.74999999999918), (0, 0),0
(-1.0, 10.74999999999918), (0, 0),0
(0.0, 10.74999999999918), (0, 0),0
(1.0, 10.74999999999918), (0, 0),0
(2.0, 10.74999999999918), (0, 0),0
(3.0, 10.74999999999918), (0, 0),0
(-3.0, 11.749999999999535), (0, 0),0
(-2.0, 11.749999999999535), (0, 0),0
(-1.0, 11.749999999999535), (0, 0),0
(0.0, 11.749999999999535), (0, 0),0
(1.0, 11.749999999999535), (0, 0),0
(2.0, 11.749999999999535), (0, 0),0
(3.0, 11.749999999999535), (0, 0),0
(-3.0, 12.74999999999989), (0, 0),0
(-2.0, 12.74999999999989), (0, 0),0
(-1.0, 12.74999999999989), (0, 0),0
(0.0, 12.74999999999989), (0, 0),0
(1.0, 12.74999999999989), (0, 0),0
(2.0, 12.74999999999989), (0, 0),0
(3.0, 12.74999999999989), (0, 0),0
(-3.0, 13.750000000000245), (0, 0),0
(-2.0, 13.750000000000245), (0, 0),0
(-1.0, 13.750000000000245), (0, 0),0
(0.0, 13.750000000000245), (0, 0),0
(1.0, 13.750000000000245), (0, 0),0
(2.0, 13.750000000000245), (0, 0),0
(3.0, 13.750000000000245), (0, 0),0
