(-2.473420434554434, 6.015304485998212), (3.6679579887171627, 1.8649217558897209),4.457542763254387
(-1.829528176868128, 6.604206891945896), (0.0033482649847159096, 0.2590509126050887),0.21433151027751196
(-0.924125739896793, 6.72239845512023), (0.012894448797111754, 0.031562379927674585),0.15777989345113774
(0.0044018496880246305, 6.756013703673983), (-0.02185196949654114, 0.022512847057132072),0.16801347866839
(0.9066339896729262, 6.722600238058573), (0.02345453923761924, 0.019955223392408863),0.1667109038560194
(1.82951056838934, 6.604217280320084), (-0.017835736998162044, 0.26716425733150506),0.19695926540865294
(2.4734190264750517, 6.015305869851295), (-3.6679675352419063, 1.8649596427186625),4.457524731637398
(-3.000000000000101, 7.814999999999355), (-9.30855868160794e-28, -3.5527136788004694e-14),8.881784197001252e-15
(-2.0000000000001004, 7.814999999999355), (-9.328280204238465e-28, -3.5527136788004694e-14),8.881784197001252e-15
(-1.0000000000000995, 7.814999999999355), (-9.278976397662151e-28, -3.5527136788004694e-14),8.881784197001252e-15
(-9.887124452490072e-14, 7.814999999999355), (-9.244019998799546e-28, -3.5527136788004694e-14),8.881784197001252e-15
(0.9999999999999014, 7.814999999999355), (-9.249394113716363e-28, -3.5527136788004694e-14),8.881784197001252e-15
(1.999999999999902, 7.814999999999355), (-9.288837158977414e-28, -3.5527136788004694e-14),8.881784197001252e-15
(2.9999999999999027, 7.814999999999355), (-9.229672591085838e-28, -3.5527136788004694e-14),8.881784197001252e-15
(-2.999999999999996, 8.814999999999346), (9.30855868160794e-28, 3.5527136788004694e-14),8.881784197001252e-15
(-1.9999999999999953, 8.814999999999346), (9.328280204238465e-28, 3.5527136788004694e-14),8.881784197001252e-15
(-0.999999999999995, 8.814999999999346), (9.278976397662151e-28, 3.5527136788004694e-14),8.881784197001252e-15
(5.2071680300969196e-15, 8.814999999999346), (9.244019998799546e-28, 3.5527136788004694e-14),8.881784197001252e-15
(1.0000000000000056, 8.814999999999346), (9.249394113716363e-28, 3.5527136788004694e-14),8.881784197001252e-15
(2.0000000000000067, 8.814999999999346), (9.288837158977414e-28, 3.5527136788004694e-14),8.881784197001252e-15
(3.0000000000000067, 8.814999999999346), (9.229672591085838e-28, 3.5527136788004694e-14),8.881784197001252e-15
(-3.0, 9.814999999999346), (0, 0),0
(-2.0, 9.814999999999346), (0, 0),0
(-1.0, 9.814999999999346), (0, 0),0
(0.0, 9.814999999999346), (0, 0),0
(1.0, 9.814999999999346), (0, 0),0
(2.0, 9.814999999999346), (0, 0),0
(3.0, 9.814999999999346), (0, 0),0
(-3.0, 10.814999999999346), (0, 0),0
(-2.0, 10.814999999999346), (0, 0),0
(-1.0, 10.814999999999346), (0, 0),0
(0.0, 10.814999999999346), (0, 0),0
(1.0, 10.814999999999346), (0, 0),0
(2.0, 10.814999999999346), (0, 0),0
(3.0, 10.814999999999346), (0, 0),0
(-3.0, 11.814999999999346), (0, 0),0
(-2.0, 11.814999999999346), (0, 0),0
(-1.0, 11.814999999999346), (0, 0),0
(0.0, 11.814999999999346), (0, 0),0
(1.0, 11.814999999999346), (0, 0),0
(2.0, 11.814999999999346), (0, 0),0
(3.0, 11.814999999999346), (0, 0),0
(-3.0, 12.814999999999701), (0, 0),0
(-2.0, 12.814999999999701), (0, 0),0
(-1.0, 12.814999999999701), (0, 0),0
(0.0, 12.814999999999701), (0, 0),0
(1.0, 12.814999999999701), (0, 0),0
(2.0, 12.814999999999701), (0, 0),0
(3.0, 12.814999999999701), (0, 0),0
(-3.0, 13.815000000000056), (0, 0),0
(-2.0, 13.815000000000056), (0, 0),0
(-1.0, 13.815000000000056), (0, 0),0
(0.0, 13.815000000000056), (0, 0),0
(1.0, 13.815000000000056), (0, 0),0
(2.0, 13.815000000000056), (0, 0),0
(3.0, 13.815000000000056), (0, 0),0
(-3.0, 14.815000000000412), (0, 0),0
(-2.0, 14.815000000000412), (0, 0),0
(-1.0, 14.815000000000412), (0, 0),0
(0.0, 14.815000000000412), (0, 0),0
(1.0, 14.815000000000412), (0, 0),0
(2.0, 14.815000000000412), (0, 0),0
(3.0, 14.815000000000412), (0, 0),0
