(-3.0000000000000115, 7.844999999999516), (0.0, -3.5527136788004694e-14),8.881784197001252e-15
(-2.0000000000000115, 7.844999999999516), (0.0, -3.5527136788004694e-14),8.881784197001252e-15
(-1.0000000000000109, 7.844999999999516), (0.0, -3.5527136788004694e-14),8.881784197001252e-15
(-1.0453082843753235e-14, 7.844999999999516), (0.0, -3.5527136788004694e-14),8.881784197001252e-15
(0.9999999999999898, 7.844999999999516), (0.0, -3.5527136788004694e-14),8.881784197001252e-15
(1.9999999999999902, 7.844999999999516), (0.0, -3.5527136788004694e-14),8.881784197001252e-15
(2.9999999999999902, 7.844999999999516), (0.0, -3.5527136788004694e-14),8.881784197001252e-15
(-3.0000000000000115, 8.844999999999507), (0.0, 3.5527136788004694e-14),8.881784197001252e-15
(-2.0000000000000115, 8.844999999999507), (0.0, 3.5527136788004694e-14),8.881784197001252e-15
(-1.0000000000000109, 8.844999999999507), (0.0, 3.5527136788004694e-14),8.881784197001252e-15
(-1.0453082843753235e-14, 8.844999999999507), (0.0, 3.5527136788004694e-14),8.881784197001252e-15
(0.9999999999999898, 8.844999999999507), (0.0, 3.5527136788004694e-14),8.881784197001252e-15
(1.9999999999999902, 8.844999999999507), (0.0, 3.5527136788004694e-14),8.881784197001252e-15
(2.9999999999999902, 8.844999999999507), (0.0, 3.5527136788004694e-14),8.881784197001252e-15
(-3.0, 9.844999999999507), (0, 0),0
(-2.0, 9.844999999999507), (0, 0),0
(-1.0, 9.844999999999507), (0, 0),0
(0.0, 9.844999999999507), (0, 0),0
(1.0, 9.844999999999507), (0, 0),0
(2.0, 9.844999999999507), (0, 0),0
(3.0, 9.844999999999507), (0, 0),0
(-3.0, 10.844999999999507), (0, 0),0
(-2.0, 10.844999999999507), (0, 0),0
(-1.0, 10.844999999999507), (0, 0),0
(0.0, 10.844999999999507), (0, 0),0
(1.0, 10.844999999999507), (0, 0),0
(2.0, 10.844999999999507), (0, 0),0
(3.0, 10.844999999999507), (0, 0),0
(-3.0, 11.844999999999507), (0, 0),0
(-2.0, 11.844999999999507), (0, 0),0
(-1.0, 11.844999999999507), (0, 0),0
(0.0, 11.844999999999507), (0, 0),0
(1.0, 11.844999999999507), (0, 0),0
(2.0, 11.844999999999507), (0, 0),0
(3.0, 11.844999999999507), (0, 0),0
(-3.0, 12.844999999999507), (0, 0),0
(-2.0, 12.844999999999507), (0, 0),0
(-1.0, 12.844999999999507), (0, 0),0
(0.0, 12.844999999999507), (0, 0),0
(1.0, 12.844999999999507), (0, 0),0
(2.0, 12.844999999999507), (0, 0),0
(3.0, 12.844999999999507), (0, 0),0
(-3.0, 13.844999999999862), (0, 0),0
(-2.0, 13.844999999999862), (0, 0),0
(-1.0, 13.844999999999862), (0, 0),0
(0.0, 13.844999999999862), (0, 0),0
(1.0, 13.844999999999862), (0, 0),0
(2.0, 13.844999999999862), (0, 0),0
(3.0, 13.844999999999862), (0, 0),0
(-3.0, 14.845000000000217), (0, 0),0
(-2.0, 14.845000000000217), (0, 0),0
(-1.0, 14.845000000000217), (0, 0),0
(0.0, 14.845000000000217), (0, 0),0
(1.0, 14.845000000000217), (0, 0),0
(2.0, 14.845000000000217), (0, 0),0
(3.0, 14.845000000000217), (0, 0),0
(-3.0, 15.845000000000573), (0, 0),0
(-2.0, 15.845000000000573), (0, 0),0
(-1.0, 15.845000000000573), (0, 0),0
(0.0, 15.845000000000573), (0, 0),0
(1.0, 15.845000000000573), (0, 0),0
(2.0, 15.845000000000573), (0, 0),0
(3.0, 15.845000000000573), (0, 0),0
