(-3.000000000000023, 7.714999999999495), (0.0, -3.5527136788004694e-14),8.881784197001252e-15
(-2.000000000000023, 7.714999999999495), (0.0, -3.5527136788004694e-14),8.881784197001252e-15
(-1.0000000000000224, 7.714999999999495), (0.0, -3.5527136788004694e-14),8.881784197001252e-15
(-2.1999402299854863e-14, 7.714999999999495), (0.0, -3.5527136788004694e-14),8.881784197001252e-15
(0.9999999999999782, 7.714999999999495), (0.0, -3.5527136788004694e-14),8.881784197001252e-15
(1.9999999999999787, 7.714999999999495), (0.0, -3.5527136788004694e-14),8.881784197001252e-15
(2.9999999999999787, 7.714999999999495), (0.0, -3.5527136788004694e-14),8.881784197001252e-15
(-3.000000000000023, 8.714999999999486), (0.0, 3.5527136788004694e-14),8.881784197001252e-15
(-2.000000000000023, 8.714999999999486), (0.0, 3.5527136788004694e-14),8.881784197001252e-15
(-1.0000000000000224, 8.714999999999486), (0.0, 3.5527136788004694e-14),8.881784197001252e-15
(-2.1999402299854863e-14, 8.714999999999486), (0.0, 3.5527136788004694e-14),8.881784197001252e-15
(0.9999999999999782, 8.714999999999486), (0.0, 3.5527136788004694e-14),8.881784197001252e-15
(1.9999999999999787, 8.714999999999486), (0.0, 3.5527136788004694e-14),8.881784197001252e-15
(2.9999999999999787, 8.714999999999486), (0.0, 3.5527136788004694e-14),8.881784197001252e-15
(-3.0, 9.714999999999486), (0, 0),0
(-2.0, 9.714999999999486), (0, 0),0
(-1.0, 9.714999999999486), (0, 0),0
(0.0, 9.714999999999486), (0, 0),0
(1.0, 9.714999999999486), (0, 0),0
(2.0, 9.714999999999486), (0, 0),0
(3.0, 9.714999999999486), (0, 0),0
(-3.0, 10.714999999999486), (0, 0),0
(-2.0, 10.714999999999486), (0, 0),0
(-1.0, 10.714999999999486), (0, 0),0
(0.0, 10.714999999999486), (0, 0),0
(1.0, 10.714999999999486), (0, 0),0
(2.0, 10.714999999999486), (0, 0),0
(3.0, 10.714999999999486), (0, 0),0
(-3.0, 11.714999999999486), (0, 0),0
(-2.0, 11.714999999999486), (0, 0),0
(-1.0, 11.714999999999486), (0, 0),0
(0.0, 11.714999999999486), (0, 0),0
(1.0, 11.714999999999486), (0, 0),0
(2.0, 11.714999999999486), (0, 0),0
(3.0, 11.714999999999486), (0, 0),0
(-3.0, 12.714999999999486), (0, 0),0
(-2.0, 12.714999999999486), (0, 0),0
(-1.0, 12.714999999999486), (0, 0),0
(0.0, 12.714999999999486), (0, 0),0
(1.0, 12.714999999999486), (0, 0),0
(2.0, 12.714999999999486), (0, 0),0
(3.0, 12.714999999999486), (0, 0),0
(-3.0, 13.714999999999842), (0, 0),0
(-2.0, 13.714999999999842), (0, 0),0
(-1.0, 13.714999999999842), (0, 0),0
(0.0, 13.714999999999842), (0, 0),0
(1.0, 13.714999999999842), (0, 0),0
(2.0, 13.714999999999842), (0, 0),0
(3.0, 13.714999999999842), (0, 0),0
(-3.0, 14.715000000000197), (0, 0),0
(-2.0, 14.715000000000197), (0, 0),0
(-1.0, 14.715000000000197), (0, 0),0
(0.0, 14.715000000000197), (0, 0),0
(1.0, 14.715000000000197), (0, 0),0
(2.0, 14.715000000000197), (0, 0),0
(3.0, 14.715000000000197), (0, 0),0
(-3.0, 15.715000000000552), (0, 0),0
(-2.0, 15.715000000000552), (0, 0),0
(-1.0, 15.715000000000552), (0, 0),0
(0.0, 15.715000000000552), (0, 0),0
(1.0, 15.715000000000552), (0, 0),0
(2.0, 15.715000000000552), (0, 0),0
(3.0, 15.715000000000552), (0, 0),0
