(-1.2090421654729018, -2.689289531377501), (-0.007485877533609418, -0.08072313862231145),0.02856006138423184
(0.5674618284702122, -1.9656347752356955), (0.001269410408730411, 0.003583112912837554),0.02635805424697768
(-1.0014239782622862, 4.555552201150744), (-6.403221678771996e-05, -1.0549987385944953e-06),6.40368606994457e-05
(-0.0014964976155932726, 4.559670917804993), (-8.264553358474183e-06, 1.4503875167324247e-06),0.00013633892600828368
(0.9984302657123806, 4.558303775744634), (7.229677014619415e-05, -3.953887781379294e-07),7.230206530883798e-05
(-1.6475753192360814, -1.8044340135177364), (-0.005454051161403454, 0.04401990794487122),0.012437032672674042
(-0.4064678522648082, -2.120177621108286), (-0.0005832226972193669, 0.028119833569163533),0.030008170174775528
(-0.02549673762297955, -0.2623336939480241), (0, 0),0
(-1.9954728762913996, 5.767110899271505), (-0.001729016081759468, 0.00018305679664578365),0.0017326236116727012
(-0.9975549960829857, 5.740697661651325), (-5.143468171159293e-05, -0.0003493131082227332),0.0035167425397483187
(0.0003889948994354353, 5.763994358547573), (-0.0002898303056425755, 0.00038432063294439314),0.003859424543865786
(0.9979678832143408, 5.737725417757807), (0.00038803828519025124, -0.0004139422891962361),0.0037611029035719
(1.995859383049992, 5.7667736860829), (0.0016822427839233852, 0.00019587796782879254),0.0016857972877817318
(1.549890006710704, -1.865411910654504), (0.012253740983501828, 0.005000284195439146),0.012472912783759948
(-2.999999999999846, 7.094999999999086), (1.99581809020916e-27, -3.5527136788004694e-14),8.881784197001252e-15
(-1.999999999999845, 7.094999999999086), (2.00370669926137e-27, -3.5527136788004694e-14),8.881784197001252e-15
(-0.9999999999998447, 7.094999999999086), (1.996804166340686e-27, -3.5527136788004694e-14),8.881784197001252e-15
(1.5543122344752197e-13, 7.094999999999086), (1.994735378616745e-27, -3.5527136788004694e-14),8.881784197001252e-15
(1.0000000000001559, 7.094999999999086), (1.996804166340686e-27, -3.5527136788004694e-14),8.881784197001252e-15
(2.000000000000157, 7.094999999999086), (2.0056788515244225e-27, -3.5527136788004694e-14),8.881784197001252e-15
(3.000000000000157, 7.094999999999086), (1.999762394735265e-27, -3.5527136788004694e-14),8.881784197001252e-15
(-3.0000000000000706, 8.094999999999077), (-1.99581809020916e-27, 3.5527136788004694e-14),8.881784197001252e-15
(-2.0000000000000706, 8.094999999999077), (-2.00370669926137e-27, 3.5527136788004694e-14),8.881784197001252e-15
(-1.0000000000000695, 8.094999999999077), (-1.996804166340686e-27, 3.5527136788004694e-14),8.881784197001252e-15
(-6.915601424850597e-14, 8.094999999999077), (-1.994735378616745e-27, 3.5527136788004694e-14),8.881784197001252e-15
(0.999999999999931, 8.094999999999077), (-1.996804166340686e-27, 3.5527136788004694e-14),8.881784197001252e-15
(1.9999999999999314, 8.094999999999077), (-2.0056788515244225e-27, 3.5527136788004694e-14),8.881784197001252e-15
(2.999999999999932, 8.094999999999077), (-1.999762394735265e-27, 3.5527136788004694e-14),8.881784197001252e-15
(-3.0, 9.094999999999077), (0, 0),0
(-2.0, 9.094999999999077), (0, 0),0
(-1.0, 9.094999999999077), (0, 0),0
(0.0, 9.094999999999077), (0, 0),0
(1.0, 9.094999999999077), (0, 0),0
(2.0, 9.094999999999077), (0, 0),0
(3.0, 9.094999999999077), (0, 0),0
(-3.0, 10.094999999999077), (0, 0),0
(-2.0, 10.094999999999077), (0, 0),0
(-1.0, 10.094999999999077), (0, 0),0
(0.0, 10.094999999999077), (0, 0),0
(1.0, 10.094999999999077), (0, 0),0
(2.0, 10.094999999999077), (0, 0),0
(3.0, 10.094999999999077), (0, 0),0
(-3.0, 11.094999999999432), (0, 0),0
(-2.0, 11.094999999999432), (0, 0),0
(-1.0, 11.094999999999432), (0, 0),0
(0.0, 11.094999999999432), (0, 0),0
(1.0, 11.094999999999432), (0, 0),0
(2.0, 11.094999999999432), (0, 0),0
(3.0, 11.094999999999432), (0, 0),0
(-3.0, 12.094999999999787), (0, 0),0
(-2.0, 12.094999999999787), (0, 0),0
(-1.0, 12.094999999999787), (0, 0),0
(0.0, 12.094999999999787), (0, 0),0
(1.0, 12.094999999999787), (0, 0),0
(2.0, 12.094999999999787), (0, 0),0
(3.0, 12.094999999999787), (0, 0),0
(-3.0, 13.095000000000143), (0, 0),0
(-2.0, 13.095000000000143), (0, 0),0
(-1.0, 13.095000000000143), (0, 0),0
(0.0, 13.095000000000143), (0, 0),0
(1.0, 13.095000000000143), (0, 0),0
(2.0, 13.095000000000143), (0, 0),0
(3.0, 13.095000000000143), (0, 0),0
