(-3.0000000000000324, 7.609999999999479), (0.0, -3.5527136788004694e-14),8.881784197001252e-15
(-2.0000000000000324, 7.609999999999479), (0.0, -3.5527136788004694e-14),8.881784197001252e-15
(-1.0000000000000318, 7.609999999999479), (0.0, -3.5527136788004694e-14),8.881784197001252e-15
(-3.132527570670618e-14, 7.609999999999479), (0.0, -3.5527136788004694e-14),8.881784197001252e-15
(0.9999999999999689, 7.609999999999479), (0.0, -3.5527136788004694e-14),8.881784197001252e-15
(1.9999999999999694, 7.609999999999479), (0.0, -3.5527136788004694e-14),8.881784197001252e-15
(2.9999999999999694, 7.609999999999479), (0.0, -3.5527136788004694e-14),8.881784197001252e-15
(-3.0000000000000324, 8.60999999999947), (0.0, 3.5527136788004694e-14),8.881784197001252e-15
(-2.0000000000000324, 8.60999999999947), (0.0, 3.5527136788004694e-14),8.881784197001252e-15
(-1.0000000000000318, 8.60999999999947), (0.0, 3.5527136788004694e-14),8.881784197001252e-15
(-3.132527570670618e-14, 8.60999999999947), (0.0, 3.5527136788004694e-14),8.881784197001252e-15
(0.9999999999999689, 8.60999999999947), (0.0, 3.5527136788004694e-14),8.881784197001252e-15
(1.9999999999999694, 8.60999999999947), (0.0, 3.5527136788004694e-14),8.881784197001252e-15
(2.9999999999999694, 8.60999999999947), (0.0, 3.5527136788004694e-14),8.881784197001252e-15
(-3.0, 9.60999999999947), (0, 0),0
(-2.0, 9.60999999999947), (0, 0),0
(-1.0, 9.60999999999947), (0, 0),0
(0.0, 9.60999999999947), (0, 0),0
(1.0, 9.60999999999947), (0, 0),0
(2.0, 9.60999999999947), (0, 0),0
(3.0, 9.60999999999947), (0, 0),0
(-3.0, 10.60999999999947), (0, 0),0
(-2.0, 10.60999999999947), (0, 0),0
(-1.0, 10.60999999999947), (0, 0),0
(0.0, 10.60999999999947), (0, 0),0
(1.0, 10.60999999999947), (0, 0),0
(2.0, 10.60999999999947), (0, 0),0
(3.0, 10.60999999999947), (0, 0),0
(-3.0, 11.60999999999947), (0, 0),0
(-2.0, 11.60999999999947), (0, 0),0
(-1.0, 11.60999999999947), (0, 0),0
(0.0, 11.60999999999947), (0, 0),0
(1.0, 11.60999999999947), (0, 0),0
(2.0, 11.60999999999947), (0, 0),0
(3.0, 11.60999999999947), (0, 0),0
(-3.0, 12.60999999999947), (0, 0),0
(-2.0, 12.60999999999947), (0, 0),0
(-1.0, 12.60999999999947), (0, 0),0
(0.0, 12.60999999999947), (0, 0),0
(1.0, 12.60999999999947), (0, 0),0
(2.0, 12.60999999999947), (0, 0),0
(3.0, 12.60999999999947), (0, 0),0
(-3.0, 13.609999999999825), (0, 0),0
(-2.0, 13.609999999999825), (0, 0),0
(-1.0, 13.609999999999825), (0, 0),0
(0.0, 13.609999999999825), (0, 0),0
(1.0, 13.609999999999825), (0, 0),0
(2.0, 13.609999999999825), (0, 0),0
(3.0, 13.609999999999825), (0, 0),0
(-3.0, 14.61000000000018), (0, 0),0
(-2.0, 14.61000000000018), (0, 0),0
(-1.0, 14.61000000000018), (0, 0),0
(0.0, 14.61000000000018), (0, 0),0
(1.0, 14.61000000000018), (0, 0),0
(2.0, 14.61000000000018), (0, 0),0
(3.0, 14.61000000000018), (0, 0),0
(-3.0, 15.610000000000536), (0, 0),0
(-2.0, 15.610000000000536), (0, 0),0
(-1.0, 15.610000000000536), (0, 0),0
(0.0, 15.610000000000536), (0, 0),0
(1.0, 15.610000000000536), (0, 0),0
(2.0, 15.610000000000536), (0, 0),0
(3.0, 15.610000000000536), (0, 0),0
