(-0.987369034062555, 3.4861559029691107), (0, 0),0
(-1.9989002146879162, 5.446021131253558), (-0.0007009990237685051, -0.00014203481301418476),0.0007023911374146596
(-1.000882178257785, 5.496575162137612), (8.08562403478688e-05, 7.976993612385193e-05),0.0013231145516544585
(-0.0018175881454138001, 5.521652706927262), (-0.0002144435305218101, 0.00013293921072236322),0.0014561947456736002
(0.9971231086109476, 5.500504664148002), (0.00022627666982382734, 4.851069222957543e-05),0.001444881660258801
(1.995316961497388, 5.45161107783014), (0.000608309644118619, -0.0001191850260616058),0.0006094103288249997
(0.9849833891418126, 3.4881996350068447), (0, 0),0
(-2.61619662081053, 6.380654155389734), (-0.1315145133431886, -0.31627985121840696),0.1892814575273858
(-1.9213873401700283, 6.7983916550767365), (0.07432185562061153, 0.301312374152657),0.25032238677646035
(-0.9844314578438403, 6.859692642995334), (0.04260849200827982, 0.014285325140843496),0.0758452602264571
(0.0006968628197785377, 6.871212108581936), (-0.0013261390118753345, 0.0014257001275656495),0.030977286041887098
(0.9844567670992123, 6.859718411238229), (-0.04130183535187917, 0.014235377141020522),0.07723624194096335
(1.9213886455583828, 6.798392997434414), (-0.07430241654894446, 0.3013026732045274),0.25034516630003345
(2.616196606190965, 6.38065412101451), (0.1315145566269962, -0.3162815985482071),0.18928187942357466
(-2.999999999999915, 7.874999999999207), (6.886755702579433e-28, -3.1974423109204256e-14),7.993605777301127e-15
(-1.9999999999999143, 7.874999999999206), (6.184669496932733e-28, -2.8421709430403805e-14),7.105427357601002e-15
(-0.9999999999999137, 7.874999999999205), (5.390878211054089e-28, -2.4868995751603352e-14),6.217248937900877e-15
(8.659739592076226e-14, 7.874999999999204), (4.631402374552563e-28, -2.1316282072802892e-14),5.329070518200751e-15
(1.0000000000000868, 7.874999999999205), (5.4322934085781925e-28, -2.4868995751603352e-14),6.217248937900877e-15
(2.000000000000088, 7.874999999999206), (6.263555587454834e-28, -2.8421709430403805e-14),7.105427357601002e-15
(3.000000000000088, 7.874999999999207), (7.064249406254161e-28, -3.1974423109204256e-14),7.993605777301127e-15
(-3.0000000000000013, 8.874999999999199), (-6.886755702579433e-28, 3.1974423109204256e-14),7.993605777301127e-15
(-2.0000000000000013, 8.874999999999199), (-6.184669496932733e-28, 2.8421709430403805e-14),7.105427357601002e-15
(-1.0000000000000004, 8.874999999999199), (-5.390878211054089e-28, 2.4868995751603352e-14),6.217248937900877e-15
(-3.10862446895045e-16, 8.874999999999199), (-2.220446049254944e-16, 2.1316282072802892e-14),5.551115123125783e-15
(0.9999999999999994, 8.874999999999199), (2.2204460492448803e-16, 2.4868995751603352e-14),6.439293542825908e-15
(1.9999999999999998, 8.874999999999199), (-2.220446049256576e-16, 2.8421709430403805e-14),7.327471962526033e-15
(2.9999999999999996, 8.874999999999199), (2.2204460492432483e-16, 3.1974423109204256e-14),8.215650382226158e-15
(-3.0, 9.874999999999199), (0, 0),0
(-2.0, 9.874999999999199), (0, 0),0
(-1.0, 9.874999999999199), (0, 0),0
(0.0, 9.874999999999199), (0, 0),0
(1.0, 9.874999999999199), (0, 0),0
(2.0, 9.874999999999199), (0, 0),0
(3.0, 9.874999999999199), (0, 0),0
(-3.0, 10.874999999999199), (0, 0),0
(-2.0, 10.874999999999199), (0, 0),0
(-1.0, 10.874999999999199), (0, 0),0
(0.0, 10.874999999999199), (0, 0),0
(1.0, 10.874999999999199), (0, 0),0
(2.0, 10.874999999999199), (0, 0),0
(3.0, 10.874999999999199), (0, 0),0
(-3.0, 11.874999999999554), (0, 0),0
(-2.0, 11.874999999999554), (0, 0),0
(-1.0, 11.874999999999554), (0, 0),0
(0.0, 11.874999999999554), (0, 0),0
(1.0, 11.874999999999554), (0, 0),0
(2.0, 11.874999999999554), (0, 0),0
(3.0, 11.874999999999554), (0, 0),0
(-3.0, 12.87499999999991), (0, 0),0
(-2.0, 12.87499999999991), (0, 0),0
(-1.0, 12.87499999999991), (0, 0),0
(0.0, 12.87499999999991), (0, 0),0
(1.0, 12.87499999999991), (0, 0),0
(2.0, 12.87499999999991), (0, 0),0
(3.0, 12.87499999999991), (0, 0),0
(-3.0, 13.875000000000265), (0, 0),0
(-2.0, 13.875000000000265), (0, 0),0
(-1.0, 13.875000000000265), (0, 0),0
(0.0, 13.875000000000265), (0, 0),0
(1.0, 13.875000000000265), (0, 0),0
(2.0, 13.875000000000265), (0, 0),0
(3.0, 13.875000000000265), (0, 0),0
