(-1.6481380869008837, 4.6491797652790465), (0, 0),0
(-1.9825456079193524, 5.982132775512928), (-0.007915299386449746, -0.002153735886089252),0.007997552435071609
(-0.9928303855797224, 6.049457619694145), (0.0001940988049722852, 0.001381794274860639),0.015781758260350998
(-0.0009243704018241394, 6.074249539016272), (-0.0018294193186083052, 0.0016632233156765144),0.01743047513571294
(0.9891599401985101, 6.051150409296664), (0.002658728091214248, 0.0009046231906282716),0.016601140272061943
(1.9801045381494509, 5.986594758121229), (0.006891891808871518, -0.0017959048950761732),0.00695487096162839
(1.6457524419801413, 4.6512234973167805), (0, 0),0
(-3.000000000000138, 7.394999999999289), (-1.5934990285464438e-27, -3.5527136788004694e-14),8.881784197001252e-15
(-2.0000000000001377, 7.394999999999289), (-1.5954711808094964e-27, -3.5527136788004694e-14),8.881784197001252e-15
(-1.0000000000001368, 7.394999999999289), (-1.590540800151865e-27, -3.5527136788004694e-14),8.881784197001252e-15
(-1.3617473815230598e-13, 7.394999999999289), (-1.5870451602656047e-27, -3.5527136788004694e-14),8.881784197001252e-15
(0.9999999999998641, 7.394999999999289), (-1.5875825717572863e-27, -3.5527136788004694e-14),8.881784197001252e-15
(1.9999999999998648, 7.394999999999289), (-1.5915268762833913e-27, -3.5527136788004694e-14),8.881784197001252e-15
(2.9999999999998654, 7.394999999999289), (-1.5856104194942337e-27, -3.5527136788004694e-14),8.881784197001252e-15
(-2.9999999999999587, 8.39499999999928), (1.5934990285464438e-27, 3.5527136788004694e-14),8.881784197001252e-15
(-1.999999999999958, 8.39499999999928), (1.5954711808094964e-27, 3.5527136788004694e-14),8.881784197001252e-15
(-0.9999999999999577, 8.39499999999928), (1.590540800151865e-27, 3.5527136788004694e-14),8.881784197001252e-15
(4.251066165750221e-14, 8.39499999999928), (1.5870451602656047e-27, 3.5527136788004694e-14),8.881784197001252e-15
(1.0000000000000429, 8.39499999999928), (1.5875825717572863e-27, 3.5527136788004694e-14),8.881784197001252e-15
(2.000000000000044, 8.39499999999928), (1.5915268762833913e-27, 3.5527136788004694e-14),8.881784197001252e-15
(3.000000000000044, 8.39499999999928), (1.5856104194942337e-27, 3.5527136788004694e-14),8.881784197001252e-15
(-3.0, 9.39499999999928), (0, 0),0
(-2.0, 9.39499999999928), (0, 0),0
(-1.0, 9.39499999999928), (0, 0),0
(0.0, 9.39499999999928), (0, 0),0
(1.0, 9.39499999999928), (0, 0),0
(2.0, 9.39499999999928), (0, 0),0
(3.0, 9.39499999999928), (0, 0),0
(-3.0, 10.39499999999928), (0, 0),0
(-2.0, 10.39499999999928), (0, 0),0
(-1.0, 10.39499999999928), (0, 0),0
(0.0, 10.39499999999928), (0, 0),0
(1.0, 10.39499999999928), (0, 0),0
(2.0, 10.39499999999928), (0, 0),0
(3.0, 10.39499999999928), (0, 0),0
(-3.0, 11.39499999999928), (0, 0),0
(-2.0, 11.39499999999928), (0, 0),0
(-1.0, 11.39499999999928), (0, 0),0
(0.0, 11.39499999999928), (0, 0),0
(1.0, 11.39499999999928), (0, 0),0
(2.0, 11.39499999999928), (0, 0),0
(3.0, 11.39499999999928), (0, 0),0
(-3.0, 12.394999999999635), (0, 0),0
(-2.0, 12.394999999999635), (0, 0),0
(-1.0, 12.394999999999635), (0, 0),0
(0.0, 12.394999999999635), (0, 0),0
(1.0, 12.394999999999635), (0, 0),0
(2.0, 12.394999999999635), (0, 0),0
(3.0, 12.394999999999635), (0, 0),0
(-3.0, 13.39499999999999), (0, 0),0
(-2.0, 13.39499999999999), (0, 0),0
(-1.0, 13.39499999999999), (0, 0),0
(0.0, 13.39499999999999), (0, 0),0
(1.0, 13.39499999999999), (0, 0),0
(2.0, 13.39499999999999), (0, 0),0
(3.0, 13.39499999999999), (0, 0),0
(-3.0, 14.395000000000346), (0, 0),0
(-2.0, 14.395000000000346), (0, 0),0
(-1.0, 14.395000000000346), (0, 0),0
(0.0, 14.395000000000346), (0, 0),0
(1.0, 14.395000000000346), (0, 0),0
(2.0, 14.395000000000346), (0, 0),0
(3.0, 14.395000000000346), (0, 0),0
