(-3.0, 9.219999999999722), (0, 0),0
(-2.0, 9.219999999999722), (0, 0),0
(-1.0, 9.219999999999722), (0, 0),0
(0.0, 9.219999999999722), (0, 0),0
(1.0, 9.219999999999722), (0, 0),0
(2.0, 9.219999999999722), (0, 0),0
(3.0, 9.219999999999722), (0, 0),0
(-3.0, 10.219999999999722), (0, 0),0
(-2.0, 10.219999999999722), (0, 0),0
(-1.0, 10.219999999999722), (0, 0),0
(0.0, 10.219999999999722), (0, 0),0
(1.0, 10.219999999999722), (0, 0),0
(2.0, 10.219999999999722), (0, 0),0
(3.0, 10.219999999999722), (0, 0),0
(-3.0, 11.219999999999722), (0, 0),0
(-2.0, 11.219999999999722), (0, 0),0
(-1.0, 11.219999999999722), (0, 0),0
(0.0, 11.219999999999722), (0, 0),0
(1.0, 11.219999999999722), (0, 0),0
(2.0, 11.219999999999722), (0, 0),0
(3.0, 11.219999999999722), (0, 0),0
(-3.0, 12.219999999999722), (0, 0),0
(-2.0, 12.219999999999722), (0, 0),0
(-1.0, 12.219999999999722), (0, 0),0
(0.0, 12.219999999999722), (0, 0),0
(1.0, 12.219999999999722), (0, 0),0
(2.0, 12.219999999999722), (0, 0),0
(3.0, 12.219999999999722), (0, 0),0
(-3.0, 13.219999999999722), (0, 0),0
(-2.0, 13.219999999999722), (0, 0),0
(-1.0, 13.219999999999722), (0, 0),0
(0.0, 13.219999999999722), (0, 0),0
(1.0, 13.219999999999722), (0, 0),0
(2.0, 13.219999999999722), (0, 0),0
(3.0, 13.219999999999722), (0, 0),0
(-3.0, 14.219999999999722), (0, 0),0
(-2.0, 14.219999999999722), (0, 0),0
(-1.0, 14.219999999999722), (0, 0),0
(0.0, 14.219999999999722), (0, 0),0
(1.0, 14.219999999999722), (0, 0),0
(2.0, 14.219999999999722), (0, 0),0
(3.0, 14.219999999999722), (0, 0),0
(-3.0, 15.220000000000077), (0, 0),0
(-2.0, 15.220000000000077), (0, 0),0
(-1.0, 15.220000000000077), (0, 0),0
(0.0, 15.220000000000077), (0, 0),0
(1.0, 15.220000000000077), (0, 0),0
(2.0, 15.220000000000077), (0, 0),0
(3.0, 15.220000000000077), (0, 0),0
(-3.0, 16.220000000000354), (0, 0),0
(-2.0, 16.220000000000354), (0, 0),0
(-1.0, 16.220000000000354), (0, 0),0
(0.0, 16.220000000000354), (0, 0),0
(1.0, 16.220000000000354), (0, 0),0
(2.0, 16.220000000000354), (0, 0),0
(3.0, 16.220000000000354), (0, 0),0
(-3.0, 17.220000000000354), (0, 0),0
(-2.0, 17.220000000000354), (0, 0),0
(-1.0, 17.220000000000354), (0, 0),0
(0.0, 17.220000000000354), (0, 0),0
(1.0, 17.220000000000354), (0, 0),0
(2.0, 17.220000000000354), (0, 0),0
(3.0, 17.220000000000354), (0, 0),0
