(-0.987369034062555, 3.6011559029691083), (0, 0),0
(-1.9978002634407548, 5.5621039756174975), (-0.0012494389664399167, -0.00025898633352331455),0.0012526846615434906
(-1.0003912547757765, 5.613790234233494), (9.44963063445757e-05, 0.00014302472065480916),0.0024093289367330684
(-0.0018624202245987292, 5.638854468621698), (-0.0001255330880824293, 0.00022514567583392352),0.0024390555046859275
(0.996628328082916, 5.617569552275422), (0.0002015917395096487, 0.00010690045583903851),0.002363816282634823
(1.9942970605684587, 5.567614977396811), (0.0010788840086681216, -0.00021608451880445666),0.0010814050531384733
(1.2052397400879222, 3.817540922443491), (-3.75, 2.1650635094610964),4.330127018922194
(-3.000000000000174, 6.989999999999226), (-2.2324763617754634e-27, -3.5527136788004694e-14),8.881784197001252e-15
(-2.0000000000001736, 6.989999999999226), (-2.234448514038516e-27, -3.5527136788004694e-14),8.881784197001252e-15
(-1.0000000000001728, 6.989999999999226), (-2.2295181333808846e-27, -3.5527136788004694e-14),8.881784197001252e-15
(-1.7214596415016105e-13, 6.989999999999226), (-2.2260224934946243e-27, -3.5527136788004694e-14),8.881784197001252e-15
(0.9999999999998281, 6.989999999999226), (-2.226559904986306e-27, -3.5527136788004694e-14),8.881784197001252e-15
(1.9999999999998288, 6.989999999999226), (-2.230504209512411e-27, -3.5527136788004694e-14),8.881784197001252e-15
(2.9999999999998295, 6.989999999999226), (-2.2245877527232533e-27, -3.5527136788004694e-14),8.881784197001252e-15
(-2.9999999999999227, 7.989999999999217), (2.2324763617754634e-27, 3.5527136788004694e-14),8.881784197001252e-15
(-1.999999999999922, 7.989999999999217), (2.234448514038516e-27, 3.5527136788004694e-14),8.881784197001252e-15
(-0.9999999999999217, 7.989999999999217), (2.2295181333808846e-27, 3.5527136788004694e-14),8.881784197001252e-15
(7.848188765535728e-14, 7.989999999999217), (2.2260224934946243e-27, 3.5527136788004694e-14),8.881784197001252e-15
(1.0000000000000788, 7.989999999999217), (2.226559904986306e-27, 3.5527136788004694e-14),8.881784197001252e-15
(2.00000000000008, 7.989999999999217), (2.230504209512411e-27, 3.5527136788004694e-14),8.881784197001252e-15
(3.00000000000008, 7.989999999999217), (2.2245877527232533e-27, 3.5527136788004694e-14),8.881784197001252e-15
(-3.0, 8.989999999999217), (0, 0),0
(-2.0, 8.989999999999217), (0, 0),0
(-1.0, 8.989999999999217), (0, 0),0
(0.0, 8.989999999999217), (0, 0),0
(1.0, 8.989999999999217), (0, 0),0
(2.0, 8.989999999999217), (0, 0),0
(3.0, 8.989999999999217), (0, 0),0
(-3.0, 9.989999999999217), (0, 0),0
(-2.0, 9.989999999999217), (0, 0),0
(-1.0, 9.989999999999217), (0, 0),0
(0.0, 9.989999999999217), (0, 0),0
(1.0, 9.989999999999217), (0, 0),0
(2.0, 9.989999999999217), (0, 0),0
(3.0, 9.989999999999217), (0, 0),0
(-3.0, 10.989999999999217), (0, 0),0
(-2.0, 10.989999999999217), (0, 0),0
(-1.0, 10.989999999999217), (0, 0),0
(0.0, 10.989999999999217), (0, 0),0
(1.0, 10.989999999999217), (0, 0),0
(2.0, 10.989999999999217), (0, 0),0
(3.0, 10.989999999999217), (0, 0),0
(-3.0, 11.989999999999572), (0, 0),0
(-2.0, 11.989999999999572), (0, 0),0
(-1.0, 11.989999999999572), (0, 0),0
(0.0, 11.989999999999572), (0, 0),0
(1.0, 11.989999999999572), (0, 0),0
(2.0, 11.989999999999572), (0, 0),0
(3.0, 11.989999999999572), (0, 0),0
(-3.0, 12.989999999999927), (0, 0),0
(-2.0, 12.989999999999927), (0, 0),0
(-1.0, 12.989999999999927), (0, 0),0
(0.0, 12.989999999999927), (0, 0),0
(1.0, 12.989999999999927), (0, 0),0
(2.0, 12.989999999999927), (0, 0),0
(3.0, 12.989999999999927), (0, 0),0
(-3.0, 13.990000000000283), (0, 0),0
(-2.0, 13.990000000000283), (0, 0),0
(-1.0, 13.990000000000283), (0, 0),0
(0.0, 13.990000000000283), (0, 0),0
(1.0, 13.990000000000283), (0, 0),0
(2.0, 13.990000000000283), (0, 0),0
(3.0, 13.990000000000283), (0, 0),0
