(-1.2355489271748736, -3.2182620336808734), (2.9056994107480946e-06, -0.001101076662775927),0.0003474489154150495
(0.5700767385223282, -2.4874596069413477), (-1.7316064197551797e-05, 9.443855818083729e-06),0.00022151835942585407
(-0.32027139538561217, 2.310463425332865), (-0.1488369220877593, 0.758325688193255),0.4052689358644376
(-0.01038841635051687, 3.400701435618398), (0, 0),0
(0.046983306162856, 1.842671780646511), (0.1488369220877593, -0.758325688193255),0.4052689358644376
(-1.664896435993679, -2.3153775353429835), (-9.882555944411269e-05, 0.0008312899348794433),0.0002301761566428917
(-0.4176278597620952, -2.6431354426439984), (-5.157472115950831e-06, 0.000206062014332245),0.00021960834810208496
(-0.1064859688356563, -0.9012609630011642), (0.08964134824284271, -1.460731924437587),0.5501490032169066
(-0.4659765298397919, -0.29525040539140135), (-0.2511710191655521, 0.18177894583347076),1.0253279002086833
(-0.9834117981000624, 5.057793549850856), (-0.016470187413206997, -0.0007565906373340863),0.016751899627512334
(-0.0002285305644016927, 5.0690846668906735), (0.001367641068610247, 0.0017529342862810356),0.032091812854041946
(0.9842976607883404, 5.0528469014901525), (0.01510254634459675, -0.0009963436489469491),0.015339913226529611
(-0.2673542878421716, -0.11227484140131658), (0.09171669243978667, 1.1698914527864805),0.947586859853706
(1.5634535181656914, -2.373599067992501), (0.00011839339634686722, 5.4280857746154935e-05),0.00011918277009592693
(0.692043218810148, -0.3289666423625639), (0.03018901906276552, 0.1911890210327508),0.9908359128792213
(-1.9529806445696545, 6.317546529054885), (-0.022023815319622303, -0.0014268348984359219),0.022534507892588818
(-0.9756433348489693, 6.333375972782223), (-0.0005802047975910427, -0.0012729381132988709),0.04568452580597837
(0.0007714654238023299, 6.3625311663314825), (-0.002193358838466771, 0.0055174564551658395),0.04860537533917453
(0.974923135773622, 6.334858372385788), (0.0027088276220563687, -0.0013224749811982385),0.04805794856516998
(1.9521806191041262, 6.318320351888357), (0.022088551333623748, -0.0014952084622328087),0.02260259113938501
(0.6916346149134842, -0.37213392160620246), (0.03962395942015723, -0.08212749521511535),1.0056717209906887
(-3.0000000000001124, 7.599999999999008), (-1.203012880462043e-27, -3.5527136788004694e-14),8.881784197001252e-15
(-2.0000000000001124, 7.599999999999008), (-1.2089293372512006e-27, -3.5527136788004694e-14),8.881784197001252e-15
(-1.000000000000111, 7.599999999999008), (-1.2000546520674642e-27, -3.5527136788004694e-14),8.881784197001252e-15
(-1.1057821325266564e-13, 7.599999999999008), (-1.1979858643435229e-27, -3.5527136788004694e-14),8.881784197001252e-15
(0.9999999999998895, 7.599999999999008), (-1.2000546520674642e-27, -3.5527136788004694e-14),8.881784197001252e-15
(1.9999999999998899, 7.599999999999008), (-1.206957184988148e-27, -3.5527136788004694e-14),8.881784197001252e-15
(2.9999999999998908, 7.599999999999008), (-1.199068575935938e-27, -3.5527136788004694e-14),8.881784197001252e-15
(-2.999999999999977, 8.599999999999), (1.203012880462043e-27, 3.5527136788004694e-14),8.881784197001252e-15
(-1.9999999999999762, 8.599999999999), (1.2089293372512006e-27, 3.5527136788004694e-14),8.881784197001252e-15
(-0.9999999999999759, 8.599999999999), (1.2000546520674642e-27, 3.5527136788004694e-14),8.881784197001252e-15
(2.430300405364964e-14, 8.599999999999), (1.1979858643435229e-27, 3.5527136788004694e-14),8.881784197001252e-15
(1.0000000000000246, 8.599999999999), (1.2000546520674642e-27, 3.5527136788004694e-14),8.881784197001252e-15
(2.0000000000000258, 8.599999999999), (1.206957184988148e-27, 3.5527136788004694e-14),8.881784197001252e-15
(3.0000000000000258, 8.599999999999), (1.199068575935938e-27, 3.5527136788004694e-14),8.881784197001252e-15
(-3.0, 9.599999999999), (0, 0),0
(-2.0, 9.599999999999), (0, 0),0
(-1.0, 9.599999999999), (0, 0),0
(0.0, 9.599999999999), (0, 0),0
(1.0, 9.599999999999), (0, 0),0
(2.0, 9.599999999999), (0, 0),0
(3.0, 9.599999999999), (0, 0),0
(-3.0, 10.599999999999355), (0, 0),0
(-2.0, 10.599999999999355), (0, 0),0
(-1.0, 10.599999999999355), (0, 0),0
(0.0, 10.599999999999355), (0, 0),0
(1.0, 10.599999999999355), (0, 0),0
(2.0, 10.599999999999355), (0, 0),0
(3.0, 10.599999999999355), (0, 0),0
(-3.0, 11.59999999999971), (0, 0),0
(-2.0, 11.59999999999971), (0, 0),0
(-1.0, 11.59999999999971), (0, 0),0
(0.0, 11.59999999999971), (0, 0),0
(1.0, 11.59999999999971), (0, 0),0
(2.0, 11.59999999999971), (0, 0),0
(3.0, 11.59999999999971), (0, 0),0
(-3.0, 12.600000000000065), (0, 0),0
(-2.0, 12.600000000000065), (0, 0),0
(-1.0, 12.600000000000065), (0, 0),0
(0.0, 12.600000000000065), (0, 0),0
(1.0, 12.600000000000065), (0, 0),0
(2.0, 12.600000000000065), (0, 0),0
(3.0, 12.600000000000065), (0, 0),0
