(-3.0, 9.244999999999726), (0, 0),0
(-2.0, 9.244999999999726), (0, 0),0
(-1.0, 9.244999999999726), (0, 0),0
(0.0, 9.244999999999726), (0, 0),0
(1.0, 9.244999999999726), (0, 0),0
(2.0, 9.244999999999726), (0, 0),0
(3.0, 9.244999999999726), (0, 0),0
(-3.0, 10.244999999999726), (0, 0),0
(-2.0, 10.244999999999726), (0, 0),0
(-1.0, 10.244999999999726), (0, 0),0
(0.0, 10.244999999999726), (0, 0),0
(1.0, 10.244999999999726), (0, 0),0
(2.0, 10.244999999999726), (0, 0),0
(3.0, 10.244999999999726), (0, 0),0
(-3.0, 11.244999999999726), (0, 0),0
(-2.0, 11.244999999999726), (0, 0),0
(-1.0, 11.244999999999726), (0, 0),0
(0.0, 11.244999999999726), (0, 0),0
(1.0, 11.244999999999726), (0, 0),0
(2.0, 11.244999999999726), (0, 0),0
(3.0, 11.244999999999726), (0, 0),0
(-3.0, 12.244999999999726), (0, 0),0
(-2.0, 12.244999999999726), (0, 0),0
(-1.0, 12.244999999999726), (0, 0),0
(0.0, 12.244999999999726), (0, 0),0
(1.0, 12.244999999999726), (0, 0),0
(2.0, 12.244999999999726), (0, 0),0
(3.0, 12.244999999999726), (0, 0),0
(-3.0, 13.244999999999726), (0, 0),0
(-2.0, 13.244999999999726), (0, 0),0
(-1.0, 13.244999999999726), (0, 0),0
(0.0, 13.244999999999726), (0, 0),0
(1.0, 13.244999999999726), (0, 0),0
(2.0, 13.244999999999726), (0, 0),0
(3.0, 13.244999999999726), (0, 0),0
(-3.0, 14.244999999999726), (0, 0),0
(-2.0, 14.244999999999726), (0, 0),0
(-1.0, 14.244999999999726), (0, 0),0
(0.0, 14.244999999999726), (0, 0),0
(1.0, 14.244999999999726), (0, 0),0
(2.0, 14.244999999999726), (0, 0),0
(3.0, 14.244999999999726), (0, 0),0
(-3.0, 15.245000000000081), (0, 0),0
(-2.0, 15.245000000000081), (0, 0),0
(-1.0, 15.245000000000081), (0, 0),0
(0.0, 15.245000000000081), (0, 0),0
(1.0, 15.245000000000081), (0, 0),0
(2.0, 15.245000000000081), (0, 0),0
(3.0, 15.245000000000081), (0, 0),0
(-3.0, 16.24500000000035), (0, 0),0
(-2.0, 16.24500000000035), (0, 0),0
(-1.0, 16.24500000000035), (0, 0),0
(0.0, 16.24500000000035), (0, 0),0
(1.0, 16.24500000000035), (0, 0),0
(2.0, 16.24500000000035), (0, 0),0
(3.0, 16.24500000000035), (0, 0),0
(-3.0, 17.24500000000035), (0, 0),0
(-2.0, 17.24500000000035), (0, 0),0
(-1.0, 17.24500000000035), (0, 0),0
(0.0, 17.24500000000035), (0, 0),0
(1.0, 17.24500000000035), (0, 0),0
(2.0, 17.24500000000035), (0, 0),0
(3.0, 17.24500000000035), (0, 0),0
