(-3.0, 10.859999999999978), (0, 0),0
(-2.0, 10.859999999999978), (0, 0),0
(-1.0, 10.859999999999978), (0, 0),0
(0.0, 10.859999999999978), (0, 0),0
(1.0, 10.859999999999978), (0, 0),0
(2.0, 10.859999999999978), (0, 0),0
(3.0, 10.859999999999978), (0, 0),0
(-3.0, 11.859999999999978), (0, 0),0
(-2.0, 11.859999999999978), (0, 0),0
(-1.0, 11.859999999999978), (0, 0),0
(0.0, 11.859999999999978), (0, 0),0
(1.0, 11.859999999999978), (0, 0),0
(2.0, 11.859999999999978), (0, 0),0
(3.0, 11.859999999999978), (0, 0),0
(-3.0, 12.859999999999978), (0, 0),0
(-2.0, 12.859999999999978), (0, 0),0
(-1.0, 12.859999999999978), (0, 0),0
(0.0, 12.859999999999978), (0, 0),0
(1.0, 12.859999999999978), (0, 0),0
(2.0, 12.859999999999978), (0, 0),0
(3.0, 12.859999999999978), (0, 0),0
(-3.0, 13.859999999999978), (0, 0),0
(-2.0, 13.859999999999978), (0, 0),0
(-1.0, 13.859999999999978), (0, 0),0
(0.0, 13.859999999999978), (0, 0),0
(1.0, 13.859999999999978), (0, 0),0
(2.0, 13.859999999999978), (0, 0),0
(3.0, 13.859999999999978), (0, 0),0
(-3.0, 14.859999999999978), (0, 0),0
(-2.0, 14.859999999999978), (0, 0),0
(-1.0, 14.859999999999978), (0, 0),0
(0.0, 14.859999999999978), (0, 0),0
(1.0, 14.859999999999978), (0, 0),0
(2.0, 14.859999999999978), (0, 0),0
(3.0, 14.859999999999978), (0, 0),0
(-3.0, 15.859999999999978), (0, 0),0
(-2.0, 15.859999999999978), (0, 0),0
(-1.0, 15.859999999999978), (0, 0),0
(0.0, 15.859999999999978), (0, 0),0
(1.0, 15.859999999999978), (0, 0),0
(2.0, 15.859999999999978), (0, 0),0
(3.0, 15.859999999999978), (0, 0),0
(-3.0, 16.860000000000028), (0, 0),0
(-2.0, 16.860000000000028), (0, 0),0
(-1.0, 16.860000000000028), (0, 0),0
(0.0, 16.860000000000028), (0, 0),0
(1.0, 16.860000000000028), (0, 0),0
(2.0, 16.860000000000028), (0, 0),0
(3.0, 16.860000000000028), (0, 0),0
(-3.0, 17.860000000000028), (0, 0),0
(-2.0, 17.860000000000028), (0, 0),0
(-1.0, 17.860000000000028), (0, 0),0
(0.0, 17.860000000000028), (0, 0),0
(1.0, 17.860000000000028), (0, 0),0
(2.0, 17.860000000000028), (0, 0),0
(3.0, 17.860000000000028), (0, 0),0
(-3.0, 18.860000000000028), (0, 0),0
(-2.0, 18.860000000000028), (0, 0),0
(-1.0, 18.860000000000028), (0, 0),0
(0.0, 18.860000000000028), (0, 0),0
(1.0, 18.860000000000028), (0, 0),0
(2.0, 18.860000000000028), (0, 0),0
(3.0, 18.860000000000028), (0, 0),0
