(-1.6481380869008837, 4.729179765279045), (0, 0),0
(-1.9745107379410145, 6.070057287174921), (-0.010987625026093592, -0.0033646743318495663),0.011143964173847887
(-0.9885397805074995, 6.145539276334255), (-0.0007284342156917197, 0.002185663260686153),0.023004400475351905
(-0.0007127778617703785, 6.170391040662139), (-0.0002647921843071648, 0.00232972657986167),0.02399191378447363
(0.9868710875751819, 6.146677616013046), (0.00028188938458585666, 0.0022886039989459582),0.02400292538218929
(1.9723416165976446, 6.0742492244461195), (0.01169896204150662, -0.0034393195076442146),0.011871447899219678
(1.6457524419801413, 4.731223497316779), (0, 0),0
(-3.000000000000131, 7.4749999999993015), (-1.467281283711082e-27, -3.5527136788004694e-14),8.881784197001252e-15
(-2.0000000000001306, 7.4749999999993015), (-1.4692534359741345e-27, -3.5527136788004694e-14),8.881784197001252e-15
(-1.0000000000001297, 7.4749999999993015), (-1.4643230553165032e-27, -3.5527136788004694e-14),8.881784197001252e-15
(-1.2906931079470497e-13, 7.4749999999993015), (-1.4608274154302428e-27, -3.5527136788004694e-14),8.881784197001252e-15
(0.9999999999998712, 7.4749999999993015), (-1.4613648269219244e-27, -3.5527136788004694e-14),8.881784197001252e-15
(1.9999999999998719, 7.4749999999993015), (-1.4653091314480294e-27, -3.5527136788004694e-14),8.881784197001252e-15
(2.9999999999998725, 7.4749999999993015), (-1.4593926746588718e-27, -3.5527136788004694e-14),8.881784197001252e-15
(-2.999999999999966, 8.474999999999293), (1.467281283711082e-27, 3.5527136788004694e-14),8.881784197001252e-15
(-1.9999999999999651, 8.474999999999293), (1.4692534359741345e-27, 3.5527136788004694e-14),8.881784197001252e-15
(-0.9999999999999648, 8.474999999999293), (1.4643230553165032e-27, 3.5527136788004694e-14),8.881784197001252e-15
(3.540523429990121e-14, 8.474999999999293), (1.4608274154302428e-27, 3.5527136788004694e-14),8.881784197001252e-15
(1.0000000000000357, 8.474999999999293), (1.4613648269219244e-27, 3.5527136788004694e-14),8.881784197001252e-15
(2.000000000000037, 8.474999999999293), (1.4653091314480294e-27, 3.5527136788004694e-14),8.881784197001252e-15
(3.000000000000037, 8.474999999999293), (1.4593926746588718e-27, 3.5527136788004694e-14),8.881784197001252e-15
(-3.0, 9.474999999999293), (0, 0),0
(-2.0, 9.474999999999293), (0, 0),0
(-1.0, 9.474999999999293), (0, 0),0
(0.0, 9.474999999999293), (0, 0),0
(1.0, 9.474999999999293), (0, 0),0
(2.0, 9.474999999999293), (0, 0),0
(3.0, 9.474999999999293), (0, 0),0
(-3.0, 10.474999999999293), (0, 0),0
(-2.0, 10.474999999999293), (0, 0),0
(-1.0, 10.474999999999293), (0, 0),0
(0.0, 10.474999999999293), (0, 0),0
(1.0, 10.474999999999293), (0, 0),0
(2.0, 10.474999999999293), (0, 0),0
(3.0, 10.474999999999293), (0, 0),0
(-3.0, 11.474999999999293), (0, 0),0
(-2.0, 11.474999999999293), (0, 0),0
(-1.0, 11.474999999999293), (0, 0),0
(0.0, 11.474999999999293), (0, 0),0
(1.0, 11.474999999999293), (0, 0),0
(2.0, 11.474999999999293), (0, 0),0
(3.0, 11.474999999999293), (0, 0),0
(-3.0, 12.474999999999648), (0, 0),0
(-2.0, 12.474999999999648), (0, 0),0
(-1.0, 12.474999999999648), (0, 0),0
(0.0, 12.474999999999648), (0, 0),0
(1.0, 12.474999999999648), (0, 0),0
(2.0, 12.474999999999648), (0, 0),0
(3.0, 12.474999999999648), (0, 0),0
(-3.0, 13.475000000000003), (0, 0),0
(-2.0, 13.475000000000003), (0, 0),0
(-1.0, 13.475000000000003), (0, 0),0
(0.0, 13.475000000000003), (0, 0),0
(1.0, 13.475000000000003), (0, 0),0
(2.0, 13.475000000000003), (0, 0),0
(3.0, 13.475000000000003), (0, 0),0
(-3.0, 14.475000000000358), (0, 0),0
(-2.0, 14.475000000000358), (0, 0),0
(-1.0, 14.475000000000358), (0, 0),0
(0.0, 14.475000000000358), (0, 0),0
(1.0, 14.475000000000358), (0, 0),0
(2.0, 14.475000000000358), (0, 0),0
(3.0, 14.475000000000358), (0, 0),0
