(-1.6481380869008837, 4.739179765279045), (0, 0),0
(-1.97336238234415, 6.0811903351578245), (-0.011962995152879935, -0.003730866651413428),0.012146846415839407
(-0.9884981020746416, 6.15797706900811), (0.0002137323650985984, 0.0025390246194113477),0.02404136632948306
(-0.0007102070538177897, 6.183027303079243), (-0.002578580693277318, 0.002584680327566589),0.02643811005279928
(0.9844553087484931, 6.159084825977001), (0.003997283384052622, 0.0016952434214408997),0.025012556532628683
(1.9712346820633875, 6.085341115257605), (0.010330560097006032, -0.003088081717005408),0.010468966393473056
(1.6457524419801413, 4.741223497316779), (0, 0),0
(-3.00000000000013, 7.484999999999303), (-1.4515040656066617e-27, -3.5527136788004694e-14),8.881784197001252e-15
(-2.0000000000001297, 7.484999999999303), (-1.4534762178697143e-27, -3.5527136788004694e-14),8.881784197001252e-15
(-1.0000000000001288, 7.484999999999303), (-1.448545837212083e-27, -3.5527136788004694e-14),8.881784197001252e-15
(-1.2818113237500485e-13, 7.484999999999303), (-1.4450501973258226e-27, -3.5527136788004694e-14),8.881784197001252e-15
(0.9999999999998721, 7.484999999999303), (-1.4455876088175041e-27, -3.5527136788004694e-14),8.881784197001252e-15
(1.9999999999998728, 7.484999999999303), (-1.4495319133436092e-27, -3.5527136788004694e-14),8.881784197001252e-15
(2.9999999999998734, 7.484999999999303), (-1.4436154565544516e-27, -3.5527136788004694e-14),8.881784197001252e-15
(-2.9999999999999667, 8.484999999999294), (1.4515040656066617e-27, 3.5527136788004694e-14),8.881784197001252e-15
(-1.999999999999966, 8.484999999999294), (1.4534762178697143e-27, 3.5527136788004694e-14),8.881784197001252e-15
(-0.9999999999999657, 8.484999999999294), (1.448545837212083e-27, 3.5527136788004694e-14),8.881784197001252e-15
(3.4517055880201085e-14, 8.484999999999294), (1.4450501973258226e-27, 3.5527136788004694e-14),8.881784197001252e-15
(1.0000000000000349, 8.484999999999294), (1.4455876088175041e-27, 3.5527136788004694e-14),8.881784197001252e-15
(2.000000000000036, 8.484999999999294), (1.4495319133436092e-27, 3.5527136788004694e-14),8.881784197001252e-15
(3.000000000000036, 8.484999999999294), (1.4436154565544516e-27, 3.5527136788004694e-14),8.881784197001252e-15
(-3.0, 9.484999999999294), (0, 0),0
(-2.0, 9.484999999999294), (0, 0),0
(-1.0, 9.484999999999294), (0, 0),0
(0.0, 9.484999999999294), (0, 0),0
(1.0, 9.484999999999294), (0, 0),0
(2.0, 9.484999999999294), (0, 0),0
(3.0, 9.484999999999294), (0, 0),0
(-3.0, 10.484999999999294), (0, 0),0
(-2.0, 10.484999999999294), (0, 0),0
(-1.0, 10.484999999999294), (0, 0),0
(0.0, 10.484999999999294), (0, 0),0
(1.0, 10.484999999999294), (0, 0),0
(2.0, 10.484999999999294), (0, 0),0
(3.0, 10.484999999999294), (0, 0),0
(-3.0, 11.484999999999294), (0, 0),0
(-2.0, 11.484999999999294), (0, 0),0
(-1.0, 11.484999999999294), (0, 0),0
(0.0, 11.484999999999294), (0, 0),0
(1.0, 11.484999999999294), (0, 0),0
(2.0, 11.484999999999294), (0, 0),0
(3.0, 11.484999999999294), (0, 0),0
(-3.0, 12.48499999999965), (0, 0),0
(-2.0, 12.48499999999965), (0, 0),0
(-1.0, 12.48499999999965), (0, 0),0
(0.0, 12.48499999999965), (0, 0),0
(1.0, 12.48499999999965), (0, 0),0
(2.0, 12.48499999999965), (0, 0),0
(3.0, 12.48499999999965), (0, 0),0
(-3.0, 13.485000000000005), (0, 0),0
(-2.0, 13.485000000000005), (0, 0),0
(-1.0, 13.485000000000005), (0, 0),0
(0.0, 13.485000000000005), (0, 0),0
(1.0, 13.485000000000005), (0, 0),0
(2.0, 13.485000000000005), (0, 0),0
(3.0, 13.485000000000005), (0, 0),0
(-3.0, 14.48500000000036), (0, 0),0
(-2.0, 14.48500000000036), (0, 0),0
(-1.0, 14.48500000000036), (0, 0),0
(0.0, 14.48500000000036), (0, 0),0
(1.0, 14.48500000000036), (0, 0),0
(2.0, 14.48500000000036), (0, 0),0
(3.0, 14.48500000000036), (0, 0),0
