(-1.1599274382019846, -2.5327172717702644), (-0.01849056395807336, -0.18914836978185695),0.06906003131561211
(0.5631041740807198, -1.8109371710843987), (0.00027612141985745853, 0.011354518285193115),0.07202783733668328
(-1.0012886238169114, 4.6606849464486935), (-0.000212711256791819, -3.6194483250928563e-06),0.00021275844755708206
(-0.0015104282425637894, 4.664937948346681), (1.7491374193827358e-05, 4.790816112611445e-06),0.0004080166755711101
(0.9982931886578537, 4.663438180834407), (0.00019521988259799163, -1.171367787518589e-06),0.00019525822801402803
(-1.6268293001215475, -1.6803022027844523), (-0.013115333255239546, 0.09577779497879113),0.02809012840796732
(-0.3884855999198786, -1.9629662583644985), (-0.002977173147787518, 0.07127015814878489),0.07731231778638925
(-0.02549673762297955, -0.15733369394802402), (0, 0),0
(-1.9929365870786697, 5.874592611874411), (-0.0030172048271499365, 0.00028782095789731024),0.003027226812834405
(-0.9962472031322732, 5.850823253341624), (-0.00032928427697467453, -0.0006025039177642598),0.0063859213313073315
(0.00011882114257954872, 5.8742462647331175), (0.00019122644169112992, 0.0006482242922888474),0.006525084844332563
(0.9966045154881957, 5.847911756184227), (0.00017713065764195669, -0.0006490628360257087),0.00615449555398917
(1.993266874215016, 5.8743098813768695), (0.0029781320047915245, 0.0003155215036038108),0.002988105228129534
(1.524475697191575, -1.735655041653581), (0.03430694894124296, 0.010745898369087835),0.03568542245793882
(-2.9999999999998552, 7.199999999999102), (1.8301573001127474e-27, -3.5527136788004694e-14),8.881784197001252e-15
(-1.9999999999998543, 7.199999999999102), (1.8380459091649575e-27, -3.5527136788004694e-14),8.881784197001252e-15
(-0.999999999999854, 7.199999999999102), (1.8311433762442737e-27, -3.5527136788004694e-14),8.881784197001252e-15
(1.4610535004067065e-13, 7.199999999999102), (1.8290745885203327e-27, -3.5527136788004694e-14),8.881784197001252e-15
(1.0000000000001465, 7.199999999999102), (1.8311433762442737e-27, -3.5527136788004694e-14),8.881784197001252e-15
(2.000000000000148, 7.199999999999102), (1.84001806142801e-27, -3.5527136788004694e-14),8.881784197001252e-15
(3.000000000000148, 7.199999999999102), (1.8341016046388524e-27, -3.5527136788004694e-14),8.881784197001252e-15
(-3.0000000000000613, 8.199999999999093), (-1.8301573001127474e-27, 3.5527136788004694e-14),8.881784197001252e-15
(-2.0000000000000613, 8.199999999999093), (-1.8380459091649575e-27, 3.5527136788004694e-14),8.881784197001252e-15
(-1.0000000000000602, 8.199999999999093), (-1.8311433762442737e-27, 3.5527136788004694e-14),8.881784197001252e-15
(-5.983014084165465e-14, 8.199999999999093), (-1.8290745885203327e-27, 3.5527136788004694e-14),8.881784197001252e-15
(0.9999999999999404, 8.199999999999093), (-1.8311433762442737e-27, 3.5527136788004694e-14),8.881784197001252e-15
(1.9999999999999407, 8.199999999999093), (-1.84001806142801e-27, 3.5527136788004694e-14),8.881784197001252e-15
(2.9999999999999414, 8.199999999999093), (-1.8341016046388524e-27, 3.5527136788004694e-14),8.881784197001252e-15
(-3.0, 9.199999999999093), (0, 0),0
(-2.0, 9.199999999999093), (0, 0),0
(-1.0, 9.199999999999093), (0, 0),0
(0.0, 9.199999999999093), (0, 0),0
(1.0, 9.199999999999093), (0, 0),0
(2.0, 9.199999999999093), (0, 0),0
(3.0, 9.199999999999093), (0, 0),0
(-3.0, 10.199999999999093), (0, 0),0
(-2.0, 10.199999999999093), (0, 0),0
(-1.0, 10.199999999999093), (0, 0),0
(0.0, 10.199999999999093), (0, 0),0
(1.0, 10.199999999999093), (0, 0),0
(2.0, 10.199999999999093), (0, 0),0
(3.0, 10.199999999999093), (0, 0),0
(-3.0, 11.199999999999449), (0, 0),0
(-2.0, 11.199999999999449), (0, 0),0
(-1.0, 11.199999999999449), (0, 0),0
(0.0, 11.199999999999449), (0, 0),0
(1.0, 11.199999999999449), (0, 0),0
(2.0, 11.199999999999449), (0, 0),0
(3.0, 11.199999999999449), (0, 0),0
(-3.0, 12.199999999999804), (0, 0),0
(-2.0, 12.199999999999804), (0, 0),0
(-1.0, 12.199999999999804), (0, 0),0
(0.0, 12.199999999999804), (0, 0),0
(1.0, 12.199999999999804), (0, 0),0
(2.0, 12.199999999999804), (0, 0),0
(3.0, 12.199999999999804), (0, 0),0
(-3.0, 13.20000000000016), (0, 0),0
(-2.0, 13.20000000000016), (0, 0),0
(-1.0, 13.20000000000016), (0, 0),0
(0.0, 13.20000000000016), (0, 0),0
(1.0, 13.20000000000016), (0, 0),0
(2.0, 13.20000000000016), (0, 0),0
(3.0, 13.20000000000016), (0, 0),0
