(-1.2355509407793872, -3.2483622949292665), (-1.9054180258041848e-05, -0.000849066941871931),0.00027499857558188623
(0.5700752708777319, -2.517518986984503), (-9.624796865217137e-07, 1.3802209281046202e-05),0.0001682969263224754
(-0.08559532586270874, 1.984809976996107), (0, 0),0
(-0.01038841635051687, 3.3707014356183986), (0, 0),0
(-0.15552595035838726, 0.6524313549433696), (3.75, 2.1650635094610964),4.330127018922194
(-1.664957626518618, -2.345433822578205), (-7.087342353568617e-05, 0.0005961121162629389),0.0001650496508075472
(-0.41764750081126656, -2.673197903535352), (7.053579775812796e-06, 0.00020070640676467927),0.00019385305900443406
(0.04421726420119967, -1.0891745399014707), (0.04447684566125096, -1.0765363599067208),0.41698120215608625
(-0.6938899789806868, -0.5507410853147209), (-0.27026005611212744, -0.027874715548441786),0.39484922822662105
(-0.9877095114598421, 5.023575703881801), (-0.01212484805520957, -0.0003448627627364618),0.012275851096783197
(-1.0332020723352554e-05, 5.0305988984452075), (0.0009972641377806839, 0.0008867391377544577),0.023530936543944114
(0.9886613195335354, 5.018562642088871), (0.011127583917428886, -0.0005418763750179959),0.011255085447160917
(-0.0244462831498527, -0.3773878894741048), (0.14988145046982584, 1.0699119132080501),0.6337329141134501
(1.5634836132947656, -2.403628308023492), (8.383650370443694e-05, 3.844620956326657e-05),8.439279209238038e-05
(0.8941209076904355, -0.6551750315548809), (-0.0013986693050680593, 0.1618162647255369),0.9939718134266752
(-1.9595804847712592, 6.281066588004367), (-0.02002771728393864, -0.0007367837712541414),0.02044662893041116
(-0.9800685392030318, 6.2900752095937955), (0.0012085118396141653, -0.001478247167205433),0.039642459731227264
(0.000311296376909947, 6.3189230224527915), (-0.0012436028014901207, 0.004447408709670162),0.03968625748963406
(0.9794421144170868, 6.291686183938969), (-0.00025137209320129014, -0.0014260905226397501),0.04123598527400285
(1.9586483505664922, 6.281969800004788), (0.020314180339015886, -0.0008062872485708377),0.020745558585184898
(0.9792605496949183, -0.6902321865608999), (0.0773004292861187, -0.12731710247842445),0.9079252327846139
(-3.000000000000115, 7.569999999999004), (-1.2503445347753037e-27, -3.5527136788004694e-14),8.881784197001252e-15
(-2.000000000000115, 7.569999999999004), (-1.2562609915644613e-27, -3.5527136788004694e-14),8.881784197001252e-15
(-1.0000000000001137, 7.569999999999004), (-1.247386306380725e-27, -3.5527136788004694e-14),8.881784197001252e-15
(-1.1324274851176602e-13, 7.569999999999004), (-1.2453175186567836e-27, -3.5527136788004694e-14),8.881784197001252e-15
(0.9999999999998869, 7.569999999999004), (-1.247386306380725e-27, -3.5527136788004694e-14),8.881784197001252e-15
(1.9999999999998872, 7.569999999999004), (-1.2542888393014088e-27, -3.5527136788004694e-14),8.881784197001252e-15
(2.999999999999888, 7.569999999999004), (-1.2464002302491987e-27, -3.5527136788004694e-14),8.881784197001252e-15
(-2.9999999999999742, 8.569999999998995), (1.2503445347753037e-27, 3.5527136788004694e-14),8.881784197001252e-15
(-1.9999999999999736, 8.569999999998995), (1.2562609915644613e-27, 3.5527136788004694e-14),8.881784197001252e-15
(-0.9999999999999732, 8.569999999998995), (1.247386306380725e-27, 3.5527136788004694e-14),8.881784197001252e-15
(2.6967539312750017e-14, 8.569999999998995), (1.2453175186567836e-27, 3.5527136788004694e-14),8.881784197001252e-15
(1.0000000000000273, 8.569999999998995), (1.247386306380725e-27, 3.5527136788004694e-14),8.881784197001252e-15
(2.0000000000000284, 8.569999999998995), (1.2542888393014088e-27, 3.5527136788004694e-14),8.881784197001252e-15
(3.0000000000000284, 8.569999999998995), (1.2464002302491987e-27, 3.5527136788004694e-14),8.881784197001252e-15
(-3.0, 9.569999999998995), (0, 0),0
(-2.0, 9.569999999998995), (0, 0),0
(-1.0, 9.569999999998995), (0, 0),0
(0.0, 9.569999999998995), (0, 0),0
(1.0, 9.569999999998995), (0, 0),0
(2.0, 9.569999999998995), (0, 0),0
(3.0, 9.569999999998995), (0, 0),0
(-3.0, 10.56999999999935), (0, 0),0
(-2.0, 10.56999999999935), (0, 0),0
(-1.0, 10.56999999999935), (0, 0),0
(0.0, 10.56999999999935), (0, 0),0
(1.0, 10.56999999999935), (0, 0),0
(2.0, 10.56999999999935), (0, 0),0
(3.0, 10.56999999999935), (0, 0),0
(-3.0, 11.569999999999705), (0, 0),0
(-2.0, 11.569999999999705), (0, 0),0
(-1.0, 11.569999999999705), (0, 0),0
(0.0, 11.569999999999705), (0, 0),0
(1.0, 11.569999999999705), (0, 0),0
(2.0, 11.569999999999705), (0, 0),0
(3.0, 11.569999999999705), (0, 0),0
(-3.0, 12.57000000000006), (0, 0),0
(-2.0, 12.57000000000006), (0, 0),0
(-1.0, 12.57000000000006), (0, 0),0
(0.0, 12.57000000000006), (0, 0),0
(1.0, 12.57000000000006), (0, 0),0
(2.0, 12.57000000000006), (0, 0),0
(3.0, 12.57000000000006), (0, 0),0
