(-3.0, 8.909999999999673), (0, 0),0
(-2.0, 8.909999999999673), (0, 0),0
(-1.0, 8.909999999999673), (0, 0),0
(0.0, 8.909999999999673), (0, 0),0
(1.0, 8.909999999999673), (0, 0),0
(2.0, 8.909999999999673), (0, 0),0
(3.0, 8.909999999999673), (0, 0),0
(-3.0, 9.909999999999673), (0, 0),0
(-2.0, 9.909999999999673), (0, 0),0
(-1.0, 9.909999999999673), (0, 0),0
(0.0, 9.909999999999673), (0, 0),0
(1.0, 9.909999999999673), (0, 0),0
(2.0, 9.909999999999673), (0, 0),0
(3.0, 9.909999999999673), (0, 0),0
(-3.0, 10.909999999999673), (0, 0),0
(-2.0, 10.909999999999673), (0, 0),0
(-1.0, 10.909999999999673), (0, 0),0
(0.0, 10.909999999999673), (0, 0),0
(1.0, 10.909999999999673), (0, 0),0
(2.0, 10.909999999999673), (0, 0),0
(3.0, 10.909999999999673), (0, 0),0
(-3.0, 11.909999999999673), (0, 0),0
(-2.0, 11.909999999999673), (0, 0),0
(-1.0, 11.909999999999673), (0, 0),0
(0.0, 11.909999999999673), (0, 0),0
(1.0, 11.909999999999673), (0, 0),0
(2.0, 11.909999999999673), (0, 0),0
(3.0, 11.909999999999673), (0, 0),0
(-3.0, 12.909999999999673), (0, 0),0
(-2.0, 12.909999999999673), (0, 0),0
(-1.0, 12.909999999999673), (0, 0),0
(0.0, 12.909999999999673), (0, 0),0
(1.0, 12.909999999999673), (0, 0),0
(2.0, 12.909999999999673), (0, 0),0
(3.0, 12.909999999999673), (0, 0),0
(-3.0, 13.909999999999673), (0, 0),0
(-2.0, 13.909999999999673), (0, 0),0
(-1.0, 13.909999999999673), (0, 0),0
(0.0, 13.909999999999673), (0, 0),0
(1.0, 13.909999999999673), (0, 0),0
(2.0, 13.909999999999673), (0, 0),0
(3.0, 13.909999999999673), (0, 0),0
(-3.0, 14.910000000000029), (0, 0),0
(-2.0, 14.910000000000029), (0, 0),0
(-1.0, 14.910000000000029), (0, 0),0
(0.0, 14.910000000000029), (0, 0),0
(1.0, 14.910000000000029), (0, 0),0
(2.0, 14.910000000000029), (0, 0),0
(3.0, 14.910000000000029), (0, 0),0
(-3.0, 15.910000000000384), (0, 0),0
(-2.0, 15.910000000000384), (0, 0),0
(-1.0, 15.910000000000384), (0, 0),0
(0.0, 15.910000000000384), (0, 0),0
(1.0, 15.910000000000384), (0, 0),0
(2.0, 15.910000000000384), (0, 0),0
(3.0, 15.910000000000384), (0, 0),0
(-3.0, 16.910000000000416), (0, 0),0
(-2.0, 16.910000000000416), (0, 0),0
(-1.0, 16.910000000000416), (0, 0),0
(0.0, 16.910000000000416), (0, 0),0
(1.0, 16.910000000000416), (0, 0),0
(2.0, 16.910000000000416), (0, 0),0
(3.0, 16.910000000000416), (0, 0),0
