(-0.987369034062555, 3.5411559029691095), (0, 0),0
(-1.998444731307059, 5.50146951731116), (-0.0008724095088297112, -0.00017840772268360282),0.0008743133252931967
(-1.0006222303893784, 5.552483186416505), (-7.266541472600644e-05, 8.350958756808395e-05),0.0018205814077103533
(-0.001883140361519714, 5.57755486982178), (-7.122402038350765e-05, 0.00018118520723345833),0.0019638313747518676
(0.9968743340825664, 5.556355433686471), (0.0002606173121429185, 6.312710603826018e-05),0.001774740876621772
(1.9948986383913598, 5.5070228262318786), (0.0007556816317963068, -0.00014941417815619965),0.0007571775842870609
(0.9849833891418126, 3.5431996350068435), (0, 0),0
(-3.0000000000001794, 6.929999999999216), (-2.327139670401985e-27, -3.5527136788004694e-14),8.881784197001252e-15
(-2.000000000000179, 6.929999999999216), (-2.3291118226650374e-27, -3.5527136788004694e-14),8.881784197001252e-15
(-1.000000000000178, 6.929999999999216), (-2.324181442007406e-27, -3.5527136788004694e-14),8.881784197001252e-15
(-1.774750346683618e-13, 6.929999999999216), (-2.3206858021211457e-27, -3.5527136788004694e-14),8.881784197001252e-15
(0.9999999999998228, 6.929999999999216), (-2.3212232136128272e-27, -3.5527136788004694e-14),8.881784197001252e-15
(1.9999999999998235, 6.929999999999216), (-2.3251675181389323e-27, -3.5527136788004694e-14),8.881784197001252e-15
(2.999999999999824, 6.929999999999216), (-2.3192510613497747e-27, -3.5527136788004694e-14),8.881784197001252e-15
(-2.9999999999999174, 7.9299999999992075), (2.327139670401985e-27, 3.5527136788004694e-14),8.881784197001252e-15
(-1.9999999999999167, 7.9299999999992075), (2.3291118226650374e-27, 3.5527136788004694e-14),8.881784197001252e-15
(-0.9999999999999164, 7.9299999999992075), (2.324181442007406e-27, 3.5527136788004694e-14),8.881784197001252e-15
(8.381095817355803e-14, 7.9299999999992075), (2.3206858021211457e-27, 3.5527136788004694e-14),8.881784197001252e-15
(1.0000000000000842, 7.9299999999992075), (2.3212232136128272e-27, 3.5527136788004694e-14),8.881784197001252e-15
(2.0000000000000853, 7.9299999999992075), (2.3251675181389323e-27, 3.5527136788004694e-14),8.881784197001252e-15
(3.0000000000000853, 7.9299999999992075), (2.3192510613497747e-27, 3.5527136788004694e-14),8.881784197001252e-15
(-3.0, 8.929999999999207), (0, 0),0
(-2.0, 8.929999999999207), (0, 0),0
(-1.0, 8.929999999999207), (0, 0),0
(0.0, 8.929999999999207), (0, 0),0
(1.0, 8.929999999999207), (0, 0),0
(2.0, 8.929999999999207), (0, 0),0
(3.0, 8.929999999999207), (0, 0),0
(-3.0, 9.929999999999207), (0, 0),0
(-2.0, 9.929999999999207), (0, 0),0
(-1.0, 9.929999999999207), (0, 0),0
(0.0, 9.929999999999207), (0, 0),0
(1.0, 9.929999999999207), (0, 0),0
(2.0, 9.929999999999207), (0, 0),0
(3.0, 9.929999999999207), (0, 0),0
(-3.0, 10.929999999999207), (0, 0),0
(-2.0, 10.929999999999207), (0, 0),0
(-1.0, 10.929999999999207), (0, 0),0
(0.0, 10.929999999999207), (0, 0),0
(1.0, 10.929999999999207), (0, 0),0
(2.0, 10.929999999999207), (0, 0),0
(3.0, 10.929999999999207), (0, 0),0
(-3.0, 11.929999999999563), (0, 0),0
(-2.0, 11.929999999999563), (0, 0),0
(-1.0, 11.929999999999563), (0, 0),0
(0.0, 11.929999999999563), (0, 0),0
(1.0, 11.929999999999563), (0, 0),0
(2.0, 11.929999999999563), (0, 0),0
(3.0, 11.929999999999563), (0, 0),0
(-3.0, 12.929999999999918), (0, 0),0
(-2.0, 12.929999999999918), (0, 0),0
(-1.0, 12.929999999999918), (0, 0),0
(0.0, 12.929999999999918), (0, 0),0
(1.0, 12.929999999999918), (0, 0),0
(2.0, 12.929999999999918), (0, 0),0
(3.0, 12.929999999999918), (0, 0),0
(-3.0, 13.930000000000273), (0, 0),0
(-2.0, 13.930000000000273), (0, 0),0
(-1.0, 13.930000000000273), (0, 0),0
(0.0, 13.930000000000273), (0, 0),0
(1.0, 13.930000000000273), (0, 0),0
(2.0, 13.930000000000273), (0, 0),0
(3.0, 13.930000000000273), (0, 0),0
