(-1.0307469846428485, -2.2873915957071658), (-0.04338209950990657, -0.45396045104870286),0.17663017468483666
(0.5515976472078461, -1.5718258198020862), (-0.012384343340985315, 0.03914151594527331),0.16832617692683893
(-1.000852565042532, 4.771112612075934), (-0.0006687652128935805, -1.2550879415068904e-05),0.0006692204296304682
(-0.0015327844690953794, 4.775801231422926), (5.227781676703832e-05, 1.7305721772203407e-05),0.0012860894992404726
(0.997848488636876, 4.77387422511341), (0.0006164873961265421, -4.754842357134505e-06),0.0006168690696100043
(-1.5778398824779483, -1.5249348680640304), (-0.03368449937462871, 0.1877777852142237),0.06156998109081946
(-0.36095323167507565, -1.7090363506827912), (0.006625580332892386, 0.22381681084530852),0.19225152635331677
(-0.02549673762297955, -0.04733369394802394), (0, 0),0
(-1.9883624603002164, 5.989069806678102), (-0.005007493322741052, 0.00038087316939269995),0.005033737045147535
(-0.9935760267164006, 5.970153782361741), (-0.001105629449371784, -0.0009668520579131603),0.011186470998366671
(-1.4007199137884042e-05, 5.993963477896109), (0.00037352898789935925, 0.0012008728849381724),0.011927736611786699
(0.9938545888089427, 5.967344702426566), (0.000813136585840782, -0.0010400398944757307),0.010727129832600157
(1.988670962710949, 5.988807494228811), (0.0049264571983726945, 0.00042514589805801856),0.0049521271740325945
(1.4604197629330316, -1.5629808520146564), (0.08282536189262821, 0.00322433904389729),0.09113484416753936
(-2.999999999999865, 7.309999999999119), (1.6566079009641248e-27, -3.5527136788004694e-14),8.881784197001252e-15
(-1.999999999999864, 7.309999999999119), (1.664496510016335e-27, -3.5527136788004694e-14),8.881784197001252e-15
(-0.9999999999998638, 7.309999999999119), (1.657593977095651e-27, -3.5527136788004694e-14),8.881784197001252e-15
(1.3633538742396927e-13, 7.309999999999119), (1.65552518937171e-27, -3.5527136788004694e-14),8.881784197001252e-15
(1.0000000000001368, 7.309999999999119), (1.657593977095651e-27, -3.5527136788004694e-14),8.881784197001252e-15
(2.000000000000138, 7.309999999999119), (1.6664686622793874e-27, -3.5527136788004694e-14),8.881784197001252e-15
(3.000000000000138, 7.309999999999119), (1.66055220549023e-27, -3.5527136788004694e-14),8.881784197001252e-15
(-3.0000000000000515, 8.30999999999911), (-1.6566079009641248e-27, 3.5527136788004694e-14),8.881784197001252e-15
(-2.0000000000000515, 8.30999999999911), (-1.664496510016335e-27, 3.5527136788004694e-14),8.881784197001252e-15
(-1.0000000000000504, 8.30999999999911), (-1.657593977095651e-27, 3.5527136788004694e-14),8.881784197001252e-15
(-5.0060178224953276e-14, 8.30999999999911), (-1.65552518937171e-27, 3.5527136788004694e-14),8.881784197001252e-15
(0.9999999999999502, 8.30999999999911), (-1.657593977095651e-27, 3.5527136788004694e-14),8.881784197001252e-15
(1.9999999999999505, 8.30999999999911), (-1.6664686622793874e-27, 3.5527136788004694e-14),8.881784197001252e-15
(2.999999999999951, 8.30999999999911), (-1.66055220549023e-27, 3.5527136788004694e-14),8.881784197001252e-15
(-3.0, 9.30999999999911), (0, 0),0
(-2.0, 9.30999999999911), (0, 0),0
(-1.0, 9.30999999999911), (0, 0),0
(0.0, 9.30999999999911), (0, 0),0
(1.0, 9.30999999999911), (0, 0),0
(2.0, 9.30999999999911), (0, 0),0
(3.0, 9.30999999999911), (0, 0),0
(-3.0, 10.30999999999911), (0, 0),0
(-2.0, 10.30999999999911), (0, 0),0
(-1.0, 10.30999999999911), (0, 0),0
(0.0, 10.30999999999911), (0, 0),0
(1.0, 10.30999999999911), (0, 0),0
(2.0, 10.30999999999911), (0, 0),0
(3.0, 10.30999999999911), (0, 0),0
(-3.0, 11.309999999999466), (0, 0),0
(-2.0, 11.309999999999466), (0, 0),0
(-1.0, 11.309999999999466), (0, 0),0
(0.0, 11.309999999999466), (0, 0),0
(1.0, 11.309999999999466), (0, 0),0
(2.0, 11.309999999999466), (0, 0),0
(3.0, 11.309999999999466), (0, 0),0
(-3.0, 12.309999999999821), (0, 0),0
(-2.0, 12.309999999999821), (0, 0),0
(-1.0, 12.309999999999821), (0, 0),0
(0.0, 12.309999999999821), (0, 0),0
(1.0, 12.309999999999821), (0, 0),0
(2.0, 12.309999999999821), (0, 0),0
(3.0, 12.309999999999821), (0, 0),0
(-3.0, 13.310000000000176), (0, 0),0
(-2.0, 13.310000000000176), (0, 0),0
(-1.0, 13.310000000000176), (0, 0),0
(0.0, 13.310000000000176), (0, 0),0
(1.0, 13.310000000000176), (0, 0),0
(2.0, 13.310000000000176), (0, 0),0
(3.0, 13.310000000000176), (0, 0),0
