(-3.0, 9.819999999999816), (0, 0),0
(-2.0, 9.819999999999816), (0, 0),0
(-1.0, 9.819999999999816), (0, 0),0
(0.0, 9.819999999999816), (0, 0),0
(1.0, 9.819999999999816), (0, 0),0
(2.0, 9.819999999999816), (0, 0),0
(3.0, 9.819999999999816), (0, 0),0
(-3.0, 10.819999999999816), (0, 0),0
(-2.0, 10.819999999999816), (0, 0),0
(-1.0, 10.819999999999816), (0, 0),0
(0.0, 10.819999999999816), (0, 0),0
(1.0, 10.819999999999816), (0, 0),0
(2.0, 10.819999999999816), (0, 0),0
(3.0, 10.819999999999816), (0, 0),0
(-3.0, 11.819999999999816), (0, 0),0
(-2.0, 11.819999999999816), (0, 0),0
(-1.0, 11.819999999999816), (0, 0),0
(0.0, 11.819999999999816), (0, 0),0
(1.0, 11.819999999999816), (0, 0),0
(2.0, 11.819999999999816), (0, 0),0
(3.0, 11.819999999999816), (0, 0),0
(-3.0, 12.819999999999816), (0, 0),0
(-2.0, 12.819999999999816), (0, 0),0
(-1.0, 12.819999999999816), (0, 0),0
(0.0, 12.819999999999816), (0, 0),0
(1.0, 12.819999999999816), (0, 0),0
(2.0, 12.819999999999816), (0, 0),0
(3.0, 12.819999999999816), (0, 0),0
(-3.0, 13.819999999999816), (0, 0),0
(-2.0, 13.819999999999816), (0, 0),0
(-1.0, 13.819999999999816), (0, 0),0
(0.0, 13.819999999999816), (0, 0),0
(1.0, 13.819999999999816), (0, 0),0
(2.0, 13.819999999999816), (0, 0),0
(3.0, 13.819999999999816), (0, 0),0
(-3.0, 14.819999999999816), (0, 0),0
(-2.0, 14.819999999999816), (0, 0),0
(-1.0, 14.819999999999816), (0, 0),0
(0.0, 14.819999999999816), (0, 0),0
(1.0, 14.819999999999816), (0, 0),0
(2.0, 14.819999999999816), (0, 0),0
(3.0, 14.819999999999816), (0, 0),0
(-3.0, 15.82000000000017), (0, 0),0
(-2.0, 15.82000000000017), (0, 0),0
(-1.0, 15.82000000000017), (0, 0),0
(0.0, 15.82000000000017), (0, 0),0
(1.0, 15.82000000000017), (0, 0),0
(2.0, 15.82000000000017), (0, 0),0
(3.0, 15.82000000000017), (0, 0),0
(-3.0, 16.820000000000235), (0, 0),0
(-2.0, 16.820000000000235), (0, 0),0
(-1.0, 16.820000000000235), (0, 0),0
(0.0, 16.820000000000235), (0, 0),0
(1.0, 16.820000000000235), (0, 0),0
(2.0, 16.820000000000235), (0, 0),0
(3.0, 16.820000000000235), (0, 0),0
(-3.0, 17.820000000000235), (0, 0),0
(-2.0, 17.820000000000235), (0, 0),0
(-1.0, 17.820000000000235), (0, 0),0
(0.0, 17.820000000000235), (0, 0),0
(1.0, 17.820000000000235), (0, 0),0
(2.0, 17.820000000000235), (0, 0),0
(3.0, 17.820000000000235), (0, 0),0
