(-0.6764097992837401, 3.001642533578065), (0.17972920686266378, -1.7629019221064088),0.7904056060566784
(-0.8639677341902009, 3.5942435235108214), (-0.0023339933058649787, 1.1383423130904822),1.2766891318967493
(-0.965069457042406, 5.196272672514844), (-0.035965676734166875, -0.006119260790145385),0.03739671174724113
(-0.0033357897281888816, 5.237180418839605), (0.001998143610062793, 0.011311366773457385),0.07263045361342779
(0.9607268197189858, 5.200339980467838), (0.03396753312410408, -0.005192105983311999),0.03523374186618666
(0.8825560062269808, 3.397584557435681), (-0.05607406612211738, 0.22831547236214755),1.2123709876181614
(0.6900155331772667, 3.020566963860218), (-0.21270505581166904, -1.4315778352203548),0.7999238764301208
(-0.9403850693771243, 3.5270807774990423), (-0.1773952135567988, 0.6245596090159266),1.310242214668333
(-1.9223635792415181, 6.443885961798307), (-0.03782473917805739, -0.00784728635059735),0.03943033211358782
(-0.9630833208583314, 6.493640084639521), (0.0013546853229806782, 0.0035079704019327414),0.07735478072814383
(-0.0014331140026166618, 6.5222450881872795), (0.001884217642804921, 0.008543863244209662),0.07381433847125984
(0.9622320393417185, 6.4929572628948895), (-0.0030886872418334557, 0.0034024847875423203),0.07515405662733621
(1.9217461855144038, 6.444522311202644), (0.03767452345410525, -0.0076070320830873735),0.03926416677063238
(1.145420558111075, 3.6497967645519123), (-3.4812208780662135, 3.3683258723193035),5.189095609095577
(-2.9999999999998996, 7.69999999999918), (1.0412963948917356e-27, -3.5527136788004694e-14),8.881784197001252e-15
(-1.9999999999998987, 7.69999999999918), (1.0491850039439457e-27, -3.5527136788004694e-14),8.881784197001252e-15
(-0.9999999999998984, 7.69999999999918), (1.0422824710232618e-27, -3.5527136788004694e-14),8.881784197001252e-15
(1.0169642905566439e-13, 7.69999999999918), (1.0402136832993205e-27, -3.5527136788004694e-14),8.881784197001252e-15
(1.0000000000001021, 7.69999999999918), (1.0422824710232618e-27, -3.5527136788004694e-14),8.881784197001252e-15
(2.0000000000001035, 7.69999999999918), (1.0511571562069982e-27, -3.5527136788004694e-14),8.881784197001252e-15
(3.0000000000001035, 7.69999999999918), (1.0452406994178406e-27, -3.5527136788004694e-14),8.881784197001252e-15
(-3.000000000000017, 8.699999999999172), (-1.0412963948917356e-27, 3.5527136788004694e-14),8.881784197001252e-15
(-2.000000000000017, 8.699999999999172), (-1.0491850039439457e-27, 3.5527136788004694e-14),8.881784197001252e-15
(-1.0000000000000158, 8.699999999999172), (-1.0422824710232618e-27, 3.5527136788004694e-14),8.881784197001252e-15
(-1.542121985664839e-14, 8.699999999999172), (-1.0402136832993205e-27, 3.5527136788004694e-14),8.881784197001252e-15
(0.9999999999999848, 8.699999999999172), (-1.0422824710232618e-27, 3.5527136788004694e-14),8.881784197001252e-15
(1.9999999999999851, 8.699999999999172), (-1.0511571562069982e-27, 3.5527136788004694e-14),8.881784197001252e-15
(2.999999999999986, 8.699999999999172), (-1.0452406994178406e-27, 3.5527136788004694e-14),8.881784197001252e-15
(-3.0, 9.699999999999172), (0, 0),0
(-2.0, 9.699999999999172), (0, 0),0
(-1.0, 9.699999999999172), (0, 0),0
(0.0, 9.699999999999172), (0, 0),0
(1.0, 9.699999999999172), (0, 0),0
(2.0, 9.699999999999172), (0, 0),0
(3.0, 9.699999999999172), (0, 0),0
(-3.0, 10.699999999999172), (0, 0),0
(-2.0, 10.699999999999172), (0, 0),0
(-1.0, 10.699999999999172), (0, 0),0
(0.0, 10.699999999999172), (0, 0),0
(1.0, 10.699999999999172), (0, 0),0
(2.0, 10.699999999999172), (0, 0),0
(3.0, 10.699999999999172), (0, 0),0
(-3.0, 11.699999999999527), (0, 0),0
(-2.0, 11.699999999999527), (0, 0),0
(-1.0, 11.699999999999527), (0, 0),0
(0.0, 11.699999999999527), (0, 0),0
(1.0, 11.699999999999527), (0, 0),0
(2.0, 11.699999999999527), (0, 0),0
(3.0, 11.699999999999527), (0, 0),0
(-3.0, 12.699999999999882), (0, 0),0
(-2.0, 12.699999999999882), (0, 0),0
(-1.0, 12.699999999999882), (0, 0),0
(0.0, 12.699999999999882), (0, 0),0
(1.0, 12.699999999999882), (0, 0),0
(2.0, 12.699999999999882), (0, 0),0
(3.0, 12.699999999999882), (0, 0),0
(-3.0, 13.700000000000237), (0, 0),0
(-2.0, 13.700000000000237), (0, 0),0
(-1.0, 13.700000000000237), (0, 0),0
(0.0, 13.700000000000237), (0, 0),0
(1.0, 13.700000000000237), (0, 0),0
(2.0, 13.700000000000237), (0, 0),0
(3.0, 13.700000000000237), (0, 0),0
