(-3.0000000000000417, 7.5049999999994625), (0.0, -3.5527136788004694e-14),8.881784197001252e-15
(-2.0000000000000417, 7.5049999999994625), (0.0, -3.5527136788004694e-14),8.881784197001252e-15
(-1.000000000000041, 7.5049999999994625), (0.0, -3.5527136788004694e-14),8.881784197001252e-15
(-4.0651149113557496e-14, 7.5049999999994625), (0.0, -3.5527136788004694e-14),8.881784197001252e-15
(0.9999999999999596, 7.5049999999994625), (0.0, -3.5527136788004694e-14),8.881784197001252e-15
(1.99999999999996, 7.5049999999994625), (0.0, -3.5527136788004694e-14),8.881784197001252e-15
(2.99999999999996, 7.5049999999994625), (0.0, -3.5527136788004694e-14),8.881784197001252e-15
(-3.0000000000000417, 8.504999999999454), (0.0, 3.5527136788004694e-14),8.881784197001252e-15
(-2.0000000000000417, 8.504999999999454), (0.0, 3.5527136788004694e-14),8.881784197001252e-15
(-1.000000000000041, 8.504999999999454), (0.0, 3.5527136788004694e-14),8.881784197001252e-15
(-4.0651149113557496e-14, 8.504999999999454), (0.0, 3.5527136788004694e-14),8.881784197001252e-15
(0.9999999999999596, 8.504999999999454), (0.0, 3.5527136788004694e-14),8.881784197001252e-15
(1.99999999999996, 8.504999999999454), (0.0, 3.5527136788004694e-14),8.881784197001252e-15
(2.99999999999996, 8.504999999999454), (0.0, 3.5527136788004694e-14),8.881784197001252e-15
(-3.0, 9.504999999999454), (0, 0),0
(-2.0, 9.504999999999454), (0, 0),0
(-1.0, 9.504999999999454), (0, 0),0
(0.0, 9.504999999999454), (0, 0),0
(1.0, 9.504999999999454), (0, 0),0
(2.0, 9.504999999999454), (0, 0),0
(3.0, 9.504999999999454), (0, 0),0
(-3.0, 10.504999999999454), (0, 0),0
(-2.0, 10.504999999999454), (0, 0),0
(-1.0, 10.504999999999454), (0, 0),0
(0.0, 10.504999999999454), (0, 0),0
(1.0, 10.504999999999454), (0, 0),0
(2.0, 10.504999999999454), (0, 0),0
(3.0, 10.504999999999454), (0, 0),0
(-3.0, 11.504999999999454), (0, 0),0
(-2.0, 11.504999999999454), (0, 0),0
(-1.0, 11.504999999999454), (0, 0),0
(0.0, 11.504999999999454), (0, 0),0
(1.0, 11.504999999999454), (0, 0),0
(2.0, 11.504999999999454), (0, 0),0
(3.0, 11.504999999999454), (0, 0),0
(-3.0, 12.504999999999454), (0, 0),0
(-2.0, 12.504999999999454), (0, 0),0
(-1.0, 12.504999999999454), (0, 0),0
(0.0, 12.504999999999454), (0, 0),0
(1.0, 12.504999999999454), (0, 0),0
(2.0, 12.504999999999454), (0, 0),0
(3.0, 12.504999999999454), (0, 0),0
(-3.0, 13.504999999999809), (0, 0),0
(-2.0, 13.504999999999809), (0, 0),0
(-1.0, 13.504999999999809), (0, 0),0
(0.0, 13.504999999999809), (0, 0),0
(1.0, 13.504999999999809), (0, 0),0
(2.0, 13.504999999999809), (0, 0),0
(3.0, 13.504999999999809), (0, 0),0
(-3.0, 14.505000000000164), (0, 0),0
(-2.0, 14.505000000000164), (0, 0),0
(-1.0, 14.505000000000164), (0, 0),0
(0.0, 14.505000000000164), (0, 0),0
(1.0, 14.505000000000164), (0, 0),0
(2.0, 14.505000000000164), (0, 0),0
(3.0, 14.505000000000164), (0, 0),0
(-3.0, 15.50500000000052), (0, 0),0
(-2.0, 15.50500000000052), (0, 0),0
(-1.0, 15.50500000000052), (0, 0),0
(0.0, 15.50500000000052), (0, 0),0
(1.0, 15.50500000000052), (0, 0),0
(2.0, 15.50500000000052), (0, 0),0
(3.0, 15.50500000000052), (0, 0),0
