(-1.2347629408547096, -3.000792229182743), (-7.927691132093742e-06, -0.0073518305769088585),0.002331696397949279
(0.5699005804218752, -2.2709132429411625), (1.752721988576274e-05, 0.00015188590828100508),0.0016425158813527796
(-1.0014881463311716, 4.275489270652016), (-3.459487267606373e-06, -5.6111526670718276e-08),3.4595276766635763e-06
(-0.0014998268439410495, 4.279544125238758), (-4.09181255815548e-07, 7.629471899765626e-08),7.32821445736942e-06
(0.9984954539102381, 4.278239858864209), (3.868668523421921e-06, -2.018319232693798e-08),3.868686780705843e-06
(-1.6634022236483625, -2.099002977146396), (-0.0006529957171540212, 0.0054951988116193505),0.001523415476290757
(-0.4170727163595454, -2.426538985186874), (-0.00016074808441290294, 0.0013383878113733126),0.0016407973589102065
(-0.02549673762297955, -0.5423336939480243), (0, 0),0
(-1.8844731955671028, 5.367950353086963), (0.10195140310302633, -0.6586733126026181),0.5499809363858128
(-0.9872838650664312, 5.444016388398004), (0.07804895597820118, 0.028796908856466585),0.11103290397873444
(0.0007277335328182982, 5.476909863215893), (-0.0008550318696200088, 0.0032753603244120456),0.023759668556211144
(0.9877556209872432, 5.440988300034337), (-0.07746115343827803, 0.027566159558324452),0.1122182004384229
(1.8848571806554408, 5.367574083194418), (-0.10153663141312907, -0.6584615379163247),0.5503466729247419
(1.5626719689327184, -2.157839694464299), (0.0008041442728132552, 0.00036635804563519046),0.0008099994441010949
(-2.309226431352924, 5.716743853816294), (3.5586958018039403, 2.7934345764367228),4.780516049725302
(-1.8641725971861762, 6.62013338194125), (-0.061482037744490944, -0.028220523677620027),0.0662783218189461
(-0.9365384016125055, 6.726580418103054), (-0.0011556870139008135, 0.01952676522437373),0.13346822609676123
(-0.004289346763448591, 6.758928129216391), (0.008470429165659779, 0.016148153219424463),0.1246962254550289
(0.9376470262103656, 6.726521279788455), (-0.008207182399719307, 0.02121314607909263),0.12482268245938855
(1.8642342154821052, 6.6200555547431605), (0.062374477992451285, -0.028667540845270793),0.06731636128217477
(2.3092280729043324, 5.716741219158378), (-3.5588433441641407, 2.7941888642652097),4.780574161568695
(-3.0000000000000933, 7.814999999999042), (-8.63802691217008e-28, -3.5527136788004694e-14),8.881784197001252e-15
(-2.0000000000000933, 7.814999999999042), (-8.697191480061655e-28, -3.5527136788004694e-14),8.881784197001252e-15
(-1.000000000000092, 7.814999999999042), (-8.608444628224291e-28, -3.5527136788004694e-14),8.881784197001252e-15
(-9.148237722911295e-14, 7.814999999999042), (-8.587756750984874e-28, -3.5527136788004694e-14),8.881784197001252e-15
(0.9999999999999086, 7.814999999999042), (-8.608444628224291e-28, -3.5527136788004694e-14),8.881784197001252e-15
(1.999999999999909, 7.814999999999042), (-8.67746995743113e-28, -3.5527136788004694e-14),8.881784197001252e-15
(2.99999999999991, 7.814999999999042), (-8.598583866909029e-28, -3.5527136788004694e-14),8.881784197001252e-15
(-2.999999999999996, 8.814999999999033), (8.63802691217008e-28, 3.5527136788004694e-14),8.881784197001252e-15
(-1.9999999999999953, 8.814999999999033), (8.697191480061655e-28, 3.5527136788004694e-14),8.881784197001252e-15
(-0.999999999999995, 8.814999999999033), (8.608444628224291e-28, 3.5527136788004694e-14),8.881784197001252e-15
(5.207168030096919e-15, 8.814999999999033), (8.587756750984874e-28, 3.5527136788004694e-14),8.881784197001252e-15
(1.0000000000000056, 8.814999999999033), (8.608444628224291e-28, 3.5527136788004694e-14),8.881784197001252e-15
(2.0000000000000067, 8.814999999999033), (8.67746995743113e-28, 3.5527136788004694e-14),8.881784197001252e-15
(3.0000000000000067, 8.814999999999033), (8.598583866909029e-28, 3.5527136788004694e-14),8.881784197001252e-15
(-3.0, 9.814999999999033), (0, 0),0
(-2.0, 9.814999999999033), (0, 0),0
(-1.0, 9.814999999999033), (0, 0),0
(0.0, 9.814999999999033), (0, 0),0
(1.0, 9.814999999999033), (0, 0),0
(2.0, 9.814999999999033), (0, 0),0
(3.0, 9.814999999999033), (0, 0),0
(-3.0, 10.814999999999388), (0, 0),0
(-2.0, 10.814999999999388), (0, 0),0
(-1.0, 10.814999999999388), (0, 0),0
(0.0, 10.814999999999388), (0, 0),0
(1.0, 10.814999999999388), (0, 0),0
(2.0, 10.814999999999388), (0, 0),0
(3.0, 10.814999999999388), (0, 0),0
(-3.0, 11.814999999999744), (0, 0),0
(-2.0, 11.814999999999744), (0, 0),0
(-1.0, 11.814999999999744), (0, 0),0
(0.0, 11.814999999999744), (0, 0),0
(1.0, 11.814999999999744), (0, 0),0
(2.0, 11.814999999999744), (0, 0),0
(3.0, 11.814999999999744), (0, 0),0
(-3.0, 12.815000000000099), (0, 0),0
(-2.0, 12.815000000000099), (0, 0),0
(-1.0, 12.815000000000099), (0, 0),0
(0.0, 12.815000000000099), (0, 0),0
(1.0, 12.815000000000099), (0, 0),0
(2.0, 12.815000000000099), (0, 0),0
(3.0, 12.815000000000099), (0, 0),0
