(-3.0, 9.39999999999975), (0, 0),0
(-2.0, 9.39999999999975), (0, 0),0
(-1.0, 9.39999999999975), (0, 0),0
(0.0, 9.39999999999975), (0, 0),0
(1.0, 9.39999999999975), (0, 0),0
(2.0, 9.39999999999975), (0, 0),0
(3.0, 9.39999999999975), (0, 0),0
(-3.0, 10.39999999999975), (0, 0),0
(-2.0, 10.39999999999975), (0, 0),0
(-1.0, 10.39999999999975), (0, 0),0
(0.0, 10.39999999999975), (0, 0),0
(1.0, 10.39999999999975), (0, 0),0
(2.0, 10.39999999999975), (0, 0),0
(3.0, 10.39999999999975), (0, 0),0
(-3.0, 11.39999999999975), (0, 0),0
(-2.0, 11.39999999999975), (0, 0),0
(-1.0, 11.39999999999975), (0, 0),0
(0.0, 11.39999999999975), (0, 0),0
(1.0, 11.39999999999975), (0, 0),0
(2.0, 11.39999999999975), (0, 0),0
(3.0, 11.39999999999975), (0, 0),0
(-3.0, 12.39999999999975), (0, 0),0
(-2.0, 12.39999999999975), (0, 0),0
(-1.0, 12.39999999999975), (0, 0),0
(0.0, 12.39999999999975), (0, 0),0
(1.0, 12.39999999999975), (0, 0),0
(2.0, 12.39999999999975), (0, 0),0
(3.0, 12.39999999999975), (0, 0),0
(-3.0, 13.39999999999975), (0, 0),0
(-2.0, 13.39999999999975), (0, 0),0
(-1.0, 13.39999999999975), (0, 0),0
(0.0, 13.39999999999975), (0, 0),0
(1.0, 13.39999999999975), (0, 0),0
(2.0, 13.39999999999975), (0, 0),0
(3.0, 13.39999999999975), (0, 0),0
(-3.0, 14.39999999999975), (0, 0),0
(-2.0, 14.39999999999975), (0, 0),0
(-1.0, 14.39999999999975), (0, 0),0
(0.0, 14.39999999999975), (0, 0),0
(1.0, 14.39999999999975), (0, 0),0
(2.0, 14.39999999999975), (0, 0),0
(3.0, 14.39999999999975), (0, 0),0
(-3.0, 15.400000000000105), (0, 0),0
(-2.0, 15.400000000000105), (0, 0),0
(-1.0, 15.400000000000105), (0, 0),0
(0.0, 15.400000000000105), (0, 0),0
(1.0, 15.400000000000105), (0, 0),0
(2.0, 15.400000000000105), (0, 0),0
(3.0, 15.400000000000105), (0, 0),0
(-3.0, 16.40000000000032), (0, 0),0
(-2.0, 16.40000000000032), (0, 0),0
(-1.0, 16.40000000000032), (0, 0),0
(0.0, 16.40000000000032), (0, 0),0
(1.0, 16.40000000000032), (0, 0),0
(2.0, 16.40000000000032), (0, 0),0
(3.0, 16.40000000000032), (0, 0),0
(-3.0, 17.40000000000032), (0, 0),0
(-2.0, 17.40000000000032), (0, 0),0
(-1.0, 17.40000000000032), (0, 0),0
(0.0, 17.40000000000032), (0, 0),0
(1.0, 17.40000000000032), (0, 0),0
(2.0, 17.40000000000032), (0, 0),0
(3.0, 17.40000000000032), (0, 0),0
