(-3.0, 9.97999999999984), (0, 0),0
(-2.0, 9.97999999999984), (0, 0),0
(-1.0, 9.97999999999984), (0, 0),0
(0.0, 9.97999999999984), (0, 0),0
(1.0, 9.97999999999984), (0, 0),0
(2.0, 9.97999999999984), (0, 0),0
(3.0, 9.97999999999984), (0, 0),0
(-3.0, 10.97999999999984), (0, 0),0
(-2.0, 10.97999999999984), (0, 0),0
(-1.0, 10.97999999999984), (0, 0),0
(0.0, 10.97999999999984), (0, 0),0
(1.0, 10.97999999999984), (0, 0),0
(2.0, 10.97999999999984), (0, 0),0
(3.0, 10.97999999999984), (0, 0),0
(-3.0, 11.97999999999984), (0, 0),0
(-2.0, 11.97999999999984), (0, 0),0
(-1.0, 11.97999999999984), (0, 0),0
(0.0, 11.97999999999984), (0, 0),0
(1.0, 11.97999999999984), (0, 0),0
(2.0, 11.97999999999984), (0, 0),0
(3.0, 11.97999999999984), (0, 0),0
(-3.0, 12.97999999999984), (0, 0),0
(-2.0, 12.97999999999984), (0, 0),0
(-1.0, 12.97999999999984), (0, 0),0
(0.0, 12.97999999999984), (0, 0),0
(1.0, 12.97999999999984), (0, 0),0
(2.0, 12.97999999999984), (0, 0),0
(3.0, 12.97999999999984), (0, 0),0
(-3.0, 13.97999999999984), (0, 0),0
(-2.0, 13.97999999999984), (0, 0),0
(-1.0, 13.97999999999984), (0, 0),0
(0.0, 13.97999999999984), (0, 0),0
(1.0, 13.97999999999984), (0, 0),0
(2.0, 13.97999999999984), (0, 0),0
(3.0, 13.97999999999984), (0, 0),0
(-3.0, 14.97999999999984), (0, 0),0
(-2.0, 14.97999999999984), (0, 0),0
(-1.0, 14.97999999999984), (0, 0),0
(0.0, 14.97999999999984), (0, 0),0
(1.0, 14.97999999999984), (0, 0),0
(2.0, 14.97999999999984), (0, 0),0
(3.0, 14.97999999999984), (0, 0),0
(-3.0, 15.980000000000196), (0, 0),0
(-2.0, 15.980000000000196), (0, 0),0
(-1.0, 15.980000000000196), (0, 0),0
(0.0, 15.980000000000196), (0, 0),0
(1.0, 15.980000000000196), (0, 0),0
(2.0, 15.980000000000196), (0, 0),0
(3.0, 15.980000000000196), (0, 0),0
(-3.0, 16.980000000000203), (0, 0),0
(-2.0, 16.980000000000203), (0, 0),0
(-1.0, 16.980000000000203), (0, 0),0
(0.0, 16.980000000000203), (0, 0),0
(1.0, 16.980000000000203), (0, 0),0
(2.0, 16.980000000000203), (0, 0),0
(3.0, 16.980000000000203), (0, 0),0
(-3.0, 17.980000000000203), (0, 0),0
(-2.0, 17.980000000000203), (0, 0),0
(-1.0, 17.980000000000203), (0, 0),0
(0.0, 17.980000000000203), (0, 0),0
(1.0, 17.980000000000203), (0, 0),0
(2.0, 17.980000000000203), (0, 0),0
(3.0, 17.980000000000203), (0, 0),0
