(-3.0, 8.344999999999585), (0, 0),0
(-2.0, 8.344999999999585), (0, 0),0
(-1.0, 8.344999999999585), (0, 0),0
(0.0, 8.344999999999585), (0, 0),0
(1.0, 8.344999999999585), (0, 0),0
(2.0, 8.344999999999585), (0, 0),0
(3.0, 8.344999999999585), (0, 0),0
(-3.0, 9.344999999999585), (0, 0),0
(-2.0, 9.344999999999585), (0, 0),0
(-1.0, 9.344999999999585), (0, 0),0
(0.0, 9.344999999999585), (0, 0),0
(1.0, 9.344999999999585), (0, 0),0
(2.0, 9.344999999999585), (0, 0),0
(3.0, 9.344999999999585), (0, 0),0
(-3.0, 10.344999999999585), (0, 0),0
(-2.0, 10.344999999999585), (0, 0),0
(-1.0, 10.344999999999585), (0, 0),0
(0.0, 10.344999999999585), (0, 0),0
(1.0, 10.344999999999585), (0, 0),0
(2.0, 10.344999999999585), (0, 0),0
(3.0, 10.344999999999585), (0, 0),0
(-3.0, 11.344999999999585), (0, 0),0
(-2.0, 11.344999999999585), (0, 0),0
(-1.0, 11.344999999999585), (0, 0),0
(0.0, 11.344999999999585), (0, 0),0
(1.0, 11.344999999999585), (0, 0),0
(2.0, 11.344999999999585), (0, 0),0
(3.0, 11.344999999999585), (0, 0),0
(-3.0, 12.344999999999585), (0, 0),0
(-2.0, 12.344999999999585), (0, 0),0
(-1.0, 12.344999999999585), (0, 0),0
(0.0, 12.344999999999585), (0, 0),0
(1.0, 12.344999999999585), (0, 0),0
(2.0, 12.344999999999585), (0, 0),0
(3.0, 12.344999999999585), (0, 0),0
(-3.0, 13.344999999999585), (0, 0),0
(-2.0, 13.344999999999585), (0, 0),0
(-1.0, 13.344999999999585), (0, 0),0
(0.0, 13.344999999999585), (0, 0),0
(1.0, 13.344999999999585), (0, 0),0
(2.0, 13.344999999999585), (0, 0),0
(3.0, 13.344999999999585), (0, 0),0
(-3.0, 14.34499999999994), (0, 0),0
(-2.0, 14.34499999999994), (0, 0),0
(-1.0, 14.34499999999994), (0, 0),0
(0.0, 14.34499999999994), (0, 0),0
(1.0, 14.34499999999994), (0, 0),0
(2.0, 14.34499999999994), (0, 0),0
(3.0, 14.34499999999994), (0, 0),0
(-3.0, 15.345000000000296), (0, 0),0
(-2.0, 15.345000000000296), (0, 0),0
(-1.0, 15.345000000000296), (0, 0),0
(0.0, 15.345000000000296), (0, 0),0
(1.0, 15.345000000000296), (0, 0),0
(2.0, 15.345000000000296), (0, 0),0
(3.0, 15.345000000000296), (0, 0),0
(-3.0, 16.345000000000528), (0, 0),0
(-2.0, 16.345000000000528), (0, 0),0
(-1.0, 16.345000000000528), (0, 0),0
(0.0, 16.345000000000528), (0, 0),0
(1.0, 16.345000000000528), (0, 0),0
(2.0, 16.345000000000528), (0, 0),0
(3.0, 16.345000000000528), (0, 0),0
