(-2.6423392604450044, 6.339023765649964), (-0.10551539259948918, -0.2280099142167885),0.1393453607557512
(-1.885117118084343, 6.748097151696255), (0.03040491089991193, 0.2005804185429737),0.2215210693472235
(-0.9710941910295735, 6.831544852190624), (0.045997002303608925, 0.025170025593631726),0.11219587789206475
(-0.0012968822784286242, 6.850361119160665), (0.002383505850317602, 0.0043358800084820365),0.05751092454202722
(0.9710290255002947, 6.831478317378183), (-0.04833179587539682, 0.025311350343985885),0.1096072817501228
(1.8851174874995476, 6.748097536928991), (-0.03045361922648443, 0.20062251286886248),0.22146194157213284
(2.642339306383866, 6.339023666365447), (0.10551538864753197, -0.2280102731411473),0.13934541506344478
(-3.000000000000097, 7.859999999999362), (-8.598583866909029e-28, -3.5527136788004694e-14),8.881784197001252e-15
(-2.0000000000000964, 7.859999999999362), (-8.618305389539554e-28, -3.5527136788004694e-14),8.881784197001252e-15
(-1.0000000000000955, 7.859999999999362), (-8.56900158296324e-28, -3.5527136788004694e-14),8.881784197001252e-15
(-9.491885055723516e-14, 7.859999999999361), (-7.687740413837561e-28, -3.1974423109204256e-14),7.993605777301127e-15
(0.9999999999999054, 7.859999999999362), (-8.539419299017453e-28, -3.5527136788004694e-14),8.881784197001252e-15
(1.999999999999906, 7.859999999999362), (-8.578862344278503e-28, -3.5527136788004694e-14),8.881784197001252e-15
(2.9999999999999067, 7.859999999999362), (-8.519697776386927e-28, -3.5527136788004694e-14),8.881784197001252e-15
(-3.0, 8.859999999999353), (8.598583866909029e-28, 3.5527136788004694e-14),8.881784197001252e-15
(-1.9999999999999993, 8.859999999999353), (8.618305389539554e-28, 3.5527136788004694e-14),8.881784197001252e-15
(-0.999999999999999, 8.859999999999353), (8.56900158296324e-28, 3.5527136788004694e-14),8.881784197001252e-15
(1.254774062431355e-15, 8.859999999999353), (7.687740413837561e-28, 3.1974423109204256e-14),7.993605777301127e-15
(1.0000000000000016, 8.859999999999353), (8.539419299017453e-28, 3.5527136788004694e-14),8.881784197001252e-15
(2.0000000000000027, 8.859999999999353), (8.578862344278503e-28, 3.5527136788004694e-14),8.881784197001252e-15
(3.0000000000000027, 8.859999999999353), (8.519697776386927e-28, 3.5527136788004694e-14),8.881784197001252e-15
(-3.0, 9.859999999999353), (0, 0),0
(-2.0, 9.859999999999353), (0, 0),0
(-1.0, 9.859999999999353), (0, 0),0
(0.0, 9.859999999999353), (0, 0),0
(1.0, 9.859999999999353), (0, 0),0
(2.0, 9.859999999999353), (0, 0),0
(3.0, 9.859999999999353), (0, 0),0
(-3.0, 10.859999999999353), (0, 0),0
(-2.0, 10.859999999999353), (0, 0),0
(-1.0, 10.859999999999353), (0, 0),0
(0.0, 10.859999999999353), (0, 0),0
(1.0, 10.859999999999353), (0, 0),0
(2.0, 10.859999999999353), (0, 0),0
(3.0, 10.859999999999353), (0, 0),0
(-3.0, 11.859999999999353), (0, 0),0
(-2.0, 11.859999999999353), (0, 0),0
(-1.0, 11.859999999999353), (0, 0),0
(0.0, 11.859999999999353), (0, 0),0
(1.0, 11.859999999999353), (0, 0),0
(2.0, 11.859999999999353), (0, 0),0
(3.0, 11.859999999999353), (0, 0),0
(-3.0, 12.859999999999708), (0, 0),0
(-2.0, 12.859999999999708), (0, 0),0
(-1.0, 12.859999999999708), (0, 0),0
(0.0, 12.859999999999708), (0, 0),0
(1.0, 12.859999999999708), (0, 0),0
(2.0, 12.859999999999708), (0, 0),0
(3.0, 12.859999999999708), (0, 0),0
(-3.0, 13.860000000000063), (0, 0),0
(-2.0, 13.860000000000063), (0, 0),0
(-1.0, 13.860000000000063), (0, 0),0
(0.0, 13.860000000000063), (0, 0),0
(1.0, 13.860000000000063), (0, 0),0
(2.0, 13.860000000000063), (0, 0),0
(3.0, 13.860000000000063), (0, 0),0
(-3.0, 14.860000000000419), (0, 0),0
(-2.0, 14.860000000000419), (0, 0),0
(-1.0, 14.860000000000419), (0, 0),0
(0.0, 14.860000000000419), (0, 0),0
(1.0, 14.860000000000419), (0, 0),0
(2.0, 14.860000000000419), (0, 0),0
(3.0, 14.860000000000419), (0, 0),0
