(-3.0000000000000027, 7.944999999999531), (0.0, -3.5527136788004694e-14),8.881784197001252e-15
(-2.0000000000000027, 7.944999999999531), (0.0, -3.5527136788004694e-14),8.881784197001252e-15
(-1.000000000000002, 7.944999999999531), (0.0, -3.5527136788004694e-14),8.881784197001252e-15
(-1.5712986467519841e-15, 7.944999999999531), (0.0, -3.5527136788004694e-14),8.881784197001252e-15
(0.9999999999999987, 7.944999999999531), (0.0, -3.5527136788004694e-14),8.881784197001252e-15
(1.9999999999999991, 7.944999999999531), (0.0, -3.5527136788004694e-14),8.881784197001252e-15
(2.999999999999999, 7.944999999999531), (0.0, -3.5527136788004694e-14),8.881784197001252e-15
(-3.0000000000000027, 8.944999999999522), (0.0, 3.5527136788004694e-14),8.881784197001252e-15
(-2.0000000000000027, 8.944999999999522), (0.0, 3.5527136788004694e-14),8.881784197001252e-15
(-1.000000000000002, 8.944999999999522), (0.0, 3.5527136788004694e-14),8.881784197001252e-15
(-1.5712986467519841e-15, 8.944999999999522), (0.0, 3.5527136788004694e-14),8.881784197001252e-15
(0.9999999999999987, 8.944999999999522), (0.0, 3.5527136788004694e-14),8.881784197001252e-15
(1.9999999999999991, 8.944999999999522), (0.0, 3.5527136788004694e-14),8.881784197001252e-15
(2.999999999999999, 8.944999999999522), (0.0, 3.5527136788004694e-14),8.881784197001252e-15
(-3.0, 9.944999999999522), (0, 0),0
(-2.0, 9.944999999999522), (0, 0),0
(-1.0, 9.944999999999522), (0, 0),0
(0.0, 9.944999999999522), (0, 0),0
(1.0, 9.944999999999522), (0, 0),0
(2.0, 9.944999999999522), (0, 0),0
(3.0, 9.944999999999522), (0, 0),0
(-3.0, 10.944999999999522), (0, 0),0
(-2.0, 10.944999999999522), (0, 0),0
(-1.0, 10.944999999999522), (0, 0),0
(0.0, 10.944999999999522), (0, 0),0
(1.0, 10.944999999999522), (0, 0),0
(2.0, 10.944999999999522), (0, 0),0
(3.0, 10.944999999999522), (0, 0),0
(-3.0, 11.944999999999522), (0, 0),0
(-2.0, 11.944999999999522), (0, 0),0
(-1.0, 11.944999999999522), (0, 0),0
(0.0, 11.944999999999522), (0, 0),0
(1.0, 11.944999999999522), (0, 0),0
(2.0, 11.944999999999522), (0, 0),0
(3.0, 11.944999999999522), (0, 0),0
(-3.0, 12.944999999999522), (0, 0),0
(-2.0, 12.944999999999522), (0, 0),0
(-1.0, 12.944999999999522), (0, 0),0
(0.0, 12.944999999999522), (0, 0),0
(1.0, 12.944999999999522), (0, 0),0
(2.0, 12.944999999999522), (0, 0),0
(3.0, 12.944999999999522), (0, 0),0
(-3.0, 13.944999999999878), (0, 0),0
(-2.0, 13.944999999999878), (0, 0),0
(-1.0, 13.944999999999878), (0, 0),0
(0.0, 13.944999999999878), (0, 0),0
(1.0, 13.944999999999878), (0, 0),0
(2.0, 13.944999999999878), (0, 0),0
(3.0, 13.944999999999878), (0, 0),0
(-3.0, 14.945000000000233), (0, 0),0
(-2.0, 14.945000000000233), (0, 0),0
(-1.0, 14.945000000000233), (0, 0),0
(0.0, 14.945000000000233), (0, 0),0
(1.0, 14.945000000000233), (0, 0),0
(2.0, 14.945000000000233), (0, 0),0
(3.0, 14.945000000000233), (0, 0),0
(-3.0, 15.945000000000588), (0, 0),0
(-2.0, 15.945000000000588), (0, 0),0
(-1.0, 15.945000000000588), (0, 0),0
(0.0, 15.945000000000588), (0, 0),0
(1.0, 15.945000000000588), (0, 0),0
(2.0, 15.945000000000588), (0, 0),0
(3.0, 15.945000000000588), (0, 0),0
