(-1.4278817359547742, 4.3048384778424005), (0, 0),0
(-1.9906764032898947, 5.844119716732128), (-0.004337782242471367, -0.001030106889870613),0.004364468565084878
(-0.9967908527848452, 5.903125004232153), (-0.0007547036990506861, 0.0005225988992348773),0.009484752106631023
(-0.002219770890364386, 5.927904295579878), (0.0008119024513691805, 0.0008907714960686642),0.009420430524891499
(0.9932307350415834, 5.905622295283299), (0.0004930844643885515, 0.0004792318767186483),0.008108280702535331
(1.9878121507829285, 5.849000374563625), (0.003787499025764321, -0.0008624953821515768),0.0038081337191899767
(1.4254960910340317, 4.3068822098801345), (0, 0),0
(-3.0000000000001497, 7.264999999999269), (-1.798602863903907e-27, -3.5527136788004694e-14),8.881784197001252e-15
(-2.000000000000149, 7.264999999999269), (-1.8005750161669594e-27, -3.5527136788004694e-14),8.881784197001252e-15
(-1.0000000000001483, 7.264999999999269), (-1.795644635509328e-27, -3.5527136788004694e-14),8.881784197001252e-15
(-1.477210576084076e-13, 7.264999999999269), (-1.7921489956230678e-27, -3.5527136788004694e-14),8.881784197001252e-15
(0.9999999999998526, 7.264999999999269), (-1.7926864071147493e-27, -3.5527136788004694e-14),8.881784197001252e-15
(1.9999999999998532, 7.264999999999269), (-1.7966307116408544e-27, -3.5527136788004694e-14),8.881784197001252e-15
(2.999999999999854, 7.264999999999269), (-1.7907142548516968e-27, -3.5527136788004694e-14),8.881784197001252e-15
(-2.999999999999947, 8.26499999999926), (1.798602863903907e-27, 3.5527136788004694e-14),8.881784197001252e-15
(-1.9999999999999465, 8.26499999999926), (1.8005750161669594e-27, 3.5527136788004694e-14),8.881784197001252e-15
(-0.9999999999999462, 8.26499999999926), (1.795644635509328e-27, 3.5527136788004694e-14),8.881784197001252e-15
(5.405698111360384e-14, 8.26499999999926), (1.7921489956230678e-27, 3.5527136788004694e-14),8.881784197001252e-15
(1.0000000000000544, 8.26499999999926), (1.7926864071147493e-27, 3.5527136788004694e-14),8.881784197001252e-15
(2.0000000000000555, 8.26499999999926), (1.7966307116408544e-27, 3.5527136788004694e-14),8.881784197001252e-15
(3.0000000000000555, 8.26499999999926), (1.7907142548516968e-27, 3.5527136788004694e-14),8.881784197001252e-15
(-3.0, 9.26499999999926), (0, 0),0
(-2.0, 9.26499999999926), (0, 0),0
(-1.0, 9.26499999999926), (0, 0),0
(0.0, 9.26499999999926), (0, 0),0
(1.0, 9.26499999999926), (0, 0),0
(2.0, 9.26499999999926), (0, 0),0
(3.0, 9.26499999999926), (0, 0),0
(-3.0, 10.26499999999926), (0, 0),0
(-2.0, 10.26499999999926), (0, 0),0
(-1.0, 10.26499999999926), (0, 0),0
(0.0, 10.26499999999926), (0, 0),0
(1.0, 10.26499999999926), (0, 0),0
(2.0, 10.26499999999926), (0, 0),0
(3.0, 10.26499999999926), (0, 0),0
(-3.0, 11.26499999999926), (0, 0),0
(-2.0, 11.26499999999926), (0, 0),0
(-1.0, 11.26499999999926), (0, 0),0
(0.0, 11.26499999999926), (0, 0),0
(1.0, 11.26499999999926), (0, 0),0
(2.0, 11.26499999999926), (0, 0),0
(3.0, 11.26499999999926), (0, 0),0
(-3.0, 12.264999999999615), (0, 0),0
(-2.0, 12.264999999999615), (0, 0),0
(-1.0, 12.264999999999615), (0, 0),0
(0.0, 12.264999999999615), (0, 0),0
(1.0, 12.264999999999615), (0, 0),0
(2.0, 12.264999999999615), (0, 0),0
(3.0, 12.264999999999615), (0, 0),0
(-3.0, 13.26499999999997), (0, 0),0
(-2.0, 13.26499999999997), (0, 0),0
(-1.0, 13.26499999999997), (0, 0),0
(0.0, 13.26499999999997), (0, 0),0
(1.0, 13.26499999999997), (0, 0),0
(2.0, 13.26499999999997), (0, 0),0
(3.0, 13.26499999999997), (0, 0),0
(-3.0, 14.265000000000326), (0, 0),0
(-2.0, 14.265000000000326), (0, 0),0
(-1.0, 14.265000000000326), (0, 0),0
(0.0, 14.265000000000326), (0, 0),0
(1.0, 14.265000000000326), (0, 0),0
(2.0, 14.265000000000326), (0, 0),0
(3.0, 14.265000000000326), (0, 0),0
