(-3.0, 8.474999999999605), (0, 0),0
(-2.0, 8.474999999999605), (0, 0),0
(-1.0, 8.474999999999605), (0, 0),0
(0.0, 8.474999999999605), (0, 0),0
(1.0, 8.474999999999605), (0, 0),0
(2.0, 8.474999999999605), (0, 0),0
(3.0, 8.474999999999605), (0, 0),0
(-3.0, 9.474999999999605), (0, 0),0
(-2.0, 9.474999999999605), (0, 0),0
(-1.0, 9.474999999999605), (0, 0),0
(0.0, 9.474999999999605), (0, 0),0
(1.0, 9.474999999999605), (0, 0),0
(2.0, 9.474999999999605), (0, 0),0
(3.0, 9.474999999999605), (0, 0),0
(-3.0, 10.474999999999605), (0, 0),0
(-2.0, 10.474999999999605), (0, 0),0
(-1.0, 10.474999999999605), (0, 0),0
(0.0, 10.474999999999605), (0, 0),0
(1.0, 10.474999999999605), (0, 0),0
(2.0, 10.474999999999605), (0, 0),0
(3.0, 10.474999999999605), (0, 0),0
(-3.0, 11.474999999999605), (0, 0),0
(-2.0, 11.474999999999605), (0, 0),0
(-1.0, 11.474999999999605), (0, 0),0
(0.0, 11.474999999999605), (0, 0),0
(1.0, 11.474999999999605), (0, 0),0
(2.0, 11.474999999999605), (0, 0),0
(3.0, 11.474999999999605), (0, 0),0
(-3.0, 12.474999999999605), (0, 0),0
(-2.0, 12.474999999999605), (0, 0),0
(-1.0, 12.474999999999605), (0, 0),0
(0.0, 12.474999999999605), (0, 0),0
(1.0, 12.474999999999605), (0, 0),0
(2.0, 12.474999999999605), (0, 0),0
(3.0, 12.474999999999605), (0, 0),0
(-3.0, 13.474999999999605), (0, 0),0
(-2.0, 13.474999999999605), (0, 0),0
(-1.0, 13.474999999999605), (0, 0),0
(0.0, 13.474999999999605), (0, 0),0
(1.0, 13.474999999999605), (0, 0),0
(2.0, 13.474999999999605), (0, 0),0
(3.0, 13.474999999999605), (0, 0),0
(-3.0, 14.47499999999996), (0, 0),0
(-2.0, 14.47499999999996), (0, 0),0
(-1.0, 14.47499999999996), (0, 0),0
(0.0, 14.47499999999996), (0, 0),0
(1.0, 14.47499999999996), (0, 0),0
(2.0, 14.47499999999996), (0, 0),0
(3.0, 14.47499999999996), (0, 0),0
(-3.0, 15.475000000000316), (0, 0),0
(-2.0, 15.475000000000316), (0, 0),0
(-1.0, 15.475000000000316), (0, 0),0
(0.0, 15.475000000000316), (0, 0),0
(1.0, 15.475000000000316), (0, 0),0
(2.0, 15.475000000000316), (0, 0),0
(3.0, 15.475000000000316), (0, 0),0
(-3.0, 16.475000000000502), (0, 0),0
(-2.0, 16.475000000000502), (0, 0),0
(-1.0, 16.475000000000502), (0, 0),0
(0.0, 16.475000000000502), (0, 0),0
(1.0, 16.475000000000502), (0, 0),0
(2.0, 16.475000000000502), (0, 0),0
(3.0, 16.475000000000502), (0, 0),0
