(-3.0, 8.294999999999577), (0, 0),0
(-2.0, 8.294999999999577), (0, 0),0
(-1.0, 8.294999999999577), (0, 0),0
(0.0, 8.294999999999577), (0, 0),0
(1.0, 8.294999999999577), (0, 0),0
(2.0, 8.294999999999577), (0, 0),0
(3.0, 8.294999999999577), (0, 0),0
(-3.0, 9.294999999999577), (0, 0),0
(-2.0, 9.294999999999577), (0, 0),0
(-1.0, 9.294999999999577), (0, 0),0
(0.0, 9.294999999999577), (0, 0),0
(1.0, 9.294999999999577), (0, 0),0
(2.0, 9.294999999999577), (0, 0),0
(3.0, 9.294999999999577), (0, 0),0
(-3.0, 10.294999999999577), (0, 0),0
(-2.0, 10.294999999999577), (0, 0),0
(-1.0, 10.294999999999577), (0, 0),0
(0.0, 10.294999999999577), (0, 0),0
(1.0, 10.294999999999577), (0, 0),0
(2.0, 10.294999999999577), (0, 0),0
(3.0, 10.294999999999577), (0, 0),0
(-3.0, 11.294999999999577), (0, 0),0
(-2.0, 11.294999999999577), (0, 0),0
(-1.0, 11.294999999999577), (0, 0),0
(0.0, 11.294999999999577), (0, 0),0
(1.0, 11.294999999999577), (0, 0),0
(2.0, 11.294999999999577), (0, 0),0
(3.0, 11.294999999999577), (0, 0),0
(-3.0, 12.294999999999577), (0, 0),0
(-2.0, 12.294999999999577), (0, 0),0
(-1.0, 12.294999999999577), (0, 0),0
(0.0, 12.294999999999577), (0, 0),0
(1.0, 12.294999999999577), (0, 0),0
(2.0, 12.294999999999577), (0, 0),0
(3.0, 12.294999999999577), (0, 0),0
(-3.0, 13.294999999999577), (0, 0),0
(-2.0, 13.294999999999577), (0, 0),0
(-1.0, 13.294999999999577), (0, 0),0
(0.0, 13.294999999999577), (0, 0),0
(1.0, 13.294999999999577), (0, 0),0
(2.0, 13.294999999999577), (0, 0),0
(3.0, 13.294999999999577), (0, 0),0
(-3.0, 14.294999999999932), (0, 0),0
(-2.0, 14.294999999999932), (0, 0),0
(-1.0, 14.294999999999932), (0, 0),0
(0.0, 14.294999999999932), (0, 0),0
(1.0, 14.294999999999932), (0, 0),0
(2.0, 14.294999999999932), (0, 0),0
(3.0, 14.294999999999932), (0, 0),0
(-3.0, 15.295000000000288), (0, 0),0
(-2.0, 15.295000000000288), (0, 0),0
(-1.0, 15.295000000000288), (0, 0),0
(0.0, 15.295000000000288), (0, 0),0
(1.0, 15.295000000000288), (0, 0),0
(2.0, 15.295000000000288), (0, 0),0
(3.0, 15.295000000000288), (0, 0),0
(-3.0, 16.295000000000538), (0, 0),0
(-2.0, 16.295000000000538), (0, 0),0
(-1.0, 16.295000000000538), (0, 0),0
(0.0, 16.295000000000538), (0, 0),0
(1.0, 16.295000000000538), (0, 0),0
(2.0, 16.295000000000538), (0, 0),0
(3.0, 16.295000000000538), (0, 0),0
