(-1.4278817359547742, 4.274838477842401), (0, 0),0
(-1.9919347272748387, 5.812880155487492), (-0.004063009937773698, -0.0009420577739707294),0.004086529796869853
(-0.9976901873510554, 5.870512047385865), (-8.582512843487503e-05, 0.0005286911018397183),0.008254019683535008
(-0.002166459870941124, 5.895309148481039), (0.0006532043293581758, 0.0007228515195133769),0.007676288441229473
(0.9940807405570253, 5.873258520426332), (-4.1148856180010535e-05, 0.00047845431464167573),0.0070636968430308755
(1.9889839152849964, 5.817846304795549), (0.003536779593030408, -0.0007879391620240415),0.003554898288466557
(1.4254960910340317, 4.276882209880135), (0, 0),0
(-3.0000000000001523, 7.234999999999264), (-1.8459345182171676e-27, -3.5527136788004694e-14),8.881784197001252e-15
(-2.000000000000152, 7.234999999999264), (-1.84790667048022e-27, -3.5527136788004694e-14),8.881784197001252e-15
(-1.000000000000151, 7.234999999999264), (-1.842976289822589e-27, -3.5527136788004694e-14),8.881784197001252e-15
(-1.5038559286750798e-13, 7.234999999999264), (-1.8394806499363285e-27, -3.5527136788004694e-14),8.881784197001252e-15
(0.9999999999998499, 7.234999999999264), (-1.84001806142801e-27, -3.5527136788004694e-14),8.881784197001252e-15
(1.9999999999998506, 7.234999999999264), (-1.843962365954115e-27, -3.5527136788004694e-14),8.881784197001252e-15
(2.9999999999998512, 7.234999999999264), (-1.8380459091649575e-27, -3.5527136788004694e-14),8.881784197001252e-15
(-2.9999999999999445, 8.234999999999255), (1.8459345182171676e-27, 3.5527136788004694e-14),8.881784197001252e-15
(-1.9999999999999438, 8.234999999999255), (1.84790667048022e-27, 3.5527136788004694e-14),8.881784197001252e-15
(-0.9999999999999435, 8.234999999999255), (1.842976289822589e-27, 3.5527136788004694e-14),8.881784197001252e-15
(5.6721516372704215e-14, 8.234999999999255), (1.8394806499363285e-27, 3.5527136788004694e-14),8.881784197001252e-15
(1.000000000000057, 8.234999999999255), (1.84001806142801e-27, 3.5527136788004694e-14),8.881784197001252e-15
(2.000000000000058, 8.234999999999255), (1.843962365954115e-27, 3.5527136788004694e-14),8.881784197001252e-15
(3.000000000000058, 8.234999999999255), (1.8380459091649575e-27, 3.5527136788004694e-14),8.881784197001252e-15
(-3.0, 9.234999999999255), (0, 0),0
(-2.0, 9.234999999999255), (0, 0),0
(-1.0, 9.234999999999255), (0, 0),0
(0.0, 9.234999999999255), (0, 0),0
(1.0, 9.234999999999255), (0, 0),0
(2.0, 9.234999999999255), (0, 0),0
(3.0, 9.234999999999255), (0, 0),0
(-3.0, 10.234999999999255), (0, 0),0
(-2.0, 10.234999999999255), (0, 0),0
(-1.0, 10.234999999999255), (0, 0),0
(0.0, 10.234999999999255), (0, 0),0
(1.0, 10.234999999999255), (0, 0),0
(2.0, 10.234999999999255), (0, 0),0
(3.0, 10.234999999999255), (0, 0),0
(-3.0, 11.234999999999255), (0, 0),0
(-2.0, 11.234999999999255), (0, 0),0
(-1.0, 11.234999999999255), (0, 0),0
(0.0, 11.234999999999255), (0, 0),0
(1.0, 11.234999999999255), (0, 0),0
(2.0, 11.234999999999255), (0, 0),0
(3.0, 11.234999999999255), (0, 0),0
(-3.0, 12.23499999999961), (0, 0),0
(-2.0, 12.23499999999961), (0, 0),0
(-1.0, 12.23499999999961), (0, 0),0
(0.0, 12.23499999999961), (0, 0),0
(1.0, 12.23499999999961), (0, 0),0
(2.0, 12.23499999999961), (0, 0),0
(3.0, 12.23499999999961), (0, 0),0
(-3.0, 13.234999999999966), (0, 0),0
(-2.0, 13.234999999999966), (0, 0),0
(-1.0, 13.234999999999966), (0, 0),0
(0.0, 13.234999999999966), (0, 0),0
(1.0, 13.234999999999966), (0, 0),0
(2.0, 13.234999999999966), (0, 0),0
(3.0, 13.234999999999966), (0, 0),0
(-3.0, 14.235000000000321), (0, 0),0
(-2.0, 14.235000000000321), (0, 0),0
(-1.0, 14.235000000000321), (0, 0),0
(0.0, 14.235000000000321), (0, 0),0
(1.0, 14.235000000000321), (0, 0),0
(2.0, 14.235000000000321), (0, 0),0
(3.0, 14.235000000000321), (0, 0),0
