(-3.0000000000000835, 7.034999999999389), (0.0, -3.5527136788004694e-14),8.881784197001252e-15
(-2.0000000000000835, 7.034999999999389), (0.0, -3.5527136788004694e-14),8.881784197001252e-15
(-1.0000000000000828, 7.034999999999389), (0.0, -3.5527136788004694e-14),8.881784197001252e-15
(-8.239553483946338e-14, 7.034999999999389), (0.0, -3.5527136788004694e-14),8.881784197001252e-15
(0.9999999999999178, 7.034999999999389), (0.0, -3.5527136788004694e-14),8.881784197001252e-15
(1.9999999999999183, 7.034999999999389), (0.0, -3.5527136788004694e-14),8.881784197001252e-15
(2.9999999999999183, 7.034999999999389), (0.0, -3.5527136788004694e-14),8.881784197001252e-15
(-3.0000000000000835, 8.03499999999938), (0.0, 3.5527136788004694e-14),8.881784197001252e-15
(-2.0000000000000835, 8.03499999999938), (0.0, 3.5527136788004694e-14),8.881784197001252e-15
(-1.0000000000000828, 8.03499999999938), (0.0, 3.5527136788004694e-14),8.881784197001252e-15
(-8.239553483946338e-14, 8.03499999999938), (0.0, 3.5527136788004694e-14),8.881784197001252e-15
(0.9999999999999178, 8.03499999999938), (0.0, 3.5527136788004694e-14),8.881784197001252e-15
(1.9999999999999183, 8.03499999999938), (0.0, 3.5527136788004694e-14),8.881784197001252e-15
(2.9999999999999183, 8.03499999999938), (0.0, 3.5527136788004694e-14),8.881784197001252e-15
(-3.0, 9.03499999999938), (0, 0),0
(-2.0, 9.03499999999938), (0, 0),0
(-1.0, 9.03499999999938), (0, 0),0
(0.0, 9.03499999999938), (0, 0),0
(1.0, 9.03499999999938), (0, 0),0
(2.0, 9.03499999999938), (0, 0),0
(3.0, 9.03499999999938), (0, 0),0
(-3.0, 10.03499999999938), (0, 0),0
(-2.0, 10.03499999999938), (0, 0),0
(-1.0, 10.03499999999938), (0, 0),0
(0.0, 10.03499999999938), (0, 0),0
(1.0, 10.03499999999938), (0, 0),0
(2.0, 10.03499999999938), (0, 0),0
(3.0, 10.03499999999938), (0, 0),0
(-3.0, 11.03499999999938), (0, 0),0
(-2.0, 11.03499999999938), (0, 0),0
(-1.0, 11.03499999999938), (0, 0),0
(0.0, 11.03499999999938), (0, 0),0
(1.0, 11.03499999999938), (0, 0),0
(2.0, 11.03499999999938), (0, 0),0
(3.0, 11.03499999999938), (0, 0),0
(-3.0, 12.03499999999938), (0, 0),0
(-2.0, 12.03499999999938), (0, 0),0
(-1.0, 12.03499999999938), (0, 0),0
(0.0, 12.03499999999938), (0, 0),0
(1.0, 12.03499999999938), (0, 0),0
(2.0, 12.03499999999938), (0, 0),0
(3.0, 12.03499999999938), (0, 0),0
(-3.0, 13.034999999999735), (0, 0),0
(-2.0, 13.034999999999735), (0, 0),0
(-1.0, 13.034999999999735), (0, 0),0
(0.0, 13.034999999999735), (0, 0),0
(1.0, 13.034999999999735), (0, 0),0
(2.0, 13.034999999999735), (0, 0),0
(3.0, 13.034999999999735), (0, 0),0
(-3.0, 14.03500000000009), (0, 0),0
(-2.0, 14.03500000000009), (0, 0),0
(-1.0, 14.03500000000009), (0, 0),0
(0.0, 14.03500000000009), (0, 0),0
(1.0, 14.03500000000009), (0, 0),0
(2.0, 14.03500000000009), (0, 0),0
(3.0, 14.03500000000009), (0, 0),0
(-3.0, 15.035000000000446), (0, 0),0
(-2.0, 15.035000000000446), (0, 0),0
(-1.0, 15.035000000000446), (0, 0),0
(0.0, 15.035000000000446), (0, 0),0
(1.0, 15.035000000000446), (0, 0),0
(2.0, 15.035000000000446), (0, 0),0
(3.0, 15.035000000000446), (0, 0),0
