(-1.2076253850086647, 3.915497190405755), (0, 0),0
(-1.9961811748689275, 5.663698084193822), (-0.0021259634248262664, -0.0004550479904421166),0.0021335570623975952
(-0.9997403192223462, 5.717018428709327), (0.00033510533107884363, 0.00027572428497090525),0.003928196931515027
(-0.0018475806484887162, 5.741998886983582), (-0.00012460725494504825, 0.0003441394590592274),0.003714233177892101
(0.996001984640508, 5.720533955735564), (5.2731992146617555e-05, 0.00021977445166652674),0.0037882984679612486
(1.9928062945064235, 5.66908252647131), (0.0018627333565458535, -0.00038459020525454283),0.0018687051591865789
(1.2052397400879222, 3.917540922443489), (0, 0),0
(-3.000000000000165, 7.089999999999241), (-2.074704180731261e-27, -3.5527136788004694e-14),8.881784197001252e-15
(-2.0000000000001648, 7.089999999999241), (-2.0766763329943136e-27, -3.5527136788004694e-14),8.881784197001252e-15
(-1.0000000000001639, 7.089999999999241), (-2.0717459523366823e-27, -3.5527136788004694e-14),8.881784197001252e-15
(-1.632641799531598e-13, 7.089999999999241), (-2.068250312450422e-27, -3.5527136788004694e-14),8.881784197001252e-15
(0.999999999999837, 7.089999999999241), (-2.0687877239421035e-27, -3.5527136788004694e-14),8.881784197001252e-15
(1.9999999999998377, 7.089999999999241), (-2.0727320284682085e-27, -3.5527136788004694e-14),8.881784197001252e-15
(2.9999999999998384, 7.089999999999241), (-2.066815571679051e-27, -3.5527136788004694e-14),8.881784197001252e-15
(-2.9999999999999316, 8.089999999999232), (2.074704180731261e-27, 3.5527136788004694e-14),8.881784197001252e-15
(-1.999999999999931, 8.089999999999232), (2.0766763329943136e-27, 3.5527136788004694e-14),8.881784197001252e-15
(-0.9999999999999306, 8.089999999999232), (2.0717459523366823e-27, 3.5527136788004694e-14),8.881784197001252e-15
(6.960010345835603e-14, 8.089999999999232), (2.068250312450422e-27, 3.5527136788004694e-14),8.881784197001252e-15
(1.00000000000007, 8.089999999999232), (2.0687877239421035e-27, 3.5527136788004694e-14),8.881784197001252e-15
(2.000000000000071, 8.089999999999232), (2.0727320284682085e-27, 3.5527136788004694e-14),8.881784197001252e-15
(3.000000000000071, 8.089999999999232), (2.066815571679051e-27, 3.5527136788004694e-14),8.881784197001252e-15
(-3.0, 9.089999999999232), (0, 0),0
(-2.0, 9.089999999999232), (0, 0),0
(-1.0, 9.089999999999232), (0, 0),0
(0.0, 9.089999999999232), (0, 0),0
(1.0, 9.089999999999232), (0, 0),0
(2.0, 9.089999999999232), (0, 0),0
(3.0, 9.089999999999232), (0, 0),0
(-3.0, 10.089999999999232), (0, 0),0
(-2.0, 10.089999999999232), (0, 0),0
(-1.0, 10.089999999999232), (0, 0),0
(0.0, 10.089999999999232), (0, 0),0
(1.0, 10.089999999999232), (0, 0),0
(2.0, 10.089999999999232), (0, 0),0
(3.0, 10.089999999999232), (0, 0),0
(-3.0, 11.089999999999232), (0, 0),0
(-2.0, 11.089999999999232), (0, 0),0
(-1.0, 11.089999999999232), (0, 0),0
(0.0, 11.089999999999232), (0, 0),0
(1.0, 11.089999999999232), (0, 0),0
(2.0, 11.089999999999232), (0, 0),0
(3.0, 11.089999999999232), (0, 0),0
(-3.0, 12.089999999999588), (0, 0),0
(-2.0, 12.089999999999588), (0, 0),0
(-1.0, 12.089999999999588), (0, 0),0
(0.0, 12.089999999999588), (0, 0),0
(1.0, 12.089999999999588), (0, 0),0
(2.0, 12.089999999999588), (0, 0),0
(3.0, 12.089999999999588), (0, 0),0
(-3.0, 13.089999999999943), (0, 0),0
(-2.0, 13.089999999999943), (0, 0),0
(-1.0, 13.089999999999943), (0, 0),0
(0.0, 13.089999999999943), (0, 0),0
(1.0, 13.089999999999943), (0, 0),0
(2.0, 13.089999999999943), (0, 0),0
(3.0, 13.089999999999943), (0, 0),0
(-3.0, 14.090000000000298), (0, 0),0
(-2.0, 14.090000000000298), (0, 0),0
(-1.0, 14.090000000000298), (0, 0),0
(0.0, 14.090000000000298), (0, 0),0
(1.0, 14.090000000000298), (0, 0),0
(2.0, 14.090000000000298), (0, 0),0
(3.0, 14.090000000000298), (0, 0),0
