(-3.0, 8.484999999999607), (0, 0),0
(-2.0, 8.484999999999607), (0, 0),0
(-1.0, 8.484999999999607), (0, 0),0
(0.0, 8.484999999999607), (0, 0),0
(1.0, 8.484999999999607), (0, 0),0
(2.0, 8.484999999999607), (0, 0),0
(3.0, 8.484999999999607), (0, 0),0
(-3.0, 9.484999999999607), (0, 0),0
(-2.0, 9.484999999999607), (0, 0),0
(-1.0, 9.484999999999607), (0, 0),0
(0.0, 9.484999999999607), (0, 0),0
(1.0, 9.484999999999607), (0, 0),0
(2.0, 9.484999999999607), (0, 0),0
(3.0, 9.484999999999607), (0, 0),0
(-3.0, 10.484999999999607), (0, 0),0
(-2.0, 10.484999999999607), (0, 0),0
(-1.0, 10.484999999999607), (0, 0),0
(0.0, 10.484999999999607), (0, 0),0
(1.0, 10.484999999999607), (0, 0),0
(2.0, 10.484999999999607), (0, 0),0
(3.0, 10.484999999999607), (0, 0),0
(-3.0, 11.484999999999607), (0, 0),0
(-2.0, 11.484999999999607), (0, 0),0
(-1.0, 11.484999999999607), (0, 0),0
(0.0, 11.484999999999607), (0, 0),0
(1.0, 11.484999999999607), (0, 0),0
(2.0, 11.484999999999607), (0, 0),0
(3.0, 11.484999999999607), (0, 0),0
(-3.0, 12.484999999999607), (0, 0),0
(-2.0, 12.484999999999607), (0, 0),0
(-1.0, 12.484999999999607), (0, 0),0
(0.0, 12.484999999999607), (0, 0),0
(1.0, 12.484999999999607), (0, 0),0
(2.0, 12.484999999999607), (0, 0),0
(3.0, 12.484999999999607), (0, 0),0
(-3.0, 13.484999999999607), (0, 0),0
(-2.0, 13.484999999999607), (0, 0),0
(-1.0, 13.484999999999607), (0, 0),0
(0.0, 13.484999999999607), (0, 0),0
(1.0, 13.484999999999607), (0, 0),0
(2.0, 13.484999999999607), (0, 0),0
(3.0, 13.484999999999607), (0, 0),0
(-3.0, 14.484999999999962), (0, 0),0
(-2.0, 14.484999999999962), (0, 0),0
(-1.0, 14.484999999999962), (0, 0),0
(0.0, 14.484999999999962), (0, 0),0
(1.0, 14.484999999999962), (0, 0),0
(2.0, 14.484999999999962), (0, 0),0
(3.0, 14.484999999999962), (0, 0),0
(-3.0, 15.485000000000317), (0, 0),0
(-2.0, 15.485000000000317), (0, 0),0
(-1.0, 15.485000000000317), (0, 0),0
(0.0, 15.485000000000317), (0, 0),0
(1.0, 15.485000000000317), (0, 0),0
(2.0, 15.485000000000317), (0, 0),0
(3.0, 15.485000000000317), (0, 0),0
(-3.0, 16.4850000000005), (0, 0),0
(-2.0, 16.4850000000005), (0, 0),0
(-1.0, 16.4850000000005), (0, 0),0
(0.0, 16.4850000000005), (0, 0),0
(1.0, 16.4850000000005), (0, 0),0
(2.0, 16.4850000000005), (0, 0),0
(3.0, 16.4850000000005), (0, 0),0
