(-3.000000000000075, 7.129999999999404), (0.0, -3.5527136788004694e-14),8.881784197001252e-15
(-2.000000000000075, 7.129999999999404), (0.0, -3.5527136788004694e-14),8.881784197001252e-15
(-1.0000000000000744, 7.129999999999404), (0.0, -3.5527136788004694e-14),8.881784197001252e-15
(-7.395783985231219e-14, 7.129999999999404), (0.0, -3.5527136788004694e-14),8.881784197001252e-15
(0.9999999999999263, 7.129999999999404), (0.0, -3.5527136788004694e-14),8.881784197001252e-15
(1.9999999999999267, 7.129999999999404), (0.0, -3.5527136788004694e-14),8.881784197001252e-15
(2.9999999999999267, 7.129999999999404), (0.0, -3.5527136788004694e-14),8.881784197001252e-15
(-3.000000000000075, 8.129999999999395), (0.0, 3.5527136788004694e-14),8.881784197001252e-15
(-2.000000000000075, 8.129999999999395), (0.0, 3.5527136788004694e-14),8.881784197001252e-15
(-1.0000000000000744, 8.129999999999395), (0.0, 3.5527136788004694e-14),8.881784197001252e-15
(-7.395783985231219e-14, 8.129999999999395), (0.0, 3.5527136788004694e-14),8.881784197001252e-15
(0.9999999999999263, 8.129999999999395), (0.0, 3.5527136788004694e-14),8.881784197001252e-15
(1.9999999999999267, 8.129999999999395), (0.0, 3.5527136788004694e-14),8.881784197001252e-15
(2.9999999999999267, 8.129999999999395), (0.0, 3.5527136788004694e-14),8.881784197001252e-15
(-3.0, 9.129999999999395), (0, 0),0
(-2.0, 9.129999999999395), (0, 0),0
(-1.0, 9.129999999999395), (0, 0),0
(0.0, 9.129999999999395), (0, 0),0
(1.0, 9.129999999999395), (0, 0),0
(2.0, 9.129999999999395), (0, 0),0
(3.0, 9.129999999999395), (0, 0),0
(-3.0, 10.129999999999395), (0, 0),0
(-2.0, 10.129999999999395), (0, 0),0
(-1.0, 10.129999999999395), (0, 0),0
(0.0, 10.129999999999395), (0, 0),0
(1.0, 10.129999999999395), (0, 0),0
(2.0, 10.129999999999395), (0, 0),0
(3.0, 10.129999999999395), (0, 0),0
(-3.0, 11.129999999999395), (0, 0),0
(-2.0, 11.129999999999395), (0, 0),0
(-1.0, 11.129999999999395), (0, 0),0
(0.0, 11.129999999999395), (0, 0),0
(1.0, 11.129999999999395), (0, 0),0
(2.0, 11.129999999999395), (0, 0),0
(3.0, 11.129999999999395), (0, 0),0
(-3.0, 12.129999999999395), (0, 0),0
(-2.0, 12.129999999999395), (0, 0),0
(-1.0, 12.129999999999395), (0, 0),0
(0.0, 12.129999999999395), (0, 0),0
(1.0, 12.129999999999395), (0, 0),0
(2.0, 12.129999999999395), (0, 0),0
(3.0, 12.129999999999395), (0, 0),0
(-3.0, 13.12999999999975), (0, 0),0
(-2.0, 13.12999999999975), (0, 0),0
(-1.0, 13.12999999999975), (0, 0),0
(0.0, 13.12999999999975), (0, 0),0
(1.0, 13.12999999999975), (0, 0),0
(2.0, 13.12999999999975), (0, 0),0
(3.0, 13.12999999999975), (0, 0),0
(-3.0, 14.130000000000106), (0, 0),0
(-2.0, 14.130000000000106), (0, 0),0
(-1.0, 14.130000000000106), (0, 0),0
(0.0, 14.130000000000106), (0, 0),0
(1.0, 14.130000000000106), (0, 0),0
(2.0, 14.130000000000106), (0, 0),0
(3.0, 14.130000000000106), (0, 0),0
(-3.0, 15.13000000000046), (0, 0),0
(-2.0, 15.13000000000046), (0, 0),0
(-1.0, 15.13000000000046), (0, 0),0
(0.0, 15.13000000000046), (0, 0),0
(1.0, 15.13000000000046), (0, 0),0
(2.0, 15.13000000000046), (0, 0),0
(3.0, 15.13000000000046), (0, 0),0
