(-3.000000000000088, 6.984999999999381), (0.0, -3.5527136788004694e-14),8.881784197001252e-15
(-2.000000000000088, 6.984999999999381), (0.0, -3.5527136788004694e-14),8.881784197001252e-15
(-1.0000000000000873, 6.984999999999381), (0.0, -3.5527136788004694e-14),8.881784197001252e-15
(-8.683642693796401e-14, 6.984999999999381), (0.0, -3.5527136788004694e-14),8.881784197001252e-15
(0.9999999999999134, 6.984999999999381), (0.0, -3.5527136788004694e-14),8.881784197001252e-15
(1.9999999999999138, 6.984999999999381), (0.0, -3.5527136788004694e-14),8.881784197001252e-15
(2.999999999999914, 6.984999999999381), (0.0, -3.5527136788004694e-14),8.881784197001252e-15
(-3.000000000000088, 7.984999999999372), (0.0, 3.5527136788004694e-14),8.881784197001252e-15
(-2.000000000000088, 7.984999999999372), (0.0, 3.5527136788004694e-14),8.881784197001252e-15
(-1.0000000000000873, 7.984999999999372), (0.0, 3.5527136788004694e-14),8.881784197001252e-15
(-8.683642693796401e-14, 7.984999999999372), (0.0, 3.5527136788004694e-14),8.881784197001252e-15
(0.9999999999999134, 7.984999999999372), (0.0, 3.5527136788004694e-14),8.881784197001252e-15
(1.9999999999999138, 7.984999999999372), (0.0, 3.5527136788004694e-14),8.881784197001252e-15
(2.999999999999914, 7.984999999999372), (0.0, 3.5527136788004694e-14),8.881784197001252e-15
(-3.0, 8.984999999999372), (0, 0),0
(-2.0, 8.984999999999372), (0, 0),0
(-1.0, 8.984999999999372), (0, 0),0
(0.0, 8.984999999999372), (0, 0),0
(1.0, 8.984999999999372), (0, 0),0
(2.0, 8.984999999999372), (0, 0),0
(3.0, 8.984999999999372), (0, 0),0
(-3.0, 9.984999999999372), (0, 0),0
(-2.0, 9.984999999999372), (0, 0),0
(-1.0, 9.984999999999372), (0, 0),0
(0.0, 9.984999999999372), (0, 0),0
(1.0, 9.984999999999372), (0, 0),0
(2.0, 9.984999999999372), (0, 0),0
(3.0, 9.984999999999372), (0, 0),0
(-3.0, 10.984999999999372), (0, 0),0
(-2.0, 10.984999999999372), (0, 0),0
(-1.0, 10.984999999999372), (0, 0),0
(0.0, 10.984999999999372), (0, 0),0
(1.0, 10.984999999999372), (0, 0),0
(2.0, 10.984999999999372), (0, 0),0
(3.0, 10.984999999999372), (0, 0),0
(-3.0, 11.984999999999372), (0, 0),0
(-2.0, 11.984999999999372), (0, 0),0
(-1.0, 11.984999999999372), (0, 0),0
(0.0, 11.984999999999372), (0, 0),0
(1.0, 11.984999999999372), (0, 0),0
(2.0, 11.984999999999372), (0, 0),0
(3.0, 11.984999999999372), (0, 0),0
(-3.0, 12.984999999999728), (0, 0),0
(-2.0, 12.984999999999728), (0, 0),0
(-1.0, 12.984999999999728), (0, 0),0
(0.0, 12.984999999999728), (0, 0),0
(1.0, 12.984999999999728), (0, 0),0
(2.0, 12.984999999999728), (0, 0),0
(3.0, 12.984999999999728), (0, 0),0
(-3.0, 13.985000000000083), (0, 0),0
(-2.0, 13.985000000000083), (0, 0),0
(-1.0, 13.985000000000083), (0, 0),0
(0.0, 13.985000000000083), (0, 0),0
(1.0, 13.985000000000083), (0, 0),0
(2.0, 13.985000000000083), (0, 0),0
(3.0, 13.985000000000083), (0, 0),0
(-3.0, 14.985000000000438), (0, 0),0
(-2.0, 14.985000000000438), (0, 0),0
(-1.0, 14.985000000000438), (0, 0),0
(0.0, 14.985000000000438), (0, 0),0
(1.0, 14.985000000000438), (0, 0),0
(2.0, 14.985000000000438), (0, 0),0
(3.0, 14.985000000000438), (0, 0),0
