(-2.0727031083288088, 5.42447461788708), (-0.003088837522787969, -0.06775295762020948),0.017524689224336476
(-1.8964467717257887, 6.391010411373808), (-0.044258941001326935, 0.04451978701207285),0.06774997724392806
(-0.9537388174051333, 6.506655196721152), (0.001005518941291271, 0.01777642086646768),0.09896298533944758
(-0.002888405275720958, 6.534645592460703), (0.0046462381238564845, 0.010125899059244159),0.09235228723769506
(0.9531224511260907, 6.507881903255033), (-0.005659798029220835, 0.018296278475942868),0.09383974305684206
(1.8959930354551449, 6.393569520125214), (0.04458299254605358, 0.0382778619085032),0.06603498345531356
(2.0713792911364446, 5.425132660324792), (0.0027728269421344073, -0.06124328970202127),0.015809830316310558
(-3.0000000000001092, 7.71999999999934), (-1.0807394401527862e-27, -3.5527136788004694e-14),8.881784197001252e-15
(-2.000000000000109, 7.71999999999934), (-1.0827115924158387e-27, -3.5527136788004694e-14),8.881784197001252e-15
(-1.000000000000108, 7.71999999999934), (-1.0777812117582074e-27, -3.5527136788004694e-14),8.881784197001252e-15
(-1.073089395120519e-13, 7.71999999999934), (-1.074285571871947e-27, -3.5527136788004694e-14),8.881784197001252e-15
(0.999999999999893, 7.71999999999934), (-1.0748229833636286e-27, -3.5527136788004694e-14),8.881784197001252e-15
(1.9999999999998936, 7.71999999999934), (-1.0787672878897336e-27, -3.5527136788004694e-14),8.881784197001252e-15
(2.9999999999998943, 7.71999999999934), (-1.072850831100576e-27, -3.5527136788004694e-14),8.881784197001252e-15
(-2.9999999999999876, 8.719999999999331), (1.0807394401527862e-27, 3.5527136788004694e-14),8.881784197001252e-15
(-1.999999999999987, 8.719999999999331), (1.0827115924158387e-27, 3.5527136788004694e-14),8.881784197001252e-15
(-0.9999999999999866, 8.719999999999331), (1.0777812117582074e-27, 3.5527136788004694e-14),8.881784197001252e-15
(1.3644863017248135e-14, 8.719999999999331), (1.074285571871947e-27, 3.5527136788004694e-14),8.881784197001252e-15
(1.000000000000014, 8.719999999999331), (1.0748229833636286e-27, 3.5527136788004694e-14),8.881784197001252e-15
(2.000000000000015, 8.719999999999331), (1.0787672878897336e-27, 3.5527136788004694e-14),8.881784197001252e-15
(3.000000000000015, 8.719999999999331), (1.072850831100576e-27, 3.5527136788004694e-14),8.881784197001252e-15
(-3.0, 9.719999999999331), (0, 0),0
(-2.0, 9.719999999999331), (0, 0),0
(-1.0, 9.719999999999331), (0, 0),0
(0.0, 9.719999999999331), (0, 0),0
(1.0, 9.719999999999331), (0, 0),0
(2.0, 9.719999999999331), (0, 0),0
(3.0, 9.719999999999331), (0, 0),0
(-3.0, 10.719999999999331), (0, 0),0
(-2.0, 10.719999999999331), (0, 0),0
(-1.0, 10.719999999999331), (0, 0),0
(0.0, 10.719999999999331), (0, 0),0
(1.0, 10.719999999999331), (0, 0),0
(2.0, 10.719999999999331), (0, 0),0
(3.0, 10.719999999999331), (0, 0),0
(-3.0, 11.719999999999331), (0, 0),0
(-2.0, 11.719999999999331), (0, 0),0
(-1.0, 11.719999999999331), (0, 0),0
(0.0, 11.719999999999331), (0, 0),0
(1.0, 11.719999999999331), (0, 0),0
(2.0, 11.719999999999331), (0, 0),0
(3.0, 11.719999999999331), (0, 0),0
(-3.0, 12.719999999999686), (0, 0),0
(-2.0, 12.719999999999686), (0, 0),0
(-1.0, 12.719999999999686), (0, 0),0
(0.0, 12.719999999999686), (0, 0),0
(1.0, 12.719999999999686), (0, 0),0
(2.0, 12.719999999999686), (0, 0),0
(3.0, 12.719999999999686), (0, 0),0
(-3.0, 13.720000000000041), (0, 0),0
(-2.0, 13.720000000000041), (0, 0),0
(-1.0, 13.720000000000041), (0, 0),0
(0.0, 13.720000000000041), (0, 0),0
(1.0, 13.720000000000041), (0, 0),0
(2.0, 13.720000000000041), (0, 0),0
(3.0, 13.720000000000041), (0, 0),0
(-3.0, 14.720000000000397), (0, 0),0
(-2.0, 14.720000000000397), (0, 0),0
(-1.0, 14.720000000000397), (0, 0),0
(0.0, 14.720000000000397), (0, 0),0
(1.0, 14.720000000000397), (0, 0),0
(2.0, 14.720000000000397), (0, 0),0
(3.0, 14.720000000000397), (0, 0),0
