(-3.0, 8.854999999999665), (0, 0),0
(-2.0, 8.854999999999665), (0, 0),0
(-1.0, 8.854999999999665), (0, 0),0
(0.0, 8.854999999999665), (0, 0),0
(1.0, 8.854999999999665), (0, 0),0
(2.0, 8.854999999999665), (0, 0),0
(3.0, 8.854999999999665), (0, 0),0
(-3.0, 9.854999999999665), (0, 0),0
(-2.0, 9.854999999999665), (0, 0),0
(-1.0, 9.854999999999665), (0, 0),0
(0.0, 9.854999999999665), (0, 0),0
(1.0, 9.854999999999665), (0, 0),0
(2.0, 9.854999999999665), (0, 0),0
(3.0, 9.854999999999665), (0, 0),0
(-3.0, 10.854999999999665), (0, 0),0
(-2.0, 10.854999999999665), (0, 0),0
(-1.0, 10.854999999999665), (0, 0),0
(0.0, 10.854999999999665), (0, 0),0
(1.0, 10.854999999999665), (0, 0),0
(2.0, 10.854999999999665), (0, 0),0
(3.0, 10.854999999999665), (0, 0),0
(-3.0, 11.854999999999665), (0, 0),0
(-2.0, 11.854999999999665), (0, 0),0
(-1.0, 11.854999999999665), (0, 0),0
(0.0, 11.854999999999665), (0, 0),0
(1.0, 11.854999999999665), (0, 0),0
(2.0, 11.854999999999665), (0, 0),0
(3.0, 11.854999999999665), (0, 0),0
(-3.0, 12.854999999999665), (0, 0),0
(-2.0, 12.854999999999665), (0, 0),0
(-1.0, 12.854999999999665), (0, 0),0
(0.0, 12.854999999999665), (0, 0),0
(1.0, 12.854999999999665), (0, 0),0
(2.0, 12.854999999999665), (0, 0),0
(3.0, 12.854999999999665), (0, 0),0
(-3.0, 13.854999999999665), (0, 0),0
(-2.0, 13.854999999999665), (0, 0),0
(-1.0, 13.854999999999665), (0, 0),0
(0.0, 13.854999999999665), (0, 0),0
(1.0, 13.854999999999665), (0, 0),0
(2.0, 13.854999999999665), (0, 0),0
(3.0, 13.854999999999665), (0, 0),0
(-3.0, 14.85500000000002), (0, 0),0
(-2.0, 14.85500000000002), (0, 0),0
(-1.0, 14.85500000000002), (0, 0),0
(0.0, 14.85500000000002), (0, 0),0
(1.0, 14.85500000000002), (0, 0),0
(2.0, 14.85500000000002), (0, 0),0
(3.0, 14.85500000000002), (0, 0),0
(-3.0, 15.855000000000375), (0, 0),0
(-2.0, 15.855000000000375), (0, 0),0
(-1.0, 15.855000000000375), (0, 0),0
(0.0, 15.855000000000375), (0, 0),0
(1.0, 15.855000000000375), (0, 0),0
(2.0, 15.855000000000375), (0, 0),0
(3.0, 15.855000000000375), (0, 0),0
(-3.0, 16.855000000000427), (0, 0),0
(-2.0, 16.855000000000427), (0, 0),0
(-1.0, 16.855000000000427), (0, 0),0
(0.0, 16.855000000000427), (0, 0),0
(1.0, 16.855000000000427), (0, 0),0
(2.0, 16.855000000000427), (0, 0),0
(3.0, 16.855000000000427), (0, 0),0
